<?xml version="1.0" encoding="utf-8"?>
<!-- Generator: Adobe Illustrator 22.0.0, SVG Export Plug-In . SVG Version: 6.00 Build 0)  -->
<svg version="1.1" id="Слой_1" xmlns="http://www.w3.org/2000/svg" xmlns:xlink="http://www.w3.org/1999/xlink" x="0px" y="0px"
	 viewBox="0 0 1920 1920" style="enable-background:new 0 0 1920 1920;" xml:space="preserve">
<style type="text/css">
	.st0{fill:#D9D9D9;}
	.st1{fill:url(#HandL-Shadow5_1_);}
	.st2{fill:#333333;}
	.st3{opacity:0.102;enable-background:new    ;}
	.st4{opacity:0.502;fill:url(#Body-Shadow6_1_);enable-background:new    ;}
	.st5{opacity:0.502;fill:url(#HandR-Shadow4_1_);enable-background:new    ;}
	.st6{opacity:0.302;fill:url(#Body-Shadow8_1_);enable-background:new    ;}
	.st7{fill:url(#Body-Shadow5_1_);}
	.st8{fill:#BFBFBF;}
	.st9{fill:#CCCCCC;}
	.st10{fill:#A6A6A6;}
	.st11{opacity:0.4;fill:url(#FootL-Shadow3_1_);enable-background:new    ;}
	.st12{opacity:0.502;fill:url(#FootL-Shadow2_1_);enable-background:new    ;}
	.st13{opacity:0.149;enable-background:new    ;}
	.st14{opacity:0.502;fill:url(#FootR-Shadow2_1_);enable-background:new    ;}
	.st15{fill:#025F1D;}
	.st16{opacity:0.2;fill:url(#HandR-Shadow_1_);enable-background:new    ;}
	.st17{fill:url(#HandR-Shadow3_1_);}
	.st18{opacity:0.2;fill:url(#HandL-Shadow3_1_);enable-background:new    ;}
	.st19{opacity:0.702;fill:url(#HandL-Shadow2_1_);enable-background:new    ;}
	.st20{opacity:0.2;fill:url(#HandL-Shadow4_1_);enable-background:new    ;}
	.st21{opacity:0.2;fill:url(#HandL-Shadow_1_);enable-background:new    ;}
	.st22{fill:url(#HandR-Shadow10_1_);}
	.st23{fill:url(#HandR-Shadow11_1_);}
	.st24{fill:#B3B3B3;}
	.st25{fill:url(#Gun-Shadow2_1_);}
	.st26{fill:#F6EB61;}
	.st27{opacity:0.6;fill:url(#TubesL-Shadow_1_);enable-background:new    ;}
	.st28{opacity:0.702;fill:url(#TubesR-Shadow_1_);enable-background:new    ;}
	.st29{fill:#545454;}
	.st30{opacity:0.6;fill:url(#Glass6_1_);enable-background:new    ;}
	.st31{opacity:0.8;fill:url(#Glass5_1_);enable-background:new    ;}
	.st32{opacity:0.4;fill:url(#Glass4_1_);enable-background:new    ;}
	.st33{fill:url(#Glass3_1_);}
	.st34{fill:url(#Glass7_1_);}
	.st35{fill:url(#Glass2_1_);}
	.st36{opacity:0.6;fill:url(#Body-Shadow4_1_);enable-background:new    ;}
	.st37{opacity:0.4;fill:url(#Gun-Shadow4_1_);enable-background:new    ;}
	.st38{fill:url(#Body-Shadow11_1_);}
	.st39{opacity:0.502;fill:url(#Gun-Shadow5_1_);enable-background:new    ;}
	.st40{fill:url(#Body-Shadow10_1_);}
	.st41{fill:url(#HandR-Shadow9_1_);}
	.st42{fill:url(#HandR-Shadow12_1_);}
	.st43{opacity:0.302;fill:url(#HandR-Shadow13_1_);enable-background:new    ;}
	.st44{opacity:0.302;fill:url(#HandR-Shadow8_1_);enable-background:new    ;}
	.st45{opacity:0.302;fill:url(#HandR-Shadow7_1_);enable-background:new    ;}
	.st46{opacity:0.302;fill:url(#HandR-Shadow6_1_);enable-background:new    ;}
	.st47{fill:url(#HandR-Shadow2_1_);}
	.st48{opacity:0.302;fill:url(#HandR-Shadow5_1_);enable-background:new    ;}
	.st49{opacity:0.6;fill:url(#HandR-Shadow16_1_);enable-background:new    ;}
	.st50{opacity:0.502;fill:url(#HandR-Shadow15_1_);enable-background:new    ;}
	.st51{opacity:0.502;fill:url(#HandR-Shadow14_1_);enable-background:new    ;}
	.st52{fill:url(#HandR-Shadow17_1_);}
	.st53{fill:url(#HandR-Shadow18_1_);}
	.st54{opacity:0.6;fill:url(#Body-Shadow3_1_);enable-background:new    ;}
	.st55{opacity:0.702;fill:url(#FootR-Shadow_1_);enable-background:new    ;}
	.st56{opacity:0.502;fill:url(#Body-Shadow2_1_);enable-background:new    ;}
	.st57{opacity:0.502;fill:url(#Body-Shadow_1_);enable-background:new    ;}
	.st58{opacity:0.502;enable-background:new    ;}
	.st59{opacity:0.6;fill:url(#Foot-Shadow_1_);enable-background:new    ;}
	.st60{fill:none;stroke:#180D24;stroke-width:5;}
	.st61{fill:none;stroke:#180D24;stroke-width:5;stroke-linecap:round;}
</style>
<path id="Fill-All" class="st0" d="M1292,419c0,0,191.5,69.7,191.5,267.8c-0.7,71.8-59,88.7-70.7,93.4c3.3,61.4,24,187.1,1.1,262.1
	c17.1,52.4,27.4,79.5,34.2,123.1c7.9,5.9,21.4,9.5,23.9,20.5s6.8,68.4,6.8,68.4s15.7,9.8,18.2,26.2c2.5,16.4,15,119.7-9.1,241.6
	c-5.7,11.9-10.4,20.6-13.7,23.9c6.4,23.1,27.4,48.9,27.4,120.8s-13.3,71.8-4.6,107.1c16.6,14.8,29.6,23.7,29.6,52.4
	c0,18.2-31.9,17.1-46.7,17.1c-14.8,0-32.3-23.5-36.5-34.2c-23.7,8.3-65.9,13.2-87.7,5.7c-11.6-5.7-14.5-19.4-16-23.9
	c-12.9-0.3-31.3-5.1-41-34.2c-19.1-2.1-34.6-6.6-37.6-52.4s16.8-68.4,30.8-68.4c14,0,15.4,9.5,17.1,13.7c0.7-0.2,2.1-1.4,2.3-2.3
	c3.2-17.9,7.6-67.3,23.9-85.5c-17.4-21.9-52.9-52.2-101.4-249.6c-3.5-15.3,3.9-28.1,10.3-30.8c-5.6-23.2-19.6-76.8,9.1-90
	c-15.6-26-76.6-105.4-57-184.6c-10.7-31-24.7-107.7-30.8-137.9c-0.5-2.3-1.5-0.9-2.3-1.1c1.5,55.6,10.1,81.1-4.6,156.1
	c10.6,35.3,22.7,79.5-6.8,183.5c15.8,49.5,5.1,133.7-70.7,157.3c2.7,15.8,17.1,107.1,17.1,107.1l50.1,47.9c0,0,58.6,129,63.8,140.2
	c5.2,11.2,3.5,17.4-14.8,19.4c-18.3,1.9-166.3,19.5-174.4,20.5s-17.5,0.9-31.9-21.7s-104.8-166.4-104.8-166.4l-11.4,1.1
	c0,0-28.8-52.1-35.3-70.7c-6.5-18.6,0.8-121.5,50.1-140.2c4.4-6.7,10.3-17.1,10.3-17.1s-21.7-21.8-16-77.5c-26.6-1.9-38.6,3.8-57-8
	c-2.2,21.3-13.1,58.1-28.5,80.9c-12.3,78.3-30.8,121-137.9,120.8c6.4,28.4,17.1,80.9,17.1,80.9l38.7,63.8l59.3,147
	c0,0,5.5,10.7,3.4,17.1c-1.9,6.2-11.4,8-11.4,8s-176.1,12.3-207.3,14.5c-4,0.2-5.1-0.6-6.5-3.6c-12.3-26.7-82.5-178.3-82.5-178.3
	s-11.7,5.5-22.8-18.2s-38.7-72.7-18.2-137.9s45-71.3,52.4-72.9c1.6-5.7,2.8-12.4,3.8-18.2c1.3-8.2,1.9-12.5,1.9-12.5
	s-5.2-1-12.9-1.1c-10.9-0.2-24.5-5.8-36.1-26.2c-10.5-41.3-14.6-66.8,6.8-134.5c-7.6-60.5-33.8-165-35.3-238.2
	c-20.9-22.7-32.3-59.3-25.1-109.4s36.8-71.2,46.7-74.1c8.1-26.8,9.5-47.2,22.8-78.6c-11.2-8.7-21.9-24.3-23.9-34.2
	c7.6-55.6,7.2-241.7,163-280.3c10.5-20.4,14.6-59.4,33-76.4c7.4-6.8,47.5-53.7,116.2-83.2c27.6-11.9,56.2-24.6,90-29.6
	c32.8-4.8,70.7-1.9,104.8-1.1c63,1.5,115.1-3.1,177.8,51.3c24.6,0.1,44.4-2.3,44.4-2.3l10.3,12.5l238.2-8l-4.6,20.5l157.3,9.1
	l-167.5,196l-87.7-10.3l-12.5,21.7l-84.3-10.3l-16-23.9l-12.5-1.1c0,0,11.2,18,14.8,42.2c14.4,1.1,44.3,8.8,49,16
	c8-9.2,17.9-17.7,20.5-18.2C1272.3,419.3,1292,419,1292,419z M577.5,838.3c3,4.1,7.9,26.8,10.3,46.7c4.6-17,14.5-32,19.4-37.6
	c0.2-5.5,0.8-35.3,1.1-41C597.8,825.5,585.2,833.8,577.5,838.3z"/>
<linearGradient id="HandL-Shadow5_1_" gradientUnits="userSpaceOnUse" x1="411.1125" y1="304.7493" x2="411.1125" y2="122.415" gradientTransform="matrix(1 0 0 1 0 586)">
	<stop  offset="0" style="stop-color:#BFBFBF"/>
	<stop  offset="1" style="stop-color:#E6E6E6"/>
</linearGradient>
<path id="HandL-Shadow5" class="st1" d="M425.9,881.6c-4.6-13.1-18.2-95.7,12.5-148.1c-3.5-15.3-8-25.1-8-25.1s-42.5,16.4-46.7,98
	c3.8,64.2,25.3,81.9,28.5,84.3C416.6,887.8,417.4,887.1,425.9,881.6z"/>
<path id="Paint-Black" class="st2" d="M513.7,682.2c5.6,1,40.1,11.4,44.4,14.8c-2.8,9.6-10.3,30.8-10.3,30.8s-36.9-13.2-44.4-14.8
	C505.9,701.6,502.4,705.6,513.7,682.2z M486.3,760.8l47.9,16l-6.8,31.9c0,0-42.7-8.7-49-16C484.2,770.8,486.3,760.8,486.3,760.8z
	 M1228.2,847.4c5.6,0,60.3,5.7,63.8,5.7c0.5,6,0.8,31.8,1.1,37.6c-8.5,1.9-59.6-2.1-63.8-4.6C1229.1,874.2,1228.4,867,1228.2,847.4z
	 M1237.3,966c8.3,1.6,58.5,5.7,63.8,5.7c0.8,9,0.6,33.4,1.1,38.7c-11.9,0.7-56.3-1.5-62.7-4.6C1238,989.6,1237,976.8,1237.3,966z
	 M1391.2,1177.9c-5.9,14.1-49.1,27.7-57-5.7c-7.9-33.4,17.8-46.8,26.2-49C1405.2,1119.4,1399.6,1169,1391.2,1177.9z M1353.6,1155.1
	c-0.6,6.6,2.8,17.5,12.5,18.2s12.9-7.3,14.8-17.1s-10.3-16.6-16-14.8C1358.5,1143.5,1354.1,1148.5,1353.6,1155.1z M614,1729.5
	l9.1-104.8l63.8-5.7l41,101.4L614,1729.5z M1067.5,1695.3l-3.4-109.4l61.5-5.7l39.9,103.7L1067.5,1695.3z M810,425.8
	c4.4-7.9,23.6-22.2,43.3-10.3c1.4,10.6,4.6,21.7,4.6,21.7s-27.8-10.1-44.4,9.1C811.7,434.5,810.7,431.3,810,425.8z M771.2,325.5
	c4.3-32.3,29.6-28.9,35.3-28.5c1.8,0.2,3.3,4,9.1,16c-30.1-5.7-33.7,20.3-34.2,28.5C776.7,333.6,776.2,334.5,771.2,325.5z
	 M1198.6,445.2c-11.2-9.6-26.6,0.5-33,4.6c-0.3-5.6-3.2-14.1-4.6-23.9c6-10.3,25.2-11.5,33-10.3
	C1199.6,427.1,1198.2,435.7,1198.6,445.2z"/>
<path id="Foot-Shadow2" class="st3" d="M1082.3,1360.3c-23.7,1.6-68.4,8.3-84.3-34.2c-19.9-0.1-62.7-5.2-98-39.9
	c-5.8,10.7-11.5,16.9-14.8,18.2c-3.3,1.4-38.9,22.8-46.7,94.6c-3,40.2,4.8,52,6.8,55.8c2.1,3.9,30.8,58.1,30.8,58.1l11.4-1.1
	l103.7,166.4c0,0,11.6,16.9,17.1,18.2c-0.2-17.9-3.4-159.5-3.4-159.5l-41-54.7l-6.8-71.8l21.7-23.9l87.7-5.7l21.7,21.7
	C1088,1402.4,1084.6,1377.5,1082.3,1360.3z M631.1,1387.6l-75.2,3.4l-20.5,27.4l3.4,79.8l27.4,69.5l-12.5,160.7l-80.9-176.6
	c0,0-11.6,3.6-20.5-13.7c-8.9-17.3-24.7-52.5-27.4-74.1c-2.6-21.5-0.9-60.2,11.4-85.5s26.7-53.3,45.6-55.8c1.8-5.4,2.7-5.5,8-33
	c10.7,0.1,38.1,1.1,52.4-4.6c6,10.4,38.1,45.6,72.9,55.8c0.6,6.2,1.9,19.7,5.7,29.6C624.8,1381,631.1,1387.6,631.1,1387.6z"/>
<linearGradient id="Body-Shadow6_1_" gradientUnits="userSpaceOnUse" x1="909.1132" y1="622.639" x2="909.1132" y2="530.3881" gradientTransform="matrix(1 0 0 1 0 586)">
	<stop  offset="0" style="stop-color:#4D4D4D"/>
	<stop  offset="1" style="stop-color:#808080"/>
</linearGradient>
<path id="Body-Shadow6" class="st4" d="M773.5,1116.4c10,10.5,20.4,38.9,28.5,54.7s24.8,28.4,29.6,30.8c4.8,2.4,20.1,10.7,84.3,4.6
	c67.3-13.2,98.2-73,128.8-86.6c-20.2,6-71,25.3-125.4,27.4C864.9,1149.2,806.9,1134.2,773.5,1116.4z"/>
<linearGradient id="HandR-Shadow4_1_" gradientUnits="userSpaceOnUse" x1="1181.4167" y1="529.0927" x2="1258.568" y2="504.0253" gradientTransform="matrix(1 0 0 1 0 586)">
	<stop  offset="0.49" style="stop-color:#000000"/>
	<stop  offset="1" style="stop-color:#000000;stop-opacity:0"/>
</linearGradient>
<path id="HandR-Shadow4" class="st5" d="M1270.4,1156.3c-3.5,7.5-17.1,35.3-17.1,35.3s-76.2-101.7-57-181.2
	c11.7,4.8,30.8,12.5,30.8,12.5S1230.4,1105.6,1270.4,1156.3z"/>
<linearGradient id="Body-Shadow8_1_" gradientUnits="userSpaceOnUse" x1="964.8842" y1="84.0026" x2="939.6208" y2="-398.0495" gradientTransform="matrix(1 0 0 1 0 586)">
	<stop  offset="0" style="stop-color:#000004"/>
	<stop  offset="0.5" style="stop-color:#000000;stop-opacity:0"/>
</linearGradient>
<path id="Body-Shadow8" class="st6" d="M1048.1,783.6c38.9-8.4,82.4-14.8,126.5-58.1c-4.9-42.2-12-115.2,1.1-152.7
	c-10.5-1.6-21.8-4.6-19.4-12.5c24.8-66-0.3-171.6-11.4-184.6c-4-0.3-8,0-8,0l-13.7,17.1l-70.7-13.7l-12.5-18.2l-54.7-6.8l-34.2,31.9
	l-26.2-4.6c0,0-28.4-36.9-38.7-49c-9.9,0.6-50.7,4.4-55.8,6.8c25,50.3,33.8,139.5,30.8,214.2c-2.3,27-52.9,33.6-51.3-5.7
	c7.3-36,16-111.7-26.2-201.7c-28.1,8.5-52.2,16.3-57,20.5c10.7,10.4,59.1,137,6.8,245c-12.2,17.5-21.2,31.1-54.7,37.6
	c-3.4,7.2-14.2,35.6-17.1,43.3c20.2,16,45,38.7,86.6,57c35.2,15.5,82.7,27.1,148.1,35.3c12.5,18.2,19.8,25.6,31.9,27.4
	c12.1,1.7,69.7,1.9,75.2,2.3C1009.2,814.7,1030.9,805.6,1048.1,783.6z M1182.6,379.1c3.6-0.5,12.5,1.1,12.5,1.1l14.8,25.1l45.6,5.7
	c0,0-37.5,49.8-57,93.4C1200.7,460.2,1203,419.5,1182.6,379.1z"/>
<radialGradient id="Body-Shadow5_1_" cx="601.0969" cy="62.3073" r="564.963" gradientTransform="matrix(1 0 0 1 0 586)" gradientUnits="userSpaceOnUse">
	<stop  offset="0" style="stop-color:#000000"/>
	<stop  offset="0.398" style="stop-color:#000000;stop-opacity:0"/>
</radialGradient>
<path id="Body-Shadow5" class="st7" d="M677.8,650.3c-3.2,7.9-17.1,42.2-17.1,42.2s55.7,47.4,116.2,68.4
	c32.9,11.4,74.3,18.9,121.9,22.8c24.6-119.3,12.8-265.2,16-284.9c-35.7-2.5-51.9,0.6-52.4,16c-0.6,15.4-0.9,42.2-4.6,47.9
	c-3.6,5.7-33,29.3-47.9-6.8c2.2-19.1,13.3-68.1-2.3-144.7c-2.7-13.2-59,8.2-54.7,34.2c4.3,26,10,86.6-6.8,135.6
	C729.3,629.8,716.4,640.2,677.8,650.3z"/>
<path id="Knee" class="st8" d="M699.4,1282.8l79.8-5.7l-26.2,90l-79.8,6.8L699.4,1282.8z M1108.5,1328.4l-65,2.3l23.9-74.1l67.2-2.3
	L1108.5,1328.4z"/>
<path id="Knee3" class="st9" d="M698.3,1282.8c0,0-12.8-45.5-20.5-68.4c-72,40.8-73.3,151-46.7,172.1c14.4-4.1,42.2-12.5,42.2-12.5
	L698.3,1282.8z M790.6,1226.9c-2.6,11.5-10.3,52.4-10.3,52.4l-27.4,87.7c0,0,1.6,7,4.6,12.5C786.2,1356.7,815.2,1264.6,790.6,1226.9
	z M1047,1191.6l20.5,65l-25.1,74.1l-30.8,16c0,0-11.5-10-16-28.5C987.4,1283.8,990.7,1226.2,1047,1191.6z M1153,1211
	c-4.7,11.2-17.1,45.6-17.1,45.6l-26.2,69.5l9.1,19.4C1118.8,1345.4,1171.7,1306.8,1153,1211z"/>
<path id="Knee2" class="st10" d="M674.4,1375.1l-45.6,11.4c0,0,10.6,13.4,28.5,16c30.7,4.3,87.1-8.8,101.4-23.9
	c-2.4-5-5.7-12.5-5.7-12.5L674.4,1375.1z M1108.5,1327.2l-66.1,4.6l-33,14.8c0,0,61,33.4,108.3-1.1
	C1113.6,1334.3,1108.5,1327.2,1108.5,1327.2z"/>
<path id="Knee4" class="st0" d="M698.3,1281.6l-19.4-67.2c0,0,68.7-25.6,112.8,11.4c-6.7,27.7-12.5,51.3-12.5,51.3L698.3,1281.6z
	 M1048.1,1192.7l19.4,63.8l68.4-1.1l16-44.4c0,0-5.9-27.9-53.6-30.8C1052.4,1180.1,1048.1,1192.7,1048.1,1192.7z"/>
<radialGradient id="FootL-Shadow3_1_" cx="506.5464" cy="600.5344" r="286.2638" gradientTransform="matrix(1 0 0 1 0 586)" gradientUnits="userSpaceOnUse">
	<stop  offset="0.402" style="stop-color:#000000"/>
	<stop  offset="0.504" style="stop-color:#000000;stop-opacity:0"/>
</radialGradient>
<path id="FootL-Shadow3" class="st11" d="M640.2,1143.7c15.5,14.5,34.6,58,38.7,71.8c4.1,13.8,20.5,68.4,20.5,68.4l-25.1,91.2
	l-12.5,29.6l17.1,78.6l-141.3,12.5l-65,55.8c0,0-21.3,16-46.7-80.9c-7.6-38.2,3.8-74.2,11.4-94.6c17.1-45.5,41.6-53.1,46.7-54.7
	c3.1-16.2,5.7-30.8,5.7-30.8s43.8,1.8,83.2-16C618.2,1254.5,657.7,1199.6,640.2,1143.7z"/>
<radialGradient id="FootL-Shadow2_1_" cx="729.4568" cy="568.8184" r="539.1558" gradientTransform="matrix(1 0 0 1 0 586)" gradientUnits="userSpaceOnUse">
	<stop  offset="0.396" style="stop-color:#000000"/>
	<stop  offset="0.601" style="stop-color:#000000;stop-opacity:0"/>
</radialGradient>
<path id="FootL-Shadow2" class="st12" d="M615.1,1340.9c-30.8-12-62.3-29.7-72.9-54.7c-19.4,1.7-25.2,4.4-52.4,3.4
	c-3.1,22.2-17.1,54.4-12.5,87.7c4.6,33.4,11.7,128.4-4.6,173.2c10.7,24.8,199.2-46.4,206.3-67.2c-7.1-31-17.1-80.9-17.1-80.9
	S621.6,1405.2,615.1,1340.9z"/>
<path id="FootL-Shadow" class="st13" d="M678.9,1483.3l-17.1-79.8c0,0-21.9-3.4-29.6-14.8c-18.3,0.3-75.2,2.3-75.2,2.3l-22.8,26.2
	l4.6,79.8L678.9,1483.3z"/>
<path id="FootR-Shadow3" class="st13" d="M1099.4,1470.8l-11.4-67.2l-21.7-22.8l-87.7,5.7l-21.7,25.1l5.7,72.9L1099.4,1470.8z"/>
<radialGradient id="FootR-Shadow2_1_" cx="1055.1219" cy="589.1647" r="439.8816" gradientTransform="matrix(1 0 0 1 0 586)" gradientUnits="userSpaceOnUse">
	<stop  offset="0.396" style="stop-color:#000000"/>
	<stop  offset="0.601" style="stop-color:#000000;stop-opacity:0"/>
</radialGradient>
<path id="FootR-Shadow2" class="st14" d="M900,1286.2c17.3,15,48.9,38.2,99.1,38.7c9.3,17.1,14.7,40,82.1,35.3
	c3.2,22.1,17.1,111.7,17.1,111.7l-184.6,34.2c0,0-74.4-49.2-75.2-71.8c-0.8-22.6,1.1-104.6,49-129.9
	C894.3,1296.7,896.9,1292.6,900,1286.2z"/>
<path id="Paint-Dark" class="st15" d="M431.6,595.6C447,441.6,475.2,363,572.9,321s145.9,26.2,155,45.6
	c8.9,18.8,27.7,50.5,28.8,118.5c1.1,68.7-13,144.4-61.9,159.5c-86.4,21.3-159.1,8.8-200.5-3.2c4.4-41,8.7-89.7,20.4-103.9
	c17.3-7,60.4-20.5,60.4-20.5l12.5-36.5c0,0-77.6-22.2-106-42.2c-7.3,17-13.2,35.1-13.7,42.2c3,10.6,14.8,44.4,14.8,44.4
	s-15.8,43.5-22.8,104.4C441.5,621,441.5,615.1,431.6,595.6z M680.1,618.4l30.8-47.9l-19.4-14.8l-31.9,46.7L680.1,618.4z M673.2,542
	l-19.4-13.7l-31.9,46.7l20.5,16L673.2,542z M1293.2,419c52.3,22.8,107.1,70.8,134.5,100.3c-18.5,78.2-65.5,85-71.8,96.9
	c6.8,6.6,16.5,18.2,29.6,29.6c12.1-2.8,35.8-11.3,51.3-14.8c21.5,20.5,35.9,77,38.1,100.6c-4.6,8.7-9.9,14.1-14.1,19
	c-14,26.3-120.3,60.5-201.7,49c-84.1-12-85.6-62.4-91.2-148.1c0-52.8,9.9-107.5,42.5-168.9c12.1-22.8,28.8-42.3,54.4-63.6
	C1277.8,418.4,1283.2,419,1293.2,419z M1483.5,662.8c-20.9-52.4-19.5-53.8-22.8-63.8c0.3-1.9-1.9-21.2-3.4-31.9
	C1475.7,608.7,1478.2,617.9,1483.5,662.8z M1286.3,731.2l10.3-21.7l-46.7-25.1l-12.5,21.7L1286.3,731.2z M1214.5,748.3l47.9,25.1
	l11.4-21.7l-47.9-25.1L1214.5,748.3z"/>
<linearGradient id="HandR-Shadow_1_" gradientUnits="userSpaceOnUse" x1="1325.9238" y1="214.8208" x2="1325.9238" y2="-167.104" gradientTransform="matrix(1 0 0 1 0 586)">
	<stop  offset="0.3" style="stop-color:#000004"/>
	<stop  offset="1" style="stop-color:#000000;stop-opacity:0"/>
</linearGradient>
<path id="HandR-Shadow" class="st16" d="M1259,799.6c-84.1-12-85.6-62.4-91.2-148.1c0-50.5,9.1-102.8,38.5-161
	c12.8-25.2,27-46.6,58.5-70.3c10.6-1.4,18.8-1.3,28.5-1.1c52.3,22.8,90.1,52.2,117.5,81.6c34.8,42.2,68.9,87.7,72.8,163.4
	c2.2,43.1-0.5,93.1-69.5,117.4C1346.3,801.9,1300.7,802.4,1259,799.6z"/>
<linearGradient id="HandR-Shadow3_1_" gradientUnits="userSpaceOnUse" x1="1281.2184" y1="516.713" x2="1281.2184" y2="139.5088" gradientTransform="matrix(1 0 0 1 0 586)">
	<stop  offset="0.596" style="stop-color:#000000;stop-opacity:0"/>
	<stop  offset="1" style="stop-color:#000004"/>
</linearGradient>
<path id="HandR-Shadow3" class="st17" d="M1414,780.2c-42.5,11.4-218.8,63-238.2-54.7c-18,13.2-34,25.8-38.7,28.5
	c1.8,8.3,17.8,69.7,31.9,131.1c13.8,59.6,25.8,119.1,29.6,125.4c10.1,4.2,28.5,12.5,28.5,12.5s5.8,62,16,79.8
	c42.3-3.4,131.2,9.2,172.1-60.4C1423.3,1012,1434,954.6,1414,780.2z"/>
<linearGradient id="HandL-Shadow3_1_" gradientUnits="userSpaceOnUse" x1="662.1912" y1="178.5854" x2="405.7834" y2="109.8807" gradientTransform="matrix(1 0 0 1 0 586)">
	<stop  offset="0" style="stop-color:#000004"/>
	<stop  offset="0.5" style="stop-color:#000000;stop-opacity:0"/>
	<stop  offset="1" style="stop-color:#000004"/>
</linearGradient>
<path id="HandL-Shadow3" class="st18" d="M455.6,628.6c19.1,7.6,87.1,39,222.2,19.4c-24.4,65.8-59.4,167.5-100.3,191.5
	C507,860.3,439.4,825.6,421.4,787c7.3-31.2,15-50.7,18.2-55.8c-3.4-9.2-6.8-20.5-6.8-20.5S447,648,455.6,628.6z"/>
<linearGradient id="HandL-Shadow2_1_" gradientUnits="userSpaceOnUse" x1="541.4669" y1="259.6526" x2="555.2012" y2="42.5654" gradientTransform="matrix(1 0 0 1 0 586)">
	<stop  offset="0.596" style="stop-color:#000000;stop-opacity:0"/>
	<stop  offset="1" style="stop-color:#000004"/>
</linearGradient>
<path id="HandL-Shadow2" class="st19" d="M455.6,628.6c19.1,7.6,87.1,39,222.2,19.4c-24.4,65.8-59.4,167.5-100.3,191.5
	C507,860.3,439.4,825.6,421.4,787c7.3-31.2,15-50.7,18.2-55.8c-3.4-9.2-6.8-20.5-6.8-20.5S447,648,455.6,628.6z"/>
<linearGradient id="HandL-Shadow4_1_" gradientUnits="userSpaceOnUse" x1="411.7787" y1="384.3523" x2="588.4493" y2="365.6893" gradientTransform="matrix(1 0 0 1 0 586)">
	<stop  offset="0" style="stop-color:#000004"/>
	<stop  offset="0.5" style="stop-color:#000000;stop-opacity:0"/>
	<stop  offset="1" style="stop-color:#000004"/>
</linearGradient>
<path id="HandL-Shadow4" class="st20" d="M421.4,789.3c22,23,68.1,75.2,156.1,49c21.4,56.4,7,146.4,1.1,248.4
	c-9.3,26.3-27.8,73.4-131.1,43.3c-17-92.4-37-202.8-35.3-239.3c6.8-4.3,12.5-8,12.5-8S412,831.8,421.4,789.3z"/>
<linearGradient id="HandL-Shadow_1_" gradientUnits="userSpaceOnUse" x1="594.2134" y1="70.1838" x2="594.2134" y2="-278.4918" gradientTransform="matrix(1 0 0 1 0 586)">
	<stop  offset="0.399" style="stop-color:#000004"/>
	<stop  offset="1" style="stop-color:#000000;stop-opacity:0"/>
</linearGradient>
<path id="HandL-Shadow" class="st21" d="M461.3,629.8c19.7,8.7,113.5,44.6,233.6,14.8c48.9-15.2,62.9-90.8,61.9-159.5
	c-1.1-68-19.9-99.7-28.8-118.5c-9.1-19.4-57.2-87.6-155-45.6S447,441.6,431.6,595.6C441.8,615.4,441.5,621.1,461.3,629.8z"/>
<linearGradient id="HandR-Shadow10_1_" gradientUnits="userSpaceOnUse" x1="1250.2015" y1="660.3013" x2="1250.2015" y2="606.7405" gradientTransform="matrix(1 0 0 1 0 586)">
	<stop  offset="5.000000e-03" style="stop-color:#4D4D4D"/>
	<stop  offset="1" style="stop-color:#808080"/>
</linearGradient>
<path id="HandR-Shadow10" class="st22" d="M1262.4,1246.3c-0.3-16-3-45.4-9.1-53.6c-6.8,2.7-17.5,12.6-14.8,29.6
	C1244.2,1233.9,1248.6,1240.8,1262.4,1246.3z"/>
<linearGradient id="HandR-Shadow11_1_" gradientUnits="userSpaceOnUse" x1="1244.4276" y1="750.3288" x2="1244.4276" y2="697.9077" gradientTransform="matrix(1 0 0 1 0 586)">
	<stop  offset="5.000000e-03" style="stop-color:#4D4D4D"/>
	<stop  offset="1" style="stop-color:#808080"/>
</linearGradient>
<path id="HandR-Shadow11" class="st23" d="M1255.5,1336.3c-0.3-16-7.4-41.7-10.3-52.4c-6.8,2.7-14.1,11.5-11.4,28.5
	C1239.6,1323.9,1241.8,1330.9,1255.5,1336.3z"/>
<path id="Gun-Shadow3" class="st24" d="M1394.6,404.1l-60.4-182.3l-144.7-10.3l-47.9-21.7h-61.5l9.1,16l-53.6,2.3l-54.7-27.4
	l-57,1.1l14.8,25.1l-46.7,4.6l-72.9-22.8l-35.3,3.4l140.2,190.3l28.5,3.4l33-31.9l54.7,6.8l11.4,18.2l71.8,14.8l16-18.2l57,5.7
	l13.7,23.9l83.2,10.3l14.8-21.7L1394.6,404.1z"/>
<path id="Gun-Shadow" class="st10" d="M1334.2,220.7l229.1-14.8l-167.5,196L1334.2,220.7z"/>
<linearGradient id="Gun-Shadow2_1_" gradientUnits="userSpaceOnUse" x1="1371.7866" y1="-293.5352" x2="1508.5374" y2="-293.5352" gradientTransform="matrix(1 0 0 1 0 586)">
	<stop  offset="0" style="stop-color:#404040"/>
	<stop  offset="1" style="stop-color:#8C8C8C"/>
</linearGradient>
<path id="Gun-Shadow2" class="st25" d="M1407.1,351.7l101.4-118.5l-136.8,8L1407.1,351.7z"/>
<path id="Paint" class="st26" d="M1527.9,207l-196,13.7l-134.5-8l208.5-16L1527.9,207z M817.9,314.1c19.5,33.3,30.3,70.4,35.3,101.4
	c-23.4-11.9-38.6,3.2-43.3,9.1c-4.9-28.4-12.1-56.5-27.7-84.1C780.7,337.9,788.8,305.1,817.9,314.1z M772,324.3
	c-11.4-16.5-25.5-32-43-45.5c-16.2-7.7-16.8-19.5-12.5-27.4c4.6-8.4,14.9-12.3,30.8-5.7c25.8,12,46.4,31.8,61.5,52.4
	C796.4,297.3,775.1,299,772,324.3z M856.7,439.5c3.5,35.6,3.2,72.5,4.6,90c1.5,19.6-2.3,34.8-10.7,41.6
	c-16.9,13.4-44.6,0.8-38.2-32.5c3.6-19.3,5.7-54.8,2.2-91.2C822.8,433.8,844.3,429.8,856.7,439.5z M1195.2,415.5
	c-4.7-23-12.5-35.3-12.5-35.3l-37.6-4.6c0,0,8.8,17.2,15.5,46.6C1165.9,419.1,1182.6,412.8,1195.2,415.5z M1197.5,442.8
	c1.4,16.4,1.6,36.5-0.1,60.5c-13.8,33.2-21,64-22.8,69.5c-8.1-0.6-17.4-2.7-18.2-11.4c2.5-10.1,15.3-62.3,9.1-108.3
	C1167.9,444.8,1197.1,438,1197.5,442.8z"/>
<radialGradient id="TubesL-Shadow_1_" cx="519.7804" cy="-91.1293" r="650.2829" gradientTransform="matrix(1 0 0 1 0 586)" gradientUnits="userSpaceOnUse">
	<stop  offset="0.451" style="stop-color:#000000"/>
	<stop  offset="0.497" style="stop-color:#000000;stop-opacity:0"/>
	<stop  offset="0.55" style="stop-color:#000000"/>
</radialGradient>
<path id="TubesL-Shadow" class="st27" d="M808.8,551.2c0.3,4,7.4,21.8,19.4,23.9c13.7,2.5,27.6-0.7,31.9-20.5
	c3.3-43.2,12.8-262.1-125.4-312.2c-18.7,0.2-30.8,21.2-6.8,38.7c6.4,4.7,26.3,18.3,43.3,43.3c13.3,19.6,23.7,47.6,31.9,74.1
	C828.1,479.4,808.5,546.8,808.8,551.2z"/>
<radialGradient id="TubesR-Shadow_1_" cx="944.918" cy="-111.4687" r="502.7345" gradientTransform="matrix(1 0 0 1 0 586)" gradientUnits="userSpaceOnUse">
	<stop  offset="0.43" style="stop-color:#000000"/>
	<stop  offset="0.48" style="stop-color:#000000;stop-opacity:0"/>
	<stop  offset="0.511" style="stop-color:#000000"/>
</radialGradient>
<path id="TubesR-Shadow" class="st28" d="M1175.8,572.8c-5.6,0.1-19.5-3.2-19.4-10.3c4.3-13.7,28.1-107.5-12.5-186.9
	c14.7,1.6,38.7,4.6,38.7,4.6s23.5,38.1,16,125.4C1190.4,524,1180.9,549.7,1175.8,572.8z"/>
<path id="Glass-Fill" class="st29" d="M987.7,422.4c19.3,0,91.6-2.5,121.9,20.5c28.9,22,30.9,50.1,32.8,87
	c-15-16-78.7-58.1-227.9-10.8c0.1-4.3,0.1-8.4,0.2-12.3C916.5,437.8,968.5,422.4,987.7,422.4z M1120.8,653.8
	c-109.1,54.2-188.6,4.2-208.1-9.3c1-31.8,1.3-63.7,1.5-91.4c56.4-29.4,171.9-44.1,227.3,9.6C1139,588,1132,620.6,1120.8,653.8z
	 M1050.4,780.2c-33,42.5-61.1,35-68.4,34.2c-28.9-3.1-70.9,7.2-85.5-30.8c8.4-26.1,12.6-65.9,14.9-108.5
	c74.5,55.6,180.2,18.1,195.6,15C1092.5,724.4,1073.6,756.8,1050.4,780.2z"/>
<radialGradient id="Glass6_1_" cx="691.6704" cy="-52.0597" r="786.1835" gradientTransform="matrix(1 0 0 1 0 586)" gradientUnits="userSpaceOnUse">
	<stop  offset="0.49" style="stop-color:#FFFFFF;stop-opacity:0"/>
	<stop  offset="0.4994" style="stop-color:#FFFFFF"/>
	<stop  offset="0.513" style="stop-color:#FFFFFF;stop-opacity:0"/>
</radialGradient>
<path id="Glass6" class="st30" d="M987.7,422.4c19.3,0,91.6-2.5,121.9,20.5c28.9,22,30.9,50.1,32.8,87c-15-16-78.7-58.1-227.9-10.8
	c0.1-4.3,0.1-8.4,0.2-12.3C916.5,437.8,968.5,422.4,987.7,422.4z M1120.8,653.8c-109.1,54.2-188.6,4.2-208.1-9.3
	c1-31.8,1.3-63.7,1.5-91.4c56.4-29.4,171.9-44.1,227.3,9.6C1139,588,1132,620.6,1120.8,653.8z M1050.4,780.2
	c-33,42.5-61.1,35-68.4,34.2c-28.9-3.1-70.9,7.2-85.5-30.8c8.4-26.1,12.6-65.9,14.9-108.5c74.5,55.6,180.2,18.1,195.6,15
	C1092.5,724.4,1073.6,756.8,1050.4,780.2z"/>
<linearGradient id="Glass5_1_" gradientUnits="userSpaceOnUse" x1="1019.5394" y1="229.4035" x2="1019.5394" y2="-163.7022" gradientTransform="matrix(1 0 0 1 0 586)">
	<stop  offset="0" style="stop-color:#4D4D4D"/>
	<stop  offset="1" style="stop-color:#000000;stop-opacity:0"/>
</linearGradient>
<path id="Glass5" class="st31" d="M987.7,422.4c19.3,0,91.6-2.5,121.9,20.5c28.9,22,30.9,50.1,32.8,87c-15-16-78.7-58.1-227.9-10.8
	c0.1-4.3,0.1-8.4,0.2-12.3C916.5,437.8,968.5,422.4,987.7,422.4z M1120.8,653.8c-109.1,54.2-188.6,4.2-208.1-9.3
	c1-31.8,1.3-63.7,1.5-91.4c56.4-29.4,171.9-44.1,227.3,9.6C1139,588,1132,620.6,1120.8,653.8z M1050.4,780.2
	c-33,42.5-61.1,35-68.4,34.2c-28.9-3.1-70.9,7.2-85.5-30.8c8.4-26.1,12.6-65.9,14.9-108.5c74.5,55.6,180.2,18.1,195.6,15
	C1092.5,724.4,1073.6,756.8,1050.4,780.2z"/>
<linearGradient id="Glass4_1_" gradientUnits="userSpaceOnUse" x1="1019.5394" y1="229.4035" x2="1019.5394" y2="-163.7022" gradientTransform="matrix(1 0 0 1 0 586)">
	<stop  offset="0" style="stop-color:#000000"/>
	<stop  offset="0.5" style="stop-color:#000000;stop-opacity:0"/>
</linearGradient>
<path id="Glass4" class="st32" d="M987.7,422.4c19.3,0,91.6-2.5,121.9,20.5c28.9,22,30.9,50.1,32.8,87c-15-16-78.7-58.1-227.9-10.8
	c0.1-4.3,0.1-8.4,0.2-12.3C916.5,437.8,968.5,422.4,987.7,422.4z M1120.8,653.8c-109.1,54.2-188.6,4.2-208.1-9.3
	c1-31.8,1.3-63.7,1.5-91.4c56.4-29.4,171.9-44.1,227.3,9.6C1139,588,1132,620.6,1120.8,653.8z M1050.4,780.2
	c-33,42.5-61.1,35-68.4,34.2c-28.9-3.1-70.9,7.2-85.5-30.8c8.4-26.1,12.6-65.9,14.9-108.5c74.5,55.6,180.2,18.1,195.6,15
	C1092.5,724.4,1073.6,756.8,1050.4,780.2z"/>
<radialGradient id="Glass3_1_" cx="1085.5909" cy="68.2334" r="76.5394" gradientTransform="matrix(1 0 0 1.4235 0 454.1968)" gradientUnits="userSpaceOnUse">
	<stop  offset="0" style="stop-color:#FFFFFF;stop-opacity:0.3"/>
	<stop  offset="0.8359" style="stop-color:#FFFFFF;stop-opacity:0"/>
</radialGradient>
<path id="Glass3" class="st33" d="M987.7,422.4c19.3,0,91.6-2.5,121.9,20.5c28.9,22,30.9,50.1,32.8,87c-15-16-78.7-58.1-227.9-10.8
	c0.1-4.3,0.1-8.4,0.2-12.3C916.5,437.8,968.5,422.4,987.7,422.4z M1120.8,653.8c-109.1,54.2-188.6,4.2-208.1-9.3
	c1-31.8,1.3-63.7,1.5-91.4c56.4-29.4,171.9-44.1,227.3,9.6C1139,588,1132,620.6,1120.8,653.8z M1050.4,780.2
	c-33,42.5-61.1,35-68.4,34.2c-28.9-3.1-70.9,7.2-85.5-30.8c8.4-26.1,12.6-65.9,14.9-108.5c74.5,55.6,180.2,18.1,195.6,15
	C1092.5,724.4,1073.6,756.8,1050.4,780.2z"/>
<radialGradient id="Glass7_1_" cx="1080.6207" cy="-210.5601" r="66.7675" gradientTransform="matrix(0.9996 2.783527e-02 -1.627034e-02 0.5843 6.267 682.5083)" gradientUnits="userSpaceOnUse">
	<stop  offset="8.803054e-02" style="stop-color:#FF0000;stop-opacity:0.4"/>
	<stop  offset="0.49" style="stop-color:#FF0000;stop-opacity:0"/>
</radialGradient>
<path id="Glass7" class="st34" d="M987.7,422.4c19.3,0,91.6-2.5,121.9,20.5c28.9,22,30.9,50.1,32.8,87c-15-16-78.7-58.1-227.9-10.8
	c0.1-4.3,0.1-8.4,0.2-12.3C916.5,437.8,968.5,422.4,987.7,422.4z M1120.8,653.8c-109.1,54.2-188.6,4.2-208.1-9.3
	c1-31.8,1.3-63.7,1.5-91.4c56.4-29.4,171.9-44.1,227.3,9.6C1139,588,1132,620.6,1120.8,653.8z M1050.4,780.2
	c-33,42.5-61.1,35-68.4,34.2c-28.9-3.1-70.9,7.2-85.5-30.8c8.4-26.1,12.6-65.9,14.9-108.5c74.5,55.6,180.2,18.1,195.6,15
	C1092.5,724.4,1073.6,756.8,1050.4,780.2z"/>
<radialGradient id="Glass2_1_" cx="974.0264" cy="-211.4353" r="66.7675" gradientTransform="matrix(0.9996 2.783527e-02 -1.627034e-02 0.5843 6.2111 684.6095)" gradientUnits="userSpaceOnUse">
	<stop  offset="5.679320e-02" style="stop-color:#FF0000;stop-opacity:0.4"/>
	<stop  offset="0.49" style="stop-color:#FF0000;stop-opacity:0"/>
</radialGradient>
<path id="Glass2" class="st35" d="M987.7,422.4c19.3,0,91.6-2.5,121.9,20.5c28.9,22,30.9,50.1,32.8,87c-15-16-78.7-58.1-227.9-10.8
	c0.1-4.3,0.1-8.4,0.2-12.3C916.5,437.8,968.5,422.4,987.7,422.4z M1120.8,653.8c-109.1,54.2-188.6,4.2-208.1-9.3
	c1-31.8,1.3-63.7,1.5-91.4c56.4-29.4,171.9-44.1,227.3,9.6C1139,588,1132,620.6,1120.8,653.8z M1050.4,780.2
	c-33,42.5-61.1,35-68.4,34.2c-28.9-3.1-70.9,7.2-85.5-30.8c8.4-26.1,12.6-65.9,14.9-108.5c74.5,55.6,180.2,18.1,195.6,15
	C1092.5,724.4,1073.6,756.8,1050.4,780.2z"/>
<path id="Body-Shadow7" class="st24" d="M660.7,692.5c14.9,8.3,93.1,84.9,235.9,91.2c11.1,17,16,26.6,38.7,28.5
	c22.8,1.9,73,4.1,76.4,2.3c18.5-10.3,26.1-19.7,36.5-29.6c25.8-7.4,83.6-28.1,91.2-33c4,21.7,25.6,131.2,29.6,149.3
	c-13.7,13.1-21.7,22.8-21.7,22.8s8,50.7,3.4,114c-22.2,28.5-28.3,35-33,38.7c-1.9,9-0.1,24-27.4,21.7c-13.4,7.4-77.9,36.6-114,39.9
	c13.4-31.5,22.7-80.5,14.8-107.1c-16.4-0.3-52.4,4.6-52.4,4.6s-18.8,79.4-68.4,108.3c-51.3-9.3-100.1-24.7-118.5-49
	c-9.3,7.3-37.9,13-31.9-18.2c-11.3-11.1-47.9-42.2-47.9-42.2s-22.9-70.9,6.8-132.2c-8.5-16.6-21.7-42.2-21.7-42.2
	s-16.6,24.2-33,58.1c-9.2-9.1-18.6-31-14.8-109.4C625,776.2,644.5,742.9,660.7,692.5z M798.6,905.6c28.1-1.1,15-38.2,2.3-37.6
	C784.3,868.8,775.3,906.5,798.6,905.6z M782.6,981.9c31.2,1.6,25.2-41.9,0-41C766.4,941.5,755.2,980.5,782.6,981.9z M1076.6,880.5
	c26-0.6,9.3-34.4-4.6-31.9C1062.8,850.3,1053.3,880.9,1076.6,880.5z M1089.2,954.6c29.9-1.8,7.7-39-1.1-38.7
	C1072.9,916.3,1068.4,955.8,1089.2,954.6z M459,1133.5l23.9,68.4l43.3-5.7c0,0,4.9-50.9,13.7-60.4c12.3-6,29.6-18.3,33-23.9
	c2.8-9.8,5.7-23.9,5.7-23.9s20.9,12.8,26.2,29.6c11.2-0.6,38.7,5.4,38.7,55.8c0,33.7-18.6,72.5-59.3,95.7
	c-20.2,11.5-49,16.9-77.5,20.5c-66.4,8.5-70.4-32.9-71.8-38.7s-10.9-65.9,11.4-119.7C451.7,1131.4,459,1133.5,459,1133.5z
	 M783.8,346c0,0-46.4,14-54.7,19.4c-10.1-15-28.4-43.3-67.2-53.6c-17-4.4-37.8-3.5-63.8,0c7.6-28.1,18.2-63.4,27.4-70.7
	c9.1-7.3,88.1-101.5,226.8-118.5c82.8-1,204.9-9.2,258.7,51.3c-45.7,1.4-290.6,12.5-290.6,12.5l-35.3,5.7l139,189.2
	c0,0,15.3,3.1,27.4,4.6c-0.8,2.3,24.7-23.1,33-31.9c23.9,2.2,8,0.7,30.8,3.4c16,14.7,46.7,31.5,54.7,49
	c-96.1-43-199.9,17.9-201.7,18.2c-21.1-40.2-29.4-66-36.5-85.5c0,0-31.3-67.3-76.4-90c-9.8-38.6-49.9-20.1-55.8-2.3
	c-6.5,19.3,10.3,52.3,42.2,43.3C759.4,303.5,783.8,346,783.8,346z M1412.8,1042.3c12.1,20.4,28.7,90.7,35.3,123.1
	c20.7,12.5,24.6,17.8,21.7,28.5c-75.2,78.3-190.1,56-207.4,51.3c-0.5-40.8-9.1-53.6-9.1-53.6s7.9-22.1,17.1-36.5
	c-8.7-6.2-23.9-41.7-27.4-52.4C1384.5,1104.1,1398.8,1059.2,1412.8,1042.3z M1366.1,1192.7c33.5,0,48.2-70.8-3.4-70.7
	C1312.2,1138.3,1332.6,1192.7,1366.1,1192.7z"/>
<radialGradient id="Body-Shadow4_1_" cx="609.4524" cy="84.5065" r="906.0763" gradientTransform="matrix(1 0 0 1 0 586)" gradientUnits="userSpaceOnUse">
	<stop  offset="0.49" style="stop-color:#000000;stop-opacity:0"/>
	<stop  offset="1" style="stop-color:#000000"/>
</radialGradient>
<path id="Body-Shadow4" class="st36" d="M896.6,784.8c-65.4-8.2-112.9-19.8-148.1-35.3c-41.6-18.2-66.4-41-86.6-57
	c2.8-7.7,13.7-36.1,17.1-43.3c33.5-6.5,42.5-20.1,54.7-37.6c52.3-108,3.9-234.6-6.8-245c4.8-4.2,28.8-12,57-20.5
	c42.2,90,33.5,165.7,26.2,201.7c-1.6,39.3,49,32.7,51.3,5.7c3.1-74.8-5.8-164-30.8-214.2c5.1-2.4,45.9-6.3,55.8-6.8
	c10.4,12.1,38.7,49,38.7,49l26.2,4.6l34.2-31.9l54.7,6.8l12.5,18.2l70.7,13.7l13.7-17.1c0,0,4-0.3,8,0
	c11.1,13,36.2,118.6,11.4,184.6c-2.4,8,8.9,10.9,19.4,12.5c-13.1,37.5-6,110.5-1.1,152.7c-44.1,43.3-87.6,49.7-126.5,58.1
	c38.1-46.2,90-126.8,95.7-242.7s-64.6-114-96.9-117.4c-32.3-3.4-135.5-19.4-132.2,94.6c-0.6,18.6-0.3,45.5-0.1,78.3
	C915,647.8,913.6,713.7,896.6,784.8z M1197.4,421.2c13.9,0.8,49,13.7,49,13.7s-28.4,25.9-47.9,69.5
	C1203.2,446.4,1199.3,434.2,1197.4,421.2z"/>
<linearGradient id="Gun-Shadow4_1_" gradientUnits="userSpaceOnUse" x1="877.5341" y1="-256.8171" x2="812.2482" y2="-500.4694" gradientTransform="matrix(1 0 0 1 0 586)">
	<stop  offset="0" style="stop-color:#000004"/>
	<stop  offset="0.5" style="stop-color:#000000;stop-opacity:0"/>
</linearGradient>
<path id="Gun-Shadow4" class="st37" d="M783.8,346c0,0-46.4,14-54.7,19.4c-10.1-15-28.4-43.3-67.2-53.6c-17-4.4-37.8-3.5-63.8,0
	c7.6-28.1,18.2-63.4,27.4-70.7c9.1-7.3,88.1-101.5,226.8-118.5c82.8-1,204.9-9.2,258.7,51.3c-45.7,1.4-290.6,12.5-290.6,12.5
	l-35.3,5.7l102.6,141.3c0,0-14.5-0.3-28.5,1.1c-13.9,1.5-27.4,4.6-27.4,4.6s-31.3-67.3-76.4-90c-9.8-38.6-49.9-20.1-55.8-2.3
	c-6.5,19.3,3.9,60.4,42.2,43.3C759.4,303.5,783.8,346,783.8,346z"/>
<linearGradient id="Body-Shadow11_1_" gradientUnits="userSpaceOnUse" x1="867.39" y1="-231.9991" x2="809.6779" y2="-447.3815" gradientTransform="matrix(1 0 0 1 0 586)">
	<stop  offset="0" style="stop-color:#4D4D4D"/>
	<stop  offset="0.104" style="stop-color:#666666"/>
	<stop  offset="0.496" style="stop-color:#666666;stop-opacity:0"/>
</linearGradient>
<path id="Body-Shadow11" class="st38" d="M753,250.3c52.1,24.3,77.5,88.9,77.5,88.9l34.2,16l44.4,52.4c0,0,50.4-11.7,49-11.4
	c-1.4,0.3,3.4-18.2,3.4-18.2l-10.3,8c0,0-15.8-2.1-26.2-4.6c-5.5-8-132-175.5-141.3-189.2c-11.3,5.5-36.5,41-36.5,41
	S756,241.4,753,250.3z"/>
<linearGradient id="Gun-Shadow5_1_" gradientUnits="userSpaceOnUse" x1="912.574" y1="-251.0498" x2="910.5101" y2="-448.1988" gradientTransform="matrix(1 0 0 1 0 586)">
	<stop  offset="0" style="stop-color:#4D4D4D"/>
	<stop  offset="0.104" style="stop-color:#666666"/>
	<stop  offset="0.496" style="stop-color:#666666;stop-opacity:0"/>
</linearGradient>
<path id="Gun-Shadow5" class="st39" d="M783.8,192.2l141.3,191.5l26.2,2.3l34.2-31.9l54.7,6.8L937.6,207l-45.6,4.6l-74.1-22.8
	L783.8,192.2z"/>
<linearGradient id="Body-Shadow10_1_" gradientUnits="userSpaceOnUse" x1="908.4947" y1="-213.8473" x2="831.0026" y2="-200.1836" gradientTransform="matrix(1 0 0 1 0 586)">
	<stop  offset="0" style="stop-color:#4D4D4D"/>
	<stop  offset="1" style="stop-color:#666666"/>
</linearGradient>
<path id="Body-Shadow10" class="st40" d="M909.1,407.6l-43.3-51.3l-34.2-16c0,0,11.4,29.6,16,45.6c7.9,10.3,10,11.5,20.5,38.7
	C883.5,416.5,909.1,407.6,909.1,407.6z"/>
<linearGradient id="HandR-Shadow9_1_" gradientUnits="userSpaceOnUse" x1="1461.4579" y1="627.2532" x2="1461.4579" y2="583.7491" gradientTransform="matrix(1 0 0 1 0 586)">
	<stop  offset="5.000000e-03" style="stop-color:#4D4D4D"/>
	<stop  offset="1" style="stop-color:#808080"/>
</linearGradient>
<path id="HandR-Shadow9" class="st41" d="M1455,1213.3c10.5-8,23.1-22.6,17.1-30.8c-6.2-5.8-10.7-14.1-22.8-12.5
	C1454.9,1181.5,1449.6,1205.7,1455,1213.3z"/>
<linearGradient id="HandR-Shadow12_1_" gradientUnits="userSpaceOnUse" x1="1488.6708" y1="726.3975" x2="1488.6708" y2="669.418" gradientTransform="matrix(1 0 0 1 0 586)">
	<stop  offset="5.000000e-03" style="stop-color:#4D4D4D"/>
	<stop  offset="1" style="stop-color:#808080"/>
</linearGradient>
<path id="HandR-Shadow12" class="st42" d="M1480,1312.4c7.4-6.8,18.7-22.1,17.1-33c-1.6-10.9-10.3-21.5-17.1-23.9
	C1480.6,1269.9,1480.3,1295.8,1480,1312.4z"/>
<linearGradient id="HandR-Shadow13_1_" gradientUnits="userSpaceOnUse" x1="1515.1125" y1="834.0135" x2="1249.0867" y2="866.6775" gradientTransform="matrix(1 0 0 1 0 586)">
	<stop  offset="0" style="stop-color:#000004"/>
	<stop  offset="0.5" style="stop-color:#000000;stop-opacity:0"/>
	<stop  offset="1" style="stop-color:#000004"/>
</linearGradient>
<path id="HandR-Shadow13" class="st43" d="M1236.2,1320.4c23.2,31,73,38.5,114,37.6c74.4-1.6,144.5-39.7,149.3-75.2
	c1.7,22.8,6.4,113.2-2.3,184.6c-4.1,34-8.5,63.4-22.8,79.8c-64.8,44.9-134.2,19.4-137.9,16
	C1332.8,1559.7,1275.1,1504.9,1236.2,1320.4z"/>
<linearGradient id="HandR-Shadow8_1_" gradientUnits="userSpaceOnUse" x1="1491.4392" y1="678.1038" x2="1248.5768" y2="707.9235" gradientTransform="matrix(1 0 0 1 0 586)">
	<stop  offset="0" style="stop-color:#000004"/>
	<stop  offset="0.5" style="stop-color:#000000;stop-opacity:0"/>
	<stop  offset="1" style="stop-color:#000004"/>
</linearGradient>
<path id="HandR-Shadow8" class="st44" d="M1480,1312.4c0.3-25.6-0.8-89-6.8-121.9c-32.6,62.7-221.2,83.4-234.8,34.2
	c-3.9,10,1.3,45.6,20.5,116.2C1281.1,1356,1390.6,1377.5,1480,1312.4z"/>
<radialGradient id="HandR-Shadow7_1_" cx="1337.7003" cy="507.9608" r="497.8912" gradientTransform="matrix(1 0 0 1 0 586)" gradientUnits="userSpaceOnUse">
	<stop  offset="0.469" style="stop-color:#000000;stop-opacity:0"/>
	<stop  offset="0.523" style="stop-color:#000000"/>
</radialGradient>
<path id="HandR-Shadow7" class="st45" d="M1237.3,1222.4c-1.3,4.2,0.3,43.1,21.7,118.5c23.5,17.7,147.9,32.7,221.1-28.5
	c1.1-27.4,0.2-89-5.7-121.9c-14.4,30.9-98.9,64-164.1,63.8C1276.6,1254.2,1247,1246.2,1237.3,1222.4z"/>
<linearGradient id="HandR-Shadow6_1_" gradientUnits="userSpaceOnUse" x1="1457.7385" y1="546.7369" x2="1245.7748" y2="589.1296" gradientTransform="matrix(1 0 0 1 0 586)">
	<stop  offset="0" style="stop-color:#000004"/>
	<stop  offset="0.5" style="stop-color:#000000;stop-opacity:0"/>
	<stop  offset="1" style="stop-color:#000004"/>
</linearGradient>
<path id="HandR-Shadow6" class="st46" d="M1253.3,1190.5c5.4,14,9.9,37.2,8,55.8c40.9,9.7,119.4,14.4,193.7-35.3
	c-2.8-29.3-11.4-95.8-39.9-166.4c-47,43.2-44.8,56.2-172.1,58.1c10.4,29.4,17.9,45.2,26.2,51.3
	C1264.8,1165.3,1261.2,1174.3,1253.3,1190.5z"/>
<linearGradient id="HandR-Shadow2_1_" gradientUnits="userSpaceOnUse" x1="1443.5045" y1="290.0408" x2="1156.2128" y2="343.4955" gradientTransform="matrix(1 0 0 1 0 586)">
	<stop  offset="0" style="stop-color:#666666"/>
	<stop  offset="0.5" style="stop-color:#BFBFBF;stop-opacity:0"/>
	<stop  offset="1" style="stop-color:#1A1A1A"/>
</linearGradient>
<path id="HandR-Shadow2" class="st47" d="M1243,1101.6c23,0.6,131.2,11.7,170.9-58.1c22.8-58.6,1-248.9,0-262.1
	c-37,8.7-223.7,63-238.2-55.8c-9.7,7.4-33.8,26.3-38.7,29.6c10.6,29.3,54.5,235,60.4,254.1c12.8,6.4,29.6,13.7,29.6,13.7
	S1229.6,1071.3,1243,1101.6z"/>
<radialGradient id="HandR-Shadow5_1_" cx="1296.7036" cy="340.3307" r="623.7748" gradientTransform="matrix(1 0 0 1 0 586)" gradientUnits="userSpaceOnUse">
	<stop  offset="0.469" style="stop-color:#000000;stop-opacity:0"/>
	<stop  offset="0.523" style="stop-color:#000000"/>
</radialGradient>
<path id="HandR-Shadow5" class="st48" d="M1253.3,1190.5c5.4,14,9.9,37.2,8,55.8c40.9,9.7,119.4,14.4,193.7-35.3
	c-2.8-29.3-11.4-95.8-39.9-166.4c-47,43.2-44.8,56.2-172.1,58.1c10.4,29.4,17.9,45.2,26.2,51.3
	C1264.8,1165.3,1261.2,1174.3,1253.3,1190.5z"/>
<path id="HandR-Fill" class="st8" d="M1335.3,1560.8c19,9.7,77.6,27.7,137.9-12.5c23.4,56,27.4,72.4,27.4,120.8
	c0,48.4-14.4,96.4,1.1,109.4c15.5,13,25.1,27.5,25.1,51.3c-3.8,14.7-39.1,13.7-43.3,13.7s-29.9-11.9-39.9-34.2
	c-18,5.1-97.8,25.8-104.8-19.4c-19.7-4.1-36.5-13.3-41-34.2c-17.4-1.6-34.9-9.9-36.5-47.9c-1.6-37.9,14.2-91.3,51.3-62.7
	C1316.2,1611.8,1321.2,1577.2,1335.3,1560.8z"/>
<linearGradient id="HandR-Shadow16_1_" gradientUnits="userSpaceOnUse" x1="1442.4412" y1="1194.3979" x2="1335.2865" y2="1194.3979" gradientTransform="matrix(1 0 0 1 0 586)">
	<stop  offset="0" style="stop-color:#000004"/>
	<stop  offset="0.302" style="stop-color:#000000;stop-opacity:0"/>
</linearGradient>
<path id="HandR-Shadow16" class="st49" d="M1427.6,1742c1,6.2,12,58.1,14.8,66.1c-0.8,4.7-35,16.5-82.1,8
	c-19.9-0.2-23.5-44.9-25.1-53.6c-1.6-8.7,54.8,21.9,61.5,16C1401.8,1761.7,1405.1,1738.6,1427.6,1742z"/>
<linearGradient id="HandR-Shadow15_1_" gradientUnits="userSpaceOnUse" x1="1408.1904" y1="1141.9521" x2="1342.0942" y2="1027.4702" gradientTransform="matrix(1 0 0 1 0 586)">
	<stop  offset="0" style="stop-color:#000004"/>
	<stop  offset="0.5" style="stop-color:#000000;stop-opacity:0"/>
</linearGradient>
<path id="HandR-Shadow15" class="st50" d="M1427.6,1740.9c-7.3-0.5-23.1-4.9-29.6,38.7c-4.3-32.3-9.2-114.3-36.5-117.4
	c0.7-18.6,20.9-38.1,25.1-41c1,11.3,15,56.8,38.7,87.7C1424.7,1717.9,1426.9,1730.3,1427.6,1740.9z"/>
<radialGradient id="HandR-Shadow14_1_" cx="1379.807" cy="801.1091" r="366.239" gradientTransform="matrix(1 0 0 1 0 586)" gradientUnits="userSpaceOnUse">
	<stop  offset="0.49" style="stop-color:#000000"/>
	<stop  offset="0.601" style="stop-color:#000000;stop-opacity:0"/>
</radialGradient>
<path id="HandR-Shadow14" class="st51" d="M1336.5,1562c9.2,6.3,73.3,29.2,137.9-14.8c15,29.2,20.3,47.2,25.1,77.5
	c-30,14-178,4.1-182.3-3.4C1318.8,1599.8,1321.3,1581.9,1336.5,1562z"/>
<radialGradient id="HandR-Shadow17_1_" cx="1530.4231" cy="1142.1732" r="251.6414" gradientTransform="matrix(1 0 0 1 0 586)" gradientUnits="userSpaceOnUse">
	<stop  offset="0.712" style="stop-color:#000000"/>
	<stop  offset="0.866" style="stop-color:#000000;stop-opacity:0"/>
</radialGradient>
<path id="HandR-Shadow17" class="st52" d="M1337.6,1678.2c-3.2-14-7.7-29.4-27.4-29.6c-19.6-0.2-19.9,39.5-19.4,47.9
	c0.6,8.3,2.6,78.1,30.8,91.2c11.1,3.8,17.1,3.4,17.1,3.4S1325.1,1726.2,1337.6,1678.2z"/>
<radialGradient id="HandR-Shadow18_1_" cx="2563.3857" cy="1523.3752" r="208.8073" gradientTransform="matrix(-0.998 -6.272873e-02 5.634103e-02 -0.8964 3933.6912 3245.7761)" gradientUnits="userSpaceOnUse">
	<stop  offset="0.7729" style="stop-color:#000000"/>
	<stop  offset="0.8884" style="stop-color:#000000;stop-opacity:0"/>
</radialGradient>
<path id="HandR-Shadow18" class="st53" d="M1298.9,1760.3c-12.1-2.1-29.4-2.8-35.3-41c-5.9-38.2,4.9-79.8,30.8-80.9
	c12.2,0.1,13.8,10.9,14.8,12.5c-5,2.3-20.7,8.1-18.2,49C1293.4,1740.8,1295.8,1743.3,1298.9,1760.3z"/>
<linearGradient id="Body-Shadow3_1_" gradientUnits="userSpaceOnUse" x1="407.9259" y1="256.8367" x2="727.0109" y2="372.9745" gradientTransform="matrix(1 0 0 1 0 586)">
	<stop  offset="0.493" style="stop-color:#000004"/>
	<stop  offset="1" style="stop-color:#000000;stop-opacity:0"/>
</linearGradient>
<path id="Body-Shadow3" class="st54" d="M897.7,784.8c-56.4-8.7-144.5-13.4-234.8-92.3c-13.6,29.6-31.2,79.8-54.7,114.8
	c-1.4,12.2-0.6,26.1-2.3,39.1c-3.2,4.8-11.2,16.1-19.1,39.4c4.2,62.1-4.3,162-8.2,199.9c12.2,6.5,19.5,22,26.2,37.6
	c4.1-1.4,34.5-7.9,39.9,49C657.4,1152.1,859.3,842.3,897.7,784.8z"/>
<linearGradient id="FootR-Shadow_1_" gradientUnits="userSpaceOnUse" x1="785.9593" y1="485.7379" x2="1026.7408" y2="625.1462" gradientTransform="matrix(1 0 0 1 0 586)">
	<stop  offset="0.497" style="stop-color:#000004"/>
	<stop  offset="1" style="stop-color:#000000;stop-opacity:0"/>
</linearGradient>
<path id="FootR-Shadow" class="st55" d="M1093.7,1097c-10.9,7.1-19.5,13.1-42.2,19.4c-43,23.8-87.2,99.4-167.5,92.3
	c-1.5,15.8-15.8,105.5,112.8,117.4c-13.4-40.7,2.5-156.6,111.7-143.6C1148,1187.2,1098.4,1109.4,1093.7,1097z"/>
<radialGradient id="Body-Shadow2_1_" cx="963.8101" cy="-258.3083" r="1023.5327" gradientTransform="matrix(1 0 0 1 0 586)" gradientUnits="userSpaceOnUse">
	<stop  offset="0.451" style="stop-color:#000000"/>
	<stop  offset="0.57" style="stop-color:#000000;stop-opacity:0"/>
</radialGradient>
<path id="Body-Shadow2" class="st56" d="M661.8,691.3c53.7,39.7,76.4,74.4,235.9,93.4c6.2,11.9,12.8,25.1,41,27.4
	c28.3,2.3,52.1,2.3,60.4,2.3c8.3,0,24.3-3.5,49-29.6c18.3-4.2,62.2-12.8,88.9-30.8c5.5,20.6,47.3,145.8,22.8,270.1
	c-10.5,17-23.1,29.5-44.4,55.8c-0.6,3.1,0,14-3.4,17.1c-3.5,3.2-12.9,2.6-18.2,1.1c-52.2,27.2-110.8,46.6-178.7,48
	c-54.9,1.1-125.1-14.8-164.3-48c-10.9,6.4-19.4,5-25.1,1.1c-5.2-3.5-6.7-15.2-5.7-22.8c-12.3-8.8-31.6-27.9-44.4-39.9
	c0,4.6-1,7.3-1.1,17.1c-5.1-4.3-47.4-28.7-57-104.8c1.9-7.2,3.4-16,8-28.5c-15.4-5.6-23.9-73.3-16.6-115.4
	C623.8,783.2,641.9,748.4,661.8,691.3z"/>
<radialGradient id="Body-Shadow_1_" cx="916.3394" cy="209.7599" r="636.8653" gradientTransform="matrix(1 0 0 1 0 586)" gradientUnits="userSpaceOnUse">
	<stop  offset="0.396" style="stop-color:#000000;stop-opacity:0"/>
	<stop  offset="0.601" style="stop-color:#000000"/>
</radialGradient>
<path id="Body-Shadow" class="st57" d="M661.8,691.3c53.7,39.7,76.4,74.4,235.9,93.4c6.2,11.9,12.8,25.1,41,27.4
	c28.3,2.3,52.1,2.3,60.4,2.3c8.3,0,24.3-3.5,49-29.6c18.3-4.2,62.2-12.8,88.9-30.8c5.5,20.6,47.3,145.8,22.8,270.1
	c-10.5,17-23.1,29.5-44.4,55.8c-0.6,3.1,0,14-3.4,17.1c-3.5,3.2-12.9,2.6-18.2,1.1c-52.2,27.2-110.8,46.6-178.7,48
	c-54.9,1.1-125.1-14.8-164.3-48c-10.9,6.4-19.4,5-25.1,1.1c-5.2-3.5-6.7-15.2-5.7-22.8c-12.3-8.8-31.6-27.9-44.4-39.9
	c0,4.6-1,7.3-1.1,17.1c-5.1-4.3-47.4-28.7-57-104.8c1.9-7.2,3.4-16,8-28.5c-15.4-5.6-23.9-73.3-16.6-115.4
	C623.8,783.2,641.9,748.4,661.8,691.3z"/>
<path id="Body-Shadow9" class="st58" d="M1112,766.5c9.1-3.4,19.6-9.3,23.9-12.5c4.6,11.7,24,88.5,28.5,111.7
	c0.9,22.8,0,39.9,0,39.9S1152.5,834.8,1112,766.5z"/>
<radialGradient id="Foot-Shadow_1_" cx="912.655" cy="255.1337" r="663.0702" gradientTransform="matrix(1 0 0 1 0 586)" gradientUnits="userSpaceOnUse">
	<stop  offset="0.381" style="stop-color:#000000"/>
	<stop  offset="0.601" style="stop-color:#000000;stop-opacity:0"/>
</radialGradient>
<path id="Foot-Shadow" class="st59" d="M1158.7,1025.2c-10.4,16.1-38.5,50.5-44.4,55.8c0.7,8,3.3,22-21.7,17.1
	c-11.3,6.7-49.1,20.9-54.7,25.1c-5.6,4.2-83.4,95.4-152.7,84.3c-1.8,22-19,105,112.8,118.5c-24.2-64,25.8-146,86.6-145.9
	c22.2-1.5,52,1.9,67.2,28.5C1161.4,1175,1185,1103.7,1158.7,1025.2z M799.7,1279.3c9.1-11.7,24.8-48.2,28.5-79.8
	c-35-19.7-35.3-83.1-77.5-103.7c-8.9,7.1-34.5,16.3-30.8-19.4c-22.7-21.8-45.6-42.2-45.6-42.2l1.1,20.5c0,0-53.6-39.3-58.1-104.8
	c3.6-18.8,5.6-25.2,8-29.6c-4.4-4.3-16.6-11.5-18.2-70.7c-5,0.8-16.5,19-19.4,39.9c0.6,48.8,0.2,106.4-9.1,194.9
	c9.1,3.5,25.5,27.1,26.2,37.6c9.8-1,34.1-0.7,39.9,46.7c1.6,43.9-28.8,73.6-31.9,77.5c-4.2,14.4-25.2,71.6-27.4,80.9
	c11.7,6.4,29.6,13.7,29.6,13.7s-2.5-112.7,80.9-132.2c26.9-6.3,50.1-1.8,66.1,1.1C795.6,1216.1,804.3,1236.4,799.7,1279.3z"/>
<path id="Line-All" class="st60" d="M767.8,1718.1c0,0-176.1,12.3-207.3,14.5c-4,0.2-5.1-0.6-6.5-3.6
	c-12.3-26.7-82.5-178.3-82.5-178.3s-11.7,5.5-22.8-18.2s-38.7-72.7-18.2-137.9s45-71.3,52.4-72.9c1.6-5.7,2.8-12.4,3.8-18.2
	c1.3-8.2,1.9-12.5,1.9-12.5s-5.2-1-12.9-1.1c-10.9-0.2-32.5-7.5-39.5-35.3c-9.2-38.9-11.2-57.7,10.3-125.4
	c-7.6-60.5-33.8-165-35.3-238.2c-20.9-22.7-32.3-59.3-25.1-109.4s36.8-71.2,46.7-74.1c8.1-26.8,9.5-47.2,22.8-78.6
	c-11.2-8.7-21.9-24.3-23.9-34.2c7.6-55.6,7.2-241.7,163-280.3c10.5-20.4,14.6-59.4,33-76.4c7.4-6.8,47.5-53.7,116.2-83.2
	c27.6-11.9,56.2-24.6,90-29.6c32.8-4.8,70.7-1.9,104.8-1.1c63,1.5,115.1-3.1,177.8,51.3c24.6,0.1,44.4-2.3,44.4-2.3l10.3,12.5
	l238.2-8l-4.6,20.5l157.3,9.1l-167.5,196l-87.7-10.3L1292,419c0,0,191.5,69.7,191.5,267.8c-0.7,71.8-59,88.7-70.7,93.4
	c3.3,61.4,24,187.1,1.1,262.1c17.1,52.4,27.4,79.5,34.2,123.1c7.9,5.9,21.4,9.5,23.9,20.5s6.8,68.4,6.8,68.4s15.7,9.8,18.2,26.2
	c2.5,16.4,15,119.7-9.1,241.6c-5.7,11.9-10.4,20.6-13.7,23.9c6.4,23.1,27.4,48.9,27.4,120.8s-13.3,71.8-4.6,107.1
	c16.6,14.8,28.5,23.7,28.5,52.4c0,18.2-30.8,17.1-45.6,17.1c-14.8,0-32.3-23.5-36.5-34.2c-23.7,8.3-65.9,13.2-87.7,5.7
	c-11.6-5.7-14.5-19.4-16-23.9c-12.9-0.3-31.3-5.1-41-34.2c-19.1-2.1-34.6-6.6-37.6-52.4s16.8-68.4,30.8-68.4
	c14,0,15.4,9.5,17.1,13.7c0.7-0.2,2.1-1.4,2.3-2.3c3.2-17.9,7.6-67.3,23.9-85.5c-17.4-21.9-54-52.2-102.6-249.6
	c-3.5-15.3,5-28.1,11.4-30.8c-5.6-23.2-19.6-76.8,9.1-90c-15.6-26-76.6-105.4-57-184.6c-10.7-31-24.7-107.7-30.8-137.9
	c-0.5-2.3-1.5-0.9-2.3-1.1c1.5,55.6,10.1,81.1-4.6,156.1c10.6,35.3,22.7,79.5-6.8,183.5c15.8,49.5,1.7,139.1-70.7,153.8
	c2.7,15.8,17.1,110.5,17.1,110.5l50.1,47.9c0,0,58.6,129,63.8,140.2c5.2,11.2,3.5,17.4-14.8,19.4c-18.3,1.9-166.3,19.5-174.4,20.5
	s-17.5,0.9-31.9-21.7s-104.8-166.4-104.8-166.4l-11.4,1.1c0,0-28.8-52.1-35.3-70.7c-6.5-18.6,0.8-121.5,50.1-140.2
	c4.4-6.7,10.3-17.1,10.3-17.1s-21.7-21.8-16-77.5c-26.6-1.9-38.6,3.8-57-8c-2.2,21.3-13.1,58.1-28.5,80.9
	c-12.3,78.3-30.8,122.2-137.9,121.9c6.4,28.4,17.1,79.8,17.1,79.8l38.7,63.8l59.3,147c0,0,5.5,10.7,3.4,17.1
	C777.3,1716.3,767.8,1718.1,767.8,1718.1z"/>
<path id="Line-HandR" class="st60" d="M1300,1759.1c-20.5-90.6-1.7-111,11.4-110.5c10.1,0.3,25.6,8.3,26.2,30.8 M1331.9,1557.4
	c22.3,25.8,112.6,17.5,143.6-11.4 M1497.1,1275.9c1.8,43.1-59.8,68.6-121.5,77.7c-63.7,9.3-131.1-2.3-142.9-44.7 M1245.3,1280.5
	c3.2,16.4,14.8,62.7,14.8,62.7 M1478.9,1314.7c2.6-20.3,2.4-41.1,1.1-66.1 M1238.5,1213.3c-3.5,35.6,53.1,46.5,112.8,36.5
	c59.7-10,124.9-40.3,121.9-63.8 M1449.3,1164.3c1.9,14,4.4,38.7,4.6,45.6 M1262.4,1244c-0.1-12.1-2.2-40.2-9.1-53.6
	c8.4-17.8,17.1-35.3,17.1-35.3s-36.4-39.8-43.3-133.3c-16.9-7.4-30.8-12.5-30.8-12.5 M1257.8,799.6c-0.7,4.7-1.9,24-2.1,51.3
	 M1256.2,889.4c0.7,24.7,2.4,52.2,5.5,79.7 M1267.6,1009.2c6.5,36.1,16.4,69.4,31.2,92.4 M1416.2,1041.2
	c-40.3,60.4-97.2,61.7-170.9,60.4 M1339.9,1791c-4.6-20.7-22.3-132.9,20.5-128.8c29.1-1,35.3,87.7,36.5,118.5c0.3,0.1,1-0.6,1.1-1.1
	c5.4-20.9,6.4-40.2,29.6-38.7"/>
<path id="Line-HandR5" class="st60" d="M1300,971.7c-9.9-0.2-57.8-3.8-65-5.7c-0.2,15.2,2.3,39.9,2.3,39.9s32.6,7.6,63.8,4.6
	C1300.3,990.2,1300.4,983.5,1300,971.7z M1290.9,852c-9.9-0.2-57.8-3.8-65-5.7c-0.2,15.2,2.3,39.9,2.3,39.9s32.6,7.6,63.8,4.6
	C1291.2,870.6,1291.3,863.9,1290.9,852z"/>
<path id="Line-HandR3" class="st60" d="M1365.9,1122.1c17.5,0,31,15,31,33.5c0,18.1-13.1,34.4-30.2,36.7
	c-18.3,2.5-34.5-11.7-35-32.3C1331.2,1139.2,1347.1,1122.1,1365.9,1122.1z"/>
<path id="Line-HandR4" class="st60" d="M1366.1,1142c7.9-0.3,14,6.3,14.1,14.6c0,8.3-6,15.6-13.8,16.3c-8,0.8-14.7-5.6-14.9-14.4
	C1351.4,1149.8,1358,1142.4,1366.1,1142z"/>
<path id="Line-HandR2" class="st61" d="M1444.7,1811.5c-9.9-20.4-20.7-80.1-20.5-102.6c-11.6-18.2-35.1-60.7-39.9-93.4
	 M1497.1,1773.9c-26.1,4.3-31,17.3-34.2,26.2"/>
<path id="Line-FootR" class="st60" d="M1165.5,1682.8l-39.9-102.6l-61.5,5.7l4.6,106 M1008.3,1695.3l-2.3-159.5l142.4-16
	 M1007.1,1539.2l-42.2-55.8l131.1-12.5 M1088,1402.4c0,0-12.6-12.8-21.7-21.7c-22.6,1.5-64.6,4.2-87.7,5.7
	c-6.6,8.1-13.3,15.2-20.9,24.7c0.9,17.7,2.5,40.9,4.9,72.1c-12.8,20.5-28.5,47.2-45.6,75.2 M927.3,1543.7L892,1489 M1114.2,1347.7
	c-14.9,16.5-80.5,20.1-102.8-2.2c-14.6-14.6-22.9-39-15.7-78.7c3.2-17.7,14.2-47.6,37.6-66.1c4.6-3.6,9.5-7,14.6-9.9
	c18.7-10.8,37.9-11.9,57.2-9.5c19,2.4,37.8,8,47.9,29.6c-7.3,24.6-16,43.3-16,43.3l-69.5,2.3l-19.4-65 M881.8,1207.6
	c93.4,8.9,136.5-83.5,176.6-93.4c18-4.4,31.1-12.9,35.3-16c9.1,2.5,24.2,4.2,21.7-18.2c14-14.9,39.3-44.8,45.6-59.3 M1147.3,1043.5
	c4.4-30.7,8.1-76.7-1.1-118.5c12.1-14,19.4-21.7,19.4-21.7s-21.3-89.9-54.7-137.9 M1137,754c3.2,9.9,26.9,97.1,30.8,126.5
	 M1012,1345c8.9-3.9,30.4-13.2,30.4-13.2l23.9-72.9 M1135.9,1256.6l-26.2,70.7l-67.2,4.6 M1117.7,1343.2l-8-18.2 M878.3,1511.8
	c51.3-55.6-19-176.8,13.7-213.1 M898.9,1283.9c10.9,13.6,44.6,39.9,98,42.2"/>
<path id="Line-Body5" class="st60" d="M863.2,517.1c9.2,8,16.3,19.7,16.3,32.9c0,23.9-19.4,43.3-43.3,43.3s-43.3-19.4-43.3-43.3
	c0-16.3,8.9-30.4,22.2-37.8 M753,248c0.5-15.7-15.4-20.7-28.5-20.5c-12.9,0.2-22.8,7.4-27.4,22.8c-3.5,12,1.7,28.3,10.3,36.5
	c9.3,9,22,7.9,31.9,3.4 M771.2,324.7c1.3-13.2,13.6-33,36.5-25.4 M819.1,315.3c-9.6-8.1-40.2-1.3-37.6,27.4 M813.4,446.4
	c12.9-14.7,35.9-13.6,44.4-7 M853.8,417.2c-4-4.6-15-6.4-24.5-5.1c-6,0.9-16.3,7.7-18.2,11.4"/>
<path id="Line-Body4" class="st60" d="M749.6,248c-21.2-10.3-32.5-3.8-34.2,6.8c-1.4,8.1,0.7,17.5,9.1,22.8
	c62.2,38.4,81.8,121.8,87.7,157.3c12,72.6-2.3,107.2-2.3,114.5c0,14.1,11.5,25.6,25.6,25.6c14.1,0,25.6-11.5,25.6-25.6
	C861.3,541.6,880.6,311.7,749.6,248z"/>
<path id="Line-FootL" class="st60" d="M553.6,1730.6l11.4-165.2l155-12.5 M676.6,1483.3l-140.2,12.5l-46.7,93.4 M477.2,1526.6
	l21.7,43.3 M566.1,1567.7l-27.4-68.4c0,0-2.7-50.7-4.3-82.3c11.4-14.5,12.3-15.5,21.4-25.9c28.9-1.4,75.2-3.5,75.2-3.5
	s10.8,13,30.8,14.8 M631.1,1386.5c-7.5-4.8-30.2-41.1-4.6-110.5c25.6-69.4,70.1-75.3,125.4-68.4c55.3,7,48.9,43.5,46.7,72.9
	 M753,1367.1l4.6,11.4 M625.4,1385.3l47.9-11.4l79.8-9.1l26.2-86.6l11.4-53.6 M827.1,1199.6c-46.8-39.1-24.3-71.7-77.5-103.7
	c-9.9,9.5-19.5,7-23.9,3.4c-4.4-3.5-10.6-12.9-4.6-22.8c-13.6-9.9-42.3-37.5-47.9-43.3c2.6,15.6,2.3,21.7,2.3,21.7
	s-50.1-32.3-59.3-107.1c4.9-16.3,6.6-22.6,9.1-28.5c-17-4.9-22.9-73.8-16-115.1 M607.1,845.2c-5.6,3.5-15.2,21.9-19.5,42.5
	 M673.2,1371.7l25.1-90c0,0-13.1-40.8-19.4-66.1 M542.2,1285c10.6,23.8,49,45.9,74.1,57 M585.5,1327.2c2.3-9.3,13.9-43.5,30-85.1
	 M644,1171.7c19.9-46.3,41.5-90.4,58.8-112.2 M694.9,1281.6l82.1-4.6 M471.5,1552.9c29.7-107.1-9.7-180.9,10.3-232.5 M726.8,1720.4
	l-39.9-102.6l-65,5.7l-8,102.6"/>
<path id="Line-All2" class="st60" d="M676.6,1048c-32.4-87.2,2.3-145.9,2.3-145.9s-14.2-27.7-21.7-42.2
	c-11.7,12.1-27.4,45.5-33,62.7 M1272.6,413.3c-31.8,17.8-62.2,64-75.6,93.8c-44.1,98-28.8,171.2-22.4,217.3
	c-46.3,46.6-103.1,53.4-128.8,60.4c-16.1,21.1-36.4,30.4-45.6,29.6s-45.9-0.6-66.1-2.3c-17.5-1.5-29.3-11.6-37.6-27.4
	C744,762.2,737.8,747.5,663,693.6c1.1-2.1,3.2-3.8,5.7-3.4c55.2,8.5,168-156.6,71.8-295.2 M733.6,611.5l17.1,12.5 M1296.6,421.2
	c-9.8-4-30.3-1.5-34.2-1.1 M1245.3,436.1c-12.3-8.8-39.7-15.6-47.9-14.8 M1174.6,726.6c18.9,105.1,163.4,75.1,240.5,53.6
	 M1473.2,730.1c-0.9-20.7-15.3-80.8-38.7-99.1c-28.6,8-50.1,14.8-50.1,14.8l-29.6-30.8c0,0,57.9-25.8,70.7-95.7 M1455,562.5
	l3.4,35.3c0,0,3.9,7.3,23.9,65 M1172.4,588.8c-12.3,3.9-28.8-4.6-30.8-23.9 M1142.7,543.2c1.5-10.4,16.8-12,19.4-11.4 M1143.9,376.8
	c35.4,79.1,20.7,159,11.6,184.6c0.1,5.1,3.9,10.5,20.3,10.3 M1181.5,381.4c-4.7-11.2,28,36.7,14.8,127.6 M1198.6,444
	c-10.3-4.1-19.8-6.8-34.2,5.7 M1161,423.5c7.3-5.2,13.9-11.9,35.3-8 M725.6,365.4c9.3-4.7,32.3-13.2,60.4-20.5 M1292,414.4
	l-83.2-10.3l-13.7-23.9l-58.1-5.7l-14.8,18.2l-70.7-13.7l-11.4-18.2l-54.7-8l-34.2,33l-27.4-4.6L782.6,191l51.3-5.7l286-10.3
	 M844.3,379.1c8.4,11.1,16.5,25.6,22.7,45.6c75.1-39.4,154.4-40.3,206.3-16c-0.3-1.3-2.6-2.2-3.4-3.4c-7.3-10.5-39.4-39.7-61.5-49
	 M951.3,384.8L817.9,189.9c0,0,0.5-1.7,2.3-1.1c13.9,4.2,72.9,23.9,72.9,23.9l91.2,140.2 M1040.2,360.8
	c-8.8-14.4-117.4-177.8-117.4-177.8 M887.5,210.4l51.3-3.4 M979.8,180.8c16,24.6,141.3,209.7,141.3,209.7 M1138.2,375.7l-106-168.7
	l54.7-1.1 M1394.6,401.9L1333,219.5l218.8-13.7 M1403.7,196.7l-215.4,12.5L1305.7,395 M1192.9,184.2l-52.4,2.3l150.4,229.1
	 M1196.3,382.5l-118.5-193.7l65-1.1 M1191.7,211.6l141.3,8 M1041.3,789.3c15.5-15.6,115.2-134.4,100.3-288.3
	c-4.4-46.3-31.5-65.8-62.7-72.9c-31.2-7.2-78.2-10.6-102.6-3.4c-24.4,7.2-58.6,18.5-62.7,84.3c-4.1,65.9,12.3,132.2-17.1,278.1
	 M729.1,740.3c-16,7.1-33.3,26.4-26.2,46.7s22.6,32.4,22.8,61.5c0.2,29.2-12.6,54.5-20.5,67.2c4-34.1,10.3-50.6,6.8-66.1
	s-31.9-38.7-29.6-71.8s19.8-45.4,29.6-49 M914.8,518.1c33.6-16.5,184.5-43.5,226.8,13.7 M1142.7,567.1
	c-15.5-31.8-117.9-64.7-229.1-14.8 M916,646.9c15.7,9.5,105.9,63,206.3,3.4 M1107.4,686.8c-24.5,14.1-111.3,39.2-196-12.5
	 M722.2,1076.5c47.7-58.8,111.7,22.4,176.6-55.8c-41.4,85.2-121.1,37.8-151.6,77.5 M773.5,1113c-8-3.8,105.2,75.7,280.3,2.3
	 M1093.7,1097c-10.7-10-29.4-50.7-75.2-17.1c-0.7-0.3-0.5-1.8,0-2.3c31.3-33.7,52.9-28.3,94.6,3.4 M976.8,1139
	c8.8-19.9,24.4-53,15.5-108c-27.6,0.5-52.4,2.3-52.4,2.3s-16.6,79.8-72.9,111.7"/>
<path id="Line-Body3" class="st60" d="M963.8,373.4c0,0-2.8,13.9-4.6,21.9 M910.8,407.1c-22.4-25.2-46.2-52-46.2-52
	s-16.5-7.9-33.7-16.1"/>
<path id="Line-HandR6" class="st60" d="M1213.4,748.3l49,25.1l10.3-22.8l-46.7-25.1L1213.4,748.3z M1236.2,706.1l47.9,25.1
	l11.4-22.8l-46.7-25.1L1236.2,706.1z"/>
<path id="Line-Gun" class="st60" d="M1369.5,241.2l140.2-9.1l-102.6,120.8L1369.5,241.2z"/>
<path id="Line-Body2" class="st60" d="M784.3,939.8c11.1,0,19.9,9.7,19.9,21.7s-8.9,21.7-19.9,21.7s-19.9-9.7-19.9-21.7
	S773.3,939.8,784.3,939.8z M800.3,868.2c9.1,0,16.4,8.1,16.4,18s-7.3,18-16.4,18c-9.1,0-16.4-8.1-16.4-18S791.2,868.2,800.3,868.2z"
	/>
<path id="Line-Body" class="st60" d="M1086.3,916.5c7.7-1.8,14.9,5.2,16.2,16c1.3,10.6-4,20.7-11.7,22.6s-14.9-5.2-16.2-16
	C1073.4,928.5,1078.7,918.3,1086.3,916.5z M1074.4,848c7.9,0.5,14.2,8.2,14.2,17.4s-6.4,16.4-14.2,16.1c-7.9-0.5-14.2-8.2-14.2-17.4
	C1060.1,854.7,1066.5,847.6,1074.4,848z"/>
<path id="Line-HandL" class="st61" d="M606,1199.6c4.1-26-1.7-56.5-2.3-76.4c28.6-10.7,49.2,36.9,36.5,75.2
	c-32.8,98.8-138.8,92.6-157.3,91.2 M591.2,314.1c155-43.5,179.1,152.6,159.5,245c-17.7,83.1-51.7,85-72.9,90
	c-45.4,119.1-73,176.9-101.4,189.2c22.6,43.4,7.2,164.3,1.1,253c-20.9,66.7-99.1,48.2-131.1,38.7 M460.1,1136.9
	c1.4,8.7,19,55.8,22.8,62.7c10.3-0.9,35.4-2.3,43.3-3.4c0.9-13.9,5.4-50.9,16-62.7 M602.6,1255.4c-38.6,4.7-29.7-140.4-27.4-159.5
	 M580.9,1085.6c19.4,20.6,21.8,30,22.8,37.6 M677.8,648c-99.6,22.7-200.2-6.7-223.4-20.5 M494.3,642.3c6.8-87.6,19.4-106,19.4-106
	l60.4-19.4c0,0,8.2-18.7,13.7-36.5c-38.1-9.8-82.7-27.7-107.1-42.2c-6,10.1-12.5,42.2-12.5,42.2s7.2,21.5,13.7,44.4
	c-10.8,32.8-19.4,83.5-21.7,102.6 M431.6,708.4c3.8,13.2,6.8,22.8,6.8,22.8s-35.1,68.7-13.7,151.6c-8.1,3.8-13.7,8-13.7,8
	 M422.5,789.3c59.3,77.6,143.2,54.5,151.6,50.1"/>
<path id="Line-HandL2" class="st60" d="M549,653.7c-2.4,3.8-10.6,20.4-17.1,36.5c-7.7-2.4-19.4-9.1-19.4-9.1l-11.4,30.8l45.6,14.8
	l11.4-30.8c0,0-20.6-4.3-25.1-5.7 M487.5,762c0,0,37.3,13,45.6,14.8c-3.5,12.8-6.8,30.8-6.8,30.8s-41.9-7.6-49-14.8
	c3.4-13.3,9.1-34.2,9.1-34.2 M522,717.6c-4.7,14.6-9.1,31.2-12.6,49.3 M504.6,802c-1.7,14.9-2.6,27.1-2.3,43.2"/>
<path id="Line-HandL3" class="st60" d="M652.7,528.4l20.5,14.8l-31.9,49l-20.5-16L652.7,528.4z M690.3,555.7l20.5,14.8l-31.9,49
	l-20.5-16L690.3,555.7z"/>
</svg>
