<?xml version="1.0" encoding="utf-8"?>
<!-- Generator: Adobe Illustrator 22.0.0, SVG Export Plug-In . SVG Version: 6.00 Build 0)  -->
<svg version="1.1" id="Слой_1" xmlns="http://www.w3.org/2000/svg" xmlns:xlink="http://www.w3.org/1999/xlink" x="0px" y="0px"
	 viewBox="0 0 1920 1920" style="enable-background:new 0 0 1920 1920;" xml:space="preserve">
<style type="text/css">
	.st0{fill:#CFCFCF;}
	.st1{opacity:0.702;fill:url(#Arm-Shadow11_1_);enable-background:new    ;}
	.st2{fill:url(#Arm-Shadow10_1_);}
	.st3{fill:url(#Head-Light_1_);}
	.st4{opacity:0.502;fill:url(#Leg-SHadow12_1_);enable-background:new    ;}
	.st5{fill:url(#Leg-SHadow3_1_);}
	.st6{fill:url(#Leg-SHadow11_1_);}
	.st7{opacity:0.502;fill:url(#Leg-SHadow10_1_);enable-background:new    ;}
	.st8{opacity:0.4;fill:url(#Arm-Shadow2_1_);enable-background:new    ;}
	.st9{opacity:0.3;fill:url(#Leg-SHadow9_1_);enable-background:new    ;}
	.st10{opacity:0.502;fill:url(#Arm-Shadow13_1_);enable-background:new    ;}
	.st11{fill:#E6E6E6;}
	.st12{fill:#D9D9D9;}
	.st13{fill:url(#Arm-Shadow5_1_);}
	.st14{fill:url(#Arm-Shadow14_1_);}
	.st15{fill:#F2F2F2;}
	.st16{fill:#BFBFBF;}
	.st17{opacity:0.6;fill:url(#Arm-Shadow8_1_);enable-background:new    ;}
	.st18{opacity:0.2;fill:url(#Arm-Shadow7_1_);enable-background:new    ;}
	.st19{opacity:0.502;fill:url(#Arm-Shadow6_1_);enable-background:new    ;}
	.st20{fill:url(#Head-Light3_1_);}
	.st21{fill:#A800A8;}
	.st22{opacity:0.502;fill:url(#Head-SHadow_1_);enable-background:new    ;}
	.st23{opacity:0.4;fill:url(#Head-SHadow2_1_);enable-background:new    ;}
	.st24{opacity:0.302;fill:url(#Head-SHadow3_1_);enable-background:new    ;}
	.st25{opacity:0.2;enable-background:new    ;}
	.st26{fill:#6E1370;}
	.st27{opacity:0.502;fill:url(#Arm-Shadow_1_);enable-background:new    ;}
	.st28{opacity:0.8;fill:url(#Arm-Shadow3_1_);enable-background:new    ;}
	.st29{display:none;opacity:0.702;fill:url(#Leg-SHadow8_1_);enable-background:new    ;}
	.st30{opacity:0.902;fill:url(#Leg-SHadow4_1_);enable-background:new    ;}
	.st31{opacity:0.502;fill:url(#Leg-SHadow15_1_);enable-background:new    ;}
	.st32{opacity:0.4;fill:url(#Leg-SHadow14_1_);enable-background:new    ;}
	.st33{opacity:0.502;fill:url(#Leg-SHadow6_1_);enable-background:new    ;}
	.st34{opacity:0.502;fill:url(#Leg-SHadow7_1_);enable-background:new    ;}
	.st35{fill:url(#Leg-SHadow17_1_);}
	.st36{opacity:0.302;fill:url(#Leg-SHadow16_1_);enable-background:new    ;}
	.st37{fill:#535353;}
	.st38{opacity:0.502;fill:url(#glass_light_1_);enable-background:new    ;}
	.st39{opacity:0.502;fill:url(#glass_light2_1_);enable-background:new    ;}
	.st40{opacity:0.502;fill:url(#glass_light3_1_);enable-background:new    ;}
	.st41{opacity:0.102;fill:url(#Leg-SHadow13_1_);enable-background:new    ;}
	.st42{opacity:0.102;fill:url(#Leg-SHadow5_1_);enable-background:new    ;}
	.st43{fill:none;stroke:#1A1A1A;stroke-width:10;stroke-linecap:round;stroke-linejoin:round;}
	.st44{fill:none;stroke:#1A1A1A;stroke-width:5;stroke-linecap:round;stroke-linejoin:round;}
</style>
<path id="Fill" class="st0" d="M1136,820c0,0-5.2,16.2,1,43c6.2,26.8,3,28.7-6,58s14.2,37.3,23,32c-12.6,30.6-1.3,35.8,10,37
	c15.2-23,47.5-54.2,40-90s-2.8-69.5-5-87c12.7-9.5,8.9-9.2,11-26c6.8-13.5,14.6-10.2,15-20c-4.1-31.1-8.4-67.1-12-80
	c-3.2-11.4-22-15-22-15s-3.2-3.1-15-9c5.8-77.5,1.9-105.2-4-118c24.8-6.4,41-40,41-67s-14-54-14-54s9.3-3,6-25s-23-33-23-33l-19,1
	l-3-6c0,0,8.6-14.8,16-29c-11.1-20-57-35-57-35l-14,25c0,0-49.4-22-66-22s-30,7-30,7s-2.6-5.5-3-17c-1.8-20.4-11-28-11-28
	s-0.5-4-11-33s-41.5-43.1-57-48c-3.8-8.2-9-16-9-16s-25.9-6.8-37-3s-8.7,2.6-16,14c-28.9,4.8-59.1,25.9-65,49s-10.3,51.9-27,71
	s-9,42-9,42s-16.2,8.3-18,8c-7.8-12-12.1-31-25-26s-69,34-69,34s-9.7-12.8-17-23c-51.8,2.3-60,40-60,40s12.3,18.3,20,30
	c-6.2,8.9-52,43.8-52,96s15,51.6,35,72c-16.2,70.5-1,125-1,136c0,23,6,30,6,30v19h-9v18h9v18h-11v20h9v18h-9v21h9l-9,370h82l23-370
	h13v-20h-11v-19h13l1-19l-12-1l1-16l13-1v-18h-11l1-17c0,0,0.6-0.1-6-1c-0.4-4.1,3.2-4.1,13-19c16.5-35.2,15-138,15-138l2-1
	c0,0-0.7,11.6,21,65s11.8,88.3,9,100s-5.4,29.1-10,57c-13.1,6.2-14,12-14,12l-1,30c0,0,1.8,7.5,5,22c-1.3,9.8-6,45.1-5,87
	c-15.3,100.8-18.3,186.2-18.9,209.6c-0.1,4.2-9.1-3.6-9.1-3.6s-9.4,19.7-12,40c-0.6,5,8.7,5.9,7.6,11.4c-2.9,14.2-5.2,32.1-5.6,53.6
	c-1.2,63.4,6.9,83,14,111s4.3,54.3,3,74s-15.6,30.2-13,58s29,94,29,94s-0.5,13.2,21,12s111-6,111-6s9.9-0.3,3-19s-51-132-51-132
	s-6-16.6-10-31s4.5-69.8,17-124s12-67.6,14-93c45-82,76.7-220.7,80-232c1-3.3,2.2-5.5,3.7-6.8c2.6,4.7,8.7,7.2,13,6.3
	c7.3,60.9,28.6,123.1,44.3,153.5c-0.3,2-8.8-8.1-11-1c-3.1,9.9-0.3,38.4-1,49c-0.5,7.1,6.8,2.9,7,11.4c0.4,15.3,2.3,32.5,7,50.6
	c23.3,85.1,24,146,24,146s-16,14.1-20,26c-3.5,10.5,0,36.1,0,46c0,21.1,7,18,7,18s43.5,49.4,106,105c67-17.7,90-22,90-22
	s-7.3-17.7-18-56c-17.6-18.9-73.4-106.9-68-109c1.2-0.5,4.9-88.1,7.6-151.9c0-1-4.6,0-4.6-1.1c0.3-6.3-1.6-20.7,0-27
	c1.1-1.2,3.9-1.8,5.8-2.9c0.1-1.4,0.1-2.8,0.2-4.1c30.7-41.2,18.4-75.6,6-98c18.3-92.3-5-248-5-248l8-10c0,0,5.1-23,7-31
	s-1.8-9.3-12-17c-6.3-31.5-25.3-89.3-27-110s2-70,2-70l6-8l15,83v10l39,105L1136,820z"/>
<linearGradient id="Arm-Shadow11_1_" gradientUnits="userSpaceOnUse" x1="1072.799" y1="1235.5" x2="1047.799" y2="1235.5" gradientTransform="matrix(1 0 0 -1 0 1920)">
	<stop  offset="0" style="stop-color:#000000"/>
	<stop  offset="1" style="stop-color:#000000;stop-opacity:0"/>
</linearGradient>
<path id="Arm-Shadow11" class="st1" d="M1063,634l1,62c0,0-18.1,32.7-25,39c2.3-31,4-97,4-97L1063,634z"/>
<linearGradient id="Arm-Shadow10_1_" gradientUnits="userSpaceOnUse" x1="1130.1504" y1="1179.2646" x2="1048.1504" y2="1148.5085" gradientTransform="matrix(1 0 0 -1 0 1920)">
	<stop  offset="0" style="stop-color:#000000"/>
	<stop  offset="1" style="stop-color:#000000;stop-opacity:0"/>
</linearGradient>
<path id="Arm-Shadow10" class="st2" d="M1064,701l27,103c0,0-19.8,29.6-82,45c19.7-35.6,31-118,31-118L1064,701z"/>
<radialGradient id="Head-Light_1_" cx="493.346" cy="1531.563" r="755" gradientTransform="matrix(1 0 0 -1 0 1920)" gradientUnits="userSpaceOnUse">
	<stop  offset="0.424" style="stop-color:#CFCFCF"/>
	<stop  offset="0.503" style="stop-color:#FFFFFF"/>
</radialGradient>
<path id="Head-Light" class="st3" d="M899,331c-1.5-34.6-22.8-133.3-44-151c-27.4,9.7-49.1,21.5-56,46s-9.8,51.2-21,65s25,31,25,31
	l24-59C827,263,867.6,320.1,899,331z"/>
<linearGradient id="Leg-SHadow12_1_" gradientUnits="userSpaceOnUse" x1="958.3571" y1="631.3602" x2="1034.3572" y2="640.6922" gradientTransform="matrix(1 0 0 -1 0 1920)">
	<stop  offset="0" style="stop-color:#000000"/>
	<stop  offset="0.508" style="stop-color:#000000;stop-opacity:0"/>
</linearGradient>
<path id="Leg-SHadow12" class="st4" d="M1011,1210l-3-10l-58-11c0,0,7.2,53.7,15,79s16.3,99.4,16,108c10,5,38.9,5.4,45,5
	c0.1-15.5-4.6-124.5-7-130S1011,1210,1011,1210z"/>
<radialGradient id="Leg-SHadow3_1_" cx="742.304" cy="658.861" r="295" gradientTransform="matrix(1 0 0 -1 0 1920)" gradientUnits="userSpaceOnUse">
	<stop  offset="0.398" style="stop-color:#000000"/>
	<stop  offset="0.602" style="stop-color:#000000;stop-opacity:0"/>
</radialGradient>
<path id="Leg-SHadow3" class="st5" d="M695,1405c16.6,4.5,22,5,22,5l1,4c0,0,52.8,5,65-9c-1.1,13.8,9.7,49.7,14,59
	c-30.9-0.6-106-1-106-1S695.9,1436.4,695,1405z"/>
<radialGradient id="Leg-SHadow11_1_" cx="1050.363" cy="732.756" r="373.474" gradientTransform="matrix(1 0 0 -1 0 1920)" gradientUnits="userSpaceOnUse">
	<stop  offset="0.398" style="stop-color:#000000"/>
	<stop  offset="0.602" style="stop-color:#000000;stop-opacity:0"/>
</radialGradient>
<path id="Leg-SHadow11" class="st6" d="M982,1376c11.8,5,29.6,6.7,43,5c0.1,3.6,2,7,2,7s38.9,1.9,51-4c3.6,9,17,37,17,37l-78,10
	c0,0-61,31.3-60,15S970.7,1390.6,982,1376z"/>
<radialGradient id="Leg-SHadow10_1_" cx="1140.9709" cy="459.717" r="320" gradientTransform="matrix(1 0 0 -1 0 1920)" gradientUnits="userSpaceOnUse">
	<stop  offset="0.492" style="stop-color:#000000;stop-opacity:0"/>
	<stop  offset="0.6" style="stop-color:#000000"/>
</radialGradient>
<path id="Leg-SHadow10" class="st7" d="M982,1377c-7.2,7.7-32.6,49.9-20,91c24.5,26.7,37,37,37,37l15-71l81-15l-17-35l-52,5l-6-6
	C1020,1383,994.5,1380.2,982,1377z"/>
<linearGradient id="Arm-Shadow2_1_" gradientUnits="userSpaceOnUse" x1="730.6537" y1="1262.0636" x2="626.2277" y2="1270.0986" gradientTransform="matrix(1 0 0 -1 0 1920)">
	<stop  offset="0.2" style="stop-color:#000000"/>
	<stop  offset="0.508" style="stop-color:#000000;stop-opacity:0"/>
</linearGradient>
<path id="Arm-Shadow2" class="st8" d="M706,568c2.5,15,5.9,133.3-26,166c-28.6,1.2-66,3-66,3s-24.5-109.7,0-154
	C639.9,583.8,666.7,590.8,706,568z"/>
<linearGradient id="Leg-SHadow9_1_" gradientUnits="userSpaceOnUse" x1="896.5028" y1="850.021" x2="782.2778" y2="874.301" gradientTransform="matrix(1 0 0 -1 0 1920)">
	<stop  offset="0.1468" style="stop-color:#000000"/>
	<stop  offset="0.508" style="stop-color:#000000;stop-opacity:0"/>
</linearGradient>
<path id="Leg-SHadow9" class="st9" d="M870,916l27,53c0,0-54.5,197.7-82,232c1.3-11.6,0-56,0-56s-23-6.3-32-7
	c-3-24.3,24.3-219.1,28-228C826.1,913,870,916,870,916z"/>
<linearGradient id="Arm-Shadow13_1_" gradientUnits="userSpaceOnUse" x1="1126.0535" y1="1263.144" x2="1126.0535" y2="1385.144" gradientTransform="matrix(1 0 0 -1 0 1920)">
	<stop  offset="0.497" style="stop-color:#000000;stop-opacity:0"/>
	<stop  offset="1" style="stop-color:#000000"/>
</linearGradient>
<path id="Arm-Shadow13" class="st10" d="M1109,541c0,0-35.3,74.6-36,76s103,46,103,46s9.6-87.8-5-119C1142.9,554,1109,541,1109,541z
	"/>
<path id="Leg-SHadow2" class="st11" d="M792,1462l6,61l-51,2l-17-61L792,1462z M1015,1434l68,60l29-11l-21-61L1015,1434z"/>
<path id="Leg-SHadow" class="st12" d="M730,1465l16,61l53-4c0,0-5.5-57.8-5-57s53,131,53,131s0.1,9.9-8,11s-118,4-118,4
	s-7.5,1.9-13-12s-22-68-22-68L730,1465z M1014,1435l-13,74l72,66l92-18c0,0-27.2-77.3-59-119c0.2,16.7,8.5,45.1,9,48
	c-14.8,3.9-35,6-35,6L1014,1435z"/>
<linearGradient id="Arm-Shadow5_1_" gradientUnits="userSpaceOnUse" x1="657.9863" y1="1336" x2="657.9863" y2="1601.4288" gradientTransform="matrix(1 0 0 -1 0 1920)">
	<stop  offset="0" style="stop-color:#FFFFFF;stop-opacity:0"/>
	<stop  offset="1" style="stop-color:#FFFFFF"/>
</linearGradient>
<path id="Arm-Shadow5" class="st13" d="M729,320c6.7,8,50.3,68.9,43,221c-26.9,13.8-92,43-135,43s-82.6-27.6-90-51s-10-92.7,48-130
	c22.3-4,48.5-12.5,59-49C680.8,339.2,722.3,312,729,320z"/>
<linearGradient id="Arm-Shadow14_1_" gradientUnits="userSpaceOnUse" x1="1126.5179" y1="1372.3595" x2="1126.5179" y2="1619" gradientTransform="matrix(1 0 0 -1 0 1920)">
	<stop  offset="0" style="stop-color:#FFFFFF;stop-opacity:0"/>
	<stop  offset="1" style="stop-color:#FFFFFF"/>
</linearGradient>
<path id="Arm-Shadow14" class="st14" d="M1041,301c11.1,3.7,61.5,22.2,59,236c15.1,9.3,31.5,12,52,10s53.3-6.1,60-61
	c0.8-43.7-13-60-13-60l-41,19c0,0-22.9-9.5-28-26s-0.1-38.6,7-43c12-2.9,23-8,23-8s-13-25.3-47-41S1056.2,302.1,1041,301z"/>
<path id="Head-Light2" class="st15" d="M931,185c0.5-0.2,57.8,14.1,66,88c-3,33.3-13.5,59.1-34,68C958.7,305.5,930.5,185.2,931,185z
	 M1190,673l-14-9c0,0-25.9,27-49,29s-38,1-38,1l-2,10c0,0,39,6,48,1c8.2,4.7,28,10,28,10s46.6-27.9,48-32
	C1205,679.9,1190,673,1190,673z M1106,545l-23-18c0,0-47.8,27.7-57,32c6.9,9.2,19,18,19,18S1098.2,554,1106,545z M768,544
	c0,0,89.6,20.2,120,19c-2.2,11.3-10,30-10,30s-109.1-15.2-140-33C761.8,548.9,768,544,768,544z"/>
<path id="Arm-Shadow9" class="st16" d="M1162,715l16,85l-24-5l-18-87L1162,715z"/>
<linearGradient id="Arm-Shadow8_1_" gradientUnits="userSpaceOnUse" x1="1073.7743" y1="1133.8475" x2="1197.7108" y2="1177.225" gradientTransform="matrix(1 0 0 -1 0 1920)">
	<stop  offset="0" style="stop-color:#808080"/>
	<stop  offset="0.995" style="stop-color:#B3B3B3"/>
</linearGradient>
<path id="Arm-Shadow8" class="st17" d="M1089,707l36,105c0,0,57.7,31.6,84-10c0.2-6.9,1-22,1-22l-32,21l-25-6l-17-90L1089,707z"/>
<linearGradient id="Arm-Shadow7_1_" gradientUnits="userSpaceOnUse" x1="1178.6455" y1="1116.9114" x2="1119.6455" y2="1110.8564" gradientTransform="matrix(1 0 0 -1 0 1920)">
	<stop  offset="0.1" style="stop-color:#000000"/>
	<stop  offset="0.508" style="stop-color:#000000;stop-opacity:0"/>
</linearGradient>
<path id="Arm-Shadow7" class="st18" d="M1151,796c0,0,7.7,26.8,9,27s45-4.2,50-18c-2.5-17.8-2-23-2-23l-30,18L1151,796z"/>
<radialGradient id="Arm-Shadow6_1_" cx="1161.67" cy="1148.045" r="141.773" gradientTransform="matrix(1 0 0 -1 0 1920)" gradientUnits="userSpaceOnUse">
	<stop  offset="0.352" style="stop-color:#000000"/>
	<stop  offset="0.508" style="stop-color:#000000;stop-opacity:0"/>
</radialGradient>
<path id="Arm-Shadow6" class="st19" d="M1135,847c10.9,2.6,59.6,5.5,64,1s-1-33-1-33s-44.1,12.2-61,4
	C1131.2,830.7,1134.8,835.8,1135,847z"/>
<linearGradient id="Head-Light3_1_" gradientUnits="userSpaceOnUse" x1="914.8403" y1="1394.353" x2="914.8403" y2="1735.3301" gradientTransform="matrix(1 0 0 -1 0 1920)">
	<stop  offset="0" style="stop-color:#CCCCCC"/>
	<stop  offset="1" style="stop-color:#F2F2F2"/>
</linearGradient>
<path id="Head-Light3" class="st20" d="M869,168c8.3,8.7,76.2,70.3,40,335c18.7-0.2,39-5,39-5s43.3-197.6-30-333
	C894.3,160.6,878,160.6,869,168z"/>
<path id="Paint" class="st21" d="M658,404c19.4,2.3,37.3,12.2,44,16c5.1,12.3,6.9,52.2-18,61c-31.4-4.4-53-14-53-14s-18.8-28.1-6-44
	S638.6,401.8,658,404z M634,332c0.8-0.1,19,25,19,25s0,33-57,47c-9.2-14.5-21-31-21-31s5.1-22.9,19-30S633.2,332.1,634,332z
	 M1106,323l14-25c0,0,43.4,17.9,56,35c-10.3,16.7-18,28-18,28L1106,323z M1136,377l29-9c0,0,32.1-10.8,40,24s-3.9,34.6-11,37
	s-34,17-34,17s-20.8-0.2-31-26S1136,377,1136,377z M857,412l-13,115c0,0,1.8,19.6,13,19s18.3-7.7,20-16s17-109,17-109
	s-0.7-23.5-14-25S857,412,857,412z M959,421c0,0,12.1-25.8,26-23c13,15.1,51.4,70.3,55,97s-21.8,50.8-31,54c-6.6-5.7-13-12-13-12
	s15.3-19.3,13-34c-0.9-5.6-3.1-23.8-12-38C982.5,441.8,959,421,959,421z"/>
<linearGradient id="Head-SHadow_1_" gradientUnits="userSpaceOnUse" x1="843.9789" y1="1451.9388" x2="893.9789" y2="1445.7988" gradientTransform="matrix(1 0 0 -1 0 1920)">
	<stop  offset="0" style="stop-color:#000000"/>
	<stop  offset="0.496" style="stop-color:#000000;stop-opacity:0"/>
	<stop  offset="1" style="stop-color:#000000"/>
</linearGradient>
<path id="Head-SHadow" class="st22" d="M857,412l-13,115c0,0,1.8,19.6,13,19s18.3-7.7,20-16s17-109,17-109s-0.7-23.5-14-25
	S857,412,857,412z"/>
<linearGradient id="Head-SHadow2_1_" gradientUnits="userSpaceOnUse" x1="857.2919" y1="1374.1892" x2="863.5823" y2="1418.9506" gradientTransform="matrix(1 0 0 -1 0 1920)">
	<stop  offset="0" style="stop-color:#000000"/>
	<stop  offset="1" style="stop-color:#000000;stop-opacity:0"/>
</linearGradient>
<path id="Head-SHadow2" class="st23" d="M846,511c-2,13.3,2.3,34.8,12,35s18.8-17.7,20-33C879.2,497.7,848,497.7,846,511z"/>
<linearGradient id="Head-SHadow3_1_" gradientUnits="userSpaceOnUse" x1="1013.2952" y1="1370.9092" x2="1022.1862" y2="1434.1722" gradientTransform="matrix(1 0 0 -1 0 1920)">
	<stop  offset="0" style="stop-color:#000000"/>
	<stop  offset="1" style="stop-color:#000000;stop-opacity:0"/>
</linearGradient>
<path id="Head-SHadow3" class="st24" d="M994,533l18,16c0,0,30.9-22.3,28-42s-27.9-28.6-31-14c-1.3,6.3-1,16.6-4,24
	C1001.1,526.7,994,533,994,533z"/>
<path id="Arm-Shadow4" class="st25" d="M635,334c-2.7,6-24.1,39.1-57,41c11.5,16.1,18,29,18,29s50.7-7.6,56-48
	C644.7,344.7,637.7,328,635,334z M688,415c3.3,7.3,11.8,46.8-22,60c11,6.4,18,5,18,5s16.3-7.1,19-24s2.7-28.4-1-35
	S684.7,407.7,688,415z M1159,370c-5.5,7-7.6,47.7,30,61c-15.5,7.4-31,15-31,15s-21.5-8.1-27-27s-0.3-37.6,5-42S1164.5,363,1159,370z
	 M1162,360l13-28c0,0-24.8-28.8-57-34c-6.3,10.5-15,25.1-14,25S1151,351.4,1162,360z"/>
<path id="Paint-Dark" class="st26" d="M848,182c10.1,12.5,37,79.7,41,145c9.2,5.7,31,14,31,14s0.5-113.1-49-170
	C861.3,177.5,859.4,178,848,182z M962,343c0,0-13.4-101.7-36-159c16.4,1.3,28,10,28,10s20.1,56.1,24,138
	C973.7,336.8,962,343,962,343z M655,1218l-29-37l17-303l34-29L655,1218z M573,1219c1.6,0.5,28-38,28-38l11-304l-33-25
	C579,852,571.4,1218.5,573,1219z M614,736c0,0-23.4-99.3,0-152c-26.9-8-31.3-9.2-35-13c-4,10.4-16.9,110.6,4,165
	C603.2,735.5,614,736,614,736z M1093,579c4.3,27.6,17,98.3,30,113c-17.6,4-31.1,1.3-36,0c-6.1-22.8-16-78-16-78
	S1085.9,594.6,1093,579z M731,1263c-1.6-16.9,1.6-108.7,12-123c15.3-4.1,68.5,2.3,73,6c-0.5,9.4,3.6,95.6-24,117
	C766.7,1267.2,743.3,1268,731,1263z M1034,1219c1.9-10.7,11-85.9-5-115c24-9,42-9,42-9s38.7,11.6,34,57s-24,58-24,58
	S1032.1,1229.7,1034,1219z"/>
<path id="Arm-Shadow12" class="st25" d="M1093,579c4.3,27.6,17,98.3,30,113c-17.6,4-31.1,1.3-36,0c-6.1-22.8-16-78-16-78
	S1085.9,594.6,1093,579z"/>
<linearGradient id="Arm-Shadow_1_" gradientUnits="userSpaceOnUse" x1="638.0977" y1="1213.347" x2="638.0977" y2="1350" gradientTransform="matrix(1 0 0 -1 0 1920)">
	<stop  offset="0.699" style="stop-color:#000000;stop-opacity:0"/>
	<stop  offset="1" style="stop-color:#000000"/>
</linearGradient>
<path id="Arm-Shadow" class="st27" d="M577,571c6.5,3.6,62,28.2,129-1c0,31.1,1.7,59.2-1,80s-110.6,79.6-128,47
	C568,650.9,566.5,607.6,577,571z"/>
<linearGradient id="Arm-Shadow3_1_" gradientUnits="userSpaceOnUse" x1="823.6213" y1="1218.886" x2="660.6213" y2="1225.974" gradientTransform="matrix(1 0 0 -1 0 1920)">
	<stop  offset="0.302" style="stop-color:#000000;stop-opacity:0"/>
	<stop  offset="0.801" style="stop-color:#333333"/>
</linearGradient>
<path id="Arm-Shadow3" class="st28" d="M708,568c1.4,39.3,33.5,93.1,34,132s-10.9,99.8-16,109c16,18.1,29.2,41.5,145,51
	c-5.7-62.1-26-204-26-204l-74-114l-61,26"/>
<linearGradient id="Leg-SHadow8_1_" gradientUnits="userSpaceOnUse" x1="819.3538" y1="927.945" x2="617.3538" y2="936.729" gradientTransform="matrix(1 0 0 -1 0 1920)">
	<stop  offset="0.302" style="stop-color:#000000;stop-opacity:0"/>
	<stop  offset="0.801" style="stop-color:#333333"/>
</linearGradient>
<path id="Leg-SHadow8" class="st29" d="M724,805c1.8,6.7,26.3,50.4,128,54c6.8,18.2,20,58,20,58l25,51c0,0-43.2,168.6-67,207
	c-7.1,0.8-14-1-14-1s2.5-21.3-2-29c-14-4.2-50-13.3-68-7c-14.1,7.3-25,17-25,17l-3,13l-23-5c0,0,7.5-167.6,19-206
	c-1.2-41.8,4.2-89.9,6-95C714.9,855,707.2,807.3,724,805z"/>
<radialGradient id="Leg-SHadow4_1_" cx="1066.593" cy="643.46" r="383.872" gradientTransform="matrix(1 0 0 -1 0 1920)" gradientUnits="userSpaceOnUse">
	<stop  offset="0.954" style="stop-color:#959595;stop-opacity:0"/>
	<stop  offset="1" style="stop-color:#959595"/>
</radialGradient>
<path id="Leg-SHadow4" class="st30" d="M681,1211c-4.1,14-8.1,71.9-4,101s16,78.9,17,94c11.6,3.5,24,4,24,4s6.5-121.9,2-128
	c12.7-3.1,31-2,31-2l1-13c0,0-16.8,0.2-24-7s-19.5-29.9-19-40C697.9,1218.1,690.7,1214.4,681,1211z"/>
<linearGradient id="Leg-SHadow15_1_" gradientUnits="userSpaceOnUse" x1="1012.9005" y1="881.4022" x2="895.9005" y2="847.9642" gradientTransform="matrix(1 0 0 -1 0 1920)">
	<stop  offset="0.302" style="stop-color:#000000;stop-opacity:0"/>
	<stop  offset="0.801" style="stop-color:#333333"/>
</linearGradient>
<path id="Leg-SHadow15" class="st31" d="M911,975c1.6,18.6,21.6,117.5,41,149c19.7,9.7,50,14,50,14l2-8l24-26l-18-24l-24-104l-14-22
	C972,954,952.6,971.8,911,975z"/>
<linearGradient id="Leg-SHadow14_1_" gradientUnits="userSpaceOnUse" x1="994.552" y1="760.9829" x2="928.3898" y2="760.9829" gradientTransform="matrix(1 0 0 -1 0 1920)">
	<stop  offset="0" style="stop-color:#000000;stop-opacity:0"/>
	<stop  offset="1" style="stop-color:#000000"/>
</linearGradient>
<path id="Leg-SHadow14" class="st32" d="M948,1119c-5.3,7.1-9.7,53-2,68c17.6,5.9,53.8,12.6,62,12c0-8.5-5.6-59.4-7-63
	C990.3,1135.5,961.7,1129.6,948,1119z"/>
<linearGradient id="Leg-SHadow6_1_" gradientUnits="userSpaceOnUse" x1="698.2478" y1="665.1779" x2="713.3228" y2="714.1779" gradientTransform="matrix(1 0 0 -1 0 1920)">
	<stop  offset="0.302" style="stop-color:#000000;stop-opacity:0"/>
	<stop  offset="0.801" style="stop-color:#333333"/>
</linearGradient>
<path id="Leg-SHadow6" class="st33" d="M676,1250c1.7-0.1,47.7,8.4,51,9c-6.8-9.8-17.9-33.6-19-38c-11.7-7.4-26-11-26-11
	S674.3,1250.1,676,1250z"/>
<linearGradient id="Leg-SHadow7_1_" gradientUnits="userSpaceOnUse" x1="720.9899" y1="722.716" x2="677.9899" y2="732.272" gradientTransform="matrix(1 0 0 -1 0 1920)">
	<stop  offset="0" style="stop-color:#CDCDCD;stop-opacity:0"/>
	<stop  offset="1" style="stop-color:#333333"/>
</linearGradient>
<path id="Leg-SHadow7" class="st34" d="M716,1168l-30-8l-13,41c0,0,16.8,20.5,36,23C711.9,1204,716,1168,716,1168z"/>
<linearGradient id="Leg-SHadow17_1_" gradientUnits="userSpaceOnUse" x1="943.4958" y1="1032.8556" x2="967.8708" y2="902.8557" gradientTransform="matrix(1 0 0 -1 0 1920)">
	<stop  offset="0" style="stop-color:#CCCCCC"/>
	<stop  offset="1" style="stop-color:#808080"/>
</linearGradient>
<path id="Leg-SHadow17" class="st35" d="M852,859c30.6,2.7,102.1,8.5,170-13c-0.3,25.1-3.3,115.8-117,130
	C883,939.6,868.6,917.2,852,859z"/>
<linearGradient id="Leg-SHadow16_1_" gradientUnits="userSpaceOnUse" x1="1014.9879" y1="873.6371" x2="915.1508" y2="931.4412" gradientTransform="matrix(1 0 0 -1 0 1920)">
	<stop  offset="0.499" style="stop-color:#000000;stop-opacity:0"/>
	<stop  offset="1" style="stop-color:#000000"/>
</linearGradient>
<path id="Leg-SHadow16" class="st36" d="M909,974c0,0,24,117.8,41,145c28.2-11.9,78.2-168.1,51-191c-13.8,13.3-29.9,27.2-48,35
	C931.5,972.2,909,974,909,974z"/>
<path id="glass" class="st37" d="M824.7,262.1c17.8,28.4,47.8,62.5,93.3,77.9c0.4,21.1,0.2,82.1-1,89c-16.5,0.2-24-3-24-3
	s1.4-27.7-12-31s-19.9,7.3-23,14c-12.1-6.8-40.3-32.5-58.1-76.2C811.7,307.3,822,274.9,824.7,262.1z M961,344
	c12.7-4,38.9-31.1,37-74c8.2,9.6,8,23,8,23l3,34c0,0-9.1,51-24,72c-3.5-1.9-16.5-0.2-23,13C961.6,368.7,963.4,366,961,344z"/>
<radialGradient id="glass_light_1_" cx="364.482" cy="1559.9451" r="1043.839" gradientTransform="matrix(1 0 0 -1 0 1920)" gradientUnits="userSpaceOnUse">
	<stop  offset="0.474" style="stop-color:#FFFFFF;stop-opacity:0"/>
	<stop  offset="0.5" style="stop-color:#F2F2F2"/>
	<stop  offset="0.532" style="stop-color:#FFFFFF;stop-opacity:0"/>
</radialGradient>
<path id="glass_light" class="st38" d="M825.7,263.9c17.9,28,47.6,61.1,92.3,76.1c0.4,21.1,0.2,82.1-1,89c-16.5,0.2-24-3-24-3
	s1.4-27.7-12-31s-19.9,7.3-23,14c-12-6.7-39.9-32.2-57.7-75.3C806,314.1,822,272.3,825.7,263.9z M961,344c12.7-4,38.9-31.1,37-74
	c8.2,9.6,8,23,8,23l3,34c0,0-9.1,51-24,72c-3.5-1.9-16.5-0.2-23,13C961.6,368.7,963.4,366,961,344z"/>
<radialGradient id="glass_light2_1_" cx="366.272" cy="1559.6221" r="1040.9399" gradientTransform="matrix(1 0 0 -1 0 1920)" gradientUnits="userSpaceOnUse">
	<stop  offset="0.489" style="stop-color:#FFFFFF;stop-opacity:0"/>
	<stop  offset="0.5" style="stop-color:#F2F2F2"/>
	<stop  offset="0.514" style="stop-color:#FFFFFF;stop-opacity:0"/>
</radialGradient>
<path id="glass_light2" class="st39" d="M826.2,264.6c18,27.9,47.5,60.4,91.8,75.4c0.4,21.1,0.2,82.1-1,89c-16.5,0.2-24-3-24-3
	s1.4-27.7-12-31s-19.9,7.3-23,14c-11.9-6.6-39.3-31.6-57.2-74C811.7,306.4,822.5,272.4,826.2,264.6z M961,344
	c12.7-4,38.9-31.1,37-74c8.2,9.6,8,23,8,23l3,34c0,0-9.1,51-24,72c-3.5-1.9-16.5-0.2-23,13C961.6,368.7,963.4,366,961,344z"/>
<radialGradient id="glass_light3_1_" cx="445.924" cy="1567.2161" r="1045.587" gradientTransform="matrix(1 0 0 -1 0 1920)" gradientUnits="userSpaceOnUse">
	<stop  offset="0.474" style="stop-color:#FFFFFF;stop-opacity:0"/>
	<stop  offset="0.5" style="stop-color:#F2F2F2"/>
	<stop  offset="0.532" style="stop-color:#FFFFFF;stop-opacity:0"/>
</radialGradient>
<path id="glass_light3" class="st40" d="M826.3,264.8c18,27.8,47.5,60.3,91.7,75.2c0.4,21.1,0.2,82.1-1,89c-16.5,0.2-24-3-24-3
	s1.4-27.7-12-31s-19.9,7.3-23,14c-12.1-6.8-40.3-32.5-58.1-76.2C811.6,301.3,821.3,276.5,826.3,264.8z M961,344
	c12.7-4,38.9-31.1,37-74c8.2,9.6,8,23,8,23l3,34c0,0-9.1,51-24,72c-3.5-1.9-16.5-0.2-23,13C961.6,368.7,963.4,366,961,344z"/>
<linearGradient id="Leg-SHadow13_1_" gradientUnits="userSpaceOnUse" x1="1067" y1="698.7194" x2="1067" y2="827" gradientTransform="matrix(1 0 0 -1 0 1920)">
	<stop  offset="0" style="stop-color:#000000"/>
	<stop  offset="1" style="stop-color:#000000;stop-opacity:0"/>
</linearGradient>
<path id="Leg-SHadow13" class="st41" d="M1028,1103c3.9,8.2,13.9,47.6,5,118c17.3,1.3,42.4-1.4,54-15s19-36.1,19-55
	s-12.9-49.3-33-58C1051,1097.1,1036.4,1100.2,1028,1103z"/>
<linearGradient id="Leg-SHadow5_1_" gradientUnits="userSpaceOnUse" x1="772.2698" y1="654.7878" x2="772.2698" y2="783.6854" gradientTransform="matrix(1 0 0 -1 0 1920)">
	<stop  offset="0" style="stop-color:#000000"/>
	<stop  offset="1" style="stop-color:#000000;stop-opacity:0"/>
</linearGradient>
<path id="Leg-SHadow5" class="st42" d="M793,1263c0,0-56,6.6-63-3c-2-19.9-0.4-102,14-122c21.8-4.9,62.9,2,71,7
	c0.7,10.5,0.2,49.8-6,79C804,1247.4,793,1263,793,1263z"/>
<g id="Line">
	<path id="L-All" class="st43" d="M1136,818c0,0-5.2,18.2,1,45c6.2,26.8,3,28.7-6,58s14.2,37.3,23,32c-12.6,30.6-1.3,35.8,10,37
		c15.2-23,47.5-54.2,40-90s-2.8-69.5-5-87c12.7-9.5,8.9-9.2,11-26c-0.1-2.4-0.3-4.7-0.4-7 M1191,672c0,0-3.2-3.1-15-9
		c5.8-77.5,1.9-105.2-4-118c24.8-6.4,41-40,41-67s-14-54-14-54s9.3-3,6-25s-23-33-23-33l-19,1l-3-6c0,0,8.6-14.8,16-29
		c-11.1-20-57-35-57-35l-14,25c0,0-49.4-22-66-22s-30,7-30,7s-2.6-5.5-3-17c-1.8-20.4-11-28-11-28s-0.5-4-11-33s-41.5-43.1-57-48
		c-3.8-8.2-9-16-9-16s-25.9-6.8-37-3s-8.7,2.6-16,14c-28.9,4.8-59.1,25.9-65,49s-10.3,51.9-27,71s-10,42-10,42s-17.7,7.5-18,7
		 M731.5,320c-3.7-0.5-7.3-1.2-10.5,0c-12.9,5-69,34-69,34s-9.7-12.8-17-23c-51.8,2.3-60,40-60,40s12.3,18.3,20,30
		c-6.2,8.9-52,43.8-52,96s15,51.6,35,72c-16.2,70.5-1,125-1,136c0,23,6,30,6,30v19h-9v18h9v18h-11v20h9v18h-9v21h9l-9,370h82l23-370
		h13v-20h-11v-19h13l1-19l-12-1l1-16l13-1v-18h-11l1-17c0,0,0.6-0.1-6-1c-0.4-4.1,3.2-4.1,13-19c16.5-35.2,15-143,15-143l2-1
		c0,0-0.7,16.6,21,70s11.8,88.3,9,100s-5.4,29.1-10,57c-13.1,6.2-14,12-14,12l-1,30c0,0,1.8,7.5,5,22c-1.3,9.8-6,45.1-5,87
		c-15.1,99.7-18.2,184.2-18.9,208.8 M681.5,1209.8c-2.8,14.1-5.1,31.8-5.5,53.2c-1.2,63.4,6.9,83,14,111s4.3,54.3,3,74
		s-15.6,30.2-13,58s29,94,29,94s-0.5,13.2,21,12s111-6,111-6s9.9-0.3,3-19s-51-132-51-132s-6-16.6-10-31s4.5-69.8,17-124
		s12-67.6,14-93c45-82,76.7-220.7,80-232c1-3.3,2.2-5.5,3.7-6.8 M910.7,974.5c7.1,58.9,27.3,119,42.7,150.5 M950,1187.4
		c0.4,15.3,2.3,32.5,7,50.6c19.5,70.9,23.2,125,23.8,141.1 M1079.7,1236.4c0.3-6.7,1.3-17.8,3.3-24.4 M1087,1205
		c30.7-41.2,18.4-75.6,6-98c18.3-92.3-5-246-5-246l14-14c0,0-0.9-21,1-29s-1.8-9.3-12-17c-6.3-31.5-25.3-89.3-27-110s2-68,2-68l6-8
		l15,81v10l39,105"/>
	<path id="L-Arm" class="st43" d="M571,849l36,1v-22h-35 M573,811h38v-21l-37-1 M578,772h35v-18h-33 M583,735l100,1 M614,734
		c-5.7-31.9-19.4-86.9-1-150 M689,754l-33,1v19h39 M692,790l-37-1v21h36 M689,829h-36v20h36"/>
	<path id="L-Leg" class="st43" d="M685.7,1530.9c5.6-8.7,43.3-67.9,43.3-67.9l65-1 M847.1,1600.9c-9.1-15.2-48.1-80.9-48.1-80.9
		l-8-55 M731,1466l15,60l-30,82 M734,1568h24l-1,41 M804.8,1607c-0.8-8.5-3.8-41-3.8-41l22-1 M747,1526l51-3"/>
	<path id="L-Arm2" class="st43" d="M572,564c7.7,7.6,50.9,39.1,137,4c42.3-14.1,62-27,62-27s16.6-138.5-39.9-221.4 M635,332
		c0.3,5.7-17.6,38.3-58,42 M595,402c14.3-1.4,45.7-4.8,58-46"/>
	<path id="L-Head" class="st43" d="M849.1,492.5C800.7,453.9,768,359.1,761,335 M857,409c-25.8-18-44-49.8-55.5-78.9 M919,340
		c-40.1-11.7-72.4-47.8-92.8-79.5C813.3,297.2,803,328,803,328 M872,171c16.1,17.4,71.7,114.1,36.5,331 M947.3,498.3
		C954.9,458.7,985.6,322,924,174 M961,344c15.5-5.8,41.6-33.7,35-83 M893,426c16.3,2.3,18.8,1.7,24,1.1 M986,400
		c7.3-13.1,24-45.1,22-95 M882,502c8.5,0.8,93.7,6.6,118-31 M1009.6,430.4c3.3-21.5,6.3-82.8-1.6-128.4"/>
	<path id="L-Body2" class="st43" d="M1071,616c8.6-10.3,30.9-56.8,40.1-73.4 M1110.9,541.8C974.2,646.2,756,574.8,737,558
		 M889.1,564c-31.8,0.5-100.9-15.2-121.1-20 M878,594l36-90 M877,599c0,0,0.6,17.2,3,58c21.1,24.6,40.3,51.6,63,96
		c41.4-27.1,90-112,90-112l12-65l-92-76 M1024.4,557.9c21.3-10,49-24.4,58.4-32 M716,610c181.6,91.9,325.2,29.2,349,23"/>
	<path id="L-Arm10" class="st43" d="M1010,327c9.7,7.8,61.8,78.9,72,197c6,6.3,20,15,20,15s51.6,21.3,86-2 M1099,535
		c0.3-29.3,8.5-218.9-63-235 M1096,319c23,11.4,46.8,26,67,48c-14.6,4-27,9-27,9s-16.2,15.7-6,42s29,26,29,26l41-18 M1190,430
		c-14.5-1-26.4-13.4-31-28s-4.9-30.3,6-35"/>
	<path id="L-Arm6" class="st43" d="M1087,692c17.3,3.3,58.8,6.6,89-29 M1122,692c-18.1-36.6-27-93.5-27.9-114.1 M1189,673
		c-10.5,12.7-55,43.3-101,31 M1126,811c17.3,8.3,27.4,14.1,48,11s32.7-14.4,36-19 M1192,675l20,7l14,87l-48,31l-24-6l-18-87l27,8
		l15,80 M1210,684c-4.1,4.5-30.1,25.6-44,30"/>
	<path id="L-Arm7" class="st44" d="M1212,761l-14,8"/>
	<path id="L-Arm8" class="st44" d="M1210,749l-14,8"/>
	<path id="L-Arm9" class="st44" d="M1208,737l-14,8"/>
	<path id="L-Arm5" class="st43" d="M1145,955c5,0.1,18.7-2.7,27-59"/>
	<path id="L-Body3" class="st43" d="M906,614c0,0,59.8,1.6,108-9c-2.1,15.7-4,26-4,26s-42,14-101,11C908.4,632.4,906,614,906,614z"
		/>
	<path id="L-Body" class="st43" d="M872,859c-52.3-89.6-32-186.9-25-203 M743.9,692.9c26.6,26.1,44.2,41.3,94.2,50.6 M1039,737
		c16.1-20.2,22.7-39,24.6-51.7 M1091,800c0,0-6.5,43.7-148,62c-198.3-0.1-206.1-39-219.2-56.8 M852,861l21,58c0,0,14.7,35.2,31,56
		c28.4-6.6,111.4-2,119-130 M1090,858c-11,11.9-38.7,26.1-74.9,37.5 M871,916.5c-57.3-1.4-113.6-16.2-152-54.5 M943,751
		c3.1,30.2-0.8,95.6-3,110 M1009,846c8.6-26.6,27.6-31.4,37-206"/>
	<path id="L-Leg6" class="st43" d="M757,980c0.7-11.7,0.8-16.7,16-16s74.2,8.6,81,11s10.7,7.3,3,31c-7.7,23.7-23,84-23,84
		s-8.2,21-27,20s-47-5-47-5s-14.1,4.4-12-35S756.3,991.7,757,980z"/>
	<path id="L-Leg7" class="st43" d="M857,1005c15.4,1.9,23.4,0,31-7 M865,1079c-7,4.4-16.7,5.3-29,4 M746,1074
		c-14.9-2.6-30.6-2-43-18 M711,987c9.3,9.4,27.2,13.8,43.3,16.7"/>
	<path id="L-Leg4" class="st43" d="M687,1158c0,0,20.3,8.5,30,9c2.2-10.2,3-13,3-13l24-17c0,0,37.5-5.4,71,8c1.7,13.8,0.8,36.3-3,65
		c-2.5,18.8-8.3,42.9-19.9,53.2c-29.9,3-50.6,5.1-62.1-1.2c-12.9-14.2-20.5-28.1-22-40c-14-7.1-25.9-7.5-34-20
		C674.7,1189.7,687,1158,687,1158z"/>
	<path id="L-Leg5" class="st43" d="M815.7,1176.3c5.6,0.4,9.5,0.3,13-0.4"/>
	<path id="L-Leg2" class="st43" d="M744,1138c-3.6,10.9-17.6,49.9-14,122 M792.8,1333.5c-0.8-20.9,2.2-44.7-3.8-55.5
		c-18.5,0.4-71,1-71,1s8,75.3-0.8,132.9c0,0.6,0.4,1.2,0.8,1.2c37.9,4.4,55,1.1,64-7.1 M709,1228c-0.1-11.2,7.7-58.4,10-66"/>
	<path id="L-Leg3" class="st43" d="M718,1409c-8.9-0.1-19.9-1.9-23-5"/>
	<path id="L-Leg8" class="st43" d="M916.7,1003.3c10.1,4.8,41.6,5.8,75.9-2.3 M1079.3,952.4c6.6-8,12.1-17.2,16-27.5 M1100,998
		c-1.7,5.7-6.2,16.7-17,28.4 M1007.4,1065c-20,4.3-44.1,6.6-73.4,6"/>
	<path id="L-Leg11" class="st43" d="M1098,1116c-5.1-8.4-19.2-20.8-25-23c-14.9,2.8-45,10-45,10s-18.9,21-24,25.9
		c-1.3,1.2-0.7,5.8-1,8c-13.5,1.6-43.1-5.9-58-16.8c-3.8,30.5-4.3,50.1,1,66c15.7,6.7,50.3,12.8,63,13c0.1,5.4,1,10,1,10l27,12
		c0,0,31.2,2.4,50-16 M1079,1379c-2.5,8.4-20.7,7.3-53,8c2.2-40.2-4-109.8-8-138c18.1,2.1,57.7-6.5,67-10
		C1087.1,1254.6,1084.4,1361.1,1079,1379z"/>
	<path id="L-Leg12" class="st43" d="M982,1375c11.1,6.6,36.2,8.9,44,6"/>
	<path id="L-Leg13" class="st43" d="M1078,1383c0,0,11.2,33.6,45,86c34.3,53.3,43,89,43,89l-95,19c0,0-89.7-88.8-110-109
		c-6.9-21.4-1.3-48.6,3-58s18-33,18-33 M1001,1504l13-72c0,0,73.7-10.4,74-12c5,11.8,29,65,29,65l47,70 M1072,1574l8-83l-64-56"/>
	<path id="L-Leg14" class="st43" d="M1118,1486l-36,6 M1076.3,1536.8c4.4-0.9,18.7-3.8,18.7-3.8l7,34 M1135,1558l-10-33l15-2"/>
	<path id="L-Leg10" class="st43" d="M1003,1137c2.7,9.4,4.6,41,6,68 M1034,1218c1.4-6.7,11.7-56.9-5-114"/>
	<path id="L-Leg9" class="st43" d="M988,981c2.9,9.3,21,91,21,91s-0.5,18.8,24,9s42-20,42-20s8.1-1.1,8-22s-4.7-102-6-107
		s-1.4-14.8-25,2s-40.5,19.2-50,23S985.1,971.8,988,981z"/>
	<path id="L-Head3" class="st43" d="M960,416c5.1-10.1,14-22.1,24-19c9.7,13.2,98.5,106.3,29,149 M995,533c11-14.2,41.2-36.3-35-112
		"/>
	<path id="L-Head2" class="st43" d="M876,395c6,0,20.8,5.6,16,34s-16,101-16,101s-7.2,21.6-21,15s-10.1-23.1-8-37
		c0.5-3.5,2.3-15.4,3.1-24.1c2.6-26.3,5.3-63.3,6.9-70.9C859.1,402.8,870,395,876,395z"/>
	<path id="L-Arm3" class="st43" d="M649,404c13.8-2.9,50.7-0.6,43,39s-45.1,33.1-56,25c-12.1-8.9-16.5-27.1-11.8-42
		C627.5,415.7,634.7,407,649,404z"/>
	<path id="L-Arm4" class="st43" d="M646,473c0,0,27.9,8.3,35,7c7.1-1.3,16.3-6.3,23-23.3c3.7-9.1,2.5-26.9-1-34.8s-33-18-33-18"/>
</g>
</svg>
