<?xml version="1.0" encoding="utf-8"?>
<!-- Generator: Adobe Illustrator 22.0.0, SVG Export Plug-In . SVG Version: 6.00 Build 0)  -->
<svg version="1.1" id="Слой_1" xmlns="http://www.w3.org/2000/svg" xmlns:xlink="http://www.w3.org/1999/xlink" x="0px" y="0px"
	 viewBox="0 0 1920 1920" style="enable-background:new 0 0 1920 1920;" xml:space="preserve">
<style type="text/css">
	.st0{fill:#D9D9D9;enable-background:new    ;}
	.st1{fill:url(#Body-SHadow-81_1_);}
	.st2{fill:url(#Arm-Left-Shadow47_1_);}
	.st3{fill:#CCCCCC;}
	.st4{opacity:0.702;fill:url(#Arm-Left-Shadow45_1_);enable-background:new    ;}
	.st5{opacity:0.6;fill:url(#Arm-Left-Shadow46_1_);enable-background:new    ;}
	.st6{opacity:0.302;fill:url(#Arm-Left-Shadow44_1_);enable-background:new    ;}
	.st7{fill:#E6E6E6;}
	.st8{fill:url(#Arm-Left-Shadow40_1_);}
	.st9{fill:url(#Body-SHadow-83_1_);}
	.st10{fill:url(#Body-SHadow-82_1_);}
	.st11{fill:#DEDEDE;}
	.st12{opacity:0.702;fill:url(#Arm-Left-Shadow57_1_);enable-background:new    ;}
	.st13{fill:url(#Arm-Left-Shadow56_1_);}
	.st14{fill:url(#Arm-Left-Shadow55_1_);}
	.st15{fill:url(#Arm-Left-Shadow54_1_);}
	.st16{fill:url(#Arm-Left-Shadow53_1_);}
	.st17{fill:url(#Arm-Left-Shadow50_1_);}
	.st18{opacity:0.502;fill:url(#Arm-Left-Shadow58_1_);enable-background:new    ;}
	.st19{fill:#8C8C8C;}
	.st20{fill:url(#Arm-Left-Shadow43_1_);}
	.st21{fill:url(#Arm-Left-Shadow52_1_);}
	.st22{opacity:0.502;enable-background:new    ;}
	.st23{fill:url(#Arm-Right-SHadow-50_1_);}
	.st24{fill:#545454;}
	.st25{fill:#737373;}
	.st26{opacity:0.902;fill:#5E5E5E;enable-background:new    ;}
	.st27{opacity:0.902;fill:url(#Glass5_1_);enable-background:new    ;}
	.st28{opacity:0.502;fill:url(#Glass4_1_);enable-background:new    ;}
	.st29{fill:url(#Body-Shadow8_1_);}
	.st30{fill:url(#Body-Shadow7_1_);}
	.st31{fill:#999999;}
	.st32{fill:#A6A6A6;}
	.st33{fill:#F2F2F2;}
	.st34{opacity:0.702;fill:url(#Gun-ShadowR5_1_);enable-background:new    ;}
	.st35{fill:url(#Gun-ShadowR_1_);}
	.st36{fill:url(#Body-Light3_1_);}
	.st37{fill:url(#Body-Light4_1_);}
	.st38{fill:url(#Body-Light5_1_);}
	.st39{fill:url(#Body-SHadow-80_1_);}
	.st40{fill:url(#Body-SHadow-92_1_);}
	.st41{opacity:0.302;fill:url(#LegL-Shadow7_1_);enable-background:new    ;}
	.st42{opacity:0.4;fill:url(#LegL-Shadow6_1_);enable-background:new    ;}
	.st43{opacity:0.451;fill:url(#LegL-Shadow5_1_);enable-background:new    ;}
	.st44{opacity:0.4;fill:url(#LegL-Shadow4_1_);enable-background:new    ;}
	.st45{opacity:0.502;fill:url(#LegL-Shadow3_1_);enable-background:new    ;}
	.st46{opacity:0.502;fill:url(#LegR-Shadow4_1_);enable-background:new    ;}
	.st47{fill:url(#LegLeft-Shadow_1_);}
	.st48{fill:#666666;}
	.st49{opacity:0.302;fill:url(#Body-Shadow5_1_);enable-background:new    ;}
	.st50{fill:url(#LegR-Shadow2_1_);}
	.st51{opacity:0.2;fill:url(#LegR-Shadow_1_);enable-background:new    ;}
	.st52{opacity:0.2;fill:url(#LegR-Shadow10_1_);enable-background:new    ;}
	.st53{opacity:0.4;fill:url(#LegR-Shadow3_1_);enable-background:new    ;}
	.st54{opacity:0.4;fill:url(#LegR-Shadow6_1_);enable-background:new    ;}
	.st55{opacity:0.451;fill:url(#LegR-Shadow5_1_);enable-background:new    ;}
	.st56{opacity:0.302;fill:url(#LegR-Shadow7_1_);enable-background:new    ;}
	.st57{opacity:0.502;fill:url(#LegR-Shadow9_1_);enable-background:new    ;}
	.st58{opacity:0.502;fill:url(#LegL-Shadow9_1_);enable-background:new    ;}
	.st59{opacity:0.2;enable-background:new    ;}
	.st60{fill:#767678;}
	.st61{fill:#A800A8;}
	.st62{fill:#6E1370;}
	.st63{opacity:0.2;fill:url(#Body-Shadow2_1_);enable-background:new    ;}
	.st64{fill:url(#Body-Shadow_1_);}
	.st65{fill:url(#Body-Shadow88_1_);}
	.st66{fill:none;stroke:#1A1A1A;stroke-width:5;}
</style>
<path id="Fill-All" class="st0" d="M375.5,749.9l43-267.9l51.8-25.3l2-14.5c0,0-8.8-0.3-23.2-1.6c-16.4,5.2-38.8,29.1-49.6,48.9
	c-10.9,19.9-15.1,19.2-15.1,19.2l-10.7-6.9c0,0-5.7-23.8-7.7-44.1c-1.8-18.2-1.9-36.4-1.9-36.4s20.1-46.9,46.8-96.6
	c17.8-33.2,42.8-84,59.4-90.4c0.7-2.3,13.8-6.9,23.8-9.7c36.7-6.9,88.8-20.2,118.8-26c24.5-4.7,37.3-8.1,47.1-2.6
	c11.2,6.3,16.4,22.8,15.9,51.5C707,173.2,766.8,155,779,151.2c3.5-4.3,18.9-35.8,59.9-51.3c70.8-21.2,110.5,3.8,117.9,9.2
	s15.2,23.6,26,43.5c72.4,18.4,91.9,51.4,110,77.6c6.1,2.3,12.5,8.4,20.6,19.3c19.1-30.7,70.6-27.7,88.5-26
	c-0.5-6.2,13.3-28.4,40.8-28.4s39.5,17.6,45.9,33c62.4,16.3,87.9,45.9,91.4,62.9s5.5,25.3-11.8,35.7s-53.3,14.7-53.3,14.7l15.4,10.6
	l25.8-3.4l82.8,26.2l-7.6,19l30.9,15l43.6-2.3l79.6,25.3l-12.1,18.3l120.1,50.5l-130.2,118.8l-70.8-22.7l-15.2,21.5l-75.8-44.2
	l-10.1-21.5c0,0-10.7-5.3-21.4-10.7c-12.5,6.7-62,32.2-104.2,53.9c-9.9-5.5-26-14.3-33.7-18c-1.1,8.1-1.3,25.5-1.7,36.2
	c-13.9,7.2-24.3,12.5-28,14.4c-2.3,49.5-9.4,66.9-9.4,66.9l51.8-2.5l43,35.4l99.8,398.1l-25.3,5.1l7.6,27.8l37.9,39.2l1.3,58.1
	l-29.1,30.3l-10,53.2l-46.8,12.6c0,0-4-11.5-7.6-17.7c-46.2,16.7-88.5-10.1-88.5-10.1s-10.7,4.1-15.2,6.3
	c-2.8,15.8-16.4,31.6-16.4,31.6s3.5,17.2,3.8,22.7c-2.7,5.5-16.4,10.1-16.4,10.1l10.1,63.2l16.4,24l75.8,60.7l40.4,109.9v20.2
	l-32.9,7.6l-101.1-46.8l2.5,64.4l-37.9,10.1l-80.9-59.4l-46.8-85.9l3.8-78.3l49.3-13.9c0,0-6.3-42.3-8.8-60.7
	c-10.4-2.2-20.2-13.9-20.2-13.9s0.5-13.9,0-19c-7.2-6.8-17.3-19.2-26.5-37.9c-24.1-50.6,20.1-110.7,58.1-121.3
	c38.1-10.6,54.3-1.3,54.3-1.3l27.8-15.2c0,0,7.7,3.7,13.9,6.3c1.5-5.3,6.3-13.9,6.3-13.9l-13.9-7.6c0,0-60.8-217.6-73.3-261.6
	c-18.6-3.5-26.5-25.3-26.5-25.3s-9.5,40-19,65.7c-28.2,35.9-82.1,48-82.1,48l2.5-12.6l-15.2,2.5c0,0-1.9,5.5-2.5,10.1
	c-91.3,0.2-159.2-24-159.2-24l-1.3-17.7l-36.6-45.5c0,0-42.8,10.6-44.2,10.1s63.9,269.2,63.9,269.2s-42.8,3.7-43.6,3.9
	s14.3,46.6,14.3,46.6l36.6,39.4l4.4,59.9l-33.6,36.5l-8.7,54.9l-54.4,13l-14.5-35.2c0,0-8.8-2-14.2-1.7c-3.7,11.3-13.4,22-13.4,22
	s0.4,9.6,1.3,19.6c-3.8,7.8-14.3,14.3-14.3,14.3l14,71.4l18.8,1.9l78.3,89.7l22.2,113.6L772,1775l-36.7,11.7l-94.6-65.7l-12.4,82.1
	l-40.7,8.9l-70.6-72.4l-28.1-94.4l1.3-66.3l25.2-17.1h15.3c0,0-7.1-50.1-8.8-68.2c-10.1-4.4-17.9-13.4-17.9-13.4s-0.4-12.2-1.2-21.9
	c-7.5-5.4-23.6-20.5-27.8-48.2c-8.3-98.7,67.9-114.3,89.8-115.6c0.4-10.9,6.2-20.8,6.2-20.8s-8.3-37.7-19.8-90.1
	c-24.8-2.7-62.7-7.7-62.7-7.7s-38.6-0.4-80.8-30.3c-38.8-33.6-54.7-77.3-51.1-129.8c-3.4-1.8-7.9-3.8-7.9-3.8l-19-49.3l12.2-58.2
	c0,0-10.3-79,56-108.3C391.2,779.3,375.5,749.9,375.5,749.9z M585.9,758.9l77.1-6.3l11.4,36.6l-2.5-41.7L658,708.3l15.2-3.8
	c0,0-32.6-40.2-32.9-142.8C628.8,599.9,585.9,758.9,585.9,758.9z M645.3,450.6c-6.9,5-30.3,8.8-30.3,8.8l-7.6,30.3
	c0,0,23.4,30.7,32.9,43C640.4,519.8,644.3,455,645.3,450.6z"/>
<linearGradient id="Body-SHadow-81_1_" gradientUnits="userSpaceOnUse" x1="664.9641" y1="2164.8496" x2="672.579" y2="2019.526" gradientTransform="matrix(1 0 0 -1 0 2506)">
	<stop  offset="0" style="stop-color:#000000"/>
	<stop  offset="1" style="stop-color:#000000;stop-opacity:0"/>
</linearGradient>
<path id="Body-SHadow-81" class="st1" d="M695.8,392.4l-5.1-1.3c0,0-0.7,15.3-20.2,13.9c-4.9,16.5-7.5,29.5-25.3,41.7
	c-1.5,22.2-5.1,82.1-5.1,82.1l6.3,7.6c0,0,68.9-47,59.4-64.4C687.9,465.3,695.8,392.4,695.8,392.4z"/>
<radialGradient id="Arm-Left-Shadow47_1_" cx="428.4628" cy="1501.553" r="391.8533" gradientTransform="matrix(1 0 0 -1 0 2506)" gradientUnits="userSpaceOnUse">
	<stop  offset="0" style="stop-color:#1E1E1E"/>
	<stop  offset="0.503" style="stop-color:#D9D9D9"/>
</radialGradient>
<path id="Arm-Left-Shadow47" class="st2" d="M392.6,799.3c-12.9,5.8-57,36.7-50.5,109.9c18.4-7.1,64.4-21.5,64.4-21.5l41.7-34.1
	l17.7,5.1l5.1-21.5l73.3,10.1c0,0-1.1-7.3-7.6-13.9c-3.2-3.2-29.2-20.8-61.9-29.1C440.3,795.7,399.1,796.3,392.6,799.3z"/>
<path id="Arm-Left-Shadow48" class="st3" d="M339.5,909.3l21.5,43l22.7,2.5c0,0-20.1,27.8-27.8,61.9c-3.8-0.3-7.6-3.8-7.6-3.8
	l-20.2-48L339.5,909.3z M469.6,838.5l29.1,13.9l-10.1,49.3l-34.1,11.4L469.6,838.5z"/>
<linearGradient id="Arm-Left-Shadow45_1_" gradientUnits="userSpaceOnUse" x1="376.0619" y1="1903.6404" x2="645.2266" y2="1851.3201" gradientTransform="matrix(1 0 0 -1 0 2506)">
	<stop  offset="0" style="stop-color:#999999"/>
	<stop  offset="0.5" style="stop-color:#CCCCCC"/>
	<stop  offset="1" style="stop-color:#808080"/>
</linearGradient>
<path id="Arm-Left-Shadow45" class="st4" d="M417.8,483.4l-43,265.4c0,0,55.8-14.9,111.2,1.3s83.6,35.2,89.7,44.2
	c4.3-16.7,68.2-259.1,68.2-259.1s-29-36.4-104.9-54.3C466.1,466.4,417.8,483.4,417.8,483.4z"/>
<linearGradient id="Arm-Left-Shadow46_1_" gradientUnits="userSpaceOnUse" x1="374.2538" y1="1740.8094" x2="575.1796" y2="1701.7528" gradientTransform="matrix(1 0 0 -1 0 2506)">
	<stop  offset="0" style="stop-color:#808080"/>
	<stop  offset="0.499" style="stop-color:#999999"/>
	<stop  offset="1" style="stop-color:#666666"/>
</linearGradient>
<path id="Arm-Left-Shadow46" class="st5" d="M373.6,750l24,49.3c0,0,103.2-5.4,137.7,34.1c6.2-7.6,39.2-39.2,39.2-39.2
	s-29.1-34.5-102.4-46.8S373.6,750,373.6,750z"/>
<linearGradient id="Arm-Left-Shadow44_1_" gradientUnits="userSpaceOnUse" x1="424.7712" y1="2043.3286" x2="642.125" y2="2001.0798" gradientTransform="matrix(1 0 0 -1 0 2506)">
	<stop  offset="0" style="stop-color:#808080"/>
	<stop  offset="0.499" style="stop-color:#999999"/>
	<stop  offset="1" style="stop-color:#666666"/>
</linearGradient>
<path id="Arm-Left-Shadow44" class="st6" d="M422.9,482.1c15.8-4.7,81.3-13.5,123.8,0s78.2,30.5,93.5,49.3
	c-14-20.4-32.9-44.2-32.9-44.2s-53.8-46.9-141.5-26.5C445.3,469.8,433.6,475,422.9,482.1z"/>
<path id="Arm-Left-Shadow49" class="st7" d="M340.7,909.3l20.2,44.2h22.7c0,0,25.7-36.9,53.1-48c-5.8-11.6-8.8-25.3-8.8-25.3
	L340.7,909.3z"/>
<linearGradient id="Arm-Left-Shadow40_1_" gradientUnits="userSpaceOnUse" x1="554.5524" y1="2057.4478" x2="525.8629" y2="2330.4036" gradientTransform="matrix(1 0 0 -1 0 2506)">
	<stop  offset="0" style="stop-color:#CCCCCC"/>
	<stop  offset="1" style="stop-color:#F2F2F2"/>
</linearGradient>
<path id="Arm-Left-Shadow40" class="st8" d="M473.4,231.9c0,0,66.4-18,115-27.8c48.6-9.8,52.3-10.1,59.4-10.1s22.6,2.2,25.3,27.8
	s1.6,104.1,1.3,120s-2.5,61.9-2.5,61.9s-3.3,13.4-5.1,15.2c-8.9-3.1-43.5-13.1-109.9-15.2c-7,2.7-90.5,15.9-142.8,63.2
	c14.3-21.8,14.3-22.6,20.2-29.1c5.9-6.4,22.4-30.2,26.5-37.9c4.1-7.7,25.3-48.9,25.3-93.5C491.8,233.5,473.4,231.9,473.4,231.9z"/>
<linearGradient id="Body-SHadow-83_1_" gradientUnits="userSpaceOnUse" x1="692.2493" y1="2154.375" x2="681.7139" y2="2254.613" gradientTransform="matrix(1 0 0 -1 0 2506)">
	<stop  offset="0" style="stop-color:#4D4D4D"/>
	<stop  offset="1" style="stop-color:#BFBFBF"/>
</linearGradient>
<path id="Body-SHadow-83" class="st9" d="M674.4,258.5c0,0,0.7,73.8,0,99.8c4.8,0.6,8.8-1.3,8.8-1.3s20.2-46.2,19-87.2
	C696.9,255.2,674.4,258.5,674.4,258.5z"/>
<linearGradient id="Body-SHadow-82_1_" gradientUnits="userSpaceOnUse" x1="682.7428" y1="2102.021" x2="679.0238" y2="2137.4041" gradientTransform="matrix(1 0 0 -1 0 2506)">
	<stop  offset="0" style="stop-color:#4D4D4D"/>
	<stop  offset="1" style="stop-color:#BFBFBF"/>
</linearGradient>
<path id="Body-SHadow-82" class="st10" d="M673.1,370.9c6.2,0.7,18.2,4.1,17.7,17.7s-12.1,17.6-17.7,17.7
	C673.1,395.4,672.6,379.6,673.1,370.9z"/>
<path id="Arm-Left-Shadow41" class="st11" d="M473.4,233.2c5,0.1,18.5,17.2,11.4,82.1s-18.2,75.6-24,87.2
	c-5.9,11.6-37.9,45.9-48,63.2s-21.1,43-30.3,43c-9.2,0-11.4-10.3-12.6-17.7c-1.2-7.3-11-55.6-6.3-68.2
	c4.7-12.7,70.6-141.2,77.1-151.6C447,260.6,468.4,233.1,473.4,233.2z"/>
<linearGradient id="Arm-Left-Shadow57_1_" gradientUnits="userSpaceOnUse" x1="520.1083" y1="1309.2991" x2="653.8188" y2="1373.0178" gradientTransform="matrix(1 0 0 -1 0 2506)">
	<stop  offset="0.203" style="stop-color:#000000"/>
	<stop  offset="0.498" style="stop-color:#E6E6E6"/>
	<stop  offset="0.8" style="stop-color:#000000"/>
</linearGradient>
<path id="Arm-Left-Shadow57" class="st12" d="M565.7,1186c-3.7-6.8-13.8-25.2,8.8-37.9c22.7-12.7,38.1,3.8,39.2,11.4
	c-2.4,4.6-10.1,20.2-10.1,20.2s-4.5-6.3-10.1-6.3s-11.7,7.1-11.4,13.9C574.2,1186.6,570.1,1186.5,565.7,1186z"/>
<linearGradient id="Arm-Left-Shadow56_1_" gradientUnits="userSpaceOnUse" x1="438.336" y1="1311.5886" x2="700.5518" y2="1436.5469" gradientTransform="matrix(1 0 0 -1 0 2506)">
	<stop  offset="0.1" style="stop-color:#000000"/>
	<stop  offset="0.498" style="stop-color:#E6E6E6"/>
	<stop  offset="0.899" style="stop-color:#000000"/>
</linearGradient>
<path id="Arm-Left-Shadow56" class="st13" d="M554.3,1184.8c-6.4-6.7-15.2-15.8-15.2-29.1s8.9-31.8,22.7-34.1
	c2.1,2.3,3.8,3.8,3.8,3.8l10.1-5.1v-3.8c0,0,30.9-0.4,39.2,34.1c4.7-6.6,6.3-15.2,6.3-15.2s-2.2-47.8-53.1-45.5
	c-0.5,2.9-1.3,6.3-1.3,6.3l-16.4,6.3l-2.5-5.1c0,0-31.6,6.8-31.6,41.7c0,24.4,21.4,42.8,24,44.2
	C544.2,1184.1,550,1184.3,554.3,1184.8z"/>
<linearGradient id="Arm-Left-Shadow55_1_" gradientUnits="userSpaceOnUse" x1="360.0248" y1="1313.2974" x2="748.6077" y2="1498.4766" gradientTransform="matrix(1 0 0 -1 0 2506)">
	<stop  offset="0.1" style="stop-color:#000000"/>
	<stop  offset="0.498" style="stop-color:#E6E6E6"/>
	<stop  offset="0.899" style="stop-color:#000000"/>
</linearGradient>
<path id="Arm-Left-Shadow55" class="st14" d="M526.5,1182.2c-11.4-9.3-29.1-28.7-29.1-53.1s22.7-52.9,36.6-58.1
	c2.4,3.3,3.8,5.1,3.8,5.1l21.5-6.3v-6.3c0,0,64.8-2,67,59.4c3.6-7.3,6.3-19,6.3-19s-7.7-71.3-78.3-67c-1.7,2-3.8,6.3-3.8,6.3
	l-25.3,7.6l-2.5-3.8c0,0-45.5,10.9-45.5,77.1c0,34.7,36.6,56.9,36.6,56.9S521.7,1182.7,526.5,1182.2z"/>
<linearGradient id="Arm-Left-Shadow54_1_" gradientUnits="userSpaceOnUse" x1="279.3312" y1="1314.9753" x2="797.4417" y2="1556.574" gradientTransform="matrix(1 0 0 -1 0 2506)">
	<stop  offset="8.299999e-02" style="stop-color:#000000"/>
	<stop  offset="0.498" style="stop-color:#E6E6E6"/>
	<stop  offset="0.899" style="stop-color:#000000"/>
</linearGradient>
<path id="Arm-Left-Shadow54" class="st15" d="M497.4,1178.4c-16.3-15.3-43-42.4-43-72c0-29.7,13.3-65,54.3-84.7
	c2.4,3.4,3.8,5.1,3.8,5.1l32.9-7.6v-7.6c0,0,86.1-10.7,89.7,87.2c4.6-6.7,6.3-16.4,6.3-16.4s-0.9-99.2-102.4-96
	c-0.7,3.1-2.5,7.6-2.5,7.6l-34.1,11.4l-3.8-5.1c0,0-64.4,18.8-64.4,94.8c0,57.3,54.3,80.9,54.3,80.9S494.6,1177.9,497.4,1178.4z"/>
<linearGradient id="Arm-Left-Shadow53_1_" gradientUnits="userSpaceOnUse" x1="199.9429" y1="1318.0807" x2="848.0612" y2="1620.3032" gradientTransform="matrix(1 0 0 -1 0 2506)">
	<stop  offset="8.299999e-02" style="stop-color:#000000"/>
	<stop  offset="0.498" style="stop-color:#E6E6E6"/>
	<stop  offset="0.899" style="stop-color:#000000"/>
</linearGradient>
<path id="Arm-Left-Shadow53" class="st16" d="M470.9,1174.6c0,0-55.6-38.5-55.6-91s31.9-91.6,67-108.7c3.6,2.5,5.1,6.3,5.1,6.3
	l43-12.6l1.3-6.3c0,0,107.9-10.6,115,112.5c3.2,0.3,8.9,0.5,7.6-15.2c-1.3-15.6-5-48.5-20.2-73.3S592,935.5,524.2,937
	c-1.2,5.4-2.5,8.8-2.5,8.8l-44.2,11.4l-6.3-8.8c0,0-75.8,45-75.8,121.3c0,56.9,52,96.9,55.6,101.1
	C459,1173.5,470.9,1174.6,470.9,1174.6z"/>
<linearGradient id="Arm-Left-Shadow50_1_" gradientUnits="userSpaceOnUse" x1="125.2794" y1="1335.4993" x2="889.8083" y2="1692.0048" gradientTransform="matrix(1 0 0 -1 0 2506)">
	<stop  offset="8.299999e-02" style="stop-color:#000000"/>
	<stop  offset="0.498" style="stop-color:#E6E6E6"/>
	<stop  offset="0.899" style="stop-color:#000000"/>
</linearGradient>
<path id="Arm-Left-Shadow50" class="st17" d="M417.8,1151.9c-16.8-19.1-41.7-43.7-41.7-96c0-52.4,32.6-111.6,85.9-128.9
	c1.6,4.8,2.5,6.3,2.5,6.3l50.5-11.4v-10.1c0,0,72.9-8.2,109.9,43s29.1,88.5,29.1,88.5s7.6-4.6,7.6-21.5s-20-135-152.9-135.2
	c0.4,6.6,0,11.4,0,11.4s-36.1,7.9-54.3,16.4c-4.6-6.4-8.8-12.6-8.8-12.6s-89.7,38.4-89.7,142.8c0,59.7,42.8,98.7,55.6,107.4
	C414.4,1153.3,416.6,1155.6,417.8,1151.9z"/>
<linearGradient id="Arm-Left-Shadow58_1_" gradientUnits="userSpaceOnUse" x1="434.0852" y1="1351.7803" x2="441.292" y2="1582.3621" gradientTransform="matrix(1 0 0 -1 0 2506)">
	<stop  offset="0" style="stop-color:#000000"/>
	<stop  offset="0.353" style="stop-color:#000000;stop-opacity:0"/>
</linearGradient>
<path id="Arm-Left-Shadow58" class="st18" d="M473.4,1174.6c-10.9-7.3-51.2-36.2-56.9-78.3c-15-21.8-20.2-11.4-20.2-11.4
	s13.6,52.8,51.8,84.7C455.7,1171.5,463.6,1175,473.4,1174.6z"/>
<path id="Arm-Left-Shadow42" class="st19" d="M448.2,440.4c13.3-7.1,84.3-34.8,127.6-34.1c43.4,0.7,84.5,8.5,91,13.9
	c-4.4,8.7-9.1,33.4-53.1,36.6c-4.1-7.7-17.4-17.4-64.4-21.5c-47.1-4-68.9,1.1-78.3,8.8C464.3,443.3,453.5,443.4,448.2,440.4z"/>
<linearGradient id="Arm-Left-Shadow43_1_" gradientUnits="userSpaceOnUse" x1="477.7964" y1="2043.4274" x2="624.341" y2="2045.9856" gradientTransform="matrix(1 0 0 -1 0 2506)">
	<stop  offset="0" style="stop-color:#666666"/>
	<stop  offset="0.498" style="stop-color:#B3B3B3"/>
	<stop  offset="1" style="stop-color:#999999"/>
</linearGradient>
<path id="Arm-Left-Shadow43" class="st20" d="M472.2,444.2c0,0,33.6-16.1,80.9-8.8c47.3,7.2,58.9,14.7,61.9,20.2
	c-2,11.2-6.3,32.9-6.3,32.9s-29.6-24.6-72-30.3c-42.4-5.7-68.3,2-68.2,2.5C468.5,461.2,472.2,444.2,472.2,444.2z"/>
<linearGradient id="Arm-Left-Shadow52_1_" gradientUnits="userSpaceOnUse" x1="403.008" y1="1293.9493" x2="598.9245" y2="1568.2094" gradientTransform="matrix(1 0 0 -1 0 2506)">
	<stop  offset="0.286" style="stop-color:#808080"/>
	<stop  offset="0.596" style="stop-color:#D9D9D9"/>
</linearGradient>
<path id="Arm-Left-Shadow52" class="st21" d="M553,1184.8c0,0-37.3-37,7.6-63.2c3.9,2.4,6.3,5.1,6.3,5.1l8.8-5.1l1.3-5.1
	c0,0,31.3-0.9,39.2,36.6c-2.6,1.5-3.6-0.4-8.8-3.8c-5.3-3.4-22.1-13-36.6,1.3c-14.6,14.2-10.3,28.3-2.5,35.4
	C557.9,1185.3,553,1184.8,553,1184.8z M621.3,1140.5c0-8.5-1-50.1-53.1-50.5c-0.4,3.9,0,6.3,0,6.3l-16.4,6.3l-3.8-5.1
	c0,0-31.6,8.2-31.6,44.2c0,22.7,24,41.7,24,41.7l-12.6-1.3c0,0-30.3-21.5-30.3-53.1c0-28.2,21.8-51.6,37.9-58.1
	c1.8,4.2,3.8,6.3,3.8,6.3l20.2-6.3v-6.3c0,0,63.1-6.1,67,60.7C625.2,1127.6,623.2,1133.5,621.3,1140.5z M631.4,1112.7
	c0-9.8-3.8-76.2-75.8-75.8c-4.7,3.4-6.3,7.6-6.3,7.6l-22.7,6.3l-3.8-3.8c0,0-45.5,8.7-45.5,82.1c0,24.7,34.1,50.5,34.1,50.5
	l-24-12.6c0,0-32.9-22.5-32.9-65.7s30.5-65.2,54.3-80.9c2.2,2.8,3.8,6.3,3.8,6.3l32.9-7.6v-8.8c0,0,85.2-5.3,91,83.4
	C634.8,1099.7,633.3,1106,631.4,1112.7z M641.5,1078.6c-1.8-12.7-7.5-92.7-103.6-92.2c0.7,2.5-1.3,7.6-1.3,7.6l-34.1,11.4l-3.8-5.1
	c0,0-64.4,21.6-64.4,89.7c0,61,48,80.9,48,80.9h-13.9c0,0-54.3-37.6-54.3-88.5S441.2,999,482.3,975c3.8,3.9,5.1,6.3,5.1,6.3l43-12.6
	l1.3-6.3c0,0,113.7-10,113.7,116.3C643.7,1078.6,643.3,1082.3,641.5,1078.6z M647.8,1017.9c-4-16.2-24.4-83.4-123.8-80.9
	c-0.4,3.6-1.3,8.8-1.3,8.8l-45.5,11.4l-6.3-7.6c0,0-75.8,44.2-75.8,118.8c0,48.2,51.8,99.8,51.8,99.8l-32.9-19
	c0,0-36.6-29.1-36.6-97.3s49.1-113.7,84.7-125.1c2.1,3.6,3.8,7.6,3.8,7.6l50.5-12.6l-1.3-8.8c0,0,107.8-20.2,136.5,98.6
	C650.4,1015.6,651.8,1034.2,647.8,1017.9z"/>
<path id="Arm-Right-SHadow-51" class="st22" d="M1231.6,563l32.9-12.6v46.8l-34.1-20.2L1231.6,563z"/>
<linearGradient id="Arm-Right-SHadow-50_1_" gradientUnits="userSpaceOnUse" x1="1268.2998" y1="1877.2" x2="1268.2998" y2="2138.8999" gradientTransform="matrix(1 0 0 -1 0 2506)">
	<stop  offset="0" style="stop-color:#CCCCCC"/>
	<stop  offset="1" style="stop-color:#4D4D4D"/>
</linearGradient>
<path id="Arm-Right-SHadow-50" class="st23" d="M1205.1,367.1l87.2,154.2l48,35.4c0,0,10.6-20,11.4-20.2s17.7,7.6,17.7,7.6
	l-103.6,51.8l-1.3-45.5l-32.9,11.4l-2.5,53.1l-26.5,13.9v-31.6l-31.6-30.3c0,0,0.7-81.4-3.8-106.1c6.8-4.9,8.8-12.5,8.8-20.2
	s-0.8-28.3-1.3-31.6c1.2-2.8,5.3-12,11.4-20.2C1194.4,377.5,1205.1,367.1,1205.1,367.1z"/>
<path id="Glass" class="st24" d="M1082.5,566.8l-20.2,43l-68.2,5.1l-2.5-134l79.6-10.1c0,0,3,10.1,5.1,27.8
	C1079.5,526.5,1082.5,566.8,1082.5,566.8z M956.2,429.1l13.9,15.2l13.9,29.1v130.2L973.9,591l-10.1-13.9l-1.3-55.6l-8.8-6.3
	L956.2,429.1z M1067.4,458.1l-17.7-30.3l-73.3,8.8l16.4,31.6L1067.4,458.1z M1039.6,416.4l-27.8-16.4c0,0-49.1-2.1-58.1,8.8
	c6.6,9,16.4,19,16.4,19S1031.5,421.2,1039.6,416.4z"/>
<path id="Glass3" class="st25" d="M1067.4,458.1l-17.7-30.3l-73.3,8.8l16.4,31.6L1067.4,458.1z"/>
<path id="Glass2" class="st25" d="M1039.6,416.4l-27.8-16.4c0,0-19.7,0-34.1,2.5c-14.7,2.6-24,7.6-24,7.6l15.2,19L1039.6,416.4z"/>
<path id="Glass6" class="st26" d="M1076.2,498.6c3.3,27.9,6.3,68.2,6.3,68.2l-20.2,43l-68.2,5.1l-2.5-134l79.6-10.1
	C1071.2,470.8,1074.1,480.9,1076.2,498.6"/>
<linearGradient id="Glass5_1_" gradientUnits="userSpaceOnUse" x1="1094.2964" y1="1966.7468" x2="1003.3994" y2="1961.4434" gradientTransform="matrix(1 0 0 -1 0 2506)">
	<stop  offset="0" style="stop-color:#4C4C4C;stop-opacity:0"/>
	<stop  offset="0.45" style="stop-color:#999999"/>
	<stop  offset="0.506" style="stop-color:#FFFFFF;stop-opacity:0.6"/>
	<stop  offset="0.563" style="stop-color:#999999"/>
	<stop  offset="1" style="stop-color:#666666"/>
</linearGradient>
<path id="Glass5" class="st27" d="M1076.2,498.6c3.3,27.9,6.3,68.2,6.3,68.2l-20.2,43l-68.2,5.1l-2.5-134l79.6-10.1
	C1071.2,470.8,1074.1,480.9,1076.2,498.6"/>
<linearGradient id="Glass4_1_" gradientUnits="userSpaceOnUse" x1="1071.4281" y1="2085.7661" x2="991.7681" y2="2041.537" gradientTransform="matrix(1 0 0 -1 0 2506)">
	<stop  offset="0" style="stop-color:#4C4C4C;stop-opacity:0"/>
	<stop  offset="0.45" style="stop-color:#999999"/>
	<stop  offset="0.506" style="stop-color:#E6E6E6;stop-opacity:0.8"/>
	<stop  offset="0.563" style="stop-color:#999999"/>
	<stop  offset="1" style="stop-color:#666666"/>
</linearGradient>
<path id="Glass4" class="st28" d="M1068.6,459.4l-75.8,10.1l-16.4-34.1l73.3-10.1L1068.6,459.4z"/>
<linearGradient id="Body-Shadow8_1_" gradientUnits="userSpaceOnUse" x1="988.2449" y1="1950.3011" x2="985.9691" y2="2058.9768" gradientTransform="matrix(1 0 0 -1 0 2506)">
	<stop  offset="0.849" style="stop-color:#B3B3B3;stop-opacity:0"/>
	<stop  offset="1" style="stop-color:#B3B3B3"/>
</linearGradient>
<path id="Body-Shadow8" class="st29" d="M1163.4,461.9c-56.7,0-94.8,0-94.8,0l-19-36.6c0,0-26.4-23.4-40.4-25.3s-54,0.8-59.4,11.4
	c-5.4,10.5-5.1,59.4-5.1,59.4l-146.6,13.9v-39.2c0,0,86.4-14.2,120-11.4c15.6-22.3,31.6-50.5,31.6-50.5l88.5-7.6l37.9,48
	c0,0,71.4-10.7,98.6,26.5C1173.7,453.9,1169,461.9,1163.4,461.9z"/>
<linearGradient id="Body-Shadow7_1_" gradientUnits="userSpaceOnUse" x1="771.5338" y1="1935.1979" x2="752.1283" y2="2035.0289" gradientTransform="matrix(1 0 0 -1 0 2506)">
	<stop  offset="0.849" style="stop-color:#B3B3B3;stop-opacity:0"/>
	<stop  offset="1" style="stop-color:#B3B3B3"/>
</linearGradient>
<path id="Body-Shadow7" class="st30" d="M709.7,473.3c12.4-4.1,74.1-24.7,89.7-27.8c-0.1,16.5,0,99.8,0,99.8l-72-19l-27.8-56.9
	C699.6,469.5,704.9,472.3,709.7,473.3z"/>
<path id="Body-Light2" class="st7" d="M946.1,512.5l13.9,10.1l-43,68.2l-10.1-11.4L946.1,512.5z"/>
<path id="Gun-ShadowR2" class="st31" d="M1561.5,619.9l128.9-117.5L1516,517.5L1561.5,619.9z"/>
<path id="Gun-ShadowR4" class="st32" d="M1514.7,517.5l46.8,102.4l-72-22.7l-13.9,21.5l-75.8-44.2l-10.1-21.5l-36.6-16.4l-12.6,21.5
	l-46.8-35.4c0,0-60.8-100.8-82.1-146.6c15.7,5.5,64.4,27.8,64.4,27.8s45.8,17,45.5,17.7s5.1,6.3,5.1,6.3l53.1,21.5l34.1,13.9
	L1514.7,517.5z"/>
<path id="Gun-LightR" class="st33" d="M1691.6,502.4L1516,517.5l-103.6-54.3l161.8-12.6L1691.6,502.4z M1576.6,430.3l-72-25.3
	l-44.2,5.1l-29.1-17.7l-156.7,8.8c0,0,44.9,20.6,45.5,20.2s55.6,25.3,55.6,25.3L1576.6,430.3z M1435.1,374.7L1238,386.1l-30.3-15.2
	l6.3-7.6c0,0,139.3-13.6,140.3-13.9C1355.2,349.2,1435.1,374.7,1435.1,374.7z"/>
<linearGradient id="Gun-ShadowR5_1_" gradientUnits="userSpaceOnUse" x1="1335.1486" y1="2097.4651" x2="1328.1793" y2="2177.1216" gradientTransform="matrix(1 0 0 -1 0 2506)">
	<stop  offset="0" style="stop-color:#FFFFFF"/>
	<stop  offset="1" style="stop-color:#000000"/>
</linearGradient>
<path id="Gun-ShadowR5" class="st34" d="M1313.8,340.6L1329,352l29.1-1.3l77.1,22.7L1241.9,386l-32.9-13.9l-7.6-3.8
	c0,0,30.3-19.2,68.2-25.3C1302.9,340,1313.8,340.6,1313.8,340.6z M1431.3,392.4l-158,8.8l48,19l144.1-11.4L1431.3,392.4z"/>
<linearGradient id="Gun-ShadowR_1_" gradientUnits="userSpaceOnUse" x1="1648.4985" y1="1932.9915" x2="1548.6675" y2="1979.5431" gradientTransform="matrix(1 0 0 -1 0 2506)">
	<stop  offset="0" style="stop-color:#808080"/>
	<stop  offset="1" style="stop-color:#4D4D4D"/>
</linearGradient>
<path id="Gun-ShadowR" class="st35" d="M1546.3,528.9l99.8-10.1l-73.3,72L1546.3,528.9z"/>
<linearGradient id="Body-Light3_1_" gradientUnits="userSpaceOnUse" x1="923.3657" y1="2035.256" x2="874.7429" y2="2264.0093" gradientTransform="matrix(1 0 0 -1 0 2506)">
	<stop  offset="0.501" style="stop-color:#F2F2F2;stop-opacity:0"/>
	<stop  offset="1" style="stop-color:#E6E6E6"/>
</linearGradient>
<path id="Body-Light3" class="st36" d="M915.7,213c-19.5-0.4-67,3.6-123.8,29.1c9.4,22.6,24,54.2,24,199.7
	c17.7-1.9,102.4-8.8,102.4-8.8l31.6-48c0,0,34.5-5.1,46.8-5.1c-0.5-30-10.6-114.5-25.3-139c-17.4,0-35.4,0-35.4,0
	S924.9,226.7,915.7,213z"/>
<linearGradient id="Body-Light4_1_" gradientUnits="userSpaceOnUse" x1="1102.8903" y1="2026.1276" x2="1052.3934" y2="2263.7002" gradientTransform="matrix(1 0 0 -1 0 2506)">
	<stop  offset="0.501" style="stop-color:#F2F2F2;stop-opacity:0"/>
	<stop  offset="1" style="stop-color:#E6E6E6"/>
</linearGradient>
<path id="Body-Light4" class="st37" d="M997.9,211.7c24.5-0.1,80.8,12.8,99.8,22.7c19,10,36.9,60.6,50.5,96s32.5,87.6,26.5,118.8
	c-20.5-15.8-25.3-26.5-97.3-26.5c-17.5-19.7-39.2-45.5-39.2-45.5l-41.7,2.5c0,0-3.3-76-22.7-137.7c17.3-0.6,29.1-2.5,29.1-2.5
	S1000.4,221.4,997.9,211.7z"/>
<path id="Body-Light" class="st33" d="M820.9,637.6c11-3.1,154.2-45.5,154.2-45.5l-12.6-15.2l-44.2,13.9l-11.4-10.1l-108.7,32.9
	c0,0-113.6-15.6-122.6-21.5c22.1,15.9,33.1,19.1,40.4,21.5C723.4,616,797.1,639,820.9,637.6z M994.1,614.8l69.5-6.3l13.9,19
	l-69.5,8.8L994.1,614.8z M1095.2,579.4c0.9,0.7,104.9,15.2,104.9,15.2l-27.8-26.5l-68.2-8.8l2.5,6.3l-21.5,1.3
	C1085.1,566.8,1094.3,578.7,1095.2,579.4z"/>
<linearGradient id="Body-Light5_1_" gradientUnits="userSpaceOnUse" x1="914.45" y1="2330.8999" x2="914.45" y2="2413.1628" gradientTransform="matrix(1 0 0 -1 0 2506)">
	<stop  offset="0" style="stop-color:#DEDEDE"/>
	<stop  offset="1" style="stop-color:#F2F2F2"/>
</linearGradient>
<path id="Body-Light5" class="st38" d="M989,172.5c-7.6-22.1-22.4-55.9-34.1-64.4c-11.7-8.5-72.3-25-115-7.6
	c31.7,4.2,74.3,13.1,98.6,74.6C962,174.3,973.7,174.3,989,172.5z"/>
<linearGradient id="Body-SHadow-80_1_" gradientUnits="userSpaceOnUse" x1="798.5953" y1="1985.7274" x2="620.4159" y2="2002.9794" gradientTransform="matrix(1 0 0 -1 0 2506)">
	<stop  offset="0.2" style="stop-color:#000000;stop-opacity:0"/>
	<stop  offset="1" style="stop-color:#000000;stop-opacity:0.4"/>
</linearGradient>
<path id="Body-SHadow-80" class="st39" d="M695.8,393.7h-5.1c0,0-4.1,14.1-19,13.9c-3.3,8.7-9.8,31.8-26.5,40.4
	c-1,14.9-5.1,83.4-5.1,83.4l5.1,5.1l-5.1,20.2l1.3,20.2c0,0,49.1,46.6,176.9,61.9c-17.1-18.1-21.5-25.3-21.5-25.3V446.8
	c0,0-80.8,23.7-88.5,25.3c-7.6,1.6-11.9-10-12.6-20.2C695.1,441.6,695.8,393.7,695.8,393.7z"/>
<linearGradient id="Body-SHadow-92_1_" gradientUnits="userSpaceOnUse" x1="822.0342" y1="1807.3695" x2="643.8547" y2="1824.6201" gradientTransform="matrix(1 0 0 -1 0 2506)">
	<stop  offset="0.2" style="stop-color:#000000;stop-opacity:0"/>
	<stop  offset="1" style="stop-color:#000000;stop-opacity:0.4"/>
</linearGradient>
<path id="Body-SHadow-92" class="st40" d="M818.4,637.6c-21.8-2.8-149.2-28.4-178.2-61.9c1.5,32.6,11.3,124.8,79.6,202.2
	c18.5,13.1,32.9,19,32.9,19s29,11,50.5-50.5C816.5,707.1,817.8,662.5,818.4,637.6z"/>
<linearGradient id="LegL-Shadow7_1_" gradientUnits="userSpaceOnUse" x1="652.9671" y1="977.0058" x2="503.405" y2="961.2856" gradientTransform="matrix(1 0 0 -1 0 2506)">
	<stop  offset="0" style="stop-color:#000004"/>
	<stop  offset="0.5" style="stop-color:#000000;stop-opacity:0"/>
	<stop  offset="1" style="stop-color:#000004"/>
</linearGradient>
<path id="LegL-Shadow7" class="st41" d="M637.7,1570.2c5.4-3.5,12.4-14.7,12.6-21.5c-2.2-14.3-12.6-67-12.6-67s12-9.1,15.2-16.4
	c0.1-6.5-1.4-11.7-2.5-15.2c-61.2,48.4-113.5,36.4-146.6,12.6c-0.9,4.8-0.2,14.8,0,21.5c-3-1,9.8,8.5,17.7,11.4
	c1.4,16.9,13.9,111.2,13.9,111.2S537,1619,548,1622c3.8-21.5,10.1-45.5,10.1-45.5l19,1.3l1.3-12.6c0,0,38,1.1,51.8-10.1
	C633.9,1559.1,634.1,1563.7,637.7,1570.2z"/>
<linearGradient id="LegL-Shadow6_1_" gradientUnits="userSpaceOnUse" x1="597.1066" y1="1043.1599" x2="450.8997" y2="1230.2977" gradientTransform="matrix(1 0 0 -1 0 2506)">
	<stop  offset="0" style="stop-color:#000004"/>
	<stop  offset="0.5" style="stop-color:#000000;stop-opacity:0"/>
</linearGradient>
<path id="LegL-Shadow6" class="st42" d="M632.7,1421.1c7.9,1.9,31.6,6.3,31.6,6.3s-7.3,38.2-80.9,54.3
	c-73.6,16.2-103.4-45.7-107.4-64.4c-4.1-18.7-11.4-104.8,82.1-120.1c-5.3,6.4-64.1,46.9-31.6,99.8
	C559,1450,617.1,1439.6,632.7,1421.1z"/>
<linearGradient id="LegL-Shadow5_1_" gradientUnits="userSpaceOnUse" x1="601.9348" y1="1084.8325" x2="494.6581" y2="1222.1393" gradientTransform="matrix(1 0 0 -1 0 2506)">
	<stop  offset="0" style="stop-color:#000004"/>
	<stop  offset="0.5" style="stop-color:#000000;stop-opacity:0"/>
</linearGradient>
<path id="LegL-Shadow5" class="st43" d="M632.7,1422.3c-13.4-4.2-77.9-19.4-69.5-122.6c-22.4,11.4-60,47.5-43,84.7
	S587.3,1458.3,632.7,1422.3z"/>
<linearGradient id="LegL-Shadow4_1_" gradientUnits="userSpaceOnUse" x1="620.3688" y1="1091.533" x2="620.3688" y2="1297.2704" gradientTransform="matrix(1 0 0 -1 0 2506)">
	<stop  offset="0" style="stop-color:#000004"/>
	<stop  offset="0.5" style="stop-color:#000000;stop-opacity:0"/>
</linearGradient>
<path id="LegL-Shadow4" class="st44" d="M678,1423.4c-10.7,11.6-99-1.2-112.3-75.6c-12.4-69.6,13.1-109,96-126.4
	c-0.5,19.8-6.3,65.7-6.3,65.7l-37.9,49.3l8.8,51.8l45.5,22.7C671.8,1411,676,1414.3,678,1423.4z"/>
<linearGradient id="LegL-Shadow3_1_" gradientUnits="userSpaceOnUse" x1="559.0422" y1="1130.3374" x2="653.7855" y2="1276.2296" gradientTransform="matrix(1 0 0 -1 0 2506)">
	<stop  offset="0.5" style="stop-color:#000000;stop-opacity:0"/>
	<stop  offset="1" style="stop-color:#000004"/>
</linearGradient>
<path id="LegL-Shadow3" class="st45" d="M661.7,1222.7l-5.1,64.4l-39.2,46.8l2.5,30.3c0,0-19.3,17.1-56.9-16.4
	c-1.9-46-8.4-86.9,68.2-120C655.6,1223.1,661.7,1222.7,661.7,1222.7z"/>
<linearGradient id="LegR-Shadow4_1_" gradientUnits="userSpaceOnUse" x1="1196.2189" y1="1241.0023" x2="1273.7219" y2="1360.3446" gradientTransform="matrix(1 0 0 -1 0 2506)">
	<stop  offset="0.5" style="stop-color:#000000;stop-opacity:0"/>
	<stop  offset="1" style="stop-color:#000004"/>
</linearGradient>
<path id="LegR-Shadow4" class="st46" d="M1288.5,1141.8v46.8l-35.4,48l2.5,22.7c0,0-44.5,13.2-78.3-31.6c0-38.5,33.8-60.2,45.5-74.6
	C1244.7,1149.6,1288.5,1141.8,1288.5,1141.8z"/>
<path id="Leg-Light" class="st11" d="M588.4,1231.5l142.8-21.5l3.8,3.8l43-5.1c0,0-114.3-461.5-115-460
	c-51.9,84.1-83.4,118.4-106.1,144.1c68.6,13.1,112.6,85.4,101.1,158c-4.5,28.3-36.2,83.3-43,102.4c-3.7,10.5-9.9,19.4-8.8,26.5
	c4.7,7.4,8.1,9.9,8.8,16.4c0.6,5.3-8.6,13.2-13.9,12.6c-7.4,1.4-5.4-22.4-5.1-17.7c-5,0.1-12.9-4.7-16.4-3.8
	C585,1215.2,588.4,1231.3,588.4,1231.5z M1220.3,1151.9l72-10.1v-12.6l64.4-10.1l3.8,11.4l26.5-3.8l-99.8-399.3l-43-32.9l-53.1,2.5
	c0,0-20,59.5-55.6,94.8C1140.7,811.8,1220.3,1151.9,1220.3,1151.9z"/>
<path id="Leg-Shadow90" class="st31" d="M578.3,1186l10.1,46.8l45.5-7.6c0,0-46,20.6-63.2,51.8c-3.6-19.5-20.2-92.2-20.2-92.2
	L578.3,1186z"/>
<linearGradient id="LegLeft-Shadow_1_" gradientUnits="userSpaceOnUse" x1="741.4548" y1="1555.3389" x2="725.473" y2="1685.4996" gradientTransform="matrix(1 0 0 -1 0 2506)">
	<stop  offset="0.151" style="stop-color:#4D4D4D"/>
	<stop  offset="1" style="stop-color:#999999"/>
</linearGradient>
<path id="LegLeft-Shadow" class="st47" d="M716.1,937.1l44.2-8.8c0,0,13.9-24.4,13.9-56.9s-10.1-57.3-25.3-64.4
	c-21.3,1.6-68.2,3.8-68.2,3.8L716.1,937.1z"/>
<path id="BodyDown-Shadow2" class="st32" d="M780.5,812c19.8,9.1,86.6,41.3,204.7,26.5c-4.4,24.5-30.3,175.7-30.3,175.7
	s-91.5-3.1-158-22.7C794,947.7,782,836.8,780.5,812z M1002.9,838.5c0.6-0.5,78.1-9.8,93.5-21.5c-5.3,17.9-17.8,64.3-24,85.9
	c-6.2,21.7-15.4,53.1-17.7,60.7c-11,14.8-39.3,42.4-83.4,50.5C977.2,975,1002.3,839,1002.9,838.5z"/>
<path id="BodyDown-Shadow3" class="st48" d="M1002.9,837.2l-19,2.5L958.7,1004l13.9-1.3L1002.9,837.2z"/>
<path id="BodyDown-Shadow" class="st25" d="M794.4,969.9l-15.2-159.2c0,0-24.5-11.5-49.3-26.5c-28.1-17.1-56.9-37.9-56.9-37.9
	c-0.1,0,0.2,15.8,0.4,26.1c0.2,10.4,2.1,27,2.1,27l3.8,8.8h69.5c0,0,25.3,11.7,25.3,65.7c0,20-8.8,43.5-15.2,53.1
	C767.3,938.2,794.4,969.9,794.4,969.9z"/>
<path id="Body-SHadow-93" class="st19" d="M671.8,745l-15.2-39.2l16.4-2.5c0,0,38.8,68.1,45.5,74.6C699,763.6,671.8,745,671.8,745z"
	/>
<linearGradient id="Body-Shadow5_1_" gradientUnits="userSpaceOnUse" x1="999.7086" y1="1655.3591" x2="962.9556" y2="1916.8685" gradientTransform="matrix(1 0 0 -1 0 2506)">
	<stop  offset="0" style="stop-color:#000004"/>
	<stop  offset="0.5" style="stop-color:#000000;stop-opacity:0"/>
</linearGradient>
<path id="Body-Shadow5" class="st49" d="M755.2,799.3c17,9,87.8,56.3,235,39.2c92.7-10.8,139.4-23.1,179.4-96
	c9.4-17.2,34.3-47.2,31.6-146.6c-18-2.8-104.9-15.2-104.9-15.2l-17.7,46.8l-70.8,8.8l-34.1-44.2l-154.2,45.5
	C819.7,637.6,821.8,796.4,755.2,799.3z"/>
<linearGradient id="LegR-Shadow2_1_" gradientUnits="userSpaceOnUse" x1="1018.0072" y1="1474.6478" x2="1168.3857" y2="1513.2585" gradientTransform="matrix(1 0 0 -1 0 2506)">
	<stop  offset="0.743" style="stop-color:#989898"/>
	<stop  offset="0.818" style="stop-color:#8A8A8A"/>
	<stop  offset="0.865" style="stop-color:#787878"/>
	<stop  offset="1" style="stop-color:#616161"/>
</linearGradient>
<path id="LegR-Shadow2" class="st50" d="M1184.9,1196.1c-4.7-3-12.4-4.6-13.9-10.5c-17.4-67.7-48.7-182.6-72-260
	c-6-0.2-22.8-6-26.5-24c10.1-39.7,24-84.7,24-84.7s8.5-3.3,21.5-12.6c6.8-10.8,17.7-10.1,17.7-10.1s82.1,341.6,87,361.8
	c0.2,0.6,0.2,0.9,0.2,0.9s-9.6,7.3-19,16.4C1195.4,1181.7,1187.3,1191.7,1184.9,1196.1z"/>
<linearGradient id="LegR-Shadow_1_" gradientUnits="userSpaceOnUse" x1="1219.1061" y1="1449.5615" x2="1068.7277" y2="1599.9399" gradientTransform="matrix(1 0 0 -1 0 2506)">
	<stop  offset="0.5" style="stop-color:#000000;stop-opacity:0"/>
	<stop  offset="1" style="stop-color:#000004"/>
</linearGradient>
<path id="LegR-Shadow" class="st51" d="M1184.9,1196.1c-4.7-3-12.4-4.6-13.9-10.5c-17.4-67.7-48.7-182.6-72-260
	c-6-0.2-22.8-6-26.5-24c10.1-39.7,24-84.7,24-84.7s8.5-3.3,21.5-12.6c6.8-10.8,17.7-10.1,17.7-10.1s82.1,341.6,87,361.8
	c0.2,0.6,0.2,0.9,0.2,0.9s-9.6,7.3-19,16.4C1195.4,1181.7,1187.3,1191.7,1184.9,1196.1z"/>
<linearGradient id="LegR-Shadow10_1_" gradientUnits="userSpaceOnUse" x1="1289.5375" y1="1306.5409" x2="1233.5247" y2="1762.7311" gradientTransform="matrix(1 0 0 -1 0 2506)">
	<stop  offset="0.5" style="stop-color:#000000;stop-opacity:0"/>
	<stop  offset="1" style="stop-color:#000004"/>
</linearGradient>
<path id="LegR-Shadow10" class="st52" d="M1284.7,728.6c0,0-21-17.9-40.4-34.1c-36.3,1.9-51.8,1.3-51.8,1.3s-11,27-25.3,50.5
	c-14.8,24.4-32.9,45.5-32.9,45.5l85.9,358.9c0,0,38.7-3.1,70.8-8.8c0.7-4.2,1.8-10.7,2.5-12.6c24.1-5.7,50.4-8.5,63.2-10.1
	c2.4,3.6,5.1,13.9,5.1,13.9l24-6.3L1284.7,728.6z"/>
<linearGradient id="LegR-Shadow3_1_" gradientUnits="userSpaceOnUse" x1="1245.978" y1="1177.3093" x2="1245.978" y2="1375.0792" gradientTransform="matrix(1 0 0 -1 0 2506)">
	<stop  offset="0" style="stop-color:#000004"/>
	<stop  offset="0.5" style="stop-color:#000000;stop-opacity:0"/>
</linearGradient>
<path id="LegR-Shadow3" class="st53" d="M1314.9,1336.2c-31.7,13.6-121.7,0-135-74.3c-1.9-10.4-11.8-54.3,21.5-85.9
	c16.8-16,11.5-24.8,89.7-32.9c-0.5,19.8-3.8,45.5-3.8,45.5l-35.4,46.8l7.6,45.5l40.4,17.7
	C1299.9,1298.5,1312.9,1327.1,1314.9,1336.2z"/>
<linearGradient id="LegR-Shadow6_1_" gradientUnits="userSpaceOnUse" x1="1127.6909" y1="1163.4185" x2="984.0491" y2="1347.2706" gradientTransform="matrix(1 0 0 -1 0 2506)">
	<stop  offset="0" style="stop-color:#000004"/>
	<stop  offset="0.5" style="stop-color:#000000;stop-opacity:0"/>
</linearGradient>
<path id="LegR-Shadow6" class="st54" d="M1139.4,1352.8c14.8-3.9,70.8-21.5,70.8-21.5s-3.5,49.5-77.1,65.7s-108.4-50.8-112.5-69.5
	c-8-20.1,6.4-127.4,113.7-109.9c-5.3,6.4-67.4,18.6-55.6,88.5C1088.8,1328.5,1103.4,1342.9,1139.4,1352.8z"/>
<linearGradient id="LegR-Shadow5_1_" gradientUnits="userSpaceOnUse" x1="1182.3575" y1="1177.4755" x2="1066.3235" y2="1325.9924" gradientTransform="matrix(1 0 0 -1 0 2506)">
	<stop  offset="0" style="stop-color:#000004"/>
	<stop  offset="0.601" style="stop-color:#000000;stop-opacity:0"/>
</linearGradient>
<path id="LegR-Shadow5" class="st55" d="M1224.1,1323.8c-18.6-17.2-53.8-26.8-45.5-115c-3.6-1.8-9.3-5.1-13.9-5.1
	c-18.9,9.2-49.5,24.7-70.8,40.4c-17,19.5-20.5,50-13.9,64.4c11.5,25.2,31.9,41.3,62.1,43.6C1158.4,1348,1202.4,1335.3,1224.1,1323.8
	z"/>
<linearGradient id="LegR-Shadow7_1_" gradientUnits="userSpaceOnUse" x1="1199.0706" y1="1066.6078" x2="1052.1812" y2="1051.1682" gradientTransform="matrix(1 0 0 -1 0 2506)">
	<stop  offset="0" style="stop-color:#000004"/>
	<stop  offset="0.5" style="stop-color:#000000;stop-opacity:0"/>
	<stop  offset="1" style="stop-color:#000004"/>
</linearGradient>
<path id="LegR-Shadow7" class="st56" d="M1183.6,1472.9c5.4-3.5,8-5.9,10.1-8.8c-2.2-14.3-11.4-65.7-11.4-65.7s11.5-8,16.4-12.6
	c-0.7-5.7-2.5-14.3-5.1-20.2c-49.8,47.3-108.9,37.3-140.3,15.2c-1.3,4-2,11.8-1.3,16.4c-3.3-0.4,24.9,18.2,21.5,17.7
	c1.4,16.9,11.4,96,11.4,96s10.5,9.6,21.5,12.6c3.8-21.5,3.8-36.6,3.8-36.6l17.7,1.3l1.3-11.4c0,0,27.6,5.5,49.3-11.4
	C1182.3,1469.4,1180,1466.4,1183.6,1472.9z"/>
<linearGradient id="LegR-Shadow9_1_" gradientUnits="userSpaceOnUse" x1="1292.5222" y1="876.4" x2="1191.2001" y2="876.4" gradientTransform="matrix(1 0 0 -1 0 2506)">
	<stop  offset="0.5" style="stop-color:#000000;stop-opacity:0"/>
	<stop  offset="1" style="stop-color:#000004"/>
</linearGradient>
<path id="LegR-Shadow9" class="st57" d="M1292.3,1681.4c0.5-8.7,0-16.4,0-16.4l-101.1-87.2l1.3,56.9
	C1192.5,1634.6,1243.6,1659.9,1292.3,1681.4z"/>
<linearGradient id="LegL-Shadow9_1_" gradientUnits="userSpaceOnUse" x1="734.0222" y1="774.65" x2="637.8" y2="774.65" gradientTransform="matrix(1 0 0 -1 0 2506)">
	<stop  offset="0.5" style="stop-color:#000000;stop-opacity:0"/>
	<stop  offset="1" style="stop-color:#000004"/>
</linearGradient>
<path id="LegL-Shadow9" class="st58" d="M733.8,1790.1c0.5-8.7,0-20.2,0-20.2l-85.9-97.3l-10.1,3.8l2.5,49.3
	C640.2,1725.6,692.3,1760.6,733.8,1790.1z"/>
<path id="LegL-Shadow8" class="st59" d="M491.1,1592.9l31.6,92.2l60.7,113.7l41.7-11.4l5.1-108.7l17.7-2.5l85.9,96l37.9-12.6v21.5
	l-36.6,10.1l-93.5-64.4l-13.9,82.1l-41.7,8.8l-69.5-72l-27.8-97.3L491.1,1592.9z"/>
<path id="LegR-Shadow8" class="st59" d="M1033.2,1488l49.3,88.5l75.8,113.7l32.9-6.3l-1.3-107.4l102.4,88.5l32.9-7.6v16.4l-32.9,7.6
	l-98.6-45.5v48v16.4l-36.6,7.6l-83.4-58.1l-46.8-85.9L1033.2,1488z"/>
<path id="LegL-Shadow10" class="st60" d="M637.7,1675.1l2.5,50.5l-11.4,59.4l1.3-108.7L637.7,1675.1z"/>
<path id="Paint" class="st61" d="M1318.5,421.5c-22.9-10.6-43.9-20.3-43.9-20.3s80.9-4.1,155.4-8.8c10.1,5.2,24.3,12.1,34.1,16.4
	C1481.5,408.7,1343.7,418.8,1318.5,421.5z M890.5,185.2c-19.9-23-44.5-31.7-53.1-35.4c-17.4-7.5-44.2-1.6-56.9,2.5
	c4.3-7.8,21.8-41.7,68.2-54.3c60.9-12.9,78.4-1.5,104.9,11.4c22.6,18.5,34.1,65.7,34.1,65.7h-50.5l-2.5,64.4
	C934.7,239.5,915.8,214.6,890.5,185.2z M857.6,103l2.5,17.7l34.1,24l20.2-10.1C885.3,104.2,857.6,103,857.6,103z M1694.2,502.4
	L1516,518.8l-104.9-56.9l165.5-11.4L1694.2,502.4z"/>
<path id="Paint-Dark" class="st62" d="M383.7,954.8l-24-1.3l-11.4,61.9l-20.2-51.8l12.6-53.1l85.9-29.1l11.4,25.3
	C438.1,906.7,404.9,918.5,383.7,954.8z M674.5,898.1c-27.3,3-60.7,7-80,9.5c-11.2-7-24.1-12.6-39-16.1c0.9-15.4,1.3-37.9,1.3-37.9
	l-12.6-7.6c0,0-4.2-9.3-7.6-12.6c4.6-7.6,30-33.7,39.2-40.4c3.9-14,10.1-35.4,10.1-35.4L661,749c0,0,20.2,65.5,41.6,146.4
	c17.7,67.9,33,135.2,37,151.9c21.2,89.1,39.7,161.5,39.7,161.5l-45.5,3.8c0,0-7.2-2.1-13.9-1.3c-19.7,2.5-55.6,10.1-55.6,10.1
	l-75.8,11.4l-10.1-45.5c0,0,8.6,5.7,19,3.8c0.4,5.9-3.1,10.4-2.5,13.9c6.1,4.2,11.4,5.1,11.4,5.1l7.6-7.6c0,0,7.5-10.3-10.1-22.7
	c6.5-14.5,50.5-109.9,50.5-109.9s1.8-6.3,3.6-15.3c11.2-0.2,28.5-2.5,50.4-4.7C705.1,1032.9,676.6,910.2,674.5,898.1z M1191.2,695.7
	c0.1-0.7,54.3-2.5,54.3-2.5l41.7,35.4l99.8,396.8l-25.3,6.3l-5.1-12.6l-64.4,10.1l-1.3,13.9l-70.8,8.8L1134.3,788
	C1134.3,788,1181.5,742.8,1191.2,695.7z M1183.6,848.6l34.1,154.2l104.9-16.4L1286,834.7L1183.6,848.6z"/>
<linearGradient id="Body-Shadow2_1_" gradientUnits="userSpaceOnUse" x1="1186.017" y1="2153.1301" x2="1267.2831" y2="2289.2402" gradientTransform="matrix(1 0 0 -1 0 2506)">
	<stop  offset="0" style="stop-color:#000004"/>
	<stop  offset="0.5" style="stop-color:#000000;stop-opacity:0"/>
</linearGradient>
<path id="Body-Shadow2" class="st63" d="M1158.4,358.3c5.9-17.8,42.8-54.3,107.4-54.3s100.7-13.7,101.1-32.9
	c-12.7-21.6-65-40.9-78.3-41.7c-0.9,5.2,1.5,19,1.3,21.5c-4,3.1-18.7,15.2-46.8,15.2c-28,0-42.5-9.7-45.5-13.9
	c-0.1-8.2,1-24.1,3.8-29.1c-9.3-1.1-68.4-6.1-89.7,29.1C1123.4,272.5,1139.7,302.3,1158.4,358.3z"/>
<linearGradient id="Body-Shadow_1_" gradientUnits="userSpaceOnUse" x1="616.9686" y1="2126.4561" x2="857.2758" y2="2342.8291" gradientTransform="matrix(1 0 0 -1 0 2506)">
	<stop  offset="0" style="stop-color:#999999"/>
	<stop  offset="1" style="stop-color:#F2F2F2"/>
</linearGradient>
<path id="Body-Shadow" class="st64" d="M913.2,213c-10-14-58.7-85.3-134-60.7c-49.4,16.2-85.7,54.5-104.8,95.8
	c-2,22.9,26.4,1.1,26.4,21.7c2.1,0.9-5.1,70.6-17.7,87.2c-1.9,2-5.7,2.3-10.1,1.3c0.7,4.8-0.7,9.3,0,12.6c5.8,1.8,13.2,0.9,15.2,5.1
	c3.3,7.1,5.1,13.5,7.6,15.2c2.3-18.1,5.2-38.7,7.6-49.3C710.4,323.5,728.7,231.1,913.2,213z"/>
<radialGradient id="Body-Shadow88_1_" cx="949.3661" cy="-2595.2498" r="808.7579" gradientTransform="matrix(1 0 0 1 0 3042)" gradientUnits="userSpaceOnUse">
	<stop  offset="0.402" style="stop-color:#000000"/>
	<stop  offset="0.545" style="stop-color:#000000;stop-opacity:0"/>
</radialGradient>
<path id="Body-Shadow88" class="st65" d="M780.5,812c19.8,9.1,86.6,41.3,204.7,26.5c-4.4,24.5-30.3,175.7-30.3,175.7
	s-91.5-3.2-158-22.7C794,947.7,782,836.7,780.5,812z M1002.9,838.5c0.6-0.5,78.1-9.9,93.5-21.5c-5.3,17.9-17.8,64.3-24,85.9
	c-6.2,21.6-15.4,53.1-17.7,60.7c-11,14.8-39.3,42.5-83.4,50.5C977.3,975,1002.3,839,1002.9,838.5z"/>
<g id="Line">
	<path id="Line-All" class="st66" d="M665.5,748.8c0,0-41.5,4.1-79.1,7.9 M550.9,1184.2c11.5,52.4,19.9,90.2,19.9,90.2
		s-5.9,11.9-6.3,22.7c-21.9,1.3-98,15-89.7,113.7c4.2,27.7,20.3,45.1,27.8,50.5c0.8,9.7,1.3,21.5,1.3,21.5s7.6,8.2,17.7,12.6
		c1.8,18,8.8,69.5,8.8,69.5h-15.2l-25.3,16.4l-1.3,64.4l27.8,96l70.8,73.3l40.4-8.8l12.6-83.4l96,67l35.4-11.4v-20.2l-21.5-116.3
		l-78.3-89.7l-20.2-1.3l-12.6-69.5c0,0,10.1-8.6,13.9-16.4c-0.8-9.9-1.3-17.7-1.3-17.7s8.9-10.2,12.6-21.5
		c5.4-0.4,15.2,1.3,15.2,1.3l15.2,35.4l53.1-12.6l8.8-55.6l34.1-35.4l-5.1-65.7l-37.9-39.2c0,0-13.4-41.5-12.6-41.7s43-3.8,43-3.8
		s-64.6-272.1-63.2-271.7c1.4,0.4,44.2-10.1,44.2-10.1l36.6,45.5l1.3,17.7c0,0,67.9,24.2,159.2,24c0.6-4.6,2.5-10.1,2.5-10.1
		l15.2-2.5l-2.5,12.6c0,0,54-12.1,82.1-48c9.4-25.7,19-65.7,19-65.7s7.9,21.8,26.5,25.3c12.5,44,73.3,261.6,73.3,261.6l13.9,7.6
		c0,0-4.8,8.6-6.3,13.9c-6.2-2.7-13.9-6.3-13.9-6.3l-27.8,15.2c0,0-16.3-9.4-54.3,1.3c-38.1,10.6-82.2,70.8-58.1,121.3
		c9.2,18.7,19.3,31.1,26.5,37.9c0.5,5.1,0,19,0,19s11.7,11.5,20.2,15.2c2.6,18.3,8.8,59.4,8.8,59.4l-49.3,13.9l-3.8,78.3l46.8,85.9
		l80.9,59.4l37.9-10.1l-2.5-64.4l101.1,46.8l32.9-7.6v-20.2l-40.4-109.9L1209,1483l-16.4-24l-10.1-60.7c0,0,13.7-7.2,16.4-12.6
		c-0.3-5.5-3.8-22.7-3.8-22.7s13.6-15.8,16.4-31.6c4.4-2.2,15.2-6.3,15.2-6.3s42.3,26.8,88.5,10.1c3.6,6.2,7.6,17.7,7.6,17.7
		l46.8-12.6l10.1-53.1l29.1-30.3l-1.3-58.1l-37.9-39.2l-7.6-27.8l25.3-5.1l-99.8-398.1l-43-35.4l-51.8,2.5c0,0,10.1-24.6,10.1-98.6
		c-16-16.7-30.3-29.1-30.3-29.1s-2-70.4-3.8-83.4 M675.5,247c30.5-69.9,90.3-90.9,102.5-94.7c3.5-4.3,19.6-36.3,60.7-51.8
		c70.8-21.2,108.9,3.4,116.3,8.8c7.4,5.5,15.7,23.1,26.5,43c72.4,18.4,94.4,53.5,112.5,79.6c6.1,2.3,10.9,6.8,19,17.7
		c19.1-30.7,71.8-28.3,89.7-26.5c-0.5-6.2,11.7-27.8,39.2-27.8s40.3,17.4,46.8,32.9c62.4,16.3,87.5,46.2,91,63.2s5.9,24.9-11.4,35.4
		s-55.6,13.9-55.6,13.9l17.7,11.4l26.5-2.5l82.1,25.3l-7.6,19l34.1,15.2l40.4-2.5l79.6,25.3l-12.6,19l120,50.5l-130.2,118.8
		l-70.8-22.7l-15.2,21.5l-75.8-44.2l-10.1-21.5l-21.5-10.1l-104.9,53.1l-32.9-19l-2.5,37.9l-27.8,13.9"/>
	<path id="L-Arm-Right52" class="st66" d="M1327.7,350.7c0,0-80.2,5.2-107.4,7"/>
	<path id="Line-Body" class="st66" d="M977.6,144.7c16.3,30.9,24,94.8,24,94.8s-50.5,2.4-67,2.5c-76.6-122.7-136.3-96.5-164.3-87.2
		 M1173.5,449.3c-27.2-34.6-97.3-25.3-97.3-25.3l-39.2-46.8l-88.5,7.6c0,0-18.6,31-31.6,49.3c-24-0.3-87.9,4.3-119.3,12.5
		c-42.2,10.7-67.2,19-89.3,25.4c-8.1,2.4-13.9-14.2-13.9-55.6c0-12.1,6-58.4,10.1-74.6c26.4-103.4,151-126.2,208.5-128.9
		 M791.9,244.6c20.6,33.3,24,122.1,24,202.2 M798.2,448c0,67.6,0.2,144.4-2.5,165.5c11.9,10.6,24,24,24,24s-0.4,177.3-70.8,159.2
		 M721.1,779.1c-8.8-11-37-53-50.5-80.9 M799.5,483.4l35.4,19v41.7l-35.4,24 M906.9,582l10.1,8.8l44.2-13.9 M960,522.6l-41.7,65.7
		 M1200.1,595.9l-103.6-16.4l-19,48l-69.5,8.8l-34.1-44.2c0,0-111.2,31.9-154.2,45.5c-33.9-2-96.6-19.7-122.6-30.3
		c-26-10.7-54.2-21.3-56.9-36.6c8.8,6.9,2.4,3.4,32.9,17.7c30.4,14.3,126.4,25.3,126.4,25.3L905.6,582c0,0,9.1-16.6,39.2-68.2
		c-0.9-108.5,3.7-98.6,8.8-104.9c5.2-6.3,29.9-7.2,50.5-8.8c21.7,1.6,45.5,25.3,45.5,25.3s4.2,8.6,17.7,32.9
		c9.1,30,11.4,70.8,11.4,70.8l22.7,30.3l70.8,8.8 M1097.7,582l-15.2-13.9c0,0,0.3-1.3,0.8-1.3c3.9-0.2,22-1.2,22-1.2l-6.3-10.1
		 M1062.6,609l14.4,16.9 M985.2,839.8c61.5-28.6,56.9-177.2,56.9-206 M994.1,614.8l69.5-6.3l17.7-43l-2.5-37.9 M953.6,410.1
		c6.1,8.4,22.7,29.1,22.7,29.1l15.2,32.9c0,0-3.7,40.7,1.3,141.5 M984,606c0,0-4.4-92.9-1.3-131.4c-7.7-17.5-12.6-29.1-12.6-29.1
		s-8.8-11-15.2-17.7c-2.6,25.2-1.3,88.5-1.3,88.5 M992.8,480.9l75.8-10.1 M973.9,590.8l-11.4-13.9v-55.6l-16.4-8.8 M1171,541.5
		l-24-19l-1.3-34.1l21.5-13.9 M1052.2,426.5l-76.8,10.8 M992.8,468.2l72-8.8 M1039.3,417.7l-71.8,10.1 M1095.2,233.2
		c-20.5-8.7-73.2-21.5-96-21.5 M971.3,242c11,17.9,25.3,107.9,25.3,136.5 M834.8,101.8c21.8-4.6,82.4,9.2,102.4,73.3
		c-0.6,25-1.3,64.4-1.3,64.4 M986.5,173.8l-46.8,1.3"/>
	<path id="Line-Body2" class="st66" d="M1021.9,492.3c5-0.5,19-1.8,24-2.5s15,2.2,11.4,19c-3.7,16.8-10.9,36-12.6,40.4
		c-1.7,4.5-8.3,19.3-15.2-1.3c-6.8-20.6-13.7-37.3-15.2-41.7C1012.8,501.7,1013.7,492.9,1021.9,492.3z M843.7,689.4
		c6-4.8,41.1-29.2,46.8-32.9s21.6,7.6,10.1,17.7s-40.8,30.1-46.8,34.1C847.8,712.4,835.6,696,843.7,689.4z M843.7,739.9
		c6-4.8,41.1-29.2,46.8-32.9s21.6,7.6,10.1,17.7s-40.8,30.1-46.8,34.1C847.8,762.9,835.6,746.5,843.7,739.9z M1141.9,637.6
		c6.2,3.8,32.5,19.6,39.2,24s1.3,20.6-12.6,12.6c-14-8-28.5-17.2-35.4-21.5c-3.5-2.2-4-7.1-1.6-10.8
		C1133.8,638.3,1138.9,635.7,1141.9,637.6z M1128,676.7c6.2,3.8,32.5,19.6,39.2,24s1.3,20.6-12.6,12.6c-14-8-28.5-17.2-35.4-21.5
		c-3.5-2.2-4-7.1-1.6-10.8C1119.9,677.4,1125,674.9,1128,676.7z M790,392.4c5.2,0,9.5,8.2,9.5,18.3c0,10.1-4.2,18.3-9.5,18.3
		c-5.2,0-9.5-8.2-9.5-18.3S784.8,392.4,790,392.4z M760.3,295.6c9.4,0,17.1,14.5,17.1,32.3s-7.6,32.3-17.1,32.3
		s-17.1-14.5-17.1-32.3S750.9,295.6,760.3,295.6z"/>
	<path id="Line-Body3" class="st66" d="M762.8,307.8l6.3,5.1l-11.4,32.9l-6.3-5.1L762.8,307.8z"/>
	<path id="Line-Body9" class="st66" d="M783,650.2c5.6,0,10.1,7.9,10.1,17.7s-4.5,17.7-10.1,17.7s-10.1-7.9-10.1-17.7
		S777.5,650.2,783,650.2z"/>
	<path id="Line-Body5" class="st66" d="M856.3,103l3.8,17.7c0,0,17.5,8.6,32.9,24c9.1-4.9,20.2-10.1,20.2-10.1"/>
	<path id="Line-Body4" class="st66" d="M967.5,192.8c7.7,0,13.9,6.2,13.9,13.9s-6.2,13.9-13.9,13.9s-13.9-6.2-13.9-13.9
		S959.9,192.8,967.5,192.8z"/>
	<path id="Line-LegR3" class="st66" d="M1290.9,1143.1c-35.3,5.1-70.7,10.1-70.7,10.1l-85.9-362.7 M1117.9,804.4
		c10.1,40.5-3.4,121.3-20.2,121.3 M1311.3,832.2L1152,853.7 M1188.7,1007.8l160.5-25.3"/>
	<path id="Line-Body6" class="st66" d="M1168.5,485.9c-0.9-13.7,0-15.5-1.3-24c7.5-5.9,12.5-12,7.6-48c6.1-14.3,12.8-42.2,55.6-59.4
		c20-8,46.7-12,87.2-13.9 M1368.1,272.4c-3.7,15-27.1,31.6-91,31.6s-112.2,28.8-118.8,55.6c6.6,18,14.7,44.6,17.7,55.6"/>
	<path id="Line-Body7" class="st66" d="M1111.6,249.6c7.3,12.2,31.8,58.8,45.5,109.9"/>
	<path id="Line-Body14" class="st66" d="M1202.6,221.8c-2.4,6.2-4.9,21.8-5.1,30.3c8.3,6.9,56.4,29.2,92.2-1.3
		c-0.4-11.4-0.7-21.7-3.8-26.5c-33.1,18.1-76,7.1-82.1-1.3 M1201.3,235.7c10.1,7.7,56.6,21.6,87.2,0"/>
	<path id="Line-Gun3" class="st66" d="M1207.6,372.2l34.1,15.2c0,0,29.5,14.1,30.3,13.9s47.5,18.2,49.3,19c-2.8,0.5-2.5,2.5-2.5,2.5
		L1377,448l34.1,13.9l104.9,55.6"/>
	<path id="Line-Gun2" class="st66" d="M1689.1,502.4l-174.4,13.9l46.8,102.4 M1490.7,598.4l-83.4-137.7l165.5-10.1 M1584.2,431.3
		l-209.8,14.2L1478,617.4 M1390.9,553.8c0.2,0.3-74.6-134.9-74.6-134.9l183.2-12.6 M1431.3,392.4l-160.5,7.6l79.6,137.7
		 M1436.4,374.7l-195.9,10.1l99.8,171.9l12.6-21.5l20.2,8.8"/>
	<path id="L-Arm-Right50" class="st66" d="M1402.2,363.4l-192.1,10.1l82.1,146.6l49.3,35.4 M1264.5,594.6v-45.5l-32.9,11.4v20.2"/>
	<path id="L-Arm-Right51" class="st66" d="M1174.8,449.3c1.5,0.5,61.9-2.5,61.9-2.5l-3.8,75.8l-61.9,3.8"/>
	<path id="Line-Gun" class="st66" d="M1647.4,518.8l-101.1,8.8l25.3,64.4L1647.4,518.8z"/>
	<path id="Line-Leg" class="st66" d="M750.2,1642.2L639,1675.1l-117.5,7.6l-31.9-100.8 M530.3,1563.9c0,10.5,3.8,44.2,3.8,44.2
		s3.6,9.5,12.6,13.9c-0.9,4.7-1.3,8.8-1.3,8.8s9.3,6.9,27.8,8.8c0.3,3.9,0,12.6,0,12.6s51.3,16.7,96-19c-3.9-8.4-6.3-15.2-6.3-15.2
		s10.5-6.9,11.4-13.9c-4.3-7.7-26.5-45.5-26.5-45.5s-4.6,7.9-10.1,11.4c-3.7-5.6-8.8-15.2-8.8-15.2s-18.7,12.7-50.5,10.1
		c-0.1,6.4,0,12.6,0,12.6s-15.3-0.4-21.5-1.3c-2.7,9.4-10.1,44-10.1,44 M573.3,1638.4c0.6-10.3,3.8-58.1,3.8-58.1 M637.7,1571.4
		c7.8,14.7,24,45.5,24,45.5 M647.8,1675.1l85.9,94.8l37.9-11.4 M733.8,1771.1l1.3,17.7 M640.2,1724.3l-2.5-48 M630.1,1677.6
		l-3.8,108.7l-43,10.1l-63.2-112.5l-1.3,61.9"/>
	<path id="Line-Leg2" class="st66" d="M521.7,1495.6c9.8,5.2,77.5,22.1,119.8-16.4 M651.6,1447.6c-11,15.2-86.1,64.9-150.4,12.6
		 M476,1417.3c7.3-11.5,27.7-33.3,45.5-30.3 M563.2,1298.5c-112.2,66,4.8,178.5,69.5,123.8"/>
	<path id="Line-Leg3" class="st66" d="M665.5,1427.4c-16.8-0.8-116.8-10-101.1-130.2c4-30.7,39.4-69.1,101.1-75.8
		c31.7-6.3,68.2-11.4,68.2-11.4l36.6,121.3l-13.9,65.7 M693.3,1462.8l-43-107.4l12.6-131.4 M767.9,1332.6l-115,22.7"/>
	<path id="Line-Leg4" class="st66" d="M671.8,1411l-46.8-24l-7.6-51.8l39.2-51.8 M564.4,1346.5c12.7,12.9,33.3,26.5,58.1,17.7"/>
	<path id="Line-Leg5" class="st66" d="M661.7,1222.7l-73.3,10.1c0,0-3.8-18.3-9.9-47.1 M716.1,944.7L661.7,750 M594.7,907.3
		c49.3-4.9,106.2-10.6,106.2-10.6 M738.8,1048.3c0,0-39.8,3.8-82.3,7.9"/>
	<path id="Line-Leg6" class="st66" d="M757.8,928.2c13.6-5.7,31.3-96.8-8.8-120c-34.3,1.5-68.2,2.5-68.2,2.5"/>
	<path id="Line-Body8" class="st66" d="M796.9,986.4l-17.7-175.7 M1195,688.1c-9.1,30.8-16.8,48.3-37.9,75.8
		c-41,64.3-122.4,68.8-174.4,75.8c-172.2,23.4-267.8-66.6-312.1-96c-7.5-23.4-12.6-37.9-12.6-37.9s10.1-0.8,14.5-1.1 M673,702.6
		c-6.5-9.9-34.2-55.1-32.9-147 M641.5,530.2c0-13.4,2.5-73.2,5.1-83.4 M671.8,745c2,14.2,5.1,54.3,5.1,54.3 M985.2,838.5
		C982,853,960,997.8,957.4,1005.3 M972.6,1005.3c3-17.2,21.4-118.3,29.1-166.8 M1100.2,813.2c-6.4,18.9-25.2,72.5-31.6,99.8"/>
	<path id="Line-LegR" class="st66" d="M1323.9,1657.4l-31.6,7.6l-101.9-88.1c-0.2-0.2-0.5,0-0.4,0.2l1.3,57.5 M1191.2,1683.9
		l-32.9,7.6l-75.8-113.7l-50.5-92.2 M1074.9,1649.8l6.3-74.6h107.4l93.5-34.1 M1216.5,1504.5c-3.1,5.6-8.4,11.2-12.6,13.9
		c2.4,4.3,7.6,15.2,7.6,15.2s-33.7,35.4-85.9,19c0.8-4.6,0-11.4,0-11.4s-14.1-1.6-19-7.6c0.2-9.5,2.5-46.8,2.5-46.8
		s10.4,1.5,18.7,1.3c0.1-4,0-11.4,0-11.4s27.6,5.9,50.8-11.4c2.3,4.5,3.8,7.6,3.8,7.6l11.4-7.6l22.7,41.7 M1203.8,1518.4l-21.5-45.5
		 M1125.5,1542.4c0,0,2.3-45.1,2.3-53.8 M1107.8,1524.7c-6.6-2.4-18.9-9.7-22-12.6c-1.3-14.6-2.6-28.2-4.5-40.4 M1292.3,1681.4
		v-15.2 M1158.4,1691.5l-1.3,17.7"/>
	<path id="Line-LegR2" class="st66" d="M1069.9,1411c13.9,7.3,76.9,14.8,111.6-12.4 M1211.4,1331.3c-12.2,4.4-62.2,17.9-70.8,21.5
		c-21.9-2.5-51.8-21.1-60.7-43c-8.9-21.9-1.2-61.6,25.3-75.8c15-8,26.7-13.6,33.4-16.6 M1051.6,1377.7
		c38.9,36.4,112.7,20.7,142.2-13.5 M1226.6,1325c-64.4-32.4-51.6-106-46.8-117.5 M1176,1229c8.9,10.8,37.1,38.9,79.6,30.3
		 M1316.3,1338.9l-34.1-87.2l10.1-122.6l64.4-10.1l34.1,115l-11.4,53.1 M1388.3,1232.8L1286,1253 M1302,1301.5l-42.6-20.7l-7.6-45.5
		l35.4-48 M1235.2,1150.3c-19.5,9.3-38.5,23.7-50.3,45.8 M1030.7,1349c2.8-9.6,20.1-39.4,46.8-43"/>
	<path id="L-Arm-Left-72" class="st66" d="M637.7,194l-154.2,32.9c0,0-21.7,10.2-35.4,32.9c-13.7,22.7-79.2,145.6-83.4,161.8
		c-4.2,16.2,0.8,33.7,2.5,46.8c1.7,13,5.1,30.3,5.1,30.3s9.7,18.7,17.7,6.3c8-12.4,19.2-36.1,37.9-49.3c5.1-3.6,9.3-7.1,14.9-10.3
		c6.9-3.9,13.3-1.2,29.3-1.1c-1.2,7.5-2.5,15.2-2.5,15.2l-51.8,25.3l-43,266.6l21.5,43v5.1c0,0-59.6,26.5-54.3,104.9
		c-8.9,41.8-12.6,60.7-12.6,60.7l20.2,50.5l7.6,3.8c0,0-13.7,69.6,44.2,123.8c34.8,30.7,79.6,35.4,79.6,35.4l75.8,7.6l19,1.3
		l10.1,1.3c0,0,3.4,5.4,10.1,3.8c1.7,4.4,1.2,9.6,0,12.6c-1.2,3.1,8.8,5.1,8.8,5.1l8.8-7.6c0,0,7.4-10.9-8.8-20.2
		c7.1-20.3,39.2-91,39.2-91s24.3-38.7,16.4-83.4c-7.9-44.7-42.3-102.8-103.6-115c0.9-16.1,1.3-39.2,1.3-39.2l-12.6-5.1
		c0,0-5.8-10.1-7.6-13.9c1.3-2.2,3.8-8.8,3.8-8.8l35.4-31.6l68.2-257.8l-36.6-48l6.3-31.6c0,0,31.2-0.9,45.5-22.7
		s12.6-37.9,12.6-37.9l3.8-104.9c0,0-1-58.4-3.8-69.5C670.3,210.8,673.4,191.6,637.7,194z"/>
	<path id="L-Arm-Left-76" class="st66" d="M675.6,259.7c0,0,22-2.1,25.3,8.8s-5.9,74.1-19,91c-3.2,0-8.8,0-8.8,0 M674.4,372.2
		c0,0,16.4-1.4,16.4,15.2c0,21.7-19,19-19,19"/>
	<path id="L-Arm-Left-75" class="st66" d="M355.9,1019.2c2.8-19.9,21.8-88.2,91-117.5c3.5,5.5,6.3,11.4,6.3,11.4s20.2-7.3,55.6-15.2
		c-0.7-4.7-1.3-11.4-1.3-11.4s36.6,2.7,54.3,7.6 M448.2,1169.6c0,0-63.5-26.3-70.8-93.5C365,962.4,460.8,927,460.8,927l3.8,7.6
		l50.5-12.6c0,0-0.5-4.3-1.3-10.1c136.4-7.7,144.5,122.8,140.3,151.6 M651.6,1069.8c0.1-17.6,5.8-136.4-128.9-132.7
		c-0.1,6.2,0,8.8,0,8.8s-25.5,3.8-46.8,11.4c-2.2-5.1-5.1-8.8-5.1-8.8s-155.2,94.1-22.7,221.1 M645.3,1083.7
		c2-131.9-115-121.3-115-121.3l-1.3,6.3l-41.7,12.6c0,0-2.5-2.7-5.1-7.6c-60.8,39-68.2,76.5-68.2,109.9s25.5,74.9,67,93.5
		 M492.4,1177.2c-27.3-14.5-58.1-34-58.1-83.4s29.8-81.7,64.4-93.5c1.6,2.8,2.5,5.1,2.5,5.1l35.4-11.4v-7.6
		c0,0,105.6-6.8,103.6,106.1 M635.2,1105.1c-1.4-22.6-0.4-93.8-91-94.8c0.8,4.3,0,8.8,0,8.8l-32.9,7.6l-2.5-6.3
		c0,0-26.4,14.1-41.7,36.6c-22.1,32.5-21.3,87.6,35.4,121.3 M513.9,1179.7c-16.7-11.4-37.9-23.9-37.9-56.9s11.6-62,46.8-75.8
		c1.8,2.1,3.8,3.8,3.8,3.8l21.5-6.3l5.1-7.6c0,0,76.7-9.7,77.1,82.1 M621.3,1136.7c4.7-15.6,2.8-27.7,0-35.4
		c-1.8-5.1-15.6-38.5-63.2-36.6c0.2,3,0,6.3,0,6.3s-13.4,3-20.2,6.3c-2.8-4.1-3.8-6.3-3.8-6.3s-17.5,9.4-27.8,26.5
		c-13.3,22.2-16.9,56,20.2,83.4 M620,1140.5c-1.6-56.1-53.1-50.5-53.1-50.5v6.3l-15.2,5.1c0,0-2-1.9-3.8-3.8
		c-11,1.8-28.9,11.8-31.6,37.9c-2.7,26.1,11.6,36.5,22.7,48 M554.3,1184.8c-9.4-9.1-15.2-17.8-15.2-25.3s-0.7-28.4,21.5-37.9
		c1.6,2.7,5.1,3.8,5.1,3.8l10.1-3.8l-1.3-6.3c0,0,40.9,4.8,39.2,40.4c0,0.7-0.5,1.1-1.3,1.3c-4.9-10.7-22.6-18.4-36.6-10.1
		s-22,22.3-11.4,37.9 M582.1,1186c-2.7-7.2,10-18.3,21.5-6.3 M594.7,1191.1c9,0.7,15.8,3.1,15.2,12.6"/>
	<path id="L-Arm-Left-74" class="st66" d="M515.1,915.4c-3.8-10.9-6.3-17.5-6.3-17.5 M488.6,902.9l10.1-50.5l58.1,1.3 M522.6,937.4
		c2.6,7.7,5.4,16.2,8.3,25.3 M537,986.2c2.6,8.3,5.3,16.9,7.9,25.5 M552.2,1038.1c2.7,8.9,5.4,17.7,8.1,26.2 M568.1,1089.8
		c3.3,10.8,6.3,20.6,8.8,28.7 M561.9,1121.6l-13.9-24 M535.4,1072.3l-12.6-25.3 M510.1,1020.5l-11.4-20.2 M483.5,973.7l-12.6-25.3
		 M462.1,927l-15.2-24"/>
	<path id="L-Arm-Left-73" class="st66" d="M349.6,1015.4l10.1-61.9l24,1.3 M361,954.8l-20.2-45.5l85.9-27.8l10.1,24 M453.2,909.3
		l16.4-72l74.6,10.1 M555.6,885.3c-3.5-8.4-10.6-19-29.1-20.2c-18.4-1.2-29.6,10.9-26.5,32.9 M460,881.1
		c-2.7-5.7-11.9-24.9-11.9-24.9 M400.1,890.3l48-36.6l17.7,3.8"/>
	<path id="L-Arm-Left-71" class="st66" d="M537.9,836c-12.2-14.3-68.1-46.8-147.9-34.1"/>
	<path id="L-Arm-Left-70" class="st66" d="M574.5,793c-56-49.8-162.3-57.9-199.7-44.2 M417.8,484.7c24.4-10.1,142.6-30,226.2,50.5
		 M608.6,487.2c-20.7-13.1-65.5-43.2-141.5-26.5 M441.8,444.2c27.4-16.6,115-56.2,224.9-26.5 M401.4,484.7
		c25.9-48,41.1-47.8,65.7-94.8s27.5-167.6,3.8-155.4 M363.5,422.7c24.6-11.6,67.8-23.5,98.6-22.7c20.5,0.5,109.8,3.9,150.4,7.6
		 M472.2,443c28-15.9,123-10.8,142.8,11.4"/>
</g>
</svg>
