<?xml version="1.0" encoding="utf-8"?>
<!-- Generator: Adobe Illustrator 22.0.0, SVG Export Plug-In . SVG Version: 6.00 Build 0)  -->
<svg version="1.1" id="Слой_1" xmlns="http://www.w3.org/2000/svg" xmlns:xlink="http://www.w3.org/1999/xlink" x="0px" y="0px"
	 viewBox="0 0 1920 1920" style="enable-background:new 0 0 1920 1920;" xml:space="preserve">
<style type="text/css">
	.st0{fill:#F2F2F2;}
	.st1{opacity:0.902;fill:url(#Caterpillars-Shadow9_1_);enable-background:new    ;}
	.st2{opacity:0.129;fill:url(#Body-Shadow6_1_);enable-background:new    ;}
	.st3{fill:#DEDEDE;}
	.st4{opacity:0.502;fill:url(#Gun-Shadow8_1_);enable-background:new    ;}
	.st5{fill:url(#Gun-Shadow7_1_);}
	.st6{fill:#E5E5E5;}
	.st7{fill:#D9D9D9;}
	.st8{fill:#CCCCCC;}
	.st9{fill:#A800A8;}
	.st10{opacity:0.502;fill:url(#Head-Shadow3_1_);enable-background:new    ;}
	.st11{fill:url(#Body-Shadow5_1_);}
	.st12{opacity:0.2;enable-background:new    ;}
	.st13{opacity:0.8;fill:url(#Body-Shadow_1_);enable-background:new    ;}
	.st14{opacity:0.502;fill:url(#Caterpillars-Shadow8_1_);enable-background:new    ;}
	.st15{fill:#6E1370;}
	.st16{opacity:0.2;fill:url(#Body-Shadow3_1_);enable-background:new    ;}
	.st17{opacity:0.902;fill:url(#Caterpillars-Shadow6_1_);enable-background:new    ;}
	.st18{fill:#E3E3E3;}
	.st19{fill:#808080;}
	.st20{opacity:0.502;fill:url(#Caterpillars-Shadow3_1_);enable-background:new    ;}
	.st21{opacity:0.4;fill:url(#Caterpillars-Shadow2_1_);enable-background:new    ;}
	.st22{opacity:0.502;fill:url(#Caterpillars-Shadow_1_);enable-background:new    ;}
	.st23{opacity:0.902;fill:url(#Gun-Shadow_1_);enable-background:new    ;}
	.st24{fill:#B3B3B3;}
	.st25{fill:none;stroke:#1A1A1A;stroke-width:10;}
</style>
<path id="Fill-All" class="st0" d="M816,553c35-2.3,83.2-0.5,122,17s74.9,53,116,117c43,17,65,23.5,98,50s83.9,64.3,121,102
	c29.8-4.1,33.7,2.7,51,24s76.7,93.9,95,122s21.1,27.7,28,50c23.9,32.4,119.4,149.5,133,169c5.2,37.5,15,183,15,183s5.9,20.8-69,37
	c-47,10.1-81.4,24.8-103,7s-219-224-219-224s-86.8,28.1-145,36s-132.5,21.8-187-25s-118-116-118-116l-15-2l-1,6l105,217
	c0,0,18,151.2,21,187c1,12.6,2.6,27.1-5,35c-13.9,14.4-43,17.2-53,20c-15.5,4.4-95.1,19.4-116,22s-37.5-25.3-46-44
	s-105-215.6-116-238s-16.1-58.8-26-149c-15.8-8.8-45.2-41.6-48-82c-14.3-23.3-59.8-102.2-65-111s-5.3-25.4-5-37s2-86,2-86l32-5
	l12-15l52-5c0,0,3.8-9.7,7-12c3.9-28.8,6.4-61,36-83c29.6-22,68.7-31.5,105-39c11-37.4,18.9-63.6,30-82S698.9,560.8,816,553z"/>
<linearGradient id="Caterpillars-Shadow9_1_" gradientUnits="userSpaceOnUse" x1="782.9594" y1="841.3349" x2="653.5394" y2="587.3349" gradientTransform="matrix(1 0 0 -1 0 1920)">
	<stop  offset="0" style="stop-color:#000004"/>
	<stop  offset="0.5" style="stop-color:#000000;stop-opacity:0"/>
</linearGradient>
<path id="Caterpillars-Shadow9" class="st1" d="M559,1160c28.8-2.7,144.4-19.8,156-23s21.1-18.9,22-30c15.9,31.2,99,200.9,105,214
	c-26.8,6-196.7,38.3-205,40C628,1337.4,576.2,1208.8,559,1160z"/>
<radialGradient id="Body-Shadow6_1_" cx="472.92" cy="555.809" r="1415.989" gradientTransform="matrix(1 0 0 -1 0 1920)" gradientUnits="userSpaceOnUse">
	<stop  offset="0.447" style="stop-color:#000000;stop-opacity:0"/>
	<stop  offset="0.5" style="stop-color:#000004"/>
	<stop  offset="0.553" style="stop-color:#000000;stop-opacity:0"/>
</radialGradient>
<path id="Body-Shadow6" class="st2" d="M736,815c44.9,16.4,213.4,73.3,281,36c52.9,38.9,178,131,178,131l14-21c0,0,52,76.5,52,193
	c-7.2,29.8-11.7,40.5-65,53s-109.9,21.3-146-2c-36.1-23.3-127.9-67.3-212-208S787.7,896.7,736,815z"/>
<path id="Head-Shadow2" class="st3" d="M816,630c-21.6-4.5-115.8-53.6-133-51s-27.5,26.3-47,83s-10.8,89.2,4,106s124.5,57.7,139,61
	C783.4,787.3,792,717.5,816,630z"/>
<linearGradient id="Gun-Shadow8_1_" gradientUnits="userSpaceOnUse" x1="847.2337" y1="1119.0728" x2="950.7967" y2="1261.6147" gradientTransform="matrix(1 0 0 -1 0 1920)">
	<stop  offset="0" style="stop-color:#000004"/>
	<stop  offset="1" style="stop-color:#000000;stop-opacity:0"/>
</linearGradient>
<path id="Gun-Shadow8" class="st4" d="M893,789c-6.6-25.1-7.8-128.5,105-115c-22.1-18.4-28.7-22.4-35-26
	C893.8,636.2,830,691.4,893,789z"/>
<linearGradient id="Gun-Shadow7_1_" gradientUnits="userSpaceOnUse" x1="882.6718" y1="1077.3563" x2="991.6989" y2="1227.4193" gradientTransform="matrix(1 0 0 -1 0 1920)">
	<stop  offset="0" style="stop-color:#8B8B8C"/>
	<stop  offset="1" style="stop-color:#E6E6E6"/>
</linearGradient>
<path id="Gun-Shadow7" class="st5" d="M949,823c-18.4-16-36-43.2-19-81s75-59.4,109-13c-7.6-33.5-21.9-54.1-63-56
	s-103.7,39.3-80,119C912.5,810.2,911.6,817.1,949,823z"/>
<path id="Gun-Shadow5" class="st6" d="M1010,706l3,41l-24,6l-28-43C961,710,986,695.7,1010,706z"/>
<path id="Gun-Shadow6" class="st7" d="M958,711l17,26l-45,7C930,744,939.1,718.5,958,711z M1014,707c10.3,3.7,22.4,18.7,25,24
	c-11.4,1.4-26,3-26,3S1003.7,703.3,1014,707z"/>
<path id="Gun-Shadow3" class="st8" d="M929,748c9,8.7,17.5,26.2,22,31c-10.9,7.6-24,17-24,17S917.4,773.2,929,748z M973,812
	c6.8,6.3,13,17,13,17s-19.8,5.5-28-2c1.2-1.4-25-15.4-24-22c1.1-7,29.3-6.8,31-9c4-5.2,9.8,9.2,11,8C977.5,802.6,971,812.1,973,812z
	"/>
<path id="Gun-Shadow4" class="st7" d="M967,794l-36,7l20-19L967,794z"/>
<path id="Paint" class="st9" d="M817,631c-10.6,17-37.4,135-38,199c57.4,18.3,192.7,52.7,237,20c-20-13.5-31-22-31-22s-39,5.9-63-12
	s-48.3-45.1-53-77s0.2-73.4,45-89s52,0,52,0l55,37c0,0,16.3,23.5,17,43c21,20.3,39,32,39,32s-33.7-82.1-49-110s-37.4-42.8-41-43
	C984.4,616.4,972.7,647.3,817,631z"/>
<radialGradient id="Head-Shadow3_1_" cx="978.54" cy="1129.8359" r="137.133" gradientTransform="matrix(1 0 0 -1 0 1920)" gradientUnits="userSpaceOnUse">
	<stop  offset="0" style="stop-color:#000004"/>
	<stop  offset="1" style="stop-color:#000000;stop-opacity:0"/>
</radialGradient>
<path id="Head-Shadow3" class="st10" d="M983,827c13.5,8.6,23.3,16.9,31,23c-19.4,10.9-81,27.5-234-20c0.9-22.7,75.9-109.7,85-116
	c4.9,63.4,38.6,98.5,71,109S979.4,828.7,983,827z"/>
<linearGradient id="Body-Shadow5_1_" gradientUnits="userSpaceOnUse" x1="992.2681" y1="672.4445" x2="941.3461" y2="819.8336" gradientTransform="matrix(1 0 0 -1 0 1920)">
	<stop  offset="0.198" style="stop-color:#8C8C8C"/>
	<stop  offset="1" style="stop-color:#737373"/>
</linearGradient>
<path id="Body-Shadow5" class="st11" d="M758,1102c242,47.6,212.5,150,407,113c-106.3,36.4-172.3,39.1-242,30
	C882.3,1244.5,770,1119.9,758,1102z"/>
<path id="Caterpillars-Shadow5" class="st7" d="M674,1543c-6.7-38.4-29.3-156.7-37-181s-76-193.9-80-202c-8.5-4.1-35.8-32.9-65-97
	c-30.2-46.4-60.5-103.1-64-118c2.2-13.7,3.4-20,5-27c-8.2-4-35-34.4-37-45c2.2-4.9,9-12,9-12l-20-20c0,0-0.4,81,0,92
	c15.3,21.9,66,111,66,111s-1.2,88,51,110c4,41,10,87,10,87S680.7,1581.4,674,1543z M597,1108c15.3,2.6,102.2-7.2,120-17
	c14.8,4.5,21,8,21,8s-0.8,31.2-24,38s-133.7,22.1-155,22C580.3,1129.7,589.9,1118.1,597,1108z M1327,1011c12.3,0.5,84-2.3,100-17
	c8.3,11.8,20.3,30.5,20,43c-13,4-119.5,16.7-139,13C1320.2,1027.8,1320.8,1021.6,1327,1011z M512,733c0.6,6.5,8.7,29.8,20,36
	c-16.8,8.6-33.9,22.9-43,35C492.8,771.2,511.4,726.5,512,733z"/>
<path id="Caterpillars-Shadow7" class="st12" d="M447,989c9.4,15.8,39.6,64.3,44,70c1.5,21,10,94,10,94s-36.6-16.6-44-56
	S448.5,1010.2,447,989z"/>
<linearGradient id="Body-Shadow_1_" gradientUnits="userSpaceOnUse" x1="688.254" y1="863.6526" x2="653.587" y2="795.6137" gradientTransform="matrix(1 0 0 -1 0 1920)">
	<stop  offset="0" style="stop-color:#000004"/>
	<stop  offset="1" style="stop-color:#000000;stop-opacity:0"/>
</linearGradient>
<path id="Body-Shadow" class="st13" d="M595,1109c18.3-0.5,103.3-8.6,119-18c12.9,6,15.6,7.6,21,9c0.5,11.8,0.7,34.2-31,41
	s-134.8,18.8-145,18C573.2,1141.5,585.4,1121.3,595,1109z"/>
<linearGradient id="Caterpillars-Shadow8_1_" gradientUnits="userSpaceOnUse" x1="1226.3268" y1="910.7249" x2="1516.3268" y2="746.7839" gradientTransform="matrix(1 0 0 -1 0 1920)">
	<stop  offset="0" style="stop-color:#000004"/>
	<stop  offset="0.5" style="stop-color:#000000;stop-opacity:0"/>
</linearGradient>
<path id="Caterpillars-Shadow8" class="st14" d="M1425,996c-12.1,5.7-29.6,11.1-98,16c-7.3,14.6-27.3,54.2-36,65
	c19.9,26.8,110.4,153,116,160c19.3-2.1,174-32,174-32l-133-170C1448,1035,1434.5,1002.8,1425,996z"/>
<path id="Paint-Dark" class="st15" d="M728,812c-50.3,12.2-121.7,44.4-167,117c-22-0.3-40,4-40,4s-33.2,52.3-30,123
	c-21.3-30-55.2-80.9-64-112c9.2-42.9,44.7-124.1,70-147c25.3-22.9,79.6-59.4,129-69C629.2,751.7,616.5,771.6,728,812z M1055,687
	c15.9,5.5,61.1,22.3,85,41s124,101.7,124,103s-68.6-58.9-163-50c-5.8-4-12-10-12-10S1103.1,744.2,1055,687z"/>
<linearGradient id="Body-Shadow3_1_" gradientUnits="userSpaceOnUse" x1="300.0152" y1="887.1705" x2="605.0152" y2="1063.2625" gradientTransform="matrix(1 0 0 -1 0 1920)">
	<stop  offset="0" style="stop-color:#000000"/>
	<stop  offset="1" style="stop-color:#000000;stop-opacity:0"/>
</linearGradient>
<path id="Body-Shadow3" class="st16" d="M489,1054c4.5-45.7,16.9-112.5,33-121c25.4-5,35.3-7.6,42-7c11.5-19,75.7-97.2,169-114
	c-48.7-15.5-101.5-31.2-110-84c-18.4,4.2-91.8,32.3-127,69s-63.3,118.5-68,146C437.5,972.4,475.3,1043.7,489,1054z"/>
<path id="Body-Shadow4" class="st7" d="M600,928c11.4-21.3,47.3-84.6,125-109c-45,6.4-86.3,14.1-162,108
	C579.4,927,585.8,926,600,928z M1116,781c31.4-0.1,98,10.4,155,60c-9.4,7.1-20.2,13.3-24,16C1229.1,832.2,1214.5,810.4,1116,781z"/>
<path id="Body-Shadow2" class="st3" d="M594,1108c-14.3-14.1-62.8-121.2-72-172c-10.5,10-36.1,61.7-31,126c16,32.8,51,97.4,69,98
	C575.3,1136.5,588.1,1117.3,594,1108z M431,819c14.6,1.8,36.1,10.6,42,15c-10.1,14-32.3,54.4-41,86c-17.2-16.8-33.6-38.9-35-46
	C405.4,855.7,414.3,835,431,819z"/>
<linearGradient id="Caterpillars-Shadow6_1_" gradientUnits="userSpaceOnUse" x1="1431.7075" y1="647.8512" x2="1229.7075" y2="737.7873" gradientTransform="matrix(1 0 0 -1 0 1920)">
	<stop  offset="0" style="stop-color:#D9D9D9"/>
	<stop  offset="1" style="stop-color:#4D4D4D"/>
</linearGradient>
<path id="Caterpillars-Shadow6" class="st17" d="M1293,1077c24.5,37,100.4,134.4,113,163s17.8,114.8,20,163
	c-15.3-13.1-196.4-197.7-202-202c16.8-7.6,30-15.2,32-24S1267.8,1104.6,1293,1077z"/>
<path id="Caterpillars-Shadow4" class="st18" d="M638,1361c18.2-3.9,196.7-38.6,205-40c3.1,20.7,20.3,184.4,21,201
	c-19.2,3.9-177.1,32.9-187,34C672.5,1529,656.9,1426.7,638,1361z M1407,1238c16.7-3.3,165.4-27.6,174-29c1.9,16.1,11.6,143.3,13,166
	c-21.2,4.3-154,31.2-169,32C1423.4,1371.4,1418,1270.7,1407,1238z"/>
<path id="Caterpillars" class="st19" d="M865,1522c0.1,7.5,6.5,26.3-38,38s-136.5,31.3-151,24c-16.9,5.1-142.6-265.2-154-288
	c-4.8-13.8-5.8-40.5-8-51c21.6,36,164,312,164,312S864.9,1514.5,865,1522z M386,931l64,113l4,36c0,0-66.4-116.6-69-124
	S386,931,386,931z M1595,1373c1,10,5.7,27.6-25,37s-119.7,37.9-145,20c-25.9-24.2-220-221-220-221l18-9l203,202
	C1426,1402,1466.7,1401.4,1595,1373z"/>
<linearGradient id="Caterpillars-Shadow3_1_" gradientUnits="userSpaceOnUse" x1="1427.3593" y1="567.9102" x2="1203.9873" y2="644.8242" gradientTransform="matrix(1 0 0 -1 0 1920)">
	<stop  offset="0" style="stop-color:#000000;stop-opacity:0"/>
	<stop  offset="1" style="stop-color:#000004"/>
</linearGradient>
<path id="Caterpillars-Shadow3" class="st20" d="M1223,1202c10.3,11.9,176,178,203,204c1.2,11.8-1,19.3-1,25
	c-24-19.7-209.3-210.2-222-224C1217.8,1201.8,1213.8,1203.3,1223,1202z"/>
<linearGradient id="Caterpillars-Shadow2_1_" gradientUnits="userSpaceOnUse" x1="1513.5532" y1="496.8787" x2="1503.4893" y2="553.9528" gradientTransform="matrix(1 0 0 -1 0 1920)">
	<stop  offset="0" style="stop-color:#000004"/>
	<stop  offset="0.302" style="stop-color:#000000;stop-opacity:0"/>
</linearGradient>
<path id="Caterpillars-Shadow2" class="st21" d="M1426,1431c13.1,3.5,130.4,0.2,170-38c-0.4-8.8-1.5-15.4-2-18
	c-9,2-162.2,32.4-167,33C1427,1412.3,1425.8,1424.8,1426,1431z"/>
<linearGradient id="Caterpillars-Shadow_1_" gradientUnits="userSpaceOnUse" x1="771.7397" y1="345.151" x2="759.0507" y2="408.9991" gradientTransform="matrix(1 0 0 -1 0 1920)">
	<stop  offset="0" style="stop-color:#000004"/>
	<stop  offset="0.302" style="stop-color:#000000;stop-opacity:0"/>
</linearGradient>
<path id="Caterpillars-Shadow" class="st22" d="M670,1580c11.1,6.8,17.3,9.8,77-3s90.7-18,104-26s13.4-23.9,13-29
	c-24.6,3.4-175,34.5-186,36C676.7,1563.1,674.7,1578.6,670,1580z"/>
<linearGradient id="Gun-Shadow_1_" gradientUnits="userSpaceOnUse" x1="1249.4021" y1="956.5626" x2="1159.4021" y2="1019.5804" gradientTransform="matrix(1 0 0 -1 0 1920)">
	<stop  offset="5.000000e-03" style="stop-color:#676767"/>
	<stop  offset="1" style="stop-color:#4D4D4D"/>
</linearGradient>
<path id="Gun-Shadow" class="st23" d="M1152,913l90-10l-45,79L1152,913z"/>
<path id="Gun-Shadow2" class="st24" d="M1151,914L940,751l15,31l18,13l5,12l7,22l206,149L1151,914z"/>
<path id="Line-All" class="st25" d="M816,553c35-2.3,83.2-0.5,122,17s74.9,53,116,117c43,17,65,23.5,98,50s83.9,64.3,121,102
	c29.8-4.1,33.7,2.7,51,24s76.7,93.9,95,122s21.1,27.7,28,50c23.9,32.4,119.4,149.5,133,169c5.2,37.5,15,183,15,183s9.1,16.4-51,31
	c-46.7,11.3-97.6,21.5-121,13c-21.6-17.8-219-224-219-224s-86.8,28.1-145,36s-132.5,21.8-187-25s-118-116-118-116l-15-2l-1,6
	l105,217c0,0,18,151.2,21,187c1.2,13.8,2.8,27.8-6,36c-14,13-42.5,16.3-52,19c-15.5,4.4-95.1,19.4-116,22s-37.5-25.3-46-44
	s-105-215.6-116-238s-16.1-58.8-26-149c-15.8-8.8-44.2-32.6-47-73c-14.3-23.3-60.8-111.2-66-120s-5.3-25.4-5-37s2-86,2-86l32-5
	l12-15l52-5c0,0,3.8-9.7,7-12c3.9-28.8,6.4-61,36-83c29.6-22,68.7-31.5,105-39c11-37.4,18.9-63.6,30-82S698.9,560.8,816,553z"/>
<path id="Line-Gun8" class="st25" d="M1014,684c0,0-41.2-30-48-34c-3.4-2-18.9-4.9-36.9-2.8c-18.1,2-38.7,9-52.1,34.8
	c-26.7,51.5,9,105.8,26,121"/>
<path id="Line-Gun7" class="st25" d="M1041,731c-3.6-19.9-16.4-63.8-77-58c-60.6,5.8-83.3,76.5-73,109s47.1,44.3,73,46"/>
<path id="Line-Gun6" class="st25" d="M954,825l22-18 M972,793l-39,9l-4-7l23-14"/>
<path id="Line-Gun5" class="st25" d="M1039,731c-4-7.8-17.2-22-29-24 M959,710c5-2.7-23.7,9.3-31,36c-7.1,19.7-6.5,28.5-1,49
	s34.3,43,57,33"/>
<path id="Line-Gun4" class="st25" d="M1013,746c0-7.8-4-41-4-41s-19.5-9.2-48,3c8.9,15.8,25,42,25,42"/>
<path id="Line-Gun3" class="st25" d="M1194,983l52-81l-207-171l-27,3v13l-24,4l-17-13c0,0-35.7,6.1-40.5,6.9
	c-0.4,0.1-0.5,1.1-0.5,1.1l24,35l18,14l6,12l-5,6l11,14L1194,983z"/>
<path id="Line-Gun2" class="st25" d="M1241,903l-90,9l42,67"/>
<path id="Line-Gun" class="st25" d="M1152,914L933,746"/>
<path id="Line-Tower4" class="st25" d="M1054,687c11,15.3,45.6,50.7,36,85 M1013,851c13.5-4.1-41.7,47.3-276-36
	c-102.8-36.5-104.9-53.6-110-75c-6.5-27.4,1.2-54.9,5-65"/>
<path id="Line-Tower3" class="st25" d="M985,602c8.7,10.1-3.2,27.6-67,34c-108.2,10.9-138.6-24.3-191-45c-37.6-15.5-46.2-9.9-49-9"
	/>
<path id="Line-Tower2" class="st25" d="M759.4,823c2-22.8,5.2-46.7,9-69.6c8.3-4.6,11.7-6.4,21.6-11.4"/>
<path id="Line-Tower" class="st25" d="M779,828c6.8-85.1,31.9-188,37-199 M988,605c0,0,57.1,62.9,91.8,160.6"/>
<path id="Line-Body7" class="st25" d="M1200,1208c16.9-5.8,50.4-14.9,56-35s14.5-60.4,25-78s48.2-72.2,47-99s-11.6-63.3-81-141
	c15.4-6.9,26-16,26-16"/>
<path id="Line-Body6" class="st25" d="M1248,857c-14.4-18.6-37.8-58.4-145-74"/>
<path id="Line-Body5" class="st25" d="M515,730c-6,7-0.2,24.4,17,40"/>
<path id="Line-Caterpillars6" class="st25" d="M455,1080c-4.5-29.4-9.1-80.9-10-97"/>
<path id="Line-Body2" class="st25" d="M1215,1204c-209,45.6-210.9-8-289-45s-136-52.3-171-57 M736,1100c6,1-49.6-8.3-76-46
	c-26.4-37.7-34.2-52.6-60-127c31.7-52.9,51.1-78.5,136-111 M625,726c-26.5,10.5-107.3,35.4-140,85c-32.7,49.6-51.1,95.8-58,133
	c12.4,32.4,38.7,81.8,65,119c11.5,21.3,46.6,97.3,66,97s112.9-14,145-20s33.7-26.7,33-37 M605,928c-15.4-2.6-71.6-0.4-83,4
	s-37.5,95-31,128"/>
<path id="Line-Body" class="st25" d="M732,817c16.7,16,36.3,62.9,113,192s209.3,209.9,245,212 M1255,1175
	c12.1-51.8-1.9-128.7-45.9-213.3"/>
<path id="Line-Caterpillars8" class="st25" d="M1423,992c3,5.7-5.5,14.8-97,19 M1446,1036c-16.5,5.1-118.6,16.4-137,14 M1293,1076
	c12,17.1,94.8,133.3,111,157s21.2,179.3,22,198 M1578,1207c-21.1,3.9-158.4,25.8-169,29"/>
<path id="Line-Caterpillars7" class="st25" d="M433,919c-10.9-5.3-35.3-33-36-46c11.5-20.7,14.7-30.9,22-40 M437,819
	c26.9,11.7,35,15,35,15"/>
<path id="Line-Caterpillars4" class="st25" d="M523,934c2.4,18.8,53,176.4,76,176s92-9.3,117-18 M598,1106c-5.2,7.2-32.9,47.2-43,53
	"/>
<path id="Line-Caterpillars3" class="st25" d="M728,1580c9.6-1.4,20.9-14,19-37 M809,1534c0,15.8-4.1,27.2-15,35 M1476,1432
	c15.2-10.7,14-25.6,14-38 M1546,1384c0.7,18.4,1.5,25.8-10,36"/>
<path id="Line-Caterpillars2" class="st25" d="M865,1520c-24.5,5.6-166,33.4-189,36c-11.5-20.5-91.9-162.5-165-321 M450.6,1047.5
	C399.6,956.7,383,925,383,925"/>
<path id="Line-Caterpillars" class="st25" d="M665,1576c13,7.3,13-9.3,11.3-20.8c-8.6-60.5-28-167.3-44.3-208.2
	c-19.5-48.7-75-188-75-188 M843,1321c-21.2,3.4-204,40-204,40"/>
<path id="Line-Caterpillars9" class="st25" d="M1221.7,1200.4c41.3,38.3,179.8,181.9,204.3,206.6c48.9-9.1,119.6-20.8,168-33"/>
<path id="Line-Caterpillars5" class="st25" d="M503,1165c-3.2-33.1-10.1-77-11-102"/>
<path id="Line-Body4" class="st25" d="M577,906c-44.5-37.7-84-106-84-106"/>
<path id="Line-Body3" class="st25" d="M562,926c52.8-73.8,123-108.1,171-111 M1100,780c32-2.1,107.8,2.1,167,60"/>
</svg>
