<?xml version="1.0" encoding="utf-8"?>
<!-- Generator: Adobe Illustrator 22.0.0, SVG Export Plug-In . SVG Version: 6.00 Build 0)  -->
<svg version="1.1" id="Слой_1" xmlns="http://www.w3.org/2000/svg" xmlns:xlink="http://www.w3.org/1999/xlink" x="0px" y="0px"
	 viewBox="0 0 1920 1920" style="enable-background:new 0 0 1920 1920;" xml:space="preserve">
<style type="text/css">
	.st0{fill:url(#Tentacles-Shadow_1_);}
	.st1{fill:#DADADA;}
	.st2{fill:url(#Tentacles-Shadow2_1_);}
	.st3{fill:#E6E6E6;}
	.st4{fill:url(#Tentacles-Shadow5_1_);}
	.st5{fill:#D9D9D9;}
	.st6{fill:#F2F2F2;}
	.st7{fill:#CCCCCC;}
	.st8{fill:#B3B3B3;}
	.st9{fill:#999999;}
	.st10{fill:url(#Gun-Shadow_1_);}
	.st11{fill:url(#Gun-Shadow6_1_);}
	.st12{fill:#A800A8;}
	.st13{opacity:0.102;fill:url(#Body-Shadow_1_);enable-background:new    ;}
	.st14{fill:url(#Body-Shadow6_1_);}
	.st15{fill:url(#Body-Shadow10_1_);}
	.st16{fill:url(#Body-Shadow8_1_);}
	.st17{fill:url(#Body-Shadow9_1_);}
	.st18{fill:url(#Body-Shadow7_1_);}
	.st19{fill:none;stroke:#1A1A1A;stroke-width:5;}
	.st20{opacity:0.502;fill:#BFBFBF;enable-background:new    ;}
	.st21{fill:url(#Bubbles-Shadow2_1_);}
	.st22{display:none;opacity:0.502;fill:url(#Bubbles-Shadow_1_);enable-background:new    ;}
	.st23{opacity:0.502;fill:url(#Shadow-Bubbles-3_1_);enable-background:new    ;}
	.st24{opacity:0.4;fill:url(#Shadow-Bubbles-5_1_);enable-background:new    ;}
	.st25{opacity:0.502;fill:url(#Shadow-Bubbles-4_1_);enable-background:new    ;}
	.st26{opacity:0.502;fill:url(#Shadow-Bubbles-2_1_);enable-background:new    ;}
	.st27{opacity:0.502;fill:url(#Bubbles-Shadow14_1_);enable-background:new    ;}
	.st28{fill:url(#Body-Shadow4_1_);}
	.st29{opacity:0.2;fill:url(#Body-Shadow70_1_);enable-background:new    ;}
	.st30{opacity:0.4;fill:url(#Body-Shadow61_1_);enable-background:new    ;}
	.st31{opacity:0.4;fill:url(#Bubbles-Shadow13_1_);enable-background:new    ;}
	.st32{opacity:0.302;fill:url(#Bubbles-Shadow12_1_);enable-background:new    ;}
	.st33{opacity:0.6;fill:url(#Bubbles-Shadow5_1_);enable-background:new    ;}
	.st34{opacity:0.4;fill:url(#Bubbles-Shadow6_1_);enable-background:new    ;}
	.st35{opacity:0.4;fill:url(#Bubbles-Shadow11_1_);enable-background:new    ;}
	.st36{opacity:0.4;fill:url(#Bubbles-Shadow10_1_);enable-background:new    ;}
	.st37{opacity:0.4;fill:url(#Bubbles-Shadow9_1_);enable-background:new    ;}
	.st38{opacity:0.4;fill:url(#Bubbles-Shadow8_1_);enable-background:new    ;}
	.st39{opacity:0.502;fill:url(#Bubbles-Shadow53_1_);enable-background:new    ;}
	.st40{opacity:0.302;fill:url(#Bubbles-Shadow52_1_);enable-background:new    ;}
	.st41{opacity:0.4;fill:url(#Bubbles-Shadow51_1_);enable-background:new    ;}
	.st42{opacity:0.502;fill:url(#Bubbles-Shadow50_1_);enable-background:new    ;}
	.st43{opacity:0.4;fill:url(#Bubbles-Shadow49_1_);enable-background:new    ;}
	.st44{opacity:0.4;fill:url(#Bubbles-Shadow48_1_);enable-background:new    ;}
	.st45{opacity:0.302;fill:url(#Bubbles-Shadow47_1_);enable-background:new    ;}
	.st46{opacity:0.502;fill:url(#Bubbles-Shadow46_1_);enable-background:new    ;}
	.st47{opacity:0.4;fill:url(#Bubbles-Shadow45_1_);enable-background:new    ;}
	.st48{opacity:0.4;fill:url(#Bubbles-Shadow4_1_);enable-background:new    ;}
	.st49{opacity:0.4;fill:url(#Bubbles-Shadow44_1_);enable-background:new    ;}
	.st50{opacity:0.302;fill:url(#Bubbles-Shadow43_1_);enable-background:new    ;}
	.st51{opacity:0.4;fill:url(#Bubbles-Shadow42_1_);enable-background:new    ;}
	.st52{opacity:0.4;fill:url(#Bubbles-Shadow41_1_);enable-background:new    ;}
	.st53{opacity:0.4;fill:url(#Bubbles-Shadow40_1_);enable-background:new    ;}
	.st54{opacity:0.302;fill:url(#Bubbles-Shadow39_1_);enable-background:new    ;}
	.st55{opacity:0.4;fill:url(#Bubbles-Shadow38_1_);enable-background:new    ;}
	.st56{opacity:0.302;fill:url(#Shadow-Bubbles-_1_);enable-background:new    ;}
	.st57{opacity:0.502;fill:url(#Bubbles-Shadow36_1_);enable-background:new    ;}
	.st58{opacity:0.302;fill:url(#Bubbles-Shadow35_1_);enable-background:new    ;}
	.st59{opacity:0.6;fill:url(#Bubbles-Shadow34_1_);enable-background:new    ;}
	.st60{opacity:0.302;fill:url(#Bubbles-Shadow33_1_);enable-background:new    ;}
	.st61{opacity:0.6;fill:url(#Bubbles-Shadow32_1_);enable-background:new    ;}
	.st62{opacity:0.4;fill:url(#Bubbles-Shadow31_1_);enable-background:new    ;}
	.st63{opacity:0.502;fill:url(#Bubbles-Shadow30_1_);enable-background:new    ;}
	.st64{opacity:0.4;fill:url(#Bubbles-Shadow29_1_);enable-background:new    ;}
	.st65{opacity:0.4;fill:url(#Bubbles-Shadow28_1_);enable-background:new    ;}
	.st66{opacity:0.4;fill:url(#Bubbles-Shadow27_1_);enable-background:new    ;}
	.st67{opacity:0.4;fill:url(#Bubbles-Shadow26_1_);enable-background:new    ;}
	.st68{opacity:0.502;fill:url(#Bubbles-Shadow25_1_);enable-background:new    ;}
	.st69{opacity:0.502;fill:url(#Bubbles-Shadow24_1_);enable-background:new    ;}
	.st70{opacity:0.451;fill:url(#Bubbles-Shadow23_1_);enable-background:new    ;}
	.st71{opacity:0.302;fill:url(#Bubbles-Shadow22_1_);enable-background:new    ;}
	.st72{opacity:0.502;fill:url(#Bubbles-Shadow21_1_);enable-background:new    ;}
	.st73{opacity:0.4;fill:url(#Bubbles-Shadow20_1_);enable-background:new    ;}
	.st74{opacity:0.302;fill:url(#Bubbles-Shadow19_1_);enable-background:new    ;}
	.st75{opacity:0.502;fill:url(#Bubbles-Shadow18_1_);enable-background:new    ;}
	.st76{opacity:0.4;fill:url(#Bubbles-Shadow17_1_);enable-background:new    ;}
	.st77{opacity:0.4;fill:url(#Bubbles-Shadow16_1_);enable-background:new    ;}
	.st78{opacity:0.302;fill:url(#Bubbles-Shadow15_1_);enable-background:new    ;}
	.st79{fill:#6E1370;}
	.st80{opacity:0.302;fill:url(#Bubbles-Shadow77_1_);enable-background:new    ;}
</style>
<title>Hydra 34</title>
<linearGradient id="Tentacles-Shadow_1_" gradientUnits="userSpaceOnUse" x1="852.4404" y1="1228.0997" x2="852.4404" y2="2603.3999" gradientTransform="matrix(1 0 0 -1 0 3092)">
	<stop  offset="0.497" style="stop-color:#BFBFBF"/>
	<stop  offset="1" style="stop-color:#1A1A1A"/>
</linearGradient>
<path id="Tentacles-Shadow" class="st0" d="M588.2,647.4c93.6,31.4,224.7,34,224.7,34s8.4-10.2,14.2-18.6
	c0.7-22.1-7.2-161.9-5.5-174.2c5,9.7,16.4,119.5,16.4,119.5l42.7,121.6l25.2,21.9c0,0,3.6-0.4,9.7-1.2
	c11.2,205.4-33.9,154-12.9,344.1c16.2-111.4,58-305.5,54.4-349.5c50.4-6.4,119.9-15.4,119.9-15.4l5.5-30.7c0,0,15.5,12.9,24.1,20.8
	c-4.3,16.7-2,102.8-1.1,115.1c6.2,87.6,35,201,42.7,234.4c15.5,39.3,19.4,141.7,19.8,151.2c5.7,155.5,22.8,207.8,38.4,239.9
	c48,99.5,96.1,139.3,128.2,183c-21.4-7.2-131.6-102.3-175.3-201.6c-21.6-34.9-32.6-180.1-36.2-215.8
	c-10.3-105.5-22.9-138-31.8-168.7c-10.5-24.6-31.8-143.8-35-158.9c-2.1,6.4-3.3,44-3.3,70.2c0,49,28.5,153.9,28.5,222.5
	c0,58.7-32.9,217.6-32.9,294.7c0,35.5,7.7,125.7,7.7,170.9c0,88.6-42.7,162-65.7,203.8c15-41.7,35.5-132,36.2-174.2
	c1.2-77.3-14.5-148.5-16.4-227.9c-2.7-114.4,16.4-157.9,16.4-254.2c0-114-41.9-182.2-41.7-254.2c-44.3,92.8-52.1,257.3-54.8,316.7
	c16.1,92.8,14,166.8,12.1,198.4c12.9,94.8,27.8,166.7,34,208.2c-16.2-21.7-44.4-115.7-48.2-127.1
	c-25.7,129.6-108.1,243.1-126.8,267.6c13.7-30.1,22.7-60.8,32.6-91.2c65.1-198.1,60.3-388.9,23-524.8
	c-10.7,94.2-79.8,220.5-94.2,237.8c-1.4,160-84,384.4-118.3,428.4c14-39.1,51.7-188.9,58.1-340.8c-2,2.1-13.7,13-24.1,23
	c2.4-5.6,19.5-33.9,25.2-42.7c2.2-45.7,0.5-147-3.3-166.5c-37.8,145.5-84.1,205.3-122.7,234.4c57.5-105.6,106.5-334.8,110.7-353.9
	c-7.5-79-24-145-47.1-232.3c4.2,75.3-26.7,112.8-60.3,162.2c-15.8,23.2-31,49.4-48.2,75.6c-44.1,67.2-76.5,116.6-87.6,138.1
	c-30.3,54.9-29.5,121.8-34,167.7c-1.4,91.3,16.8,172.7,26.3,212.6c-68.5-105.6-74-251.3-62.5-352.9c14.5-79.1,54.6-134.4,63.5-158.9
	c9.5-25.7,48.3-78.7,82.1-132.6c26.9-42.9,51.5-86.2,50.4-117.3c0-44.9-20.8-97.2-20.8-152.3C549.8,748,580.5,670.3,588.2,647.4z
	 M846.9,903.7c5.5-32.6,16.8-129-13.1-214.8C822.4,697.3,823.9,824.1,846.9,903.7z M762.4,1350.8c21.7-69.3,51.7-215.6,30.7-361.6
	c-16.7,33.6-45.3,159.1-48.2,168.7c0.9,9,6.4,34.8,9.9,70.2C759,1272.9,761.4,1329.8,762.4,1350.8z M755.9,679.2
	c-14.1-1.7-54.5-6.9-59.2-7.7c-6.5,6.2-27.3,40.8-34,82.1c2.1,60.8,50.3,272.8,63.5,315.5c7.7-29.2,13.1-95.2,13.1-111.8
	s-7.7-101.3-7.7-147.9C731.8,762.9,733.5,699,755.9,679.2z"/>
<path id="Tentacles-Shadow6" class="st1" d="M1137.2,1024.3c6.5,3.7,23.9,13.8,15.4,55.9C1147.1,1066.8,1140.6,1039.8,1137.2,1024.3
	z"/>
<linearGradient id="Tentacles-Shadow2_1_" gradientUnits="userSpaceOnUse" x1="427.4125" y1="1847.5046" x2="469.799" y2="1920.9191" gradientTransform="matrix(1 0 0 -1 0 3092)">
	<stop  offset="5.000000e-03" style="stop-color:#B3B3B3"/>
	<stop  offset="1" style="stop-color:#F2F2F2"/>
</linearGradient>
<path id="Tentacles-Shadow2" class="st2" d="M473.2,1172.2c7.8,20.2-8.8,66.3-41.7,73.4c-3.3-16.1-5.5-25.2-5.5-25.2
	s-0.2-25.7,21.9-41.7C464,1173.5,460.6,1175.2,473.2,1172.2z"/>
<path id="Tentacles-Shadow3" class="st3" d="M451.3,1179.9c6.2,5-12.1,42.9-24.1,35C429.3,1191.7,448.5,1177.7,451.3,1179.9z"/>
<linearGradient id="Tentacles-Shadow5_1_" gradientUnits="userSpaceOnUse" x1="914.7" y1="1677.4" x2="914.7" y2="1719.6" gradientTransform="matrix(1 0 0 -1 0 3092)">
	<stop  offset="0" style="stop-color:#B3B3B3"/>
	<stop  offset="1" style="stop-color:#E6E6E6"/>
</linearGradient>
<path id="Tentacles-Shadow5" class="st4" d="M914.7,1372.4c11.6,0,21.1,9.5,21.1,21.1s-9.5,21.1-21.1,21.1s-21.1-9.5-21.1-21.1
	S903.1,1372.4,914.7,1372.4z"/>
<path id="Tentacles-Shadow4" class="st5" d="M915.9,1384.8c3.6,0,8.7,4.1,8.7,9.9s-4.7,8.7-8.7,8.7c-4.1,0-8.7-3.1-8.7-8.7
	C907.1,1388.9,912.3,1384.8,915.9,1384.8z"/>
<path id="Body-Fill" class="st6" d="M1194.2,641.9c-13,11.3-44.8,19.1-77.8,25.2c-33,6-70.2,7.7-70.2,7.7l-7.7,58.1L907,751.5
	l-26.3-21.9L838,607.9c0,0,6.8,75.2-3.3,73.4c-2.4-5.6-5.3-14.1-7.7-17.6c-4.8,6.2-9,12.9-15.4,17.6c-136.4,0-265.8-48-278.3-52.6
	c-1.5,4.3-6.5,55.9-6.5,55.9s-14.1-6.3-23-12.1c-25.5-75.1-7.7-173.1-7.7-173.1s4.7,3.3,8.7,5.5c6.2-62.2,45.4-117.9,71.8-149
	c-12.8-12.2-30.3-25.2-30.3-25.2s-0.6-55-2.2-94.2c15.1-0.8,37.4-1.9,48.6-4.8c-1.5-22.1-2.3-41.9-1.5-51
	c0.5-6.3,49.6-13.6,60.3-3.3c20.6,20.2,10.8,69.6,18.9,58.5c0.6-0.8,1.4-1.8,2-2.6c11.6-15.3,18-12.4,61.2-13.1
	c41.5-0.2,226.8-5.5,226.8-5.5l10.9,6.5V75.9h-7.7V36.4h26.3v39.4h-6.5l-1.1,154.1l16.4,16.4v-119h-3.3V99.9h15.4v27.3h-4.4
	c0,0,0.9,119.2,1.1,128.8c1.7,2,8.1,11.5,19.8,27.3c8.1,4.9,18.9,7.8,26.3,13.1c53.6,13.6,115.1,32.9,115.1,32.9l1.1,16.4l1.1,4.4
	l82.1-9.9l128.2,49.3l-26.3,49.3l-20.8,9.9l-164.1,12l6.5,20.8l94.2,82.1l6.5,24.1l-27.3,46.1l-55.9-10.9
	C1194.2,623.2,1194.4,633.7,1194.2,641.9z"/>
<path id="Body-Shadow60" class="st7" d="M574,245.2l1.1,107.4l-30.7-21.9l1.1-94.2L574,245.2z"/>
<path id="Gun-Shadow4" class="st8" d="M796.4,309.9l109.6,35l32.9,73.4l9.9-6.5L929,362.5l35,10.9c0,0-10.4-17.9-9.9-17.6
	s160,53.6,160,53.6l25.2,41.7l-132.6-8.7l35,29.6l14.2,49.3l167.7,70.2l25.2,42.7l-143.6-28.5l-29.6-50.4l-29.6-7.7l-13.1,7.7
	l-110.7-35L906.8,471l-1.1-9.9L793.1,316.4L796.4,309.9z"/>
<path id="Gun-Shadow5" class="st9" d="M1143.8,454.5l-1.1,3.3L1041.9,472l-34-28.5L1143.8,454.5z"/>
<path id="Gun-Shadow2" class="st7" d="M986,349.3v-18.6h-12.1l-69,14.2l34,73.4l9.9-6.5L929,360.3l27.3-6.5L986,349.3z M975,322
	v-14.2l72.4,17.6l122.7,2.2V346l-123.8-4.4L975,322z M1114.1,409.6l70.2-8.7l17.6,18.6l-51.5,6.5l15.4,31.8l-24.1-4.4L1114.1,409.6z
	 M1222.7,591.4l28.5,43.9l27.3-48.2l-7.7-19.8l-19.8,34l-19.8-29.6L1222.7,591.4z M1334.4,448l15.4-35l-48.2,1.1l13.1-19.8l66.8-4.4
	l-26.3,48.2L1334.4,448z"/>
<path id="Gun-Shadow3" class="st3" d="M1300.5,415l13.1-21.9l-181.9-38.4l-28.5,13.1L1300.5,415z"/>
<path id="Gun-Shadow7" class="st7" d="M1221.5,591.4l9.9-21.9l-190.7-99.7l14.2,53.6L1221.5,591.4z"/>
<linearGradient id="Gun-Shadow_1_" gradientUnits="userSpaceOnUse" x1="1217.9867" y1="2637.864" x2="1229.0734" y2="2732.0977" gradientTransform="matrix(1 0 0 -1 0 3092)">
	<stop  offset="0" style="stop-color:#808080"/>
	<stop  offset="0.504" style="stop-color:#4D4D4D"/>
</linearGradient>
<path id="Gun-Shadow" class="st10" d="M1334.4,448l16.4-36.2l-48.2,2.2l-199.4-47.1l-3.3,4.4l84.4,29.6l16.4,19.8l-50.4,4.4
	l18.6,36.2L1334.4,448z"/>
<linearGradient id="Gun-Shadow6_1_" gradientUnits="userSpaceOnUse" x1="1262.5626" y1="2502.0703" x2="1070.6223" y2="2646.7075" gradientTransform="matrix(1 0 0 -1 0 3092)">
	<stop  offset="0" style="stop-color:#999999"/>
	<stop  offset="1" style="stop-color:#4D4D4D"/>
</linearGradient>
<path id="Gun-Shadow6" class="st11" d="M1149.3,460l121.6,104.1l-20.8,37.2l-17.6-31.8l-187.3-98.7l99.7-14.2L1149.3,460z"/>
<path id="Paint" class="st12" d="M696.6,260.5c36.1,36.9,53.7,106.4,61.1,141.2c-42.9,14.9-76.9,34.5-90.7,41.9
	c-14.2-31.1-40.5-67.9-40.5-67.9l17.6-12.1l-11-11c0,0-10.2,7.6-16.4,12.1c-4.3-5.4-10.1-11.2-24.1-25.2
	C626.9,302.3,658,283.4,696.6,260.5z M667.1,415c0,3.2,2.9,5.5,5.5,5.5c2.5,0,4.4-2.1,4.4-5.5s-2-5.5-4.4-5.5
	C670.2,409.5,667.1,411.9,667.1,415z M1050.7,297.6c-5,0.9-11.2,1.6-15.6,3.2c-3.4-6.9-6.4-12.8-8.7-17.2
	C1034.5,287,1042.7,291.9,1050.7,297.6z M726.3,387.7c0,2.2,0.9,4.4,5.5,4.4c4.5,0,5.5-2.1,5.5-4.4s-1.5-5.5-5.5-5.5
	C727.7,382.1,726.3,385.5,726.3,387.7z"/>
<radialGradient id="Body-Shadow_1_" cx="786.7252" cy="3075.3896" r="1281.9613" gradientTransform="matrix(1 0 0 -1 0 3092)" gradientUnits="userSpaceOnUse">
	<stop  offset="0.219" style="stop-color:#000000;stop-opacity:0"/>
	<stop  offset="0.509" style="stop-color:#000000"/>
</radialGradient>
<path id="Body-Shadow" class="st13" d="M827.1,662.6c0-38.9-4.5-209.8-27.3-273.9c-10.3-28.9-49.2-143.8-98.7-130.4
	c-37.2,21.9-168.3,91.5-197.2,246.5c-4.3-3.1-8.7-5.5-8.7-5.5s-13.6,120.2,8.7,173.1c11.4,7,23,12.1,23,12.1s4.4-47.9,7.7-54.8
	c9.8,3.8,141.4,50.8,279.5,51.5C818.1,676.2,819.9,674.1,827.1,662.6z"/>
<path id="Body-Shadow65" class="st7" d="M1074.7,555.4l-28.5,120.5c0,0,107.9-2.4,150.1-36.2c-0.3-5.5-1.1-16.4-1.1-16.4l-91-17.6
	L1074.7,555.4z"/>
<path id="Body-Shadow11" class="st9" d="M851.2,613.4l54.8,138l-25.2-23l-42.7-121.6L851.2,613.4z"/>
<linearGradient id="Body-Shadow6_1_" gradientUnits="userSpaceOnUse" x1="671.1" y1="2815.3" x2="574.6862" y2="2815.3" gradientTransform="matrix(1 0 0 -1 0 3092)">
	<stop  offset="0" style="stop-color:#BFBFBF"/>
	<stop  offset="0.496" style="stop-color:#D9D9D9"/>
	<stop  offset="1" style="stop-color:#BFBFBF"/>
</linearGradient>
<path id="Body-Shadow6" class="st14" d="M575.1,203.5c26.1,12.5,73.5,7.7,96-1.5c-0.3,6.5-0.8,71.7-0.6,72.7c0,0-44.2,31-93.2,76.7
	C577.5,294.3,573.4,216.8,575.1,203.5z"/>
<linearGradient id="Body-Shadow10_1_" gradientUnits="userSpaceOnUse" x1="988.0537" y1="3036.3999" x2="967.2537" y2="3036.3999" gradientTransform="matrix(1 0 0 -1 0 3092)">
	<stop  offset="0" style="stop-color:#BFBFBF"/>
	<stop  offset="0.493" style="stop-color:#D9D9D9"/>
	<stop  offset="1" style="stop-color:#BFBFBF"/>
</linearGradient>
<path id="Body-Shadow10" class="st15" d="M988.1,36.4v38.4h-20.8V36.4c0,0,1.6,4.3,10,4.3C985.6,40.7,988.1,36.4,988.1,36.4z"/>
<linearGradient id="Body-Shadow8_1_" gradientUnits="userSpaceOnUse" x1="1010.0092" y1="2976.1775" x2="996.8455" y2="2976.1775" gradientTransform="matrix(1 0 0 -1 0 3092)">
	<stop  offset="0" style="stop-color:#BFBFBF"/>
	<stop  offset="0.493" style="stop-color:#D9D9D9"/>
	<stop  offset="1" style="stop-color:#BFBFBF"/>
</linearGradient>
<path id="Body-Shadow8" class="st16" d="M1010.1,103.2v24.1c0,0-8.8,3.2-13.1-1.1c0-7.4,0-23,0-23s3.3,1.1,6.5,1.1
	S1010.1,103.2,1010.1,103.2z"/>
<linearGradient id="Body-Shadow9_1_" gradientUnits="userSpaceOnUse" x1="981.5429" y1="2939.1499" x2="972.777" y2="2939.1499" gradientTransform="matrix(1 0 0 -1 0 3092)">
	<stop  offset="0" style="stop-color:#BFBFBF"/>
	<stop  offset="0.493" style="stop-color:#D9D9D9"/>
	<stop  offset="1" style="stop-color:#BFBFBF"/>
</linearGradient>
<path id="Body-Shadow9" class="st17" d="M981.6,76.9v151.9l-8.7-7.7v-143L981.6,76.9z"/>
<linearGradient id="Body-Shadow7_1_" gradientUnits="userSpaceOnUse" x1="1005.6611" y1="2900.7" x2="999.0868" y2="2900.7" gradientTransform="matrix(1 0 0 -1 0 3092)">
	<stop  offset="0" style="stop-color:#BFBFBF"/>
	<stop  offset="0.493" style="stop-color:#D9D9D9"/>
	<stop  offset="1" style="stop-color:#BFBFBF"/>
</linearGradient>
<path id="Body-Shadow7" class="st18" d="M1000.2,130.7c2.3,0,5.5,0,5.5,0v121.2l-6.5-7.7C999.2,244.1,1000.2,137.6,1000.2,130.7z"/>
<g id="Line-Down">
	<path id="Line-Tentacles" class="st19" d="M588.2,649.5C554.6,741.1,551,789.3,551,842.4c0,53.1,34.4,116.3,12.1,179.6
		c-10.3,29.2-49.9,84.5-90.6,150 M431.6,1242.6c-31.3,58.6-56.9,120.6-60.4,177.3c-6.4,104.3,10.7,235.8,66.8,325.4
		c-21.6-86.9-39-196.9-14.2-329.8c12.1-64.8,83.9-151.4,120.5-212.6c61.4-103,103.9-128.3,96.4-226.8 M662.7,755.8
		c9.4-42,21.7-71.3,35-85.5 M603.6,651.7c-9.9,30.7-16.7,97.3-6.5,165.4c12.7,84.7,202.2,528.9,47.1,1048.6
		c61.4-80.9,106.1-272.5,118.3-427.3c9-117-7.3-210.5-9.9-232.3c-18.5-154.3-125.9-461-78.4-537.4 M823.8,666
		c12.9,24.8,38.4,101.4,28.5,201.6s-27.1,88.6-13.1,222.5s119.7,353.9-47.1,744c51.6-92.9,129.1-167.7,150.1-377
		c12.7-126.2-38.5-285-44.9-421.9c-5.3-111.3,33.6-136.4,18.4-284.9 M903.7,1106.3c18.6-162.7,56.8-294,53.7-361.4 M1027.6,735
		c-21.7,47.4-44,116.2-42.7,211.5s47.6,139.8,41.7,275c-6,135.3-26,144.5-12.1,298.1s28.2,172.8-26.3,348.5
		c16.6-30.3,50.6-88.6,63.5-155.6c13.9-72.2-5.6-155.8-2.2-249.8c2.9-82.7,29.6-174.1,31.8-261.9c2.5-100.7-39.2-172.9-26.6-295.8
		c8.6-84.8,26.2-151.5,51.9-186.4c0.4,0.2,0.9,0.5,0.8,1.2c-5.3,34.7-13.4,147,45.1,362.6c24.3,89.7,9.3,240.9,38.4,335.3
		c10.9,35.5,25.2,65.2,44.9,96.4c36.2,57.2,64.9,90.2,108.4,136.9c-91.9-56.2-172.7-165.4-191.7-226.8
		c-28.9-93.4-23.2-244.6-55.9-349.5c-19.9-63.4-33.2-133.9-39.8-185.5 M928.8,1541.8c13.1,49.9,30.4,98.3,51.7,143.3
		c-16.4-76.5-29.7-151.9-38.3-225.7 M931.2,1278.6c0.1-117.5,15.9-229.6,53.6-334.3 M726.7,1073.5c7.6-29.9,15.1-114.9,12.7-140.1
		c-23.8-243.5,12-240.6,18.6-255.4 M756.9,679.2c-3.6,81.7,22,213,36.2,307.9c9.9,66.1,16.6,204.7-28.3,359.8 M702.8,1502
		c-9.3,17.6-19.1,35-30.1,52.6c10.4-10.8,20.4-22,29.9-33.4 M762.2,1438.7c52.3-83.9,83.6-166,95.5-246.8 M846.9,910.3
		c-12.2-67.9-30-162.1-14.2-224.7 M793.1,987c-9.6,21.5-27.7,88.2-48.4,172.6 M700.7,1337.8c-23.1,89.2-53.3,174.6-124.4,237.7
		c49.3-99.8,85.8-232.6,112.9-364.9"/>
	<path id="Line-Tentacles4" class="st19" d="M914.7,1372.4c11.6,0,21.1,9.5,21.1,21.1s-9.5,21.1-21.1,21.1s-21.1-9.5-21.1-21.1
		S903.1,1372.4,914.7,1372.4z"/>
	<path id="Line-Tentacles5" class="st19" d="M914.7,1383.9c5.4,0,9.7,4.4,9.7,9.7s-4.4,9.7-9.7,9.7s-9.7-4.4-9.7-9.7
		S909.3,1383.9,914.7,1383.9z"/>
	<path id="Line-Tentacles2" class="st19" d="M473.2,1172.2c7.8,20.2-8.8,66.3-41.7,73.4c-3.3-16.1-5.5-25.2-5.5-25.2
		s-0.2-25.7,21.9-41.7C464,1173.5,460.6,1175.2,473.2,1172.2z"/>
	<path id="Line-Tentacles6" class="st19" d="M1138.3,1024.3c11.3,6.1,22.8,28.5,13.1,58.1"/>
	<path id="Line-Tentacles3" class="st19" d="M449.1,1178.8c6.8-0.5,4.3,13.5-2.2,24.1c-8,13.3-22.8,16-18.6,7.7"/>
	<path id="Line-Body8" class="st19" d="M997,101c3.1,3.4,9.9,4.3,14.2,0"/>
	<path id="Line-Body10" class="st19" d="M966.2,37.5c2.8,4.4,18.3,4.2,24.1,0"/>
	<path id="Line-Body2" class="st19" d="M534.5,629.8c-11.7-3.8-33.7-14.2-42.7-26.3 M503.9,504.9c9.4,6.5,24.1,16.4,24.1,16.4
		l25.2,58.1l-1.1,58.1 M696.9,548.6c10.1,69.4,0.8,122.8,0.8,122.8 M554.3,618.9c107.6,40.8,240.2,44.3,272.8,44.9 M1051.7,656.5
		c59.2-4.9,113.6-14.6,142.4-26.7 M1146,661.6c0-15.5-4.5-41.5-7.7-49.3 M693,525.8c-9.7-48.1-29.1-101.6-66.6-149.7 M615.3,362.8
		c-7.4-8.3-15.3-16.4-23.8-24.4 M668.2,443.6c27.2-17.2,57.7-30.8,89.5-41.5"/>
	<path id="Line-Body7" class="st19" d="M1013.4,126.2c0,0-4.5,2.2-9.9,2.2c-5,0-8.7-2.2-8.7-2.2"/>
	<path id="Line-Body9" class="st19" d="M966.2,74.7c0,0,8.3,2.2,11,2.2s12-2.2,12-2.2"/>
	<path id="Line-Body3" class="st19" d="M677,556.4c4.5-1.1,12.5-4.9,20.8-7.7c9.6-3.2,19.4-5.5,24.1-6.5c-2.5-8.7-6.5-19.8-6.5-19.8
		s-10.8,1.5-22.9,5.2c-7.7,2.3-15.8,6.2-22,9C672.5,542,674.8,551.3,677,556.4z M611.3,385.5l32.9-21.9l-11-10.9l-30.7,21.9
		L611.3,385.5z"/>
	<path id="Line-Body6" class="st19" d="M690.7,446.5c2.9,0,5.3,2.4,5.3,5.3c0,2.8-2.4,5.3-5.3,5.3c-2.9,0-5.3-2.4-5.3-5.3
		S687.7,446.5,690.7,446.5z M672.6,409.3c2.7,0,4.9,2.2,4.9,5s-2.4,5.4-5.3,5.4c-2.8,0-5-2.4-4.8-5.4
		C667.4,411.6,669.8,409.3,672.6,409.3z M745.3,420.9c2.8,0,5.2,2.3,5.2,5.3c0,2.8-2.3,5.3-5.2,5.3c-2.8,0-5.2-2.3-5.2-5.3
		C740,423.4,742.4,420.9,745.3,420.9z M731.2,383.3c2.7-0.2,4.9,1.9,4.9,4.6c0,2.8-2.4,5.3-5.3,5.3c-2.7,0-4.7-2.2-4.6-4.8
		C726.5,385.7,728.7,383.5,731.2,383.3z"/>
	<path id="Line-Body4" class="st19" d="M594.3,472.1c10-0.6,15.6,8.9,13,20.4c-2.3,10.2-10.4,18.6-18.6,20
		c-8.5,1.4-15.4-5.4-14.8-16.1C574.5,484.3,583.8,472.7,594.3,472.1z"/>
	<path id="Line-Body5" class="st19" d="M591.5,481.9c4.8-0.3,7.6,4.4,6.3,10c-1.1,4.9-5,9-8.9,9.7c-4.2,0.6-7.4-2.6-7.2-7.8
		C582,487.9,586.4,482.3,591.5,481.9z"/>
</g>
<path id="Bubbles-Fill" class="st20" d="M1234.7,805.2c0,0-20.9,46.5-73.4,23c-10,5.7-26,14.8-43.6,11.9
	c-26.6,23.3-69.9,17.9-82-3.1c-17.2,4.7-36.4-0.6-46.4-9.9c-4.5,12.8-42.4,46.7-75.6-5.5c-0.3,14,4.2,43.9-35,47.1
	c-9.6,11.4-48.7,38.9-83.3-9.9c-24.4,39.1-76.4,18.2-87.6,0c-16,1.4-49.4,11.7-63.5-40.5c-4.4,2.4-17.4,6.3-31.8,2.2
	c-10.4,6.1-26.7,18.9-62.5,5.5c-1.7,13.9-81.6,41.3-101.9-35c-50.7,0.2-59.2-32.9-60.3-48.2c-20.8-6-34.4-27.7-35-50.4
	c-0.7-28.9,17.9-59.4,52.6-58.1c3.8-30.4,11-76.8,82.1-70.2c0,11.9-0.1,41,1.1,54.8c30,0.4,34.2,9.4,46.1,20.8
	c9.9-25.3,59.6-26,69.8,15.7c3.3-3.2,10.7-3.7,15.7-2.5c4.8,1.2,10.2,5.7,13.5,9.7c47.6,10.6,94.8,16.4,137.9,19.6
	c14.7-11.2,31.6-5.2,42.7,2.5c8.7-9.6,16.4-19.8,16.4-19.8S828,551.8,823,510.2c6.2,40.9,8.4,68.9,10.9,95.3
	c4.9,14.1,17.1,47.9,27.6,76.7c19.9,8.8,26.2,24.1,26.2,24.1s4.9-19.8,18.6-27.3c19.4-10.8,50.5-7.8,60.3,21.9
	c3.4-2.2,8.9-5.8,15.4-5.5c6.4,0.3,11.4,2.9,16.4,5.5c20.6-29.3,40.1-28.3,52.6-23c9.7,2.8,16.1,7.3,20.5,12.4
	c6-12.1,24.4-12.4,24.4-12.4l26.3,5.5c0,0,2.3-19.5,25.2-21.9c18.2-0.9,31.8,15.4,31.8,15.4s2-14.3,9.9-23
	c8-8.8,21.9-12.1,21.9-12.1l7.7-13.1l31.8,6.5l5.5-9.9l8.7,7.7c0,0,5.3-14.2,32.9-14.2c27.7,0,50.3,30.7,36.2,62.5
	c13.1,9.6,17.6,15.6,17.6,30.7s-12.7,28.9-17.6,32.9c0.5,8.3-0.7,46.1-46.1,41.7c-6,8.2-21,25.8-46.1,8.7
	C1238.2,798.1,1234.7,805.2,1234.7,805.2z"/>
<radialGradient id="Bubbles-Shadow2_1_" cx="853.3439" cy="-6041.8613" r="1006.6011" gradientTransform="matrix(1 0 0 0.3031 0 2450.8977)" gradientUnits="userSpaceOnUse">
	<stop  offset="0.418" style="stop-color:#B3B3B3"/>
	<stop  offset="0.534" style="stop-color:#BFBFBF;stop-opacity:0"/>
</radialGradient>
<path id="Bubbles-Shadow2" class="st21" d="M1234.7,802.9c0,0-20.9,48.7-73.4,25.2c-10,5.7-26,14.8-43.6,11.9
	c-26.6,23.3-69.9,17.9-82-3.1c-17.2,4.7-36.4-0.6-46.4-9.9c-4.5,12.8-42.4,46.7-75.6-5.5c-0.3,14,4.2,43.9-35,47.1
	c-9.6,11.4-48.7,38.9-83.3-9.9c-24.4,39.1-76.4,18.2-87.6,0c-16,1.4-49.4,11.7-63.5-40.5c-4.4,2.4-17.4,6.3-31.8,2.2
	c-10.4,6.1-26.7,18.9-62.5,5.5c-1.7,13.9-81.6,41.3-101.9-35c-50.7,0.2-59.2-32.9-60.3-48.2c-20.8-6-34.4-27.7-35-50.4
	c-0.7-28.9,17.9-59.4,52.6-58.1c3.8-30.4,11-76.8,82.1-70.2c0,11.9,0.9,41,2.2,54.8c30,0.4,33.1,9.4,44.9,20.8
	c9.9-25.3,59.6-26,69.8,15.7c3.3-3.2,10.7-3.7,15.7-2.5c4.8,1.2,10.2,5.7,13.5,9.7c47.6,10.6,94.8,16.4,137.9,19.6
	c14.7-11.2,31.6-5.2,42.7,2.5c8.7-9.6,16.4-19.8,16.4-19.8s-2.7-112.9-7.7-154.5c6.2,40.9,8.4,68.9,10.9,95.3
	c4.9,14.1,17.1,47.9,27.6,76.7c19.9,8.8,22.9,23,22.9,23s6-18.6,19.8-26.3c19.4-10.8,52.7-7.8,62.5,21.9c3.4-2.2,8.9-5.8,15.4-5.5
	c6.4,0.3,11.4,2.9,16.4,5.5c20.6-29.3,40.1-28.3,52.6-23c3.1-3.6,27.3-4.4,27.3-4.4s42.6-5.4,53.6-8.7s52.1-10.6,63.5-24.1
	c-0.3-7.6,0-16.4,0-16.4l23,4.4l31.8,7.7l6.5-10.9l6.5,6.5c0,0,14.6-14.2,31.8-14.2s42.7,17.4,42.7,43.9
	c-1.4,12.9-5.5,17.6-5.5,17.6s18.6,8.5,18.6,31.8s-12.7,30.8-16.4,32.9c-0.3,6.8,0.3,48.4-46.1,42.7c-7.2,9.3-17.8,16.9-25.2,16.4
	c-7.4-0.5-18.1-4.4-20.8-8.7C1238.9,797.3,1234.7,802.9,1234.7,802.9z"/>
<radialGradient id="Bubbles-Shadow_1_" cx="927.4902" cy="3160.657" r="1700.2821" gradientTransform="matrix(1 0 0 -1 0 3092)" gradientUnits="userSpaceOnUse">
	<stop  offset="0.466" style="stop-color:#BFBFBF;stop-opacity:0"/>
	<stop  offset="0.582" style="stop-color:#373737"/>
</radialGradient>
<path id="Bubbles-Shadow" class="st22" d="M1050.6,678c-12.5-5.3-32-6.3-52.6,23c-5-2.5-10.1-5.2-16.4-5.5c-6.3-0.3-12,3.3-15.4,5.5
	c-9.8-29.7-44.2-32.7-63.5-21.9c-13.7,7.7-18.6,27.3-18.6,27.3s-3.1-15.3-22.9-24.1c-10.4-28.8-22.6-62.6-27.6-76.7
	c-2.5-26.4-4.7-54.5-10.9-95.3c4.9,41.7,7.7,154.5,7.7,154.5s-7.7,10.2-16.4,19.8c-11-7.7-28.1-13.7-42.7-2.5
	c-43-3.2-90.1-9-137.9-19.6c-3.3-4.1-8.6-8.5-13.5-9.7s-12.4-0.5-15.7,2.5c-10.2-41.7-60-41-69.8-15.7
	c-11.9-11.5-14.9-20.4-44.9-20.8c-1.2-13.8-2.2-42.9-2.2-54.8c-71.1-6.7-78.4,39.8-82.1,70.2c-34.7-1.4-53.3,29.1-52.6,58.1
	c0.6,22.8,14.2,44.4,35,50.4c1.1,15.4,9.6,48.4,60.3,48.2c20.3,76.4,100.2,49,101.9,35c35.8,13.5,52.1,0.6,62.5-5.5
	c14.5,4.2,27.3,0.2,31.8-2.2c14.1,52.3,47.5,41.9,63.5,40.5c11.3,18.2,63.2,39.1,87.6,0c34.6,48.8,73.7,21.2,83.3,9.9
	c39.2-3.3,34.7-33.2,35-47.1c33.2,52.2,71.1,18.3,75.6,5.5c10.1,9.3,29.1,14.6,46.4,9.9c12.2,20.9,55.4,26.4,82,3.1
	c17.7,2.9,33.7-6.1,43.6-11.9c52.5,23.5,73.4-24.1,73.4-24.1l3.3-5.5l5.5-3.3c0,0,15.4,12.7,28.5,5.5c13.1-7.3,14.6-9.9,16.4-13.1
	c5.6,0.6,26.1,1.9,36.2-12.1s9.4-26,8.7-31.8c4.8-4.7,18.6-15.3,18.6-30.7c0-15.5-12.4-28.9-18.6-32.9c2.6-8.6,9.9-32.4-8.7-49.3
	c-18.6-16.8-44.7-17.1-61.3,1.1c-2.8-2.4-6.5-6.5-6.5-6.5l-8.7,9.9l-52.6-10.9l-2.2,17.6c0,0-9.3,13.3-71.2,25.2
	C1073.8,673.8,1055.6,676.3,1050.6,678z"/>
<radialGradient id="Shadow-Bubbles-3_1_" cx="1169.1802" cy="2336.5813" r="82.1803" gradientTransform="matrix(1 0 0 -1 0 3092)" gradientUnits="userSpaceOnUse">
	<stop  offset="0.25" style="stop-color:#000000"/>
	<stop  offset="0.508" style="stop-color:#000000;stop-opacity:0"/>
</radialGradient>
<path id="Shadow-Bubbles-3" class="st23" d="M1197.4,743.7c0,0,27-2.3,31.8-20.8c12.4,5.5,27.3,19,27.3,41.7s-21.6,40.5-43.9,40.5
	c-22.2,0-33.7-14.8-35-20.8C1198.9,769.1,1197.4,743.7,1197.4,743.7z"/>
<radialGradient id="Shadow-Bubbles-5_1_" cx="1284.8661" cy="2351.0493" r="47.2351" gradientTransform="matrix(1 0 0 -1 0 3092)" gradientUnits="userSpaceOnUse">
	<stop  offset="0.25" style="stop-color:#000000"/>
	<stop  offset="0.508" style="stop-color:#000000;stop-opacity:0"/>
</radialGradient>
<path id="Shadow-Bubbles-5" class="st24" d="M1291.7,740.5l-9.9,6.5c0,0,17.9,17.1,7.7,40.5c13.6,0.7,28.8-2.2,36.2-13.1
	c7.4-10.9,8.6-25.8,7.7-30.7C1311.5,757.7,1291.7,740.5,1291.7,740.5z"/>
<radialGradient id="Shadow-Bubbles-4_1_" cx="1232.8239" cy="2341.718" r="111.7652" gradientTransform="matrix(1 0 0 -1 0 3092)" gradientUnits="userSpaceOnUse">
	<stop  offset="0.25" style="stop-color:#000000"/>
	<stop  offset="0.508" style="stop-color:#000000;stop-opacity:0"/>
</radialGradient>
<path id="Shadow-Bubbles-4" class="st25" d="M1256.6,766.8c-1.4,5-2.9,18.7-14.2,28.5c5.8,5.3,14.2,7.7,20.8,7.7s29.6-9.4,29.6-30.7
	c0-18.1-13.1-25.2-13.1-25.2S1269.6,765.2,1256.6,766.8z"/>
<radialGradient id="Shadow-Bubbles-2_1_" cx="1209.0848" cy="2321.094" r="102.9993" gradientTransform="matrix(1 0 0 -1 0 3092)" gradientUnits="userSpaceOnUse">
	<stop  offset="0.25" style="stop-color:#000000"/>
	<stop  offset="0.508" style="stop-color:#000000;stop-opacity:0"/>
</radialGradient>
<path id="Shadow-Bubbles-2" class="st26" d="M1173.3,787.6c0.4,6.9,0,25.3-13.1,41.7c11.6,5.3,19.6,5.5,27.3,5.5
	c7.8,0,35.3-0.7,47.1-35c-18.3,5.5-17.1,5.5-25.2,5.5s-28.4-9.5-31.8-21.9C1175.9,784.2,1174.1,786.3,1173.3,787.6z"/>
<radialGradient id="Bubbles-Shadow14_1_" cx="807.4894" cy="3258.8721" r="1700.2821" gradientTransform="matrix(1 0 0 -1 0 3092)" gradientUnits="userSpaceOnUse">
	<stop  offset="0.49" style="stop-color:#000000"/>
	<stop  offset="0.5" style="stop-color:#000000;stop-opacity:0"/>
</radialGradient>
<path id="Bubbles-Shadow14" class="st27" d="M913.7,821.6c-0.3,14,4.2,43.9-35,47.1c-9.6,11.4-48.7,38.9-83.3-9.9
	c-24.4,39.1-76.4,18.2-87.6,0c-16,1.4-49.4,11.7-63.5-40.5c-4.4,2.4,84-139.4,127.1-136.2c14.7-11.2,31.6-5.2,42.7,2.5
	c0.3-4.4,12.1-18.6,12.1-18.6s0.3-2,1.1-3.3c2.1-43.9-0.8-122.7-4.4-152.3c6.2,40.9,8.4,68.9,10.9,95.3
	c4.9,14.1,17.1,47.9,27.6,76.7c19.9,8.8,26.2,24.1,26.2,24.1S946.9,873.7,913.7,821.6z"/>
<linearGradient id="Body-Shadow4_1_" gradientUnits="userSpaceOnUse" x1="897.6193" y1="2461.311" x2="871.8925" y2="2952.2014" gradientTransform="matrix(1 0 0 -1 0 3092)">
	<stop  offset="0" style="stop-color:#CCCCCC"/>
	<stop  offset="0.49" style="stop-color:#D9D9D9"/>
	<stop  offset="1" style="stop-color:#F2F2F2"/>
</linearGradient>
<path id="Body-Shadow4" class="st28" d="M848.5,679.9c-16.9-37.2-37.2-81.7-52.2-115.3c-16.6-164.1-43.5-313.2-99.7-341.2
	c1.5-2.6,46.1-3.3,46.1-3.3s170.3-4.2,219.2-5.5c31.8,18.2,51.4,50.6,69,85.5c-19.9,1.8-57,8.7-57,8.7l-1.1,2.2l-49.3-1.1H795.3
	l-2.2,8.7c0,0,18.9,23.7,53.6,69c19.5,25.6,38.2,47.8,58.1,74.5c2.4,8.8,18.6,59.2,18.6,59.2l108.4,32.9l13.1-6.5l28.5,8.7
	l-26.3,118.3c0,0-26.6-9.3-49.3,26.3c-13.3-5.2-21.9-7.3-31.8,1.1c-5.7-11.3-12-30.1-40.5-28.5c-28.6,1.7-38.2,18.9-40.5,31.8
	C877,696.8,866.8,677.9,848.5,679.9z"/>
<linearGradient id="Body-Shadow70_1_" gradientUnits="userSpaceOnUse" x1="945.0148" y1="2494.196" x2="568.0812" y2="2976.6492" gradientTransform="matrix(1 0 0 -1 0 3092)">
	<stop  offset="0" style="stop-color:#000000;stop-opacity:0"/>
	<stop  offset="0.322" style="stop-color:#000000"/>
	<stop  offset="0.555" style="stop-color:#000000;stop-opacity:0"/>
</linearGradient>
<path id="Body-Shadow70" class="st29" d="M848.5,679.9c-16.9-37.2-37.2-81.7-52.2-115.3c-16.6-164.1-43.5-313.2-99.7-341.2
	c55.7-14.1,98.7,86.6,98.7,86.6l-2.2,8.7c0,0,18.9,23.7,53.6,69c19.5,25.6,38.2,47.8,58.1,74.5c2.4,8.8,18.6,59.2,18.6,59.2
	l108.4,32.9l13.1-6.5l28.5,8.7l-26.3,118.3c0,0-26.6-9.3-49.3,26.3c-13.3-5.2-21.9-7.3-31.8,1.1c-5.7-11.3-12-30.1-40.5-28.5
	s-38.2,18.9-40.5,31.8C877,696.8,866.8,677.9,848.5,679.9z"/>
<path id="Body-Shadow3" class="st7" d="M835.8,680.2c4-0.1,9.7-0.7,12.1-2.2c-14.8-33.1-45-100-52.6-116.1
	c-5.3-58.8-13.4-116.6-20.8-157.8c-13-71.5-38.2-140.6-63.5-170.9c-12-14.2-26.1-11.5-30.7-7.7c-14.5,12.1-8,41.9-8.7,50.4
	c6.3-4.1,14.6-10,25.2-14.2c11.3,11.3,34.4,36.1,58.1,121.6c13.8,50,17.9,83.7,27.3,173.1C787.3,559.2,830.7,678.9,835.8,680.2z"/>
<linearGradient id="Body-Shadow61_1_" gradientUnits="userSpaceOnUse" x1="666.5633" y1="2831.8501" x2="724.9858" y2="2831.8501" gradientTransform="matrix(1 0 0 -1 0 3092)">
	<stop  offset="0" style="stop-color:#000000"/>
	<stop  offset="0.503" style="stop-color:#000000;stop-opacity:0"/>
</linearGradient>
<path id="Body-Shadow61" class="st30" d="M670.4,235.4c0,0,7.3-14.2,20.8-14.2s28.3,20.1,35,31.8c6.8,11.7-2.2,46.1-2.2,46.1
	s-16.7-30.9-28.5-38.4c-9.7,6-24.1,14.2-24.1,14.2L670.4,235.4z"/>
<radialGradient id="Bubbles-Shadow13_1_" cx="923.1247" cy="2373.1118" r="98.6492" gradientTransform="matrix(1 0 0 -1 0 3092)" gradientUnits="userSpaceOnUse">
	<stop  offset="0.398" style="stop-color:#000000"/>
	<stop  offset="0.503" style="stop-color:#000000;stop-opacity:0"/>
</radialGradient>
<path id="Bubbles-Shadow13" class="st31" d="M862.1,760.2c8.8-4,21.1-15.5,23-29.6c6,8,27.1,33.3,52.6,21.9
	C945.6,799.4,874.5,818.4,862.1,760.2z"/>
<radialGradient id="Bubbles-Shadow12_1_" cx="850.0775" cy="2363.5505" r="98.6492" gradientTransform="matrix(1 0 0 -1 0 3092)" gradientUnits="userSpaceOnUse">
	<stop  offset="0.398" style="stop-color:#000000"/>
	<stop  offset="0.503" style="stop-color:#000000;stop-opacity:0"/>
</radialGradient>
<path id="Bubbles-Shadow12" class="st32" d="M862.1,760.2c8.8-4,21.1-15.5,23-29.6c6,8,27.1,33.3,52.6,21.9
	C945.6,799.4,874.5,818.4,862.1,760.2z"/>
<path id="Line-Body" class="st19" d="M986.9,74.7c1.4,0,2.4,0,2.4,0V35.3c0,0-5.7-3.3-11.5-3.3c-6.2,0-12.6,3.3-12.6,3.3v39.4
	c0,0,0.9,0,2.2,0 M971.7,76.7c-0.1,21.7-1.1,143.3-1.1,143.3 M600.3,329.5c0,0-82.3,75.3-96.4,175.3c-4.2-3.1-8.7-6.5-8.7-6.5
	s-8.9,62.2-2.7,120.9 M533.4,628.8c0,0,2.5,1.1,7.4,2.8 M602.6,651c1.6,0.4,3.2,0.8,4.8,1.4 M630.4,658
	c39.4,9.4,88.7,18.1,143.4,21.7 M809.5,681.3c1.1,0,2.2,0,3.3,0.1c7.4-8.2,14.2-17.6,14.2-17.6 M1046.9,675.6
	c66.2-5.5,126.3-15.8,147.3-34.8 M1175.9,480.9c-1.9-5.9-4-12.4-6.3-19.2 M1050.3,297.6c-8.1-6-16.7-11.9-26-17.4
	c-11-16.8-16.3-23.6-17.6-25.2c0.2-20.9,0-102.8,0-126 M1011.2,127.3V98.8c0,0-3.5-2.2-7.2-2.2c-4,0-8.2,2.2-8.2,2.2v28.5
	 M999.2,129c-0.1,23.3-1.1,116.2-1.1,116.2 M982.7,228.8c-0.2-11.3,0-128.8,0-151.8"/>
<radialGradient id="Bubbles-Shadow5_1_" cx="870.3737" cy="2317.4114" r="108.6621" gradientTransform="matrix(1 0 0 -1 0 3092)" gradientUnits="userSpaceOnUse">
	<stop  offset="0.398" style="stop-color:#000000"/>
	<stop  offset="0.503" style="stop-color:#000000;stop-opacity:0"/>
</radialGradient>
<path id="Bubbles-Shadow5" class="st33" d="M911.4,796.3c2.6,12.1,3.5,46-2.2,57s-27.1,13.5-31.8,15.4c17.1-17.8,11-50.3,10.9-59.2
	c5-6.2,7.9-9.6,8.7-13.1C902.3,796.1,905.9,796.3,911.4,796.3z"/>
<radialGradient id="Bubbles-Shadow6_1_" cx="1013.9734" cy="2337.699" r="111.5603" gradientTransform="matrix(1 0 0 -1 0 3092)" gradientUnits="userSpaceOnUse">
	<stop  offset="0.398" style="stop-color:#000000"/>
	<stop  offset="0.503" style="stop-color:#000000;stop-opacity:0"/>
</radialGradient>
<path id="Bubbles-Shadow6" class="st34" d="M995.8,792c14,4.2,39.4,4.6,52.6-16.4c2.1,16,0.6,22.2,16.4,35
	c-1.9,6.3-29.9,50.3-77.8,15.4c3.1-8,5-17.2,1.1-26.3C990.1,798.1,992.9,796.3,995.8,792z"/>
<radialGradient id="Bubbles-Shadow11_1_" cx="1089.2638" cy="2313.8149" r="111.5603" gradientTransform="matrix(1 0 0 -1 0 3092)" gradientUnits="userSpaceOnUse">
	<stop  offset="0.398" style="stop-color:#000000"/>
	<stop  offset="0.503" style="stop-color:#000000;stop-opacity:0"/>
</radialGradient>
<path id="Bubbles-Shadow11" class="st35" d="M995.8,792c14,4.2,39.4,4.6,52.6-16.4c2.1,16,0.6,22.2,16.4,35
	c-1.9,6.3-29.9,50.3-77.8,15.4c3.1-8,5-17.2,1.1-26.3C990.1,798.1,992.9,796.3,995.8,792z"/>
<radialGradient id="Bubbles-Shadow10_1_" cx="968.1662" cy="2322.6455" r="111.5603" gradientTransform="matrix(1 0 0 -1 0 3092)" gradientUnits="userSpaceOnUse">
	<stop  offset="0.398" style="stop-color:#000000"/>
	<stop  offset="0.503" style="stop-color:#000000;stop-opacity:0"/>
</radialGradient>
<path id="Bubbles-Shadow10" class="st36" d="M995.8,792c14,4.2,39.4,4.6,52.6-16.4c2.1,16,0.6,22.2,16.4,35
	c-1.9,6.3-29.9,50.3-77.8,15.4c3.1-8,5-17.2,1.1-26.3C990.1,798.1,992.9,796.3,995.8,792z"/>
<radialGradient id="Bubbles-Shadow9_1_" cx="1084.0087" cy="2301.7312" r="79.4651" gradientTransform="matrix(1 0 0 -1 0 3092)" gradientUnits="userSpaceOnUse">
	<stop  offset="0.398" style="stop-color:#000000"/>
	<stop  offset="0.503" style="stop-color:#000000;stop-opacity:0"/>
</radialGradient>
<path id="Bubbles-Shadow9" class="st37" d="M1085.7,817.2c2.8,6.1,13.6,17.1,31.8,23c-8.1,7.2-44.1,32.3-82.1-1.1
	c8.9-5.3,24.4-14.1,29.6-28.5C1070.8,813.2,1075.9,815.1,1085.7,817.2z"/>
<radialGradient id="Bubbles-Shadow8_1_" cx="1031.6006" cy="2286.7534" r="90.8181" gradientTransform="matrix(1 0 0 -1 0 3092)" gradientUnits="userSpaceOnUse">
	<stop  offset="0.398" style="stop-color:#000000"/>
	<stop  offset="0.503" style="stop-color:#000000;stop-opacity:0"/>
</radialGradient>
<path id="Bubbles-Shadow8" class="st38" d="M1085.7,817.2c2.8,6.1,13.6,17.1,31.8,23c-8.1,7.2-44.1,32.3-82.1-1.1
	c8.9-5.3,24.4-14.1,29.6-28.5C1070.8,813.2,1075.9,815.1,1085.7,817.2z"/>
<radialGradient id="Bubbles-Shadow53_1_" cx="971.5805" cy="2363.8804" r="99.7121" gradientTransform="matrix(1 0 0 -1 0 3092)" gradientUnits="userSpaceOnUse">
	<stop  offset="0.398" style="stop-color:#000000"/>
	<stop  offset="0.503" style="stop-color:#000000;stop-opacity:0"/>
</radialGradient>
<path id="Bubbles-Shadow53" class="st39" d="M971.7,765.7c2.5,7.2,11.6,20.4,23,27.3c-8.3,7.3-20.9,14.2-32.9,14.2
	s-26.3-9.7-28.5-27.3c3.5-13.7,4.4-16.2,5.5-27.3c1.5-0.8,4.4-2.2,4.4-2.2S956.1,763.6,971.7,765.7z"/>
<radialGradient id="Bubbles-Shadow52_1_" cx="1008.4554" cy="2333.6074" r="99.7121" gradientTransform="matrix(1 0 0 -1 0 3092)" gradientUnits="userSpaceOnUse">
	<stop  offset="0.398" style="stop-color:#000000"/>
	<stop  offset="0.503" style="stop-color:#000000;stop-opacity:0"/>
</radialGradient>
<path id="Bubbles-Shadow52" class="st40" d="M971.7,765.7c2.5,7.2,11.6,20.4,23,27.3c-8.3,7.3-20.9,14.2-32.9,14.2
	s-26.3-9.7-28.5-27.3c3.5-13.7,4.4-16.2,5.5-27.3c1.5-0.8,4.4-2.2,4.4-2.2S956.1,763.6,971.7,765.7z"/>
<radialGradient id="Bubbles-Shadow51_1_" cx="903.0344" cy="2335.3157" r="103.5472" gradientTransform="matrix(1 0 0 -1 0 3092)" gradientUnits="userSpaceOnUse">
	<stop  offset="0.398" style="stop-color:#000000"/>
	<stop  offset="0.503" style="stop-color:#000000;stop-opacity:0"/>
</radialGradient>
<path id="Bubbles-Shadow51" class="st41" d="M862.1,760.2c0.1,7.7,4.3,29.6,34,36.2c-1.9,10.6-10.5,23-34,23s-34.7-15.5-38.4-19.8
	c2.3-10.9,4.6-17.4,2.2-30.7c2.7-4.3,4.2-7.7,5.5-8.7C833.9,761.3,849,763.4,862.1,760.2z"/>
<radialGradient id="Bubbles-Shadow50_1_" cx="847.83" cy="2364.9519" r="103.5472" gradientTransform="matrix(1 0 0 -1 0 3092)" gradientUnits="userSpaceOnUse">
	<stop  offset="0.398" style="stop-color:#000000"/>
	<stop  offset="0.503" style="stop-color:#000000;stop-opacity:0"/>
</radialGradient>
<path id="Bubbles-Shadow50" class="st42" d="M862.1,760.2c0.1,7.7,4.3,29.6,34,36.2c-1.9,10.6-10.5,23-34,23s-34.7-15.5-38.4-19.8
	c2.3-10.9,4.6-17.4,2.2-30.7c2.7-4.3,4.2-7.7,5.5-8.7C833.9,761.3,849,763.4,862.1,760.2z"/>
<radialGradient id="Bubbles-Shadow49_1_" cx="949.6602" cy="2354.3135" r="142.1117" gradientTransform="matrix(1 0 0 -1 0 3092)" gradientUnits="userSpaceOnUse">
	<stop  offset="0.398" style="stop-color:#000000"/>
	<stop  offset="0.503" style="stop-color:#000000;stop-opacity:0"/>
</radialGradient>
<path id="Bubbles-Shadow49" class="st43" d="M1008.9,714.2c14,0.1,43.8,1.5,44.9,41.7c-5.4,18.6-5.7,20.6-6.5,23
	s-19.5,23.5-51.5,14.2c-13.4-7.7-20.6-16.1-21.9-26.3C982,766.7,1022,758.7,1008.9,714.2z"/>
<radialGradient id="Bubbles-Shadow48_1_" cx="795.1809" cy="2363.7981" r="141.8443" gradientTransform="matrix(1 0 0 -1 0 3092)" gradientUnits="userSpaceOnUse">
	<stop  offset="0.398" style="stop-color:#000000"/>
	<stop  offset="0.503" style="stop-color:#000000;stop-opacity:0"/>
</radialGradient>
<path id="Bubbles-Shadow48" class="st44" d="M824.9,771.2c2.9,7.6,5.2,34.2-21.9,50.4s-70.4,9-81.1-46.1c7.9-3.8,20.3-7.8,27.3-27.3
	C749.5,759,776.7,797.8,824.9,771.2z"/>
<radialGradient id="Bubbles-Shadow47_1_" cx="700.5652" cy="2362.9138" r="141.8443" gradientTransform="matrix(1 0 0 -1 0 3092)" gradientUnits="userSpaceOnUse">
	<stop  offset="0.398" style="stop-color:#000000"/>
	<stop  offset="0.503" style="stop-color:#000000;stop-opacity:0"/>
</radialGradient>
<path id="Bubbles-Shadow47" class="st45" d="M824.9,771.2c2.9,7.6,5.2,34.2-21.9,50.4s-70.4,9-81.1-46.1c7.9-3.8,20.3-7.8,27.3-27.3
	C749.5,759,776.7,797.8,824.9,771.2z"/>
<radialGradient id="Bubbles-Shadow46_1_" cx="704.4287" cy="2351.3286" r="103.1834" gradientTransform="matrix(1 0 0 -1 0 3092)" gradientUnits="userSpaceOnUse">
	<stop  offset="0.398" style="stop-color:#000000"/>
	<stop  offset="0.503" style="stop-color:#000000;stop-opacity:0"/>
</radialGradient>
<path id="Bubbles-Shadow46" class="st46" d="M721.9,776.7c-7.6,2.1-25.8,6-37.2-2.2c-5.5,9.9-8.9,33.4,15.4,52.6
	c21,14.5,46.3,0.5,48.2-4.4C741.6,815.8,722.4,793.5,721.9,776.7z"/>
<radialGradient id="Bubbles-Shadow45_1_" cx="761.8004" cy="2309.9165" r="103.1834" gradientTransform="matrix(1 0 0 -1 0 3092)" gradientUnits="userSpaceOnUse">
	<stop  offset="0.398" style="stop-color:#000000"/>
	<stop  offset="0.503" style="stop-color:#000000;stop-opacity:0"/>
</radialGradient>
<path id="Bubbles-Shadow45" class="st47" d="M721.9,776.7c-7.6,2.1-25.8,6-37.2-2.2c-5.5,9.9-8.9,33.4,15.4,52.6
	c21,14.5,46.3,0.5,48.2-4.4C741.6,815.8,722.4,793.5,721.9,776.7z"/>
<radialGradient id="Bubbles-Shadow4_1_" cx="863.6603" cy="2330.0559" r="151.4857" gradientTransform="matrix(1 0 0 -1 0 3092)" gradientUnits="userSpaceOnUse">
	<stop  offset="0.398" style="stop-color:#000000"/>
	<stop  offset="0.503" style="stop-color:#000000;stop-opacity:0"/>
</radialGradient>
<path id="Bubbles-Shadow4" class="st48" d="M888.4,811.7c-9.9,5.8-42,17.2-64.7-12.1c-8.8,11.5-8.4,15.5-30.7,27.3
	c-0.6,15.6-1.7,59.2,51.5,59.2C896.4,880.8,892.2,818.4,888.4,811.7z"/>
<radialGradient id="Bubbles-Shadow44_1_" cx="775.9058" cy="2319.1216" r="151.4857" gradientTransform="matrix(1 0 0 -1 0 3092)" gradientUnits="userSpaceOnUse">
	<stop  offset="0.398" style="stop-color:#000000"/>
	<stop  offset="0.503" style="stop-color:#000000;stop-opacity:0"/>
</radialGradient>
<path id="Bubbles-Shadow44" class="st49" d="M888.4,811.7c-9.9,5.8-42,17.2-64.7-12.1c-8.8,11.5-8.4,15.5-30.7,27.3
	c-0.6,15.6-1.7,59.2,51.5,59.2C896.4,880.8,892.2,818.4,888.4,811.7z"/>
<radialGradient id="Bubbles-Shadow43_1_" cx="964.7661" cy="2315.1968" r="87.0793" gradientTransform="matrix(1 0 0 -1 0 3092)" gradientUnits="userSpaceOnUse">
	<stop  offset="0.398" style="stop-color:#000000"/>
	<stop  offset="0.503" style="stop-color:#000000;stop-opacity:0"/>
</radialGradient>
<path id="Bubbles-Shadow43" class="st50" d="M988.1,799.7c3.6,8.9,8.8,42.3-30.7,49.3s-47.6-44.9-47.1-52.6c6-1.8,20.1-10.5,23-16.4
	C936.1,790.8,940.6,819.6,988.1,799.7z"/>
<radialGradient id="Bubbles-Shadow42_1_" cx="904.0917" cy="2323.2349" r="87.0793" gradientTransform="matrix(1 0 0 -1 0 3092)" gradientUnits="userSpaceOnUse">
	<stop  offset="0.398" style="stop-color:#000000"/>
	<stop  offset="0.503" style="stop-color:#000000;stop-opacity:0"/>
</radialGradient>
<path id="Bubbles-Shadow42" class="st51" d="M988.1,799.7c3.6,8.9,8.8,42.3-30.7,49.3s-47.6-44.9-47.1-52.6c6-1.8,20.1-10.5,23-16.4
	C936.1,790.8,940.6,819.6,988.1,799.7z"/>
<radialGradient id="Bubbles-Shadow41_1_" cx="776.2598" cy="2298.958" r="102.251" gradientTransform="matrix(1 0 0 -1 0 3092)" gradientUnits="userSpaceOnUse">
	<stop  offset="0.398" style="stop-color:#000000"/>
	<stop  offset="0.503" style="stop-color:#000000;stop-opacity:0"/>
</radialGradient>
<path id="Bubbles-Shadow41" class="st52" d="M792.1,826c0.5,8.2,0.9,25.5,4.4,31.8c-7.8,11-24.1,25.9-44.9,23
	c-20.8-2.8-45.7-3.6-52.6-54.8c18.2,7.9,27.9,13.5,50.4-3.3C761.4,830.1,780,832.9,792.1,826z"/>
<radialGradient id="Bubbles-Shadow40_1_" cx="725.3912" cy="2294.988" r="102.251" gradientTransform="matrix(1 0 0 -1 0 3092)" gradientUnits="userSpaceOnUse">
	<stop  offset="0.398" style="stop-color:#000000"/>
	<stop  offset="0.503" style="stop-color:#000000;stop-opacity:0"/>
</radialGradient>
<path id="Bubbles-Shadow40" class="st53" d="M792.1,826c0.5,8.2,0.9,25.5,4.4,31.8c-7.8,11-24.1,25.9-44.9,23
	c-20.8-2.8-45.7-3.6-52.6-54.8c18.2,7.9,27.9,13.5,50.4-3.3C761.4,830.1,780,832.9,792.1,826z"/>
<radialGradient id="Bubbles-Shadow39_1_" cx="790.2437" cy="2385.9102" r="95.3161" gradientTransform="matrix(1 0 0 -1 0 3092)" gradientUnits="userSpaceOnUse">
	<stop  offset="0.398" style="stop-color:#000000"/>
	<stop  offset="0.503" style="stop-color:#000000;stop-opacity:0"/>
</radialGradient>
<path id="Bubbles-Shadow39" class="st54" d="M822.7,707.7c7.6,7,13.1,16.2,13.1,30.7s-6.8,35.2-25.2,40.5s-57.3,0.1-61.3-36.2
	c0.7-18.7,1.6-32.5,10.9-38.4c-0.6,13.7-1.5,35,31.8,35C821.8,737,820.6,710.2,822.7,707.7z"/>
<radialGradient id="Bubbles-Shadow38_1_" cx="1155.1351" cy="2332.7285" r="85.4676" gradientTransform="matrix(1 0 0 -1 0 3092)" gradientUnits="userSpaceOnUse">
	<stop  offset="0.398" style="stop-color:#000000"/>
	<stop  offset="0.503" style="stop-color:#000000;stop-opacity:0"/>
</radialGradient>
<path id="Bubbles-Shadow38" class="st55" d="M1133.9,783.2c-2.6,11.2-10.1,36-47.1,34c7.7,16,26.8,23,42.7,23s44.2-11.9,43.9-52.6
	C1157.4,792,1144,793,1133.9,783.2z"/>
<radialGradient id="Shadow-Bubbles-_1_" cx="1099.8585" cy="2305.0459" r="85.4676" gradientTransform="matrix(1 0 0 -1 0 3092)" gradientUnits="userSpaceOnUse">
	<stop  offset="0.398" style="stop-color:#000000"/>
	<stop  offset="0.503" style="stop-color:#000000;stop-opacity:0"/>
</radialGradient>
<path id="Shadow-Bubbles-" class="st56" d="M1133.9,783.2c-2.6,11.2-10.1,36-47.1,34c7.7,16,26.8,23,42.7,23s44.2-11.9,43.9-52.6
	C1157.4,792,1144,793,1133.9,783.2z"/>
<radialGradient id="Bubbles-Shadow36_1_" cx="530.6131" cy="2379.02" r="105.4647" gradientTransform="matrix(1 0 0 -1 0 3092)" gradientUnits="userSpaceOnUse">
	<stop  offset="0.398" style="stop-color:#000000"/>
	<stop  offset="0.539" style="stop-color:#000000;stop-opacity:0"/>
</radialGradient>
<path id="Bubbles-Shadow36" class="st57" d="M526.9,744.9c-2.6,5.6-10.9,29.9-1.1,55.9c-15.8-5.3-34.3-17.4-36.2-44.9
	c7.4-2.8,17.4-10.1,23-15.4C520.1,743,520.8,742.8,526.9,744.9z"/>
<radialGradient id="Bubbles-Shadow35_1_" cx="511.8824" cy="2461.6902" r="145.9117" gradientTransform="matrix(1 0 0 -1 0 3092)" gradientUnits="userSpaceOnUse">
	<stop  offset="0.398" style="stop-color:#000000;stop-opacity:0"/>
	<stop  offset="0.539" style="stop-color:#000000"/>
</radialGradient>
<path id="Bubbles-Shadow35" class="st58" d="M534.5,638.6c-8.9-9-20.3-21-47.1-19.8c-26.8,1.4-37.7,30.3-35,47.1s11.5,36.5,35,36.2
	c7.3-15.5,12-31.1,43.9-29.6C528.8,656.2,531.7,649.8,534.5,638.6z"/>
<radialGradient id="Bubbles-Shadow34_1_" cx="567.0781" cy="2435.2239" r="113.1755" gradientTransform="matrix(1 0 0 -1 0 3092)" gradientUnits="userSpaceOnUse">
	<stop  offset="0.398" style="stop-color:#000000"/>
	<stop  offset="0.539" style="stop-color:#000000;stop-opacity:0"/>
</radialGradient>
<path id="Bubbles-Shadow34" class="st59" d="M636.4,674.7c5.4,2.5,16.1,12.3,15.4,31.8s-14.2,33.6-34,32.9
	c-19.8-0.6-36-8.9-36.2-42.7c8.5-4.9,12.1-7.4,14.2-10.9C595.9,693.7,629.2,708,636.4,674.7z"/>
<radialGradient id="Bubbles-Shadow33_1_" cx="607.9589" cy="2422.4038" r="80.8391" gradientTransform="matrix(1 0 0 -1 0 3092)" gradientUnits="userSpaceOnUse">
	<stop  offset="0.398" style="stop-color:#000000"/>
	<stop  offset="0.539" style="stop-color:#000000;stop-opacity:0"/>
</radialGradient>
<path id="Bubbles-Shadow33" class="st60" d="M636.4,674.7c5.4,2.5,16.1,12.3,15.4,31.8s-14.2,33.6-34,32.9
	c-19.8-0.6-36-8.9-36.2-42.7c8.5-4.9,12.1-7.4,14.2-10.9C595.9,693.7,629.2,708,636.4,674.7z"/>
<radialGradient id="Bubbles-Shadow32_1_" cx="707.7259" cy="2351.9587" r="156.1459" gradientTransform="matrix(1 0 0 -1 0 3092)" gradientUnits="userSpaceOnUse">
	<stop  offset="0.398" style="stop-color:#000000"/>
	<stop  offset="0.539" style="stop-color:#000000;stop-opacity:0"/>
</radialGradient>
<path id="Bubbles-Shadow32" class="st61" d="M700,826c-10.3-8.5-29-31-15.4-50.4c-2.1-1.6-5.5-4.4-5.5-4.4s-2.1,10.2-18.6,16.4
	c-0.8,6.8,0.5,18.1-15.4,30.7c2.1,13.5,9.4,52.7,62.5,39.4C701.9,847.2,700.6,839,700,826z"/>
<radialGradient id="Bubbles-Shadow31_1_" cx="912.0524" cy="2364.094" r="122.808" gradientTransform="matrix(1 0 0 -1 0 3092)" gradientUnits="userSpaceOnUse">
	<stop  offset="0.398" style="stop-color:#000000"/>
	<stop  offset="0.539" style="stop-color:#000000;stop-opacity:0"/>
</radialGradient>
<path id="Bubbles-Shadow31" class="st62" d="M965.2,702.2c9.6-6,32.5-12.4,44.9,14.2c12.4,26.6-22.6,75.9-67.9,35
	C958.1,740.4,970.9,726.4,965.2,702.2z"/>
<radialGradient id="Bubbles-Shadow30_1_" cx="568.3195" cy="2418.3713" r="89.1623" gradientTransform="matrix(1 0 0 -1 0 3092)" gradientUnits="userSpaceOnUse">
	<stop  offset="0.398" style="stop-color:#000000"/>
	<stop  offset="0.539" style="stop-color:#000000;stop-opacity:0"/>
</radialGradient>
<path id="Bubbles-Shadow30" class="st63" d="M530.2,672.5c-17.4,0.2-50.4,8.8-40.5,43.9c9.9,34.9,56.5,33.9,67.9,12.1
	c11.5-21.8,7.7-24.8,7.7-27.3C556.9,702.2,537.9,701,530.2,672.5z"/>
<radialGradient id="Bubbles-Shadow29_1_" cx="525.2833" cy="2387.5427" r="113.6827" gradientTransform="matrix(1 0 0 -1 0 3092)" gradientUnits="userSpaceOnUse">
	<stop  offset="0.398" style="stop-color:#000000"/>
	<stop  offset="0.539" style="stop-color:#000000;stop-opacity:0"/>
</radialGradient>
<path id="Bubbles-Shadow29" class="st64" d="M538.9,741.6c0.2,14.7,4.4,44.1,46.1,43.9c3.4,11.3,8.7,29.6,27.3,34
	c-4.3,5.9-15.1,13.1-35,13.1s-43-8.2-52.6-35s0.6-52.7,3.3-54.8C532.1,742.6,533.7,742.5,538.9,741.6z"/>
<radialGradient id="Bubbles-Shadow28_1_" cx="578.9963" cy="2351.4907" r="113.6827" gradientTransform="matrix(1 0 0 -1 0 3092)" gradientUnits="userSpaceOnUse">
	<stop  offset="0.398" style="stop-color:#000000"/>
	<stop  offset="0.539" style="stop-color:#000000;stop-opacity:0"/>
</radialGradient>
<path id="Bubbles-Shadow28" class="st65" d="M538.9,741.6c0.2,14.7,4.4,44.1,46.1,43.9c3.4,11.3,8.7,29.6,27.3,34
	c-4.3,5.9-15.1,13.1-35,13.1s-43-8.2-52.6-35s0.6-52.7,3.3-54.8C532.1,742.6,533.7,742.5,538.9,741.6z"/>
<radialGradient id="Bubbles-Shadow27_1_" cx="631.3212" cy="2310.2112" r="113.6827" gradientTransform="matrix(1 0 0 -1 0 3092)" gradientUnits="userSpaceOnUse">
	<stop  offset="0.398" style="stop-color:#000000"/>
	<stop  offset="0.539" style="stop-color:#000000;stop-opacity:0"/>
</radialGradient>
<path id="Bubbles-Shadow27" class="st66" d="M538.9,741.6c0.2,14.7,4.4,44.1,46.1,43.9c3.4,11.3,8.7,29.6,27.3,34
	c-4.3,5.9-15.1,13.1-35,13.1s-43-8.2-52.6-35s0.6-52.7,3.3-54.8C532.1,742.6,533.7,742.5,538.9,741.6z"/>
<radialGradient id="Bubbles-Shadow26_1_" cx="655.2279" cy="2379.718" r="95.6415" gradientTransform="matrix(1 0 0 -1 0 3092)" gradientUnits="userSpaceOnUse">
	<stop  offset="0.398" style="stop-color:#000000"/>
	<stop  offset="0.539" style="stop-color:#000000;stop-opacity:0"/>
</radialGradient>
<path id="Bubbles-Shadow26" class="st67" d="M666.1,747.1c0.8,6.7,4.8,19.4,13.1,25.2c-10.4,19.4-46.3,26.7-72.4,0
	c4.7-5,12.1-17.9,12.1-32.9c6.2,0.1,12.3-2.4,15.4-4.4C637.4,740.9,650.5,748.5,666.1,747.1z"/>
<radialGradient id="Bubbles-Shadow25_1_" cx="643.8245" cy="2341.5" r="100.8078" gradientTransform="matrix(1 0 0 -1 0 3092)" gradientUnits="userSpaceOnUse">
	<stop  offset="0.398" style="stop-color:#000000"/>
	<stop  offset="0.539" style="stop-color:#000000;stop-opacity:0"/>
</radialGradient>
<path id="Bubbles-Shadow25" class="st68" d="M607.9,772.2c10,9.4,22,21.1,52.6,15.4c-0.7,10.6-7.2,35-34,35s-43.2-25.6-41.7-38.4
	C590.5,782.9,599.5,781.3,607.9,772.2z"/>
<radialGradient id="Bubbles-Shadow24_1_" cx="576.9331" cy="2343.8447" r="100.8078" gradientTransform="matrix(1 0 0 -1 0 3092)" gradientUnits="userSpaceOnUse">
	<stop  offset="0.398" style="stop-color:#000000"/>
	<stop  offset="0.539" style="stop-color:#000000;stop-opacity:0"/>
</radialGradient>
<path id="Bubbles-Shadow24" class="st69" d="M607.9,772.2c10,9.4,22,21.1,52.6,15.4c-0.7,10.6-7.2,35-34,35s-43.2-25.6-41.7-38.4
	C590.5,782.9,599.5,781.3,607.9,772.2z"/>
<radialGradient id="Bubbles-Shadow23_1_" cx="617.4163" cy="2374.8552" r="169.2169" gradientTransform="matrix(1 0 0 -1 0 3092)" gradientUnits="userSpaceOnUse">
	<stop  offset="0.398" style="stop-color:#000000"/>
	<stop  offset="0.5" style="stop-color:#000000;stop-opacity:0"/>
</radialGradient>
<path id="Bubbles-Shadow23" class="st70" d="M690.1,697.8c16.9-4.6,45.4-10.4,58.1,27.3c5.9,40.9-23.8,51.5-34,52.6
	s-40.3,8.5-48.2-30.7C679.5,742.8,699.1,736.4,690.1,697.8z"/>
<radialGradient id="Bubbles-Shadow22_1_" cx="580.8591" cy="2364.8623" r="253.1154" gradientTransform="matrix(1 0 0 -1 0 3092)" gradientUnits="userSpaceOnUse">
	<stop  offset="0.398" style="stop-color:#000000"/>
	<stop  offset="0.45" style="stop-color:#000000;stop-opacity:0"/>
</radialGradient>
<path id="Bubbles-Shadow22" class="st71" d="M552,827c-12.9-4.8-20-12.8-26.3-26.3c-10.5-4.6-28.6-9.7-36.2-41.7
	c-4,11.5-12.2,27.1-39.4,31.8c0.8,14.3,9.3,46.7,60.3,52.6C529.8,842.7,536.7,838.6,552,827z"/>
<radialGradient id="Bubbles-Shadow21_1_" cx="568.2" cy="2449.3359" r="155.4259" gradientTransform="matrix(1 0 0 -1 0 3092)" gradientUnits="userSpaceOnUse">
	<stop  offset="0.398" style="stop-color:#000000"/>
	<stop  offset="0.67" style="stop-color:#000000;stop-opacity:0"/>
</radialGradient>
<path id="Bubbles-Shadow21" class="st72" d="M540.1,741.6c12-7,22.7-16.6,25.2-39.4c5.9-1.1,11.6-2.7,16.4-5.5
	c0.3,9.5,2.1,45.1,38.4,42.7c0.3,14.2-10.1,47.6-42.7,46.1C544.6,783.9,536,754,540.1,741.6z"/>
<radialGradient id="Bubbles-Shadow20_1_" cx="628.8063" cy="2395.6118" r="111.0191" gradientTransform="matrix(1 0 0 -1 0 3092)" gradientUnits="userSpaceOnUse">
	<stop  offset="0.398" style="stop-color:#000000"/>
	<stop  offset="0.604" style="stop-color:#000000;stop-opacity:0"/>
</radialGradient>
<path id="Bubbles-Shadow20" class="st73" d="M540.1,741.6c12-7,22.7-16.6,25.2-39.4c5.9-1.1,11.6-2.7,16.4-5.5
	c0.3,9.5,2.1,45.1,38.4,42.7c0.3,14.2-10.1,47.6-42.7,46.1C544.6,783.9,536,754,540.1,741.6z"/>
<radialGradient id="Bubbles-Shadow19_1_" cx="518.3583" cy="2385.8313" r="111.0191" gradientTransform="matrix(1 0 0 -1 0 3092)" gradientUnits="userSpaceOnUse">
	<stop  offset="0.398" style="stop-color:#000000"/>
	<stop  offset="0.604" style="stop-color:#000000;stop-opacity:0"/>
</radialGradient>
<path id="Bubbles-Shadow19" class="st74" d="M540.1,741.6c12-7,22.7-16.6,25.2-39.4c5.9-1.1,11.6-2.7,16.4-5.5
	c0.3,9.5,2.1,45.1,38.4,42.7c0.3,14.2-10.1,47.6-42.7,46.1C544.6,783.9,536,754,540.1,741.6z"/>
<radialGradient id="Bubbles-Shadow18_1_" cx="616.9373" cy="2375.3855" r="80.5805" gradientTransform="matrix(1 0 0 -1 0 3092)" gradientUnits="userSpaceOnUse">
	<stop  offset="0.398" style="stop-color:#000000"/>
	<stop  offset="0.604" style="stop-color:#000000;stop-opacity:0"/>
</radialGradient>
<path id="Bubbles-Shadow18" class="st75" d="M649.5,690.1c8.3-6.2,24.4-16.2,40.5,9.9c5,12.1,5.3,25.2-3.3,35
	c-11.6,13.5-34.5,19.1-51.5,0C643.9,729.6,656.9,719.8,649.5,690.1z"/>
<radialGradient id="Bubbles-Shadow17_1_" cx="475.9095" cy="2379.3621" r="126.1271" gradientTransform="matrix(1 0 0 -1 0 3092)" gradientUnits="userSpaceOnUse">
	<stop  offset="0.398" style="stop-color:#000000"/>
	<stop  offset="0.501" style="stop-color:#000000;stop-opacity:0"/>
</radialGradient>
<path id="Bubbles-Shadow17" class="st76" d="M427.2,704.3c-5.2-4.2-10.6-11-13.1-15.4c-6.9,3.3-26.3,12.5-26.3,53.6
	s40.1,47.1,48.2,47.1s43.5,3.6,54.8-32.9C474,760.5,437.3,768.8,427.2,704.3z"/>
<radialGradient id="Bubbles-Shadow16_1_" cx="531.6178" cy="2391.7844" r="115.368" gradientTransform="matrix(1 0 0 -1 0 3092)" gradientUnits="userSpaceOnUse">
	<stop  offset="0.398" style="stop-color:#000000"/>
	<stop  offset="0.604" style="stop-color:#000000;stop-opacity:0"/>
</radialGradient>
<path id="Bubbles-Shadow16" class="st77" d="M511.5,742.7c-9.3,7.9-18.7,16.4-42.7,16.4c-22.1,5.2-71.9-61.7-17.6-92
	c0.6,10.7,10,36.8,37.2,35C487.8,713,485.8,723.2,511.5,742.7z"/>
<radialGradient id="Bubbles-Shadow15_1_" cx="496.7306" cy="2428.0491" r="115.368" gradientTransform="matrix(1 0 0 -1 0 3092)" gradientUnits="userSpaceOnUse">
	<stop  offset="0.398" style="stop-color:#000000"/>
	<stop  offset="0.604" style="stop-color:#000000;stop-opacity:0"/>
</radialGradient>
<path id="Bubbles-Shadow15" class="st78" d="M511.5,742.7c-9.3,7.9-18.7,16.4-42.7,16.4c-22.1,5.2-71.9-61.7-17.6-92
	c0.6,10.7,10,36.8,37.2,35C487.8,713,485.8,723.2,511.5,742.7z"/>
<path id="Paint-Dark" class="st79" d="M977.2,307.7c0,0-14.2-47.9-52.6-71.2c-42.7,2.2-132.6,4.4-132.6,4.4s18.5,30.9,32.9,69
	c12.7,0.1,78.3-0.8,89.8,0C973.8,311.5,977.2,307.7,977.2,307.7z M589.3,181.7l-14.2,20.6c0,0,47.2,20.3,96.4,0
	c-8-10-17.6-22.8-17.6-22.8s-9.9,7.3-31.8,7.6C605.9,187.3,589.3,181.7,589.3,181.7z"/>
<radialGradient id="Bubbles-Shadow77_1_" cx="1020.6563" cy="-1148.4589" r="139.6359" gradientTransform="matrix(1 0 0 1 0 1870)" gradientUnits="userSpaceOnUse">
	<stop  offset="0.398" style="stop-color:#000000"/>
	<stop  offset="0.5417" style="stop-color:#000000;stop-opacity:0"/>
</radialGradient>
<path id="Bubbles-Shadow77" class="st80" d="M1071.4,689.5c0,0,16-18.7,36.1-9.9c20.2,8.9,21.9,75.6,21.9,75.6s-14.1-35.1-55.8-20.8
	C1083.6,717.6,1071.4,689.5,1071.4,689.5z"/>
<g id="Line">
	<path id="L-Body32" class="st19" d="M670.5,239c3.1-6.8,11.7-22.2,25.1-16.7c77.8,31.9,100.8,341.8,100.8,341.8L849,680.2
		 M837,682.4l-55.9-125c0,0-16.9-243.9-87.6-298.1"/>
	<path id="L-Body31" class="st19" d="M781,558.6l15.4,6.5l65.7-5.5l28.5,50.4l109.6-6.5c0,0,11.6-39.9,15.4-51.5 M1074.7,556.4
		l-27.3,120.5"/>
	<path id="L-Body30" class="st19" d="M857.8,661.6l-35-77.8l32.9-3.3c0,0,19.9,36.5,32.1,59.1c-0.6,1.5-8,18.6-9.3,19.8
		C868.3,660.4,857.8,661.6,857.8,661.6z M1025.5,570.6c0,0-9.6,33.9-16,56.9c0.9,1.5,11,17.7,12,19.2c9-0.8,18.3-1.7,18.3-1.7
		l16.4-76.7L1025.5,570.6z"/>
	<path id="L-Body34" class="st19" d="M686.9,221.1l275-7.7c0,0,40.3,18.1,69,85.5"/>
	<path id="L-Gun5" class="st19" d="M1251.2,340.6l132.6,49.3l-28.5,49.3l-20.8,10.9l-180.8,13.1l116.1,99.7l8.7,25.2l-27.3,48.2
		l-145.8-30.7l-28.5-48.2l-29.6-8.7l-12.1,7.7l-111.8-35L907,471l-1.1-7.7L793.1,317.5l2.2-7.7h125l53.6,1.1 M1171.1,348.3
		l-1.1-19.8l-117.3-30.7l-77.8,10.9v13.1l72.4,20.8l121.6,3.3"/>
	<path id="L-Gun8" class="st19" d="M908.2,469.8l86.6,26.3l40.5,59.2 M1046.3,547.7l-41.7-57l-98.7-29.6 M994.7,497.2l8.7-5.5"/>
	<path id="L-Gun10" class="st19" d="M919.1,309.9l62.5,19.8l-76.7,14.2l34,73.4c0,0-0.2,0.9-0.5,0.8c-6.5-2.4-73.9-26.8-93.8-34"/>
	<path id="L-Gun9" class="st19" d="M937.7,418.3l10.9-6.5l-21.9-52.6l30.7-6.5 M986,347.1v-16.4 M1046.3,325.2v16.4"/>
	<path id="L-Gun12" class="st19" d="M903.8,342.7l-106.3-32.9"/>
	<path id="L-Gun13" class="st19" d="M980.5,307.7l67.9,16.4l113.9,2.2"/>
	<path id="L-Gun6" class="st19" d="M1270.8,566.3l-19.8,35l-20.8-32.9l-189.5-98.7l14.2,53.6l50.4,79.9 M1251.2,635.3l-28.5-43.9
		l-165.4-69"/>
	<path id="L-Gun7" class="st19" d="M1222.7,590.4l8.7-19.8"/>
	<path id="L-Gun" class="st19" d="M1006.8,442.4l135.9,12.1l24.1,4.4l-17.6-32.9l52.6-5.5l-15.4-17.6l-166.5-59.2l-67.9,11
		l52.6,86.6l35,29.6 M1182.1,401.9l-69,7.7l28.5,43.9 M1150.3,457.8L1045.1,472 M954.1,355.8c-0.1,0.1,159.7,52.2,161,52.6"/>
	<path id="L-Gun11" class="st19" d="M929,361.4l34,10.9"/>
	<path id="L-Gun4" class="st19" d="M1333.3,450.1l18.6-39.4l-50.4,3.3l-200.6-47l26.3-10.9l127.1-16.4"/>
	<path id="L-Gun3" class="st19" d="M1382.6,389.8l-67.9,3.3L1133.9,356"/>
	<path id="L-Gun2" class="st19" d="M1313.6,395.4l-12.1,17.6"/>
	<path id="L-Body36" class="st19" d="M670.4,275.9v-71.2l-17.6-28.5c0,0-39.2-11.3-64.7,3.3c-5.8,9.6-14.2,23-14.2,23V356"/>
	<path id="L-Body38" class="st19" d="M575.1,245.5c-19-5.7-30.7-9-30.7-9v93.2l30.7,24.1"/>
	<path id="L-Body39" class="st19" d="M543.3,235.4l31.8-1.1"/>
	<path id="L-Body37" class="st19" d="M670.4,202.5c-8.6,4.6-65,16.7-96.4-1.1 M592.6,210.2c0,10.8,0,23,0,23s8.2,1.2,13.1,1.1
		c-0.1-8.7,0-23,0-23 M589.3,180.6c7.2,6.5,62.5,9,62.5-2.2"/>
	<path id="L-Body99" class="st19" d="M1195.3,623.7c0,6.2-0.3,14.7-1.1,21.1"/>
	<path id="L-Body33" class="st19" d="M824.4,308.9c-16.1-44.2-34.5-68.1-34.5-68.1s91.1-2.6,134.7-4.4c20,7.5,38.2,36.9,52.9,70.8"
		/>
	<path id="Line-Bubbles" class="st19" d="M1234.7,799.7c-19.2,49.4-67.9,32.7-75.6,28.5c-2.7,2.5-6.8,5.4-15.4,8.7
		c-26.3,9.7-53.4-6.4-59.2-20.8c-28.3-2.6-38.8-26.2-37.2-41.7c-15.3,27.3-46.7,19.5-51.5,17.6c-2.9,2.6-5.5,5.3-8.7,6.5
		c8.7,17.7,0,37.6-15.4,46.1c-19.1,10.5-48.2,4.3-60.3-30.7c0.2,3.3,3.6,21.2-1.1,34c-7.3,16-16.4,16.1-34,20.8
		c-29,36-74.6,8.9-81.1-12.1c-22.5,39.4-75.9,23.6-87.6,1.1c-53,13.1-61-28.6-63.5-40.5c-6.2,4.9-20.6,6.2-30.7,2.2
		c-19.5,16.9-47.8,12.9-62.5,6.5c-37.4,38.4-102.6,3.4-101.9-36.2c-40.1,2.4-57.5-17.5-61.3-47.1c-68.3-28.5-26.3-116.3,17.6-108.4
		c-1.6-66.6,62.1-76.5,82.1-72.7 M460,634.2c-36-10.5-72.9,39.5-31.8,71.2 M412.9,688.9c-10.3,3.6-28.9,22.5-25.2,55.9 M430.5,640.8
		c-5.3-2.5-12.4-5-25.2-6.5 M451.3,667.1c-54.9,18.6-9.4,136.8,60.3,74.5 M449.1,789.8c28.7-2.4,37.3-21,41.7-32.9 M551,826
		c-37.1-13.1-32.9-66.5-24.1-81.1 M540.1,742.7c-12.9,44,75.3,66.6,78.9-2.2 M679.2,772.2c-24.1,32.1-63.4,10.9-70.2,1.1
		 M583.8,785.4c2.3,10.8,9,29.3,29.6,34 M644.1,817.2c8.4-5.4,16.5-17.2,15.4-28.5 M683.5,776.7c-18.2,24.2,25.5,79.5,64.7,46.1
		 M720.9,776.7c24.1,94,119,44,104.1-5.5 M823.8,799.7c5.7,14,56.6,36.4,72.4-2.2 M910.4,797.5c-0.1,4.2,0.7,14.7,2.2,18.6
		 M887.4,810.6c2,11.3,5.7,38.4-12.1,59.2 M862.1,761.3c-2.3,36,75.3,58.6,75.6-7.7 M792.1,827c0.3,14.6,0.6,23,4.4,30.7
		 M759.1,703.2c-4.1,19.5,4.3,35.2,31.8,35c26.6-0.1,33.8-25.9,27.3-46.1 M748.2,745.9c5.3,34.3,55.4,43.9,75.8,24
		c10.8-10.6,20.9-46.5-3.5-63.4 M830.3,760.2c13.4,3.4,48.9,5,52.6-28.5c0.8-0.1,1.1,0,1.1,0s2.2-13.7,0-24.1 M698.9,827
		c0.2,8,2.5,21.9,8.7,30.7 M690.1,700c8.6,29.8-7.2,43.6-24.1,46.1c-13.7,2-28.2-4.4-30.7-9.9 M666.1,747.1
		c2.8,49.5,90,39.7,82.1-16.4 M525.7,800.7c-13.3-6.2-32.3-12.7-36.2-42.7 M488.5,700c-5.9,11.5,4.7,31,20.3,39.5
		c18.1,9.9,52,3.5,56.5-37.3 M649.5,691.1c16.4,58.5-72.9,67.7-67.9,6.5 M595.9,687.9c3.2,7.9,38.1,15.5,39.4-13.1 M534.5,641.9
		c-6.1-11.5-18.8-22.8-38.4-23c-11.5-0.1-27.1,4.4-36.6,15.5c-6.5,7.8-10.2,19.8-7.3,38.3c5.9,27.7,30.4,30.6,35,29.6
		c2.9-16,16.7-33.7,42.7-28.5c-4.3-18.4,4.1-64.1,48.2-49.3c20.3,6.8,24,24,25.2,34c0.4-1.2-0.1-3.5,1.1-4.4
		c7.8-5.7,29.8-2.2,30.7,18.6c3.7,4.1,9.7,6.5,14.2,17.6c3.3-7.6,25.3-14.9,39.4,7.7c17.7-9.7,54.3-6.7,59.1,32.2
		c0,0.2,0.5,0.8,1.2,0.6c1.1-15.8,4.9-23.3,9.9-27.3c3.3-10.6,10.2-34.5,40.5-26.3c7.8,2,17.2,9.9,18.6,15.4
		c6.4-6.7,45.4-31.9,65.7,16.4c1.5-13.6,10.8-41,52.6-35c21.8,1.7,27.2,25.6,28.5,28.5c2.8-5,18.4-10.7,32.1-1.1
		c6.5-10.8,28.8-42.6,67.6-16.4c23.1,18.1,10.2,43.2,7.7,49.3c16.6-5.5,34.4-7.9,50.4,9.9c5.9,8.2,6.9,10.6,7.7,14.2
		c0.3,0.1,0.7,1.2,1.1,2.2 M1052.8,759.1c0.6-11.4-0.8-48.7-45.2-45.3 M998,701c8.9,5.4,16.5,22.7,12.1,37.2
		c-6.9,22.4-30.5,41.4-66.8,14.2 M971.7,766.8c1.7,6,11.2,20.5,25.2,26.3 M987.1,798.5c-10.5,8.9-48.3,16.6-54.8-18.6 M989.3,827
		c26.1,18.8,57.8,15.8,74.5-15.4 M1035.2,839.1c10.9,13.5,51.9,27.1,82.1,1.1 M965.2,703.2c10.2,34-40.3,81.4-79.9,27.3
		 M1073.6,732.8c-8.2,7.6-20.5,9.5-26.3,44.9 M1133.9,784.3c28.5,15.5,50.7,2,61.3-27.3c4.5-12.5,0.3-36.9-29.6-44.9
		c-34.8-9.4-51.9,5.8-59.2,18.6 M1131.7,760.2c1.9,11,9.4,57.8-46.1,55.9 M1173.3,787.6c1.5,24.1-12,37.8-15.4,41.7"/>
	<path id="L-Bubbles" class="st19" d="M1071.4,690.1c11.3-17.7,55.7-20.9,65.7,19.8"/>
	<path id="L-Body35" class="st19" d="M600.3,330.7c12.8-12.8,53.2-47.1,96-69.8"/>
	<path id="L-Bubbles2" class="st19" d="M1120.3,683.3c4.4-12.6,16.4-21.7,30.6-21.7c17.9,0,32.3,14.5,32.3,32.3
		c0,8.2-3.1,15.7-8,21.4"/>
	<path id="L-Bubbles3" class="st19" d="M1180.6,682.2c5.5-4,12.3-6.3,19.6-6.3c18.4,0,33.4,15,33.4,33.4s-15,33.4-33.4,33.4
		c-0.8,0-1.8,0-2.6-0.1"/>
	<path id="L-Bubbles4" class="st19" d="M1229.5,723.7c15.9,6.2,27,21.7,27,39.8c0,23.6-19.1,42.7-42.7,42.7
		c-15.8,0-29.6-8.5-36.9-21.2"/>
	<path id="L-Bubbles11" class="st19" d="M1177.8,678.8c0.4-20.5,17.2-36.9,37.8-36.9c20.9,0,37.8,16.9,37.8,37.8
		c0,14.6-8.2,27.1-20.3,33.6"/>
	<path id="L-Bubbles5" class="st19" d="M1250.2,696.7c18.2,1.2,32.6,16.4,32.6,34.9c0,16.6-11.6,30.6-27,34.2"/>
	<path id="L-Bubbles7" class="st19" d="M1238.4,650.3c6.2-2.6,13.1-4.1,20.4-4.1c29,0,52.6,23.6,52.6,52.6
		c0,21.9-13.5,40.8-32.5,48.7"/>
	<path id="L-Bubbles12" class="st19" d="M1209.8,643c1.7-5.5,4.8-10.3,9-14 M1257.2,626.5c7.4,4.9,12.4,12.9,13.5,22.1"/>
	<path id="L-Bubbles6" class="st19" d="M1279.8,747.2c7.9,5.6,13,14.7,13,25.1c0,16.9-13.7,30.7-30.7,30.7c-8.1,0-15.6-3.2-21-8.3"
		/>
	<path id="L-Bubbles10" class="st19" d="M1262.4,631.5c7.8-8.4,18.9-13.7,31.4-13.7c23.6,0,42.7,19.1,42.7,42.7
		c0,6.7-1.6,13-4.3,18.6"/>
	<path id="L-Bubbles9" class="st19" d="M1333.6,743.2c0.5,2.4,0.7,5,0.7,7.7c0,20.8-16.8,37.8-37.8,37.8c-3.2,0-6.2-0.4-9.3-1.1"/>
	<path id="L-Bubbles8" class="st19" d="M1304.7,674.7c2.8-0.6,5.8-1.1,8.8-1.1c20.6,0,37.2,16.6,37.2,37.2
		c0,20.6-16.6,37.2-37.2,37.2c-8.5,0-16.4-2.8-22.8-7.8"/>
	<path id="Line-Bubbles2" class="st19" d="M530.2,673.7c7.9,45.8,77.5,31.2,73.4-14.2"/>
</g>
</svg>
