<?xml version="1.0" encoding="utf-8"?>
<!-- Generator: Adobe Illustrator 22.0.0, SVG Export Plug-In . SVG Version: 6.00 Build 0)  -->
<svg version="1.1" id="Слой_1" xmlns="http://www.w3.org/2000/svg" xmlns:xlink="http://www.w3.org/1999/xlink" x="0px" y="0px"
	 viewBox="0 0 1920 1920" style="enable-background:new 0 0 1920 1920;" xml:space="preserve">
<style type="text/css">
	.st0{fill:none;stroke:#00FF00;stroke-width:10;}
	.st1{fill:#F3F3F3;}
	.st2{fill:#E6E6E6;}
	.st3{fill:url(#Body-Shadow16_1_);}
	.st4{fill:#D9D9D9;}
	.st5{fill:url(#Body-Shadow17_1_);}
	.st6{fill:url(#Body-Shadow18_1_);}
	.st7{fill:url(#Body-Shadow9_1_);}
	.st8{fill:url(#Body-Shadow7_1_);}
	.st9{opacity:0.149;fill:url(#Tower-Shadow_1_);enable-background:new    ;}
	.st10{fill:url(#Gun-Shadow_1_);}
	.st11{fill:url(#Tower-Shadow3_1_);}
	.st12{fill:url(#Engine-Shadow2_1_);}
	.st13{opacity:0.302;fill:url(#Engine-Shadow3_1_);enable-background:new    ;}
	.st14{opacity:0.2;enable-background:new    ;}
	.st15{fill:url(#Engine-Shadow5_1_);}
	.st16{opacity:0.502;fill:url(#Engine-Shadow4_1_);enable-background:new    ;}
	.st17{fill:#BFBFBF;}
	.st18{fill:#8C8C8C;}
	.st19{fill:url(#Body-Shadow_1_);}
	.st20{opacity:0.502;fill:url(#Body-Shadow14_1_);enable-background:new    ;}
	.st21{opacity:0.702;fill:url(#Body-Shadow11_1_);enable-background:new    ;}
	.st22{fill:url(#Body-Shadow10_1_);}
	.st23{fill:url(#Body-Shadow6_1_);}
	.st24{opacity:0.302;fill:url(#Body-Shadow5_1_);enable-background:new    ;}
	.st25{fill:#34A798;}
	.st26{opacity:0.4;fill:url(#Paint-Blue-Shadow2_1_);enable-background:new    ;}
	.st27{opacity:0.502;fill:url(#Paint-Blue-Shadow_1_);enable-background:new    ;}
	.st28{opacity:0.302;fill:url(#Body-Shadow2_1_);enable-background:new    ;}
	.st29{fill:url(#Paint-Blue-Down_2_);}
	.st30{fill:url(#Paint-Blue-Down_3_);}
	.st31{opacity:0.4;fill:url(#Paint-Blue-EngineShadow_1_);enable-background:new    ;}
	.st32{fill:url(#Paint-Blue-Engine_1_);}
	.st33{fill:url(#Paint-Blue-Engine2_1_);}
	.st34{fill:#768692;}
	.st35{fill:url(#Body-Shadow13_1_);}
	.st36{fill:url(#Body-Shadow12_1_);}
	.st37{fill:url(#_x2D_PaintGradient_1_);}
	.st38{opacity:0.702;fill:url(#Body-Shadow4_1_);enable-background:new    ;}
	.st39{opacity:0.4;fill:url(#Tower-Shadow2_1_);enable-background:new    ;}
	.st40{fill:#595959;}
	.st41{opacity:0.502;fill:url(#Gun2-Shadow4_1_);enable-background:new    ;}
	.st42{fill:#B3B3B3;}
	.st43{fill:url(#Body-Shadow3_1_);}
	.st44{fill:none;stroke:#1A1A1A;stroke-width:10;}
	.st45{fill:#1A1A1A;}
</style>
<g id="Perspectiva">
	<path id="Cylinder3" class="st0" d="M806,1354c11.5-60.1,97.6-96.2,198-95.3c95.7,0.9,191.8,32,200,100.3"/>
	<path id="Cylinder2" class="st0" d="M802,1111.9c-0.7,123.1,403.9,125.4,413,6"/>
	<path id="Cylinder" class="st0" d="M802,1113.9c0,0,2.7,203,4,250c0,46.9,90.2,100,204.1,100c71.1,0,171.4-25.8,193.9-87
		c3.1-80.6,6.9-142.3,11-258c1.1-53.1-96.4-90.7-207.7-91.9C912.7,1027.8,804.3,1055.3,802,1113.9z"/>
</g>
<path id="Body-Fill" class="st1" d="M1626,943l128-120c0,0-178.1-52.1-177-52s10-18,10-18l-121-19l-19,5l-81-20l7-18l-103-17l-19,5
	l-71-18l-56-28c0,0-7.4-11.5-21-16c-8.4-13.2-31.8-43.4-80.7-57.9c-2.6-9.4-19-20.7-29.3-22.1c-9.6-1.3-17.6-3.4-30,14
	c-58.5,1.9-87,1-87,1l-5-24c0,0,10.7-6.3,13-28c5.6-2.6,9-4,9-4l1-10l8-3l5,6l11-4v-11l245-119l-9-60L912,417l-4-5l-22,8l-21,4
	l-17,6l-4,6c0,0-14.9,6.7-19,8s-51.4,17.8-67,23s-52.7,49.2-4,97c-4.1,24-8,46-8,46s-23,4.3-34,25c-13.3,12.5-21.8,24.7-30,42
	c-3.1,10-1.8,11.8-2,19c-9.3,2.1-50.9,4.1-89,27c-22.3-11.5-42.9-9.4-56,4c-11.5,11.7-30.5,23.1-8.3,85.3
	c-4.8,8.3-9.2,17.2-13.3,26.9c-2.3,5.4-6.7-30.8-35.4-8.2c-24.7,30.6,0.6,38.2-8.7,43c-5.7,3-9.3,5-9.3,5s-13.1-1-9,72
	c0.5,8.4,2.5,16.9,5.7,25.2c1.6,4.3-10.9,12.6-8.7,16.8c1.8,3.4,8.1,20.8,14,23c5.2,2,10-11.3,12-8.5c8.7,12.2,18.8,23.5,28.5,33
	c1.2,1.2-13.6,8.3-12.5,9.4c4.3,4.1,13.6,16.3,22,18c6.4,1.3,12.3-8,14.8-6c6.2,4.8,10.9,7.9,13.2,9c11.3,5.3,64,17,64,17
	s13.2,1.3,19-12c8.6,3,18.1,5.7,28,3c7.3,9.8,20,28,20,28l-38,36l10,70c0,0,8.8,6.9,22.5,17.7c2.7,2.1-5.8,12.9-3.5,18.3
	c4.6,10.7,20.1,18.5,27,24c3.5,2.7,11.6-14.7,15.2-11.8c16.8,13.2,34.9,27.5,51.4,40.4c2.1,1.6-15.6,11.8-13.6,13.4
	c11.5,9.1,21.8,16,33,23c3.9,2.4,18.5-5.6,27-4c7.7,1.4,9.5,12.7,10,12l69-5l27-47l-8-11c0,0,133.9,22.9,251-2
	c110.6-23.5,142.7-27.8,162-33c7.2,7.1,29.9,35.6,91.3-0.1c4.1-2.4,9.3,15,13.7,12.1c2.7-2.1,23.6-13.6,26-20
	c3-8.1-12.6-11.5-9.5-14.1c27.5-23.7,46.7-47.8,59.4-74c0.8-1.6,12.9,11.5,14.1,10.2c7.7-8.8,11.2-27.8,14-39
	c0.4-1.5-14-11.5-13.7-13c3.9-17.5,5.7-36.1,5.7-56c0.5-28.4-30.9-36.5-40-42c-0.9-2.6-1.9-5.7-3.1-9.1
	c-1.6-4.5-17.4-11.6-25.9-16.9c-8.6-21.9-25.7-59.7-44-89c46.5,21.2,100,44,100,44l10-22L1626,943z"/>
<path id="Body-Shadow15" class="st2" d="M732,945c0,0,119.6,82.2,164,99c-17.3,5.9-48.3,20.7-60,31c-21.6-6.5-85.8-43-125-77
	C721.3,970,732,945,732,945z"/>
<linearGradient id="Body-Shadow16_1_" gradientUnits="userSpaceOnUse" x1="780.6428" y1="911.0759" x2="730.6428" y2="934.392" gradientTransform="matrix(1 0 0 -1 0 1920)">
	<stop  offset="0" style="stop-color:#000000"/>
	<stop  offset="1" style="stop-color:#000000;stop-opacity:0"/>
</linearGradient>
<path id="Body-Shadow16" class="st3" d="M753,961l-22,55l24,16l26-55L753,961z"/>
<path id="Body-Shadow8" class="st4" d="M724,953l-13,47l-39,6C672,1006,698.3,957.9,724,953z"/>
<linearGradient id="Body-Shadow17_1_" gradientUnits="userSpaceOnUse" x1="829.6428" y1="879.0759" x2="779.6428" y2="902.392" gradientTransform="matrix(1 0 0 -1 0 1920)">
	<stop  offset="0" style="stop-color:#000000"/>
	<stop  offset="1" style="stop-color:#000000;stop-opacity:0"/>
</linearGradient>
<path id="Body-Shadow17" class="st5" d="M802,993l-22,55l24,16l26-55L802,993z"/>
<linearGradient id="Body-Shadow18_1_" gradientUnits="userSpaceOnUse" x1="880.975" y1="849.9666" x2="824.975" y2="876.0805" gradientTransform="matrix(1 0 0 -1 0 1920)">
	<stop  offset="0" style="stop-color:#000000"/>
	<stop  offset="1" style="stop-color:#000000;stop-opacity:0"/>
</linearGradient>
<path id="Body-Shadow18" class="st6" d="M879.2,1051.1c2.3-4.9,3.8-8.1,3.8-8.1l-28-16l-28,47c0,0,2.2,1.7,5.3,4.3
	C845.3,1070.3,860.5,1059.4,879.2,1051.1z"/>
<linearGradient id="Body-Shadow9_1_" gradientUnits="userSpaceOnUse" x1="723.2463" y1="947.9445" x2="507.2462" y2="1048.6665" gradientTransform="matrix(1 0 0 -1 0 1920)">
	<stop  offset="0.187" style="stop-color:#F3F3F3"/>
	<stop  offset="0.557" style="stop-color:#CCCCCC"/>
</linearGradient>
<path id="Body-Shadow9" class="st7" d="M525,816l-13,18c0,0,30,84.9,81,122c5.6,4.5,16.4,17.1,16,26c10.1,6.9,56.6,20.9,62,25
	c7.2-12,32.5-50.6,57-58c-31.8-4.8-46-19-46-19s-24.2,38.6-57,24c-12.7-5.6-33.9-25.3-51-50C546.9,864.7,525,816,525,816z"/>
<linearGradient id="Body-Shadow7_1_" gradientUnits="userSpaceOnUse" x1="694.3113" y1="1029.4178" x2="637.4482" y2="920.4178" gradientTransform="matrix(1 0 0 -1 0 1920)">
	<stop  offset="0.194" style="stop-color:#F3F3F3"/>
	<stop  offset="0.562" style="stop-color:#D9D9D9"/>
</linearGradient>
<path id="Body-Shadow7" class="st8" d="M688,901c1.1,1.4,74.9,25.7,58,38s-51.2,20.1-77,71c-19-12.5-15.1-14.3-59-26
	c-2.1-8.7-7.1-19.2-24-35c18.7-3.1,24.2-0.5,33,4c8.8,4.5,34,4.9,50-9C682.9,932,688.7,917.7,688,901z"/>
<linearGradient id="Tower-Shadow_1_" gradientUnits="userSpaceOnUse" x1="992.5498" y1="1315.4424" x2="992.5498" y2="1373.175" gradientTransform="matrix(1 0 0 -1 0 1920)">
	<stop  offset="0" style="stop-color:#000000"/>
	<stop  offset="1" style="stop-color:#F2F2F2"/>
</linearGradient>
<path id="Tower-Shadow" class="st9" d="M974,554c-5.2,6-14.5,32-14,40s54.7,18.1,65,2C1027,572,1003.8,530,974,554z"/>
<linearGradient id="Gun-Shadow_1_" gradientUnits="userSpaceOnUse" x1="1619.8523" y1="1116.7477" x2="1718.4192" y2="1001.7477" gradientTransform="matrix(1 0 0 -1 0 1920)">
	<stop  offset="0" style="stop-color:#262626"/>
	<stop  offset="1" style="stop-color:#414141"/>
</linearGradient>
<path id="Gun-Shadow" class="st10" d="M1618,859l132-32l-121,115L1618,859z"/>
<linearGradient id="Tower-Shadow3_1_" gradientUnits="userSpaceOnUse" x1="817.4528" y1="1071.5972" x2="862.0479" y2="1324.5032" gradientTransform="matrix(1 0 0 -1 0 1920)">
	<stop  offset="0" style="stop-color:#CCCCCC"/>
	<stop  offset="1" style="stop-color:#E6E6E6"/>
</linearGradient>
<path id="Tower-Shadow3" class="st11" d="M850.8,604c25.5,13.7,56.2,36.5,61,49c4.8,12.5,50.2,116,71,193
	c-66.7,8-236.5-40.2-303.8-148c9.1-45.4,26.8-59.3,32.8-68C729.6,618.3,775,574.4,850.8,604z"/>
<linearGradient id="Engine-Shadow2_1_" gradientUnits="userSpaceOnUse" x1="771.995" y1="574" x2="771.995" y2="812" gradientTransform="matrix(1 0 0 -1 0 1920)">
	<stop  offset="0" style="stop-color:#989898"/>
	<stop  offset="1" style="stop-color:#E6E6E6"/>
</linearGradient>
<path id="Engine-Shadow2" class="st12" d="M674,1108c11.9,4.1,81.3,41.2,142,89c39.7,31.3,73.2,70.6,93,96c-13,26.7-26,48-26,48
	l-70,5c0,0-5.9-4.5-15.4-11.9c-4.8-3.7-17.2,8.9-23.6,3.9c-5.5-4.3-25.6-14.2-30-24c-3.4-7.4,18.7-8.8,4-19
	c-13.5-10.8-27.4-23.5-41-34c-6.7-5.2-12.4,13.3-19,9c-4.4-2.9-21.7-13.1-26-22c-3.6-7.4,5.8-13.9,3-16c-13.4-10.3-22-17-22-17
	l-8-70C635,1145,659.5,1117.4,674,1108z"/>
<linearGradient id="Engine-Shadow3_1_" gradientUnits="userSpaceOnUse" x1="912.0874" y1="619.2576" x2="760.0874" y2="726.5615" gradientTransform="matrix(1 0 0 -1 0 1920)">
	<stop  offset="0" style="stop-color:#000000"/>
	<stop  offset="0.503" style="stop-color:#000000;stop-opacity:0"/>
</linearGradient>
<path id="Engine-Shadow3" class="st13" d="M908,1292c-10.4-17.1-74.8-90.7-125-123c-15.2,14.9-27,34-27,34s98.4,78.8,134,123
	C897.9,1309,902.3,1303.9,908,1292z"/>
<path id="Engine-Shadow" class="st14" d="M812,1347l68-6c0,0-43.2-49.9-99-96c-49.4-40.8-109.5-77.1-144-96c5.9,59.2,7,66,7,66
	s8.3,6.5,21.2,16.6c3.4,2.7-6.5,9.7-3.2,16.4c4.4,8.7,22.2,17.4,28,22c3.4,2.7,9.6-11.3,13.2-8.5c16.9,13.3,35.3,27.7,52,40.9
	c4.1,3.2-12.8,4.1-10.2,10.6c3.2,8,25.8,21.7,30,25c5.9,4.7,16.7-6.9,21.3-3.4C806,1342.3,812,1347,812,1347z"/>
<linearGradient id="Engine-Shadow5_1_" gradientUnits="userSpaceOnUse" x1="1416.2987" y1="656" x2="1416.2987" y2="905" gradientTransform="matrix(1 0 0 -1 0 1920)">
	<stop  offset="0" style="stop-color:#808080"/>
	<stop  offset="1" style="stop-color:#E6E6E6"/>
</linearGradient>
<path id="Engine-Shadow5" class="st15" d="M1336.3,1241c71.8-20.7,113-65.2,132-110.4c19.2-45.9,15.5-92.5,9.9-115.6
	c17.2,10.8,21.4,13.3,27.8,18c2.3,7.9,6.6,43.6,2,80c-0.1,4.9,11,6.1,10.6,11.1c-1.3,13.8-4.2,27.9-9.6,40.9
	c-0.3,0.7-13.7-12.7-14-12c-11.4,26.6-34.2,51.6-59,73c-1.1,1,13.9,13.5,12.8,14.4c-9.3,7.5-19.8,14.1-31.8,19.6
	c-0.9,0.4-14.9-12.8-15.9-12.4c-19,8.3-41.1,14-66.8,16.4c-10.7-4.4-19-17-19-17S1306.2,1249.7,1336.3,1241z"/>
<linearGradient id="Engine-Shadow4_1_" gradientUnits="userSpaceOnUse" x1="514.4465" y1="837.8132" x2="514.4465" y2="1003" gradientTransform="matrix(1 0 0 -1 0 1920)">
	<stop  offset="0" style="stop-color:#000000"/>
	<stop  offset="1" style="stop-color:#E6E6E6"/>
</linearGradient>
<path id="Engine-Shadow4" class="st16" d="M458,933c-4.3-3.2-8-16-8-16s-2,43.3,6,58c1.1,3.9-8.2,15.3-7,19c3.7,11.3,8.8,11.5,13,21
	c1.7,3.9,13.3-9.6,15-6c8.2,17.7,22,22.3,24,31c1,4.2-9.1,8.3-10,9c6.2,10.1,12.2,12.4,18.6,19.2c2.2,2,8.7,1.1,17.4-4.2
	c9.3,6.8,14.9,7.5,21,12c11.3,0.2,30,12.4,32,2c-7.8-3.1-37.3-21-66-50C482.5,996.2,476.5,978.9,458,933z"/>
<path id="Gun-Shadow2" class="st17" d="M1618,860l-174-53l-24.9-18l-85-28l2,10l-119-36l-77-21h-24l-51-19l-108-20
	c0,0-29-22.9-47-27c22.3,43.3,54.5,122.1,80,199c86.3-5.7,166-40,166-40c21.5,6.6,41,12,41,12l9,15l92,40l8-20l81,26l7,12l108,47
	l10-20l116,24L1618,860z"/>
<path id="Gun-Shadow3" class="st18" d="M1446.9,804l64,113l-10,25l-82-151L1446.9,804z M1213.9,733l28,14l62,106l-10,20L1213.9,733z
	"/>
<path id="Gun-Shadow4" class="st17" d="M1444.9,802l134-30l6-20l-167,36L1444.9,802z M1235.9,746l130-25l4-19l-157,30L1235.9,746z"
	/>
<radialGradient id="Body-Shadow_1_" cx="1103.894" cy="1301.902" r="1255.235" gradientTransform="matrix(1 0 0 -1 0 1920)" gradientUnits="userSpaceOnUse">
	<stop  offset="0.427" style="stop-color:#F3F3F3"/>
	<stop  offset="0.556" style="stop-color:#A6A6A6"/>
</radialGradient>
<path id="Body-Shadow" class="st19" d="M596,1013c2.1-5,12.7-16.8,13.8-33c17.4,16.1,40.2,9.9,61.3,27
	c41.1,33.4,56.1,77.4,125.9,109c178.5,90.7,230.2,77,276,74c45.5,0.7,172.6-15.3,202-21c27.1-3.6,27.3-5.3,88-19
	c62.4-17.3,113.4-44.8,118-80c-5.3,45.7-9.1,124.2-154,175.9c-147.9,31.8-219,42-219,42s-99.1,13.7-201-4
	c-45.8-43.9-184.9-160.4-231-177c-10.3-13.9-22-28-22-28s-39.4,6.5-103-40C520.7,1017,449,918.7,461,876c1.3-0.7,3.1-4.1,7,3
	c11.9,21.4,32.8,74.8,34,74C568.9,1027.1,591.6,1018.9,596,1013z"/>
<radialGradient id="Body-Shadow14_1_" cx="407.102" cy="976.605" r="265.967" gradientTransform="matrix(1 0 0 -1 0 1920)" gradientUnits="userSpaceOnUse">
	<stop  offset="0.697" style="stop-color:#000000;stop-opacity:0"/>
	<stop  offset="1" style="stop-color:#000000"/>
</radialGradient>
<path id="Body-Shadow14" class="st20" d="M648,1076c-17.7-21.5-55-49.3-104-44C571.6,1061.1,665.7,1097.5,648,1076z"/>
<radialGradient id="Body-Shadow11_1_" cx="745.519" cy="1143.1489" r="621.204" gradientTransform="matrix(1 0 0 -1 0 1920)" gradientUnits="userSpaceOnUse">
	<stop  offset="0.471" style="stop-color:#000000"/>
	<stop  offset="0.503" style="stop-color:#000000;stop-opacity:0"/>
</radialGradient>
<path id="Body-Shadow11" class="st21" d="M469,877c5.9,15.7,44.3,121.8,112,138c4.3,0.8,19.4-2.3,25-17c6.9-17.9,26.7,51.2,18,51
	c-35.4-19.5-65.4-6.1-82-16s-67.1-79.8-85-149C461.2,881.5,465.1,879.3,469,877z"/>
<radialGradient id="Body-Shadow10_1_" cx="757.001" cy="983.364" r="404.745" gradientTransform="matrix(1 0 0 -1 0 1920)" gradientUnits="userSpaceOnUse">
	<stop  offset="0.427" style="stop-color:#D9D9D9"/>
	<stop  offset="0.503" style="stop-color:#D9D9D9;stop-opacity:0"/>
</radialGradient>
<path id="Body-Shadow10" class="st22" d="M610,984c13.3,6.3,54.6,13.9,61,25c-7.9,11.6-19.5,53.1-10,83c-20.4-26.7-33.3-49-87-57
	c-14.6-15.7-17.4-24.9-7-22s26.3,7.8,32-4S609,991.9,610,984z"/>
<linearGradient id="Body-Shadow6_1_" gradientUnits="userSpaceOnUse" x1="1009.5981" y1="943.73" x2="980.7932" y2="1117.729" gradientTransform="matrix(1 0 0 -1 0 1920)">
	<stop  offset="0.1" style="stop-color:#FFFFFF;stop-opacity:0"/>
	<stop  offset="1" style="stop-color:#626262"/>
</linearGradient>
<path id="Body-Shadow6" class="st23" d="M1206.9,929l-76-113c0,0-93.4,32.8-195,32c-104.2-23.7-162-57-162-57l172,153l49,21
	L1206.9,929z"/>
<radialGradient id="Body-Shadow5_1_" cx="986.725" cy="1480.988" r="852.953" gradientTransform="matrix(1 0 0 -1 0 1920)" gradientUnits="userSpaceOnUse">
	<stop  offset="0.471" style="stop-color:#000000"/>
	<stop  offset="0.526" style="stop-color:#000000;stop-opacity:0"/>
</radialGradient>
<path id="Body-Shadow5" class="st24" d="M1133,819c0,0-88.3,24.7-152,28s-145.5-18-224-71c44.2,43.7,214,187,214,187l221-57
	L1133,819z"/>
<path id="Paint-Blue" class="st25" d="M1330,1156c-2.2-19.7-17.8-71.4-74-140c22.7-3.7,63-4.5,106-1c4.6-11.2,11-32,11-32
	s81.7-5.6,99,22c24.8,78.2-13.3,108.1-55,126c-40.8,17.6-85,24-85,24S1331.4,1155.5,1330,1156z M791,1113
	c12.5-13.3,48.4-53.2,105-71c44.7,20.8,64,30,64,30l108-30c0,0,132.3,102.2,142,137c-30.5,4.1-135.4,13-173,13
	C999.4,1192,953.3,1191,791,1113z"/>
<radialGradient id="Paint-Blue-Shadow2_1_" cx="1283.761" cy="1077.4761" r="521.675" gradientTransform="matrix(1 0 0 -1 0 1920)" gradientUnits="userSpaceOnUse">
	<stop  offset="0.487" style="stop-color:#000000;stop-opacity:0"/>
	<stop  offset="0.705" style="stop-color:#000000"/>
</radialGradient>
<path id="Paint-Blue-Shadow2" class="st26" d="M1374,985c28.1-4.8,77.3-6.8,97,20c14.5,48.1,32.6,123.3-140,151
	c-15.1-48.2-41.7-118.1-77-142c44-3.8,92.5-2.8,107,1C1367.5,997.5,1369.1,993.8,1374,985z"/>
<radialGradient id="Paint-Blue-Shadow_1_" cx="1053.916" cy="1146.246" r="750" gradientTransform="matrix(1 0 0 -1 0 1920)" gradientUnits="userSpaceOnUse">
	<stop  offset="0.487" style="stop-color:#000000;stop-opacity:0"/>
	<stop  offset="0.705" style="stop-color:#000000"/>
</radialGradient>
<path id="Paint-Blue-Shadow" class="st27" d="M791,1113c12.5-13.3,48.4-53.2,105-71c44.7,20.8,64,30,64,30l108-30
	c0,0,132.3,102.2,142,137c-30.5,4.1-135.4,13-173,13C999.4,1192,953.3,1191,791,1113z"/>
<radialGradient id="Body-Shadow2_1_" cx="1207.563" cy="1031.6851" r="483.294" gradientTransform="matrix(1 0 0 -1 0 1920)" gradientUnits="userSpaceOnUse">
	<stop  offset="0.487" style="stop-color:#000000;stop-opacity:0"/>
	<stop  offset="0.705" style="stop-color:#000000"/>
</radialGradient>
<path id="Body-Shadow2" class="st28" d="M1208,1177c12.1,1.4,102-12.8,120-20c-5.4-33.1-30.3-104.5-75-141
	c-71.6,4.3-157.6,16-182,27C1097.3,1063.2,1198.4,1152.2,1208,1177z"/>
<linearGradient id="Paint-Blue-Down_2_" gradientUnits="userSpaceOnUse" x1="1031.7346" y1="627.9857" x2="1035.9966" y2="750.0396" gradientTransform="matrix(1 0 0 -1 0 1920)">
	<stop  offset="0" style="stop-color:#017474"/>
	<stop  offset="0.586" style="stop-color:#34A798"/>
</linearGradient>
<path id="Paint-Blue-Down" class="st29" d="M847,1170c19.4,14,127.2,71.5,361,35c8.6,10.1,15,22,15,22s-11.3,40.2-40,48
	c-36.7,6.3-125,29.7-281,8C878.4,1246.2,846.7,1191.1,847,1170z"/>
<linearGradient id="Paint-Blue-Down_3_" gradientUnits="userSpaceOnUse" x1="1380.9017" y1="682.9489" x2="1332.6976" y2="817.9489" gradientTransform="matrix(1 0 0 -1 0 1920)">
	<stop  offset="0" style="stop-color:#017474"/>
	<stop  offset="0.586" style="stop-color:#34A798"/>
</linearGradient>
<path id="Paint-Blue-Down_1_" class="st30" d="M1327,1178c31.3,4.9,108.3-25.9,142-54c8.6,10.1-37,62-37,62s-62.1,61.4-172,73
	c9.8-10,24.2-28.9,32-41C1306.6,1201.8,1314.9,1192,1327,1178z"/>
<path id="Paint-Blue-Engine3" class="st25" d="M1495,1027c5.1,17.3,13.9,66.1-37,154c-49.2,73.1-119.1,68.8-138,70
	c5.5,6.8,21,15,21,15s105.6-19.3,140-88s35.2-108.7,27-145C1503.4,1030.4,1501.8,1026.7,1495,1027z"/>
<linearGradient id="Paint-Blue-EngineShadow_1_" gradientUnits="userSpaceOnUse" x1="1416.1437" y1="654" x2="1416.1437" y2="893.0228" gradientTransform="matrix(1 0 0 -1 0 1920)">
	<stop  offset="0" style="stop-color:#000000"/>
	<stop  offset="1" style="stop-color:#000000;stop-opacity:0"/>
</linearGradient>
<path id="Paint-Blue-EngineShadow" class="st31" d="M1495,1027c5.1,17.3,13.9,66.1-37,154c-49.2,73.1-119.1,68.8-138,70
	c5.5,6.8,21,15,21,15s105.6-19.3,140-88s35.2-108.7,27-145C1503.4,1030.4,1501.8,1026.7,1495,1027z"/>
<linearGradient id="Paint-Blue-Engine_1_" gradientUnits="userSpaceOnUse" x1="880.9768" y1="581.6241" x2="647.7488" y2="791.6241" gradientTransform="matrix(1 0 0 -1 0 1920)">
	<stop  offset="0" style="stop-color:#009996"/>
	<stop  offset="1" style="stop-color:#34A798"/>
</linearGradient>
<path id="Paint-Blue-Engine" class="st32" d="M646,1131c20.9,9.5,220.1,146.3,244,196c-3.4,4.4-9,14-9,14s-49.4-58.5-116-109
	s-119.3-82.5-131-87C638.3,1138.2,640.6,1133.8,646,1131z"/>
<linearGradient id="Paint-Blue-Engine2_1_" gradientUnits="userSpaceOnUse" x1="596.8639" y1="826.5399" x2="450.3979" y2="1028.1329" gradientTransform="matrix(1 0 0 -1 0 1920)">
	<stop  offset="0.352" style="stop-color:#00807D"/>
	<stop  offset="0.798" style="stop-color:#34A798"/>
</linearGradient>
<path id="Paint-Blue-Engine2" class="st33" d="M454,884c-1.9,7.1-8.5,25.1-3,37s31,102.6,136,163c16.5,2.3,34.1,4.1,33-9
	c-22.8-8.2-63.7-17.2-100-64C483.7,964.2,465.4,921.9,454,884z"/>
<path id="Paint-gray" class="st34" d="M782,786c3.2-23.9,13-57.3,34-92c-26-17-81-47-81-47s-37.2,35.8-42,71
	C713.4,739.5,766,785.6,782,786z M561,733c6.5,21,64,136.1,130,179c-10.5,17.5-26.8,62.8-80,35c-46-27.8-85-139-85-139
	S517.3,752.6,561,733z M494,844c1.3,15.8,38.7,111.4,112,150c-3.6,11.7-13.5,31.3-40,15c-26.5-16.3-82.2-74.6-96-134
	C473.3,859.5,477,850.8,494,844z"/>
<radialGradient id="Body-Shadow13_1_" cx="1115.96" cy="1350.891" r="808.269" gradientTransform="matrix(1 0 0 -1 0 1920)" gradientUnits="userSpaceOnUse">
	<stop  offset="0.702" style="stop-color:#000000;stop-opacity:0"/>
	<stop  offset="1" style="stop-color:#000000"/>
</radialGradient>
<path id="Body-Shadow13" class="st35" d="M552,718c6.5,21,73,151.1,139,194c-10.5,17.5-26.8,62.8-80,35c-46-27.8-85-139-85-139
	S492.5,736.4,552,718z"/>
<radialGradient id="Body-Shadow12_1_" cx="961.458" cy="1223.6951" r="648.838" gradientTransform="matrix(1 0 0 -1 0 1920)" gradientUnits="userSpaceOnUse">
	<stop  offset="0.702" style="stop-color:#000000;stop-opacity:0"/>
	<stop  offset="1" style="stop-color:#000000"/>
</radialGradient>
<path id="Body-Shadow12" class="st36" d="M498,824c17.1,6.7,28,74.3,109,147c-0.1,15.8,0.5,60.5-43,36c-46-27.8-78-89-78-89
	S436.2,831.7,498,824z"/>
<linearGradient id="_x2D_PaintGradient_1_" gradientUnits="userSpaceOnUse" x1="770.3159" y1="1062.052" x2="770.3159" y2="1276.052" gradientTransform="matrix(1 0 0 -1 0 1920)">
	<stop  offset="0" style="stop-color:#768692"/>
	<stop  offset="1" style="stop-color:#34A798"/>
</linearGradient>
<path id="_x2D_PaintGradient" class="st37" d="M679,695c0,0-24.6,4,207,198c-31.8,5.9-66,16-66,16S619.7,734.4,660,699
	C665.1,697.4,679,695,679,695z"/>
<linearGradient id="Body-Shadow4_1_" gradientUnits="userSpaceOnUse" x1="844.0188" y1="904.1423" x2="1057.9899" y2="1159.1423" gradientTransform="matrix(1 0 0 -1 0 1920)">
	<stop  offset="0" style="stop-color:#000000"/>
	<stop  offset="0.503" style="stop-color:#000000;stop-opacity:0"/>
</linearGradient>
<path id="Body-Shadow4" class="st38" d="M763,784l301,255c0,0,1.1-44.6,84-57c-32.5-41.6-113-142-113-142s-61.1,18-139-1
	C828.4,822.5,763,784,763,784z"/>
<linearGradient id="Tower-Shadow2_1_" gradientUnits="userSpaceOnUse" x1="1084.6063" y1="1064.7141" x2="1007.5123" y2="1231.7141" gradientTransform="matrix(1 0 0 -1 0 1920)">
	<stop  offset="0" style="stop-color:#000004"/>
	<stop  offset="1" style="stop-color:#000000;stop-opacity:0"/>
</linearGradient>
<path id="Tower-Shadow2" class="st39" d="M969,680l94,119l57-5l39,15c0,0-65.2,29.2-174,38C997.4,772.2,969,680,969,680z"/>
<path id="Gun2-Shadow2" class="st40" d="M1126.9,317l28-7l5,48L1126.9,317z"/>
<linearGradient id="Gun2-Shadow4_1_" gradientUnits="userSpaceOnUse" x1="813.405" y1="1312" x2="813.405" y2="1388" gradientTransform="matrix(1 0 0 -1 0 1920)">
	<stop  offset="0" style="stop-color:#000000"/>
	<stop  offset="1" style="stop-color:#FFFFFF"/>
</linearGradient>
<path id="Gun2-Shadow4" class="st41" d="M757.8,566c13.1,8.5,44,16,68-13c18.5-17,23-21,23-21s15.1,0.3,21.2,8s6,24,6,24
	s-81.4,15.1-125.2,44C752.8,585.6,755.4,577,757.8,566z"/>
<path id="Gun2-Shadow" class="st42" d="M1123.9,322c0,0-152.6,66.4-221.9,98c-20,4.4-24.9-2.7-38,2c-6.6,1.3-20.6,3.1-18,6
	c3.7,4.2,2.7,3.5,4,7c-4.3,2.5-10.3,5.1-13,7c-0.8-1.1-2.1-2.7-3-4c-3.5,2.2-38.2,15.9-36.2,19c0.9,1.4,12.4,17.5,26.7,35.4
	c5.5,23.8,3,46.7-6.7,63.6c33.5-31.6,46.5-19.6,52-16c10.9-8.3,10.7-21,11-27c3.4-1.3,6.1-3.1,10-4c-1.3-3.4-1.2-8.2-1-10
	c3.3-0.2,6-2.2,8.3-4.7c2.6,1.6,4.2,3.3,6.7,5.7c3.2-0.6,5.6-1.2,9-2c2-2.7-1-9-1-9s249-122.2,249-121
	C1161.9,369.2,1123.9,322,1123.9,322z"/>
<path id="Gun2-Shadow3" class="st4" d="M772,465c18,0,55.3,5.7,55,51c-0.3,40.7-27.6,57-47.9,57c-31.1,0-50.1-24.3-50.1-51
	C729,504.2,740.9,465,772,465z"/>
<linearGradient id="Body-Shadow3_1_" gradientUnits="userSpaceOnUse" x1="1160.9171" y1="876.6381" x2="1150.915" y2="939.7881" gradientTransform="matrix(1 0 0 -1 0 1920)">
	<stop  offset="0" style="stop-color:#8C8C8C"/>
	<stop  offset="1" style="stop-color:#333333"/>
</linearGradient>
<path id="Body-Shadow3" class="st43" d="M1083,1007c11.8-9,18.1-17.1,59-23c42.5-6.1,60-5.2,84,1c26.9,15,26,29,26,29
	s-117.6,8.6-187,29C1064.4,1035.7,1060.7,1025.6,1083,1007z"/>
<g id="Line">
	<path id="L-All" class="st44" d="M680,695c-13.9,1-53.5,9.8-89,29c-16.3-8.7-35-13.6-56,2s-25,40-9,85c-6.8,12.8-13,25-13,25
		s-14.4-25.3-34-5c-19.6,20.3-10.3,39.7-9,44c-11,4.1-14,7-14,7s-6,6.9-6,40s3.6,50.3,7,55c-3.2,4-9,15-9,15l15,25l11-9l29,33l-13,7
		l23,20l15-5c0,0,12.5,8.9,45,18s42.6,7.9,51-6c8.8,2.9,17.7,7.7,28,5c6.4,8.7,19,27,19,27l-38,38l10,69l23,16l-6,18l31,24l15-13
		l49,43l-13,11l34,26l24-5l15,13l67-6l26-48l-3-9c0,0,54.5,9,127,9c87.2,0,244-35.1,281-45c4.3,4.4,9,8,9,8s11.8,10.6,22,9
		s33.6-4.3,58-17c6.8,5.7,15,12,15,12s21.9-12.9,31-22c-8.1-6.3-13-10-13-10s39.8-29.9,60-76c5.4,6.4,14,13,14,13s8-22.2,11-40
		c-6.6-7.7-12-15-12-15s9.1-41-1-76c-12.2-9.1-32-22-32-22s-1.4-3.6-3.8-9.5c-1.2-2.9-18.5-12.5-26.2-16.5
		c-9.8-23.7-33.7-70.9-47-93c29.9,14.1,104,48,104,48l10-22l118,24l125-120l-178-52l12-20l-120-19l-25,7l-78-20l7-20l-100-14l-26,4
		l-66-18l-58-29c0,0-12.1-12.3-24-18c-8.8-15.8-33.5-43.4-80-58c-4.5-14.7-38.9-28.7-51-5c-24-1-48.4-2.7-93,2c-1.3-9.1-5-24-5-24
		s8.1,0.3,14-28c4.5-2.6,8-5,8-5l1-8c0,0,5.7-6.5,7-6s8,9,8,9l11-6l-1-11l247-120c0,0-11-57.4-11-56s-28,11-28,11L903,420l-40,1
		l-17,8l1,8l-10-2l-11,9l-71,24c0,0-36.8,14-25,69c5.7,20.3,25,33,25,33c-0.3,1.1-6,38-6,38S692.6,627.5,680,695z"/>
	<path id="L-Gun_1_" class="st44" d="M1751,825l-132,31l11,88"/>
	<path id="L_Engine" class="st44" d="M586,1084c-107-64.7-122.8-130.3-136.5-173.5 M467,962l-10,15 M486,997l-13,12 M517,1033l-15,8
		 M523,1064l18-9"/>
	<path id="L_Engine2" class="st44" d="M881,1339c-89-99.9-217.1-181.5-245-194 M645,1131c27.8,13.5,196.3,123.5,244,194 M684,1175
		l-19,57 M746,1219l-43,42 M817,1194c0,0-14.7,20.5-25.8,36 M802,1260l-50,44 M797,1334l59-19"/>
	<path id="R-Engine" class="st44" d="M1324,1253c155.9-3.1,189.4-184.1,170-227 M1508,1109c-3,13.3-10.4,41.6-20,57 M1435,1228
		c-9.1,6.3-24.5,15.9-37,22 M1476,1112l11,5"/>
	<g id="Line-Body-Down">
		<path class="st45" d="M669,1101.2c-3.6-3.3-6.7-6.9-10-10.4c-3.2-3.5-6.4-7-9.6-10.3c-6.4-6.7-12.9-13.1-20.1-18.2
			c-3.6-2.6-7.5-5-11.4-7.2c-3.9-2.3-8-4.4-12.2-6.4c-8.3-4.1-16.9-7.8-25.8-11.6c4.9-0.2,9.7,0.2,14.5,1c4.8,0.8,9.5,1.9,14.2,3.3
			c4.7,1.5,9.2,3.2,13.7,5.3l1.7,0.8l1.6,0.9c1.1,0.6,2.2,1.2,3.3,1.8c2.1,1.3,4.2,2.5,6.3,4.1c8.3,5.9,14.8,13.5,20.4,21.4
			C661.1,1083.6,665.5,1092.2,669,1101.2z"/>
	</g>
	<path id="L-Gun2" class="st44" d="M1587,751c0,0-169.1,34.7-170,37s83,153,83,153"/>
	<path id="L-Gun3" class="st44" d="M1445,739l-114,22l62,130l61,28"/>
	<path id="L-Gun4" class="st44" d="M1371,700l-162,32l86,141"/>
	<path id="L-Gun5" class="st44" d="M1251,688l-123,24l79,122l90,40l7-20l83,27"/>
	<path id="L-Gun6" class="st44" d="M1183,671l-121,22l59,102l78,24"/>
	<path id="L-Gun7" class="st44" d="M1123,642c0,0-170.1,26.2-169,30s110,128,110,128l56-7"/>
	<path id="L-Gun8" class="st44" d="M958,675l105,18c0,0,49.4,18.3,64,22.8c2.5,0.8,4-1.8,4-1.8l18,3l64,17l33,12l90,24v-8l83,27
		l30,18l171,51"/>
	<path id="L-Tower" class="st44" d="M693,720c2.5-16.8,18.9-59.3,44-74c24.1,17.1,59.9,34.9,82,48c-14.7,20.5-37.7,60.1-37,95"/>
	<path id="L-Tower2" class="st44" d="M680,696c4.7,29.9,145,152,287,152c41.7,0,75.3-9.5,101.9-14.3C1133,822,1157,808,1157,808
		 M1140,801l-155,38c0,0,29.4-147.6-69-190c-40.6-34.3-74.2-63.8-137-56c-14.6,6.5-39,19-39,19"/>
	<path id="L-Tower3" class="st44" d="M779,593c12.4-6,67.3-26.6,100-31"/>
	<path id="L-Tower4" class="st44" d="M1105,627l-29-9c0,0-25.7,21.1-161,29c-23.1-0.9-55-5-55-5l-15,18l28,79c0,0,79.4,57.8,114,105
		"/>
	<path id="L-Tower5" class="st44" d="M910,648c0,0,50.5,95.3,73,192"/>
	<path id="L-Tower6" class="st44" d="M967,563c-3.3,7.7-8,23.4-8,31s48.6,19.9,66,3c0.6-10.1-2.2-29.1-13-40"/>
	<path id="L-Tower7" class="st44" d="M994,606c0-10.1,6.7-54-20-54"/>
	<path id="Line-Tower" class="st44" d="M868,664l21,62.3l18,12L884,667L868,664z"/>
	<path id="L-Gun2_1_" class="st44" d="M795,457l74,81 M878,529l-69-79 M822,446c1,0.3,61,67,61,67 M892,500l-58-62 M849,432l56,65
		 M920,492l-61-70 M909,418l-35,18"/>
	<path id="L_Gun3" class="st44" d="M1164,365l-37-44"/>
	<path id="L-Gun4_2_" class="st44" d="M753,469c8.5-5.3,45-10.3,63,15s12.9,73-19,86c-15,6.1-27.6,9-42,0.4"/>
	<path id="L-Gun5_1_" class="st44" d="M775.5,486c15.2,0,27.5,15,27.5,33.5S790.7,553,775.5,553S748,538,748,519.5
		S760.3,486,775.5,486z"/>
	<path id="L-Gun6_1_" class="st44" d="M775.9,504.2c6.9,0,12.5,7.1,12.5,15.9c0,8.8-5.6,15.9-12.5,15.9s-12.5-7.1-12.5-15.9
		C763.4,511.3,769,504.2,775.9,504.2z"/>
	<path id="L-Gun7_1_" class="st44" d="M806,565c0,0,34.1-26.1,38-31c9.8,0.1,26,4,26,4"/>
	<path id="L-Body" class="st44" d="M1476,1014c4.3,16.9,27.7,83.9-61,118c-33.8,13-88.5,27.9-146.6,37.8
		c-94.1,15.9-197,23.2-233.4,23.2c-58.9,0-171.5-38.2-245-81c-88.7-51.7-74.1-74.1-122-107c-25.7-14.8-44-12.4-59-24
		c1.7-18.2-34.3-34.9-60-75s-33.9-61.7-38-72"/>
	<path id="L-Body2" class="st44" d="M665,1098c-11.2-27.4-46.9-154.5,223-205"/>
	<path id="L-Body3" class="st44" d="M720,744c18.8,21.9,155.6,137.3,280.2,242.2c100.9,85,194.2,154.8,209.8,189.8c0.6,1.6,1,4,1,4
		s2.7,10.1-2,26c12.3,16.5,14,19,14,19s-6.6,40.1-40,51 M1243,1264c22.8-11.8,32.3-18.4,49-49c21.3-20.2,33-33,33-33s4-4.2,4-24
		s-20-83.1-73-143c-7.1-19.9-30.2-45.4-110-32c-83.2,13.9-83,54-83,54 M1247,999c-21.7-44.7-69-119-115-180"/>
	<path id="L-Body4" class="st44" d="M734,945c26.7,19.1,101.4,78.1,226,127c21.6-6.8,105.6-32.8,198-47c87.6-13.4,171.6-15.4,204-9
		c5.2-16.7,11-32,11-32s73.5-15,98,20"/>
	<path id="Shape_2" class="st44" d="M1372,987c6.6-23.3-5.2-72.3-35-122"/>
	<path id="L-Body5" class="st44" d="M1313,1248c162.9-42.3,170.9-152.8,169-197 M1473,1117c-26.8,24.2-54.2,49.3-149,65 M1293,1216
		c-28.3,5-71,9-71,9 M1209,1206c-41.7,4.7-255.9,36.9-362-37 M845,1142c0.9,32.3-1.6,56.9,64,142 M906,1289
		c-27.3-35.7-96.4-121.3-236-182 M624,1075c-25.1-7.6-124.5-33.8-167-193 M528,1018c-21.1-25.4-27.1-58.3-29-78 M470,876
		c5.6,17.6,27.6,89.3,96,134c35.6,22.9,43.5-22.3,43-29 M605,997c-22.5-18.6-95.8-74.1-110-153 M513,837c-18.9,1.5-42,14.9-42,44"/>
	<path id="L-Body6" class="st44" d="M591,724c5.6,13.3,17.8,39.7,37,70c27.3,43.1,93.8,112.8,37,154c-66.7,48.4-130.3-113.1-139-136
		c0.2-23.2-2-95.5,70-78 M561,734c9.4,29,50.9,108.7,124,177"/>
	<path id="L-Body7" class="st44" d="M662,697c-13.3,15.1-30.3,45.4,159,210 M836,1076c-65.1-26.3-126-78-126-78l17-49 M753,963
		l-21,52c0,0,0.3,1,0.8,0.9c4.7-0.5,29.2-3.9,29.2-3.9 M754.6,1033.6c5.8-12.1,24.4-52.6,24.4-52.6 M803,997l-24,47
		c0,0,0.4,1,1.1,0.9c5.4-0.4,28.9-2.9,28.9-2.9 M828,1010l-26,48 M827,1071l28-46"/>
	<path id="L-Body8" class="st44" d="M897,1044c-22.5,4.9-66.7,26.3-104,69"/>
	<path id="L-Body9" class="st44" d="M711,999l-40,8"/>
	<path id="L-Body10" class="st44" d="M1040,1021c1.9-17.1,23.3-43.4,100-59c74-13.6,98,20,98,20 M1137,962l-100-122 M1160,856
		c8.2-0.7,45.1-3.6,88.9-4.1"/>
	<path id="L-Body11" class="st44" d="M1156,991c7.2,0,13,5.8,13,13s-5.8,13-13,13s-13-5.8-13-13S1148.8,991,1156,991z M1195,988.7
		c6.3,0,11.3,5.1,11.3,11.3s-5.1,11.3-11.3,11.3s-11.3-5.1-11.3-11.3S1188.8,988.7,1195,988.7z M1116,1000.7
		c6.3,0,11.3,5.1,11.3,11.3s-5.1,11.3-11.3,11.3s-11.3-5.1-11.3-11.3S1109.8,1000.7,1116,1000.7z"/>
	<path id="Line-Body3" class="st44" d="M1114,1026l-28-21"/>
	<path id="Line-Body2" class="st44" d="M1158.9,1024.7c-14.1-10.5-46.2-34.3-46.2-34.3"/>
	<path id="Line-Body" class="st44" d="M1197.9,1016.7c-14.1-10.5-46.2-34.3-46.2-34.3"/>
</g>
</svg>
