<?xml version="1.0" encoding="utf-8"?>
<!-- Generator: Adobe Illustrator 22.0.0, SVG Export Plug-In . SVG Version: 6.00 Build 0)  -->
<svg version="1.1" id="Слой_1" xmlns="http://www.w3.org/2000/svg" xmlns:xlink="http://www.w3.org/1999/xlink" x="0px" y="0px"
	 viewBox="0 0 1920 1920" style="enable-background:new 0 0 1920 1920;" xml:space="preserve">
<style type="text/css">
	.st0{fill:#F2F2F2;}
	.st1{fill:#E0E0E0;}
	.st2{fill:url(#Hand-Shadow-L6_1_);}
	.st3{opacity:0.902;fill:url(#Hand-Shadow-L6_copy_1_);enable-background:new    ;}
	.st4{opacity:0.8;fill:url(#Hand-Shadow-L5_1_);enable-background:new    ;}
	.st5{fill:url(#Hand-Shadow-R3_1_);}
	.st6{fill:#CCCCCC;}
	.st7{fill:url(#Shoulder-SHadow2_1_);}
	.st8{opacity:0.502;fill:url(#Base-Shadow4_1_);enable-background:new    ;}
	.st9{opacity:0.302;enable-background:new    ;}
	.st10{fill:#A6A6A6;}
	.st11{fill:#999999;}
	.st12{fill:#E6E6E6;}
	.st13{opacity:0.702;fill:url(#Body-shadow2_1_);enable-background:new    ;}
	.st14{fill:#B3B3B3;}
	.st15{fill:#808080;}
	.st16{fill:url(#Hand-R-Shadow_1_);}
	.st17{fill:#6E1370;}
	.st18{opacity:0.102;enable-background:new    ;}
	.st19{fill:#A800A8;}
	.st20{opacity:0.149;enable-background:new    ;}
	.st21{opacity:0.2;fill:url(#Shoulder-SHadow_1_);enable-background:new    ;}
	.st22{opacity:0.149;fill:url(#Shoulder-SHadow5_1_);enable-background:new    ;}
	.st23{opacity:0.302;fill:url(#Body-Shadow99_1_);enable-background:new    ;}
	.st24{fill:#FF0000;}
	.st25{fill:none;stroke:#FFFFFF;stroke-width:13;}
	.st26{fill:#1A1A1A;}
	.st27{fill:none;stroke:#1A1A1A;stroke-width:10;}
	.st28{fill:none;stroke:#191919;stroke-width:10;}
</style>
<g id="Fill">
	<path id="Fill-Body" class="st0" d="M1067,776c71.4-45.2,97-156,97-156s31.4-17.1,47-24c5.9,16.1,15,17,15,17l31-5l197,99l70-44
		l-197-107c0,0-0.4-27.1-2-38c-1.6-10.9-9.8-15.8-16-20c-5-9.4-31.6-92.8-68-110c-57.8-28-107.1-18-121-18s-14.6,6.5-17,28
		c-50.6-52.9-107.1-77.9-176.8-83.7c-10.8-0.9-15.8,6.7-27.3,6.7c-6.7,0-19.3-7.7-25.7-7.1C798,321,742.4,367.2,708,400
		c-7.4-6.6-163.1-6.2-202.9,106.1c-2.6-0.8-17.5-7.7-21.1-8.1c-21.3-2.7-40.5-2.9-44,0c-1.6,15.1-1.1,50.8,0,62
		c1.1,10.8,17.6,27.3,20.1,35.3c1.4,4.6,3,8.8,4.6,12.7c3.6,6,8.2,10,11.3,12c-0.4,8.4,0.6,25.5,3,37c-1.2,8.3,9.8,27.7,59,15
		c33.2,36.7,82,89,82,89l83,28c0,0-2.5-30.1-1-53c26,30.5,68,61,68,61s63.7,15,150,15c1.4-6.1,4-11,4-11s37.7,3.3,77-6
		c3.8,5.3,6,10,6,10S1039.6,795.6,1067,776z"/>
	<path id="Shape_15" class="st1" d="M516,638l25,35l77,87l79-60l-88-101c0,0-36.7,13.8-55,25S516,638,516,638z"/>
	
		<linearGradient id="Hand-Shadow-L6_1_" gradientUnits="userSpaceOnUse" x1="520.3866" y1="90.4406" x2="514.0505" y2="50.4406" gradientTransform="matrix(1 0 0 1 0 586)">
		<stop  offset="9.900000e-02" style="stop-color:#B3B3B1"/>
		<stop  offset="1" style="stop-color:#4A4A4A"/>
	</linearGradient>
	<path id="Hand-Shadow-L6" class="st2" d="M515,636l22,36l-34,4L515,636z"/>
	
		<linearGradient id="Hand-Shadow-L6_copy_1_" gradientUnits="userSpaceOnUse" x1="666.5849" y1="78.4781" x2="653.1229" y2="-6.5219" gradientTransform="matrix(1 0 0 1 0 586)">
		<stop  offset="9.900000e-02" style="stop-color:#B3B3B1"/>
		<stop  offset="1" style="stop-color:#4A4A4A"/>
	</linearGradient>
	<path id="Hand-Shadow-L6_copy" class="st3" d="M612,598l85-18c0,0,13.3,57.5-8,82c-9.5,0.8-22,3-22,3L612,598z"/>
	
		<linearGradient id="Hand-Shadow-L5_1_" gradientUnits="userSpaceOnUse" x1="493.2074" y1="72.887" x2="493.2074" y2="18.887" gradientTransform="matrix(1 0 0 1 0 586)">
		<stop  offset="0" style="stop-color:#A4A4A3"/>
		<stop  offset="1" style="stop-color:#000000"/>
	</linearGradient>
	<path id="Hand-Shadow-L5" class="st4" d="M477,623c12.8,5.2,25.1,10.8,33,12c1,10.9-1.8,42-15,42S473.6,638.6,477,623z"/>
	
		<linearGradient id="Hand-Shadow-R3_1_" gradientUnits="userSpaceOnUse" x1="1196.7733" y1="35" x2="1196.7733" y2="-80" gradientTransform="matrix(1 0 0 1 0 586)">
		<stop  offset="0" style="stop-color:#ADADAD"/>
		<stop  offset="0.688" style="stop-color:#717070"/>
		<stop  offset="1" style="stop-color:#1A1A1A"/>
	</linearGradient>
	<path id="Hand-Shadow-R3" class="st5" d="M1161,506l33,23h37c0,0,8.9,47.6-16,67c-24.9,10.5-50,25-50,25S1175.7,537.7,1161,506z"/>
	<path id="Shadow-All" class="st6" d="M1274,528l186,98l64,38l-70,45l-196-101l-13,2c0,0,14.9-31.1,5-70
		C1262.3,533.5,1274,528,1274,528z M621,760l75-59l4,89L621,760z"/>
	
		<linearGradient id="Shoulder-SHadow2_1_" gradientUnits="userSpaceOnUse" x1="517.5927" y1="13.6587" x2="551.2207" y2="-159.3413" gradientTransform="matrix(1 0 0 1 0 586)">
		<stop  offset="0.425" style="stop-color:#D9D9D9"/>
		<stop  offset="1" style="stop-color:#FFFFFF"/>
	</linearGradient>
	<path id="Shoulder-SHadow2" class="st7" d="M467,573c25.3-21.7,59.1-133.7,106-147c13.5,9.4,22.7,26.2,22,51s-19,104-19,104
		s-48.8,18-64,18S480.7,584.6,467,573z"/>
	<path id="Base-Fill" class="st6" d="M1067,776c4.1,7.5,9.3,16.3,15,25.6c1.3,2.1-1.3,16.3,0,18.4c13.3,21.3,26.8,41.3,37,55
		c4.4,2.2,14,4,14,4s35.9,13.4,53,39c6.4,26,19,65,19,65s136.7,143.7,240,167c31.8,34.1,19,149-66,174c-16.7,10.9-9.7-77.7-280-159
		c-29.1,6.1-73.9,17.8-115,19c-18.3,20.9-113.4,140.4-137.3,235.7c-18.7,9.4-75.9,9.9-115.7-3.7c-22.5-7.7-54.6-23.3-67-40
		s-3-85-3-85s87.4-134,111-169c-16.8-14.5-38-34-38-34s-41.2-4.1-98-12c-48,2.3-66.2,17.2-96,37c-15.9,0-21.7-5.8-22-74
		c15.9-9,40.7-17.6,66-32c31.8-18.1,65.7-43,98.3-61.6C736.4,914.5,781,889,781,889s-0.9-7.8-2.3-19c-0.3-2.5,10.7-2.5,10.3-5
		c-1.6-10.3-2.7-20.4-4-31c-0.2-2-11.6-8.4-11.8-10.4c-1.8-15-3.2-26.6-3.2-26.6s72.7,16.3,148,14c4.2-5.1,7-13,7-13s13.9,10.1,78-1
		c2.8,3.6,5,8,5,8S1043.1,791.4,1067,776z"/>
	
		<linearGradient id="Base-Shadow4_1_" gradientUnits="userSpaceOnUse" x1="979.5084" y1="422.5741" x2="959.4024" y2="192.764" gradientTransform="matrix(1 0 0 1 0 586)">
		<stop  offset="0.1" style="stop-color:#CBCBCB;stop-opacity:0.502"/>
		<stop  offset="1" style="stop-color:#000000"/>
	</linearGradient>
	<path id="Base-Shadow4" class="st8" d="M771,796c28,7.3,65.4,14,150,14c1.7-3.5,4-9,4-9s47,3,77-6c4.1,7.7,5,10,5,10
		s48.2-16.4,60-26c2,3.7,7.3,12.3,14.5,23.6c1.4,2.2-2.1,13-0.5,15.4c11.8,17.3,25.7,37.5,40,58c1.3,1.8,7.5-1.2,8.7,0.7
		c15.6,23.6,28.8,43.5,32.3,48.3c15.6,98.5-319.7,119.7-376,12c-2.8-23.6-5.3-46.2-7.5-66.6c-0.2-1.8,10.4-3.7,10.5-5.4
		c0.8-11.8-3-22-4-32c-0.3-2.7-11-6.5-11.3-9C772.6,812.6,771.7,803.1,771,796z"/>
	<path id="Base-Shadow3" class="st9" d="M1001,990l-55-188c0,0,23.1,0,28-1c1.7,7.3,52,188,52,188L1001,990z"/>
	<path id="Base-Shadow2" class="st10" d="M662,1294c23.7,11.7,93.3,47.9,182,45c32.3-36.9,134-174,134-174s3.9,13.9,3,22
		c-151.7,196.4-120.5,221.6-140,232s-106.5,17.4-175-41C661.4,1359.1,651.8,1327.8,662,1294z M1103,1163
		c326.9,118.5,230.5,157.7,271,161c43.8-9.2,74.7-54.6,78-63s7-75.3,7-91c-4.1,34.5-11.3,65.3-62,85c-39.1-14.4-278-107-278-107
		S1101.3,1156.9,1103,1163z M708,1062l-190-25c0,0-7,76.3,19,77s25.7-32.9,70-36s126,11,126,11L708,1062z"/>
	<path id="Shape_14" class="st11" d="M929,1141c21.9,1.1,145.3,11.4,251-39c-5.4,12.4-19,34.1-63,45c-10.2,3.3-13.4,15.6-15,17
		c-12.9,4-65,23.2-120,19c-0.2-9.5-7-24-7-24S907.1,1139.9,929,1141z"/>
	<path id="Body-Shadow3" class="st12" d="M1093,598c0,0,0.7-29.8-28-43s-38.6-7.3-48-27c-28-39.3-27.5-203.5-135-213
		c33.7,21.8,83.3,102.3,87,209c-0.1,27.4-43.8,31-60,47c-15.2,18.2-22.7,40.7-23,52c10.2-0.6,46-3,46-3s28-52.4,74-51s63,39,63,39
		L1093,598z"/>
	
		<linearGradient id="Body-shadow2_1_" gradientUnits="userSpaceOnUse" x1="995.2468" y1="111.9499" x2="983.5947" y2="14.9499" gradientTransform="matrix(1 0 0 1 0 586)">
		<stop  offset="0" style="stop-color:#9A9A9A"/>
		<stop  offset="1" style="stop-color:#595959"/>
	</linearGradient>
	<path id="Body-shadow2" class="st13" d="M885,622h47c0,0-20.6,34.4,1,74c-21,1.2-49,2-49,2S875.8,651.8,885,622z M1068,606
		c0,0,21.3-1.6,26-5c3.3,8.7,6,35.4-1,67c-11.4,5.9-25,6-25,6S1082.3,643,1068,606z"/>
	<path id="Body-Shadow" class="st14" d="M922,317c87.3,39.7,79.6,180.8,112,209c38.2,33.2,78,4.2,78,114c0,52-29.9,83.1-56,95
		c-12.1,5.5-32.4,39.2-48,71c-4-6.4-7-13-7-13s27.6-58.8,44-68s43.1-11.5,52-87s-34.4-86.9-62-91c-39.4-5.8-46.5-213.2-130-221
		C906,323,900.2,314.6,922,317z M989,796.7c-3.7-11.4-24.2-33.1-34,4.1C969.2,800.8,976.9,802.4,989,796.7z"/>
	<path id="Hand-Shadow-R2" class="st15" d="M1112,374c11.5,0,50.2,50,83,155c-13.3-9.3-35-23-35-23s-34.8-78.9-56-105
		C1102.1,387.7,1100.5,374,1112,374z"/>
	
		<linearGradient id="Hand-R-Shadow_1_" gradientUnits="userSpaceOnUse" x1="1222.6697" y1="-76.2427" x2="1245.1477" y2="8.0563" gradientTransform="matrix(1 0 0 1 0 586)">
		<stop  offset="0" style="stop-color:#282828"/>
		<stop  offset="1" style="stop-color:#A5A5A5"/>
	</linearGradient>
	<path id="Hand-R-Shadow" class="st16" d="M1212,596c4.3,9.8,6.1,25.6,35,14c3.8-11.5,10.6-41.3,3-66c13.6-7.1,12-13,12-13
		s-15.1-1.9-32-1C1231.9,540.5,1235.2,583.4,1212,596z"/>
	<path id="Gun-Shadow" class="st15" d="M642,757l46-35l1,52L642,757z M1469,643l36,20l-38,25L1469,643z"/>
	<path id="Paint-Dark" class="st17" d="M1181,970c-8-0.3-19,71.5-21,104c-34.1,32.4-136.6,45.7-232,41c-16.4-42.9-39.3-90.2-62-96
		c-22.7-5.8-59.9,45-79,71c-89.5-51.9-61-90-61-90s22.1-74,34-93c-20,35.5,45.8,125.4,244,118c198.9-14,182.3-94.6,177.8-108.9
		c3.9,10.8,21.2,59.3,23.1,64.4c0.1,0.3,0.2,0.5,0.2,0.5S1189,970.3,1181,970z M1181,914c0,0,0.3,0.8,0.8,2.1
		C1181.3,914.8,1181,914,1181,914z M579,1013l-26,30l-34-5L579,1013z M683,1260l63,25c0,0,78.6,19,128,15c-13,15.8-29,38-29,38
		s-69.2,1.8-114-15s-69-29-69-29L683,1260z M1358,1239c0,0,74.3-24.3,73-93c7.8,2,28.5,10.3,28,22s-2.9,47.8-26,66s-35,20-35,20
		L1358,1239z M979,1070c-0.1,7.8,2.7,22.3,30,23c27.3,0.7,70.8-10.1,92-16s24.4-39.2-2-43c-24.1,8-83.9,14.3-95,15
		S979.1,1062.2,979,1070z"/>
	<path id="Paint-Dark_copy" class="st18" d="M1205,981c0,0-0.1-0.2-0.2-0.5c-2.1-5.8-23.8-66.5-23.8-66.5s41.3,95.7-177,111
		c-198.2,7.4-264-82.5-244-118c-11.9,19-34,93-34,93s-28.5,38.1,61,90c19.1-26,56.3-76.8,79-71c22.7,5.8,45.6,53.1,62,96
		c95.4,4.7,197.9-8.6,232-41c2-32.5,13-104.3,21-104S1205,981,1205,981z"/>
	<path id="Paint" class="st19" d="M1279,531l-5-27c0,0-30.6-104.7-50-124c17.4,9.2,31.9,22.5,41,38c9.8,23.4,34.9,109.7,39,128
		C1291.3,537.6,1279,531,1279,531z M566,617c0,0,21.8-65.2,24-85s14.4-84.6-18-108c17.3-6.4,26-10,26-10s25.3,26,23,63
		s-14.4,89.9-29,126C582.5,607.7,566,617,566,617z M1095,601l-26,6c0,0-22.1-45.5-73-37s-63.5,48.1-66,53c-14.6,0.4-46-1-46-1
		s4.9-36.2,23-49s59.7-28.1,60-44s-0.9-47.9-9-77s-36-113.8-70-132c20.4,3,46.7,17.3,56,27s28.4,37.7,43,94s22.2,86.6,34,95
		c11.8,8.4,17.4,12.7,36,15c9.6,1.2,22.8,12.4,30,25C1093.8,587.8,1095,601,1095,601z M884,699l52-2c0,0,21.7,27.8,61,25
		c39.3-2.8,56.9-17,71-49c9.9-1.2,20-2,20-2s-4.7,35.5-22,43s-36.2,19.3-45,41c-8.8,21.7-20,39-20,39l-12,4c0,0-2.2-17.6-16-18
		s-15.4,15.2-16,21c-10.5,0.6-32,0-32,0s13.4-36.6,3-46s-21.7-5.2-32-24S884,699,884,699z"/>
	<path id="Shoulder-Shadow6" class="st20" d="M1189,500c23.8,0,54.4-7.6,90,5c5.8,2,10.7,3.8,14.8,5.2c1.7,0.6-20.2-67.9-28.8-91.2
		c11.9,4,29.6,37.8,43,77c9.4,5.9,14.8,16.7,17,15c0.6,20,0,48,0,48l-51-32c0,0-52.2,3-77,3C1193.6,520.6,1190.8,509.8,1189,500z"/>
	<path id="Shoulder-SHadow3" class="st20" d="M463,606c-1-0.8-0.3-7.9,0-13c-4.9-5.2-21.6-19.6-24-32c-1.7-9,0.1-47.3,1-57
		c7.2,2.8,36.3,42.9,41,50c-5.8,5.8-12,14-12,14s8.6,31,39,31c30.4,0,61.2-22.5,95-32s98-20,98-20l-9,35c0,0-53.9,8.3-93,19
		s-53.8,36-87,36c-27.1-5.7-45.3-24.2-48-28C463.6,608.4,463.6,607.8,463,606z"/>
	
		<linearGradient id="Shoulder-SHadow_1_" gradientUnits="userSpaceOnUse" x1="658.309" y1="-8.7744" x2="627.9829" y2="-190.7744" gradientTransform="matrix(1 0 0 1 0 586)">
		<stop  offset="0" style="stop-color:#000000"/>
		<stop  offset="0.802" style="stop-color:#000000;stop-opacity:0"/>
	</linearGradient>
	<path id="Shoulder-SHadow" class="st21" d="M574,425c10-6.7,85.5-29.3,127-30c11.8,9,14,30.1,14,46s-18,107-18,107
		s-70.9,3.3-120,29c13.6-43.6,17-67.3,17-97S586.2,434.1,574,425z"/>
	
		<linearGradient id="Shoulder-SHadow5_1_" gradientUnits="userSpaceOnUse" x1="1207.5892" y1="-113.9253" x2="1184.3123" y2="-253.6243" gradientTransform="matrix(1 0 0 1 0 586)">
		<stop  offset="0" style="stop-color:#000000"/>
		<stop  offset="0.802" style="stop-color:#000000;stop-opacity:0"/>
	</linearGradient>
	<path id="Shoulder-SHadow5" class="st22" d="M1112,373c6.7,1,34.3,27.3,76,129c11.3-2.3,64.2-10.6,105,6
		c-7.7-24.5-20.8-108.7-73-129C1191.8,359.9,1105.3,372,1112,373z"/>
	
		<radialGradient id="Body-Shadow99_1_" cx="925.517" cy="-316.567" r="819.164" gradientTransform="matrix(1 0 0 1 0 586)" gradientUnits="userSpaceOnUse">
		<stop  offset="0.492" style="stop-color:#000000;stop-opacity:0"/>
		<stop  offset="0.702" style="stop-color:#000000"/>
	</radialGradient>
	<path id="Body-Shadow99" class="st23" d="M700,544c160.5,81.4,427.4,30,465-5c6.7,16.7,10.1,114.2-46,190
		c-23.8,32.3-60.8,57.5-109,76c-4.5-6-8-10-8-10s-42.8,9.7-77,6c-2.5,6.5-4,11-4,11s-124.8,1.8-150-15s-67.7-54.6-70-65s-3-31-3-31
		l-30-36l23-4c0,0,14.8-19.8,7-81C696.3,570.8,696.7,558.8,700,544z"/>
	<path id="Eye-Red" class="st24" d="M1002.6,569.9c53.5,0,71.2,35.4,71.2,74.9s-34.3,76.5-72.9,76.5s-82.5-12.5-74.9-76.5
		C926,605.3,964,569.9,1002.6,569.9z">
	<animate attributeType="XML" attributeName="fill" repeatCount="indefinite" fill="freeze" dur="4s"
			 values="#F00;#F33;#C00;#F30;#F30;#f00"/>
	</path>
	<path id="Eye-White" class="st25" d="M1002.4,599.7c20.9,0,46.4,9.5,44.2,42.5c-2.1,33-26.9,50.1-47.7,52.7
		c-20.8,2.6-45.1-11.2-45.1-39.1C953.9,624.1,978.2,599.7,1002.4,599.7z" stroke-linecap="butt">
		<animate attributeType="XML" attributeName="opacity" repeatCount="indefinite" fill="freeze" dur="6s"
				 values="1;1;0.8;0.8;0.6;1"/>
		<animate attributeType="XML" attributeName="stroke-dashoffset" repeatCount="indefinite" fill="freeze" dur="6s"
				 values="0; 50; 0"/>
		<animate attributeName="stroke-dasharray" attributeType="XML" repeatCount="indefinite" fill="freeze" dur="4s"
				 values="5 10 5; 5 5 5; 5 25 25; 5 10 25; 5 5 5; 5 10 5"/>
		<animate attributeName="stroke-width" attributeType="XML" repeatCount="indefinite" fill="freeze" dur="8s"
				 values="10;5;10"/>
	</path>
	<path id="Dots-Body" class="st26" d="M874.5,443c2.5,0,4.5,2,4.5,4.5s-2,4.5-4.5,4.5s-4.5-2-4.5-4.5S872,443,874.5,443z M883.5,478
		c2.5,0,4.5,2,4.5,4.5s-2,4.5-4.5,4.5s-4.5-2-4.5-4.5S881,478,883.5,478z M891.5,519c2.5,0,4.5,2,4.5,4.5s-2,4.5-4.5,4.5
		s-4.5-2-4.5-4.5S889,519,891.5,519z M926.5,500c2.5,0,4.5,2,4.5,4.5s-2,4.5-4.5,4.5s-4.5-2-4.5-4.5S924,500,926.5,500z M916.5,464
		c2.5,0,4.5,2,4.5,4.5s-2,4.5-4.5,4.5s-4.5-2-4.5-4.5S914,464,916.5,464z M908.5,431c2.5,0,4.5,2,4.5,4.5s-2,4.5-4.5,4.5
		s-4.5-2-4.5-4.5S906,431,908.5,431z M1036.5,420c2.5,0,4.5,2,4.5,4.5s-2,4.5-4.5,4.5s-4.5-2-4.5-4.5S1034,420,1036.5,420z
		 M1046.5,454c2.5,0,4.5,2,4.5,4.5s-2,4.5-4.5,4.5s-4.5-2-4.5-4.5S1044,454,1046.5,454z M1056.5,494c2.5,0,4.5,2,4.5,4.5
		s-2,4.5-4.5,4.5s-4.5-2-4.5-4.5S1054,494,1056.5,494z M1087.5,505c2.5,0,4.5,2,4.5,4.5s-2,4.5-4.5,4.5s-4.5-2-4.5-4.5
		S1085,505,1087.5,505z M1075.5,462c2.5,0,4.5,2,4.5,4.5s-2,4.5-4.5,4.5s-4.5-2-4.5-4.5S1073,462,1075.5,462z M1066.5,427
		c2.5,0,4.5,2,4.5,4.5s-2,4.5-4.5,4.5s-4.5-2-4.5-4.5S1064,427,1066.5,427z"/>
</g>
<g id="Line">
	<path id="Line-All" class="st27" d="M477,616c-0.2,2.4-0.4,9.7-0.6,12c-3.9,57,21.6,49,21.6,49s22.4-2,41-5c15.4,18.8,77,87,77,87
		s39.8,15.7,85,31c0-23.9-1.3-46.1-1-61c12.1,27.9,70,67,70,67l3,3 M779,889c0,0-40.7,24.3-94.6,55.2
		c-35.7,20.5-69.2,46.6-108.4,67.8c-17.7,9.5-42.9,15.8-59,24c0.3,68.2,5.1,77,21,77c21.7,0,20.2-35.9,103-37c56.8,7.9,93,12,93,12
		s21.2,18.5,38,33c-23.6,35-79.8,133.1-100,154s-15.6,78.2-6,103c19.2,14.1,63.3,55.3,165,47c10.4-1.2,21.3-15.7,28-45
		s30.6-67.9,73-124c20.2-26.8,37.3-52.9,49.7-72.8c40.9,2,103-13.5,118.3-19.2c3.7,0.5,26.1,5.1,137.4,53
		c64,26.7,110.8,61.7,125.6,96c4,14.6,15.6,8.7,19,9s49.8-26.5,60-43s17-27.9,17-110c-2.5-11.5-6.3-13.8-21-19
		c-108-33.4-233-167-233-167s-15.3-46.5-20.9-63.7 M500,523c45.5-121.1,121.1-115.8,196-128c7.2-0.1,8.8,4.2,12,7
		c44.5-53.2,105.3-78.6,163-88c6.9,0.7,17.9,7.5,28,7c8.7-0.5,16.7-8.4,21-6c119.6,5.4,174.2,68.4,187,84c1.4-2.8-8.8-23.9,9-28
		c149.8-24.9,174.7,81.8,194,128c7.2,1.4,15.8,12.3,16,18c1.2,29.6,0.9,23.5,1,39c82.2,43.3,137,71,137,71l60,37l-71,45l-195-101
		c0,0-9.6,1.1-32,4c-4.3-1.1-9.6-7.4-16-16c-17.7,9.7-21.1,11.6-46,24c-1.9,22.6-14.7,68.7-41.4,106.6
		c-14.9,21.2-37.5,37.8-56.6,51.4c-0.9,0.7-4,3-4,3"/>
	<path id="Line-Gun-L3" class="st27" d="M700,753l-3-56l-86-97"/>
	<path id="Line-Gun-L2" class="st27" d="M696,701l-78,59"/>
	<path id="Line-Gun-L" class="st27" d="M686,725l2,47l-44-16L686,725z"/>
	<path id="L-Shoulder4" class="st27" d="M573,426c16.9,3,37.8,53.2,4.6,150.7C567.1,606.6,563,619,563,619"/>
	<path id="L-Shoulder3" class="st27" d="M597.1,413.2c17.1,11,39.5,61.3,9.5,149.6C596.1,592.6,592,605,592,605"/>
	<path id="Line-Gun-L_1_" class="st27" d="M482.2,555.5l-20.4-28.1c0,0-18.1-24.9-22-30.3c-0.3-0.4-0.8-0.6-0.8-0.1c0,8.5,0,66,0,66
		l25,36"/>
	<path id="L-Gun52" class="st27" d="M440,497c0,0,22.3,0,41.5,0c2.1,0.4,25.5,9,25.5,9"/>
	<path id="L-Gun51" class="st27" d="M448,509c0,0,22.3,0,41.5,0c1.1,0.2,8.6,2.9,15.2,5.2"/>
	<path id="L-Gun50" class="st27" d="M499,522c-18.6,0-39,0-39,0v66"/>
	<path id="Line-Gun-R3" class="st27" d="M1243.8,392c33.8,36.8,41,92.1,51.1,119.6c4.3,16.9,9.1,33.3,9.1,33.3"/>
	<path id="L-Shoulder6" class="st27" d="M1220.8,379c33.8,36.8,41,91.1,51.1,118.6c4.3,16.9,9.1,33.3,9.1,33.3"/>
	<path id="Line-Gun-R3_1_" class="st27" d="M1222,608c14.1,0,21.2-31.5,21.2-80.6"/>
	<path id="Line-Gun-R2" class="st27" d="M1459,627.1l-6.8,80.3"/>
	<path id="Line-Gun-R" class="st27" d="M1470.3,646.1l31.5,17.9l-34.9,22.1L1470.3,646.1z"/>
	<path id="Line-Hand-R5" class="st27" d="M1331,558c-24.5-14.3-58.1-31.5-58.1-31.5l-23,14.5c3.9,15.5,5.8,56.8-8,68"/>
	<path id="Line-Hand-R4" class="st27" d="M1211,595c11.3-3.2,21.9-22.3,16.4-65.1"/>
	<path id="Line-Hand-R3" class="st27" d="M1266.1,529.1c-22.9-4.8-65.8,5.3-74.1-1.7c-8.7-7.3-32.3-22.1-32.3-22.1
		s-27.1-79.8-55.8-110.3"/>
	<path id="Line-Hand-R2" class="st27" d="M1320.6,512.1c-25.5,16.9-25.7-25.4-133.6-11.9c-28.4-66-64.5-143.8-78.4-125.5"/>
	<path id="L-Shoulder5" class="st27" d="M1138.1,368.4c16.7,6.2,45.7,67.7,69.9,123.8c3.7,11,9,35.9,9,35.9"/>
	<path id="Line-Hand-R" class="st27" d="M1187,499.3l6.8,28.1"/>
	<path id="L-Shoulder2" class="st27" d="M705,399c25.9,17.9-5.7,143.7-5.7,143.7l1.7,4.3c0,0-6.4,26.8-9.4,34.9
		c-6.4,4.1-72.9,11-91.1,18.7c-14.3,0-58.3,35.7-78.3,35.7s-42.5-17.8-57.9-32.1c0-9.8,2.6-29.1,2.6-29.1s0.9-3.4,3.6-7.2
		c5.2-4.9,11.4-10.2,15.7-19.2c8.1-15.3,15.5-28.9,15.5-28.9"/>
	<path id="L-Shoulder" class="st27" d="M678,398c30.9,23.2-1.7,147.7-1.7,147.7l1.7,4.3c0,0-6.4,26.8-9.4,34.9"/>
	<path id="Line-Hand-Left3" class="st27" d="M468.3,569.9c14.7,17.2,34.2,30.8,52.1,27.3c40.8-8,96.1-47.5,180.6-49.5"/>
	<path id="Line-Hand-Left2" class="st27" d="M537.6,670.6c0,0-17.3-27.2-21.6-33.6c-0.4-0.6-6-1-6-1s3.3,40-13,40"/>
	<path id="Line-Hand-Left" class="st27" d="M667.2,662.8c10.6,1.4,19,1,22.8-2.7c14.7-14.5,12.4-76.8,6-83.4"/>
	<path id="Line-Body13" class="st27" d="M1064.8,779.3c-29.5,17.8-57.8,28.7-57.8,28.7s-5.5-11.8-6-13c-42,11-75.5,5.6-75.5,5.6
		s-4.2,12.5-4.7,14.2c-15.9,0-76,0.3-150.5-17.8"/>
	<path id="Line-Body12" class="st28" d="M956.7,800.8c-2-22.6,27.7-30.7,32.3-6"/>
	<path id="Line-Body11" class="st27" d="M926,799c4.3-15.3,10.2-39.7,0.5-47c-9.6-7.4-37.8-4.6-44.3-65.5s7.4-99.5,29.8-118.2
		s54.5-17.5,57-46.8s-31.7-189.4-92.8-205.9"/>
	<path id="Line-Body10" class="st28" d="M700.1,627.5c21.6,18.1,59.4,32,104.5,41 M821.2,671.6c18.5,3.1,38.1,5.5,58,7
		 M1111.3,651.9c9.2-2.9,20.1-6.4,29.8-11.9 M1154.4,630.3c5.3-5.1,9.4-11.3,11.5-18.9"/>
	<path id="L-Body5" class="st28" d="M821,686v-58c0,0,0-7-8-7s-8,6-8,6v54c0,0-0.8,15,7,15C821.3,696,821,686,821,686z"/>
	<path id="L-Body6" class="st28" d="M1151.8,654c-0.1,1.2,2-14.4,2-28.8c0-14.6-2-29.2-2-29.2s0-7-6.4-7s-6.4,6-6.4,6s2,19.2,2,34.7
		c0,10.5-2,19.3-2,19.3s-0.6,15,5.6,15C1152,664,1151.9,652.8,1151.8,654z"/>
	<path id="Line-Body9" class="st27" d="M1160.3,507.4c8.2,27.8,13.3,64.6,1.1,113.6"/>
	<path id="Line-Eye" class="st27" d="M1004.8,569.1c21.6,0,68.9,8.5,68.9,71.5c0,55-45.1,82.5-76.6,82.5c-34,0-74-15-74-62.9
		C923.1,600.4,974.5,569.1,1004.8,569.1z"/>
	<path id="Line-Body8" class="st27" d="M884,622.7c22.3,0.1,39.2-0.7,47.7-1.7"/>
	<path id="Line-Body7" class="st27" d="M883.1,697.5c13.2,0.9,44.8-0.4,48.5-0.8"/>
	<path id="Line-Body6" class="st27" d="M1067.8,605.6c10.7-1.2,23.2-3.9,27.2-6.8"/>
	<path id="Line-Body5" class="st27" d="M1067.8,674.5c12.4-2.6,18.3-4.2,23.8-7.7"/>
	<path id="Line-Body4" class="st27" d="M915.5,620.1c-5.7,11.6-15.1,50.2,1.7,75.7"/>
	<path id="Line-Body3" class="st27" d="M894.2,324.1c60,1,82.5,71.6,98.7,135.3c7.5,29.4,14,60.6,26.4,74c26.7,28.9,34.8,7.8,62,35
		c5.8,5.7,11.5,17.1,14,32.8c4.4,28.6,1.2,68.4-18.1,100.6c-17.3,29-36.2,3.9-62.7,65.5c-6.6,15.9-13.5,25.7-13.5,25.7"/>
	<path id="Line-Body2" class="st27" d="M913.5,317.1c41.8,4.4,65.9,42.3,96.4,142.2c8.9,29,10,52.6,23,65.5
		c18.1,17.9,37.7,7.3,66.4,42.5c8.4,10.3,13.7,37.2,12.2,67.7c-1.1,21.9-8.2,50-20.7,70.9c-17.3,29-40,14.1-61.8,65
		c-11.6,22.2-18,34-18,34"/>
	<path id="Line-Base22" class="st27" d="M1027.7,990.2C1014.5,942.5,976,803,976,803"/>
	<path id="Line-Base21" class="st27" d="M1042.7,990.2C1029.5,942.5,989,801,989,801"/>
	<path id="Line-Base20" class="st27" d="M1001.7,990.2C988.5,942.5,950,803,950,803"/>
	<path id="Line-Base19" class="st27" d="M773,822c18.2,21.8,109.4,33.8,188,28.2c2.4-0.2-2.2-6.2,0-7.2c8.7,0.1,14.7-1.5,22-1
		c7.9,1.5,12.3,2.6,18,3.5c41.8-7.1,74.2-20.7,80-42.5"/>
	<path id="Line-Base18" class="st27" d="M779,878c40.8,37,127.3,52.6,204,49.5 M1127.5,874.2c-8.9,25.8-51.3,42.8-104.5,50
		c-7.9-2.2-19.1-7.1-19.1-7.1l-25,3"/>
	<path id="Line-Base17" class="st27" d="M782,915c12.7,20.7,34.1,41.6,60.4,53.3c105.4,46.8,290.1,23.9,315.6-45.3"/>
	<path id="Line-Base16" class="st27" d="M1399,1247c-0.9,10.3-14.1,54-26,76"/>
	<path id="Line-Base15" class="st27" d="M663.2,1294.5c36.9,20.9,105.3,47,182.8,42.5c38.5-48.6,129.3-170,131.8-173
		c3.7,8.2,4.7,17.6,4,21"/>
	<path id="L-Leg" class="st27" d="M681.2,1258.5c14.9,8.4,36.7,17.8,62.4,25.6c37.8,11.5,84.3,16.6,130.4,13.9"/>
	<path id="Line-Base14" class="st27" d="M846,1337c0,0-6.7,24.2-4,86"/>
	<path id="Line-Base13" class="st27" d="M1458,1167c2.2,53.7-35.3,78.3-60,86c-37-13-256.7-99.1-282-106c-6.9,3-13,10.8-13,18"/>
	<path id="L-Leg2" class="st27" d="M1429,1148c2.2,53.7-46.3,82.3-71,90"/>
	<path id="Line-Base12" class="st27" d="M1116,1147c21.3-2.7,55.8-16,65-46c-9-12.9-19-26-19-26s5.7-105.9,20-106s43.9,36.2,65,56"
		/>
	<path id="Line-Base11" class="st27" d="M1430,1291c0,0,14.5-35.2,15-71c-68.8-55.2-226.4-224.9-248-243"/>
	<path id="Line-Base10" class="st27" d="M732.7,1417.1c-10-73.7-3.4-89.4-1.7-93.1c22-66.7,83.7-235.6,132-307
		c19.2,2.8,37.2,21.5,64,96c-3.9,16-6,29-6,29l57,17"/>
	<path id="Line-Base9" class="st27" d="M863,1017c-13,0-43.8,20.2-96,112"/>
	<path id="Line-Base8" class="st27" d="M517,1037c36.8,8,193,25,193,25s-30.5-45.2,16-64c12.2-40,30-94,30-94"/>
	<path id="L-Leg3" class="st27" d="M551,1044c0,0,33.5-38.3,53-49"/>
	<path id="Line-Base7" class="st27" d="M546,1112c0,0-11.6-49.5,85-36"/>
	<path id="Line-Base6" class="st27" d="M706,1057c8.5,13.8,41.1,43.2,53,53"/>
	<path id="Line-Base5" class="st27" d="M778,883c0,0,4,35.7,7,55c78.3,120.8,395.6,69.3,378-10c-28.7-43.8-34-53-34-53"/>
	<path id="Line-Base3" class="st27" d="M727,997c-9,15.3-19.6,44.2,62,94"/>
	<path id="Line-Base2" class="st27" d="M927,1114c27.6,7.2,168.6,5.7,234-40"/>
	<path id="Line-Base" class="st27" d="M1180,1103c-39.7,17.1-126.8,52.1-258,38"/>
	<path id="L-Body" class="st27" d="M917,408c-6.6,1.8-20.6,6.4-34.7,12.6c-11.8,5.2-23.7,12-31.3,16.4c5.2,13.7,17.8,49.2,29,121
		c13.3-11.8,41.5-31.7,64-38c-0.2-9.2-3.5-32.7-9.4-55.4C927.7,438.3,919.4,412.2,917,408z M1014,403c3.1,9,19.8,55.7,32,107
		c2.6,1.1,15.4,3.8,30.1,11c13,6.4,26.7,16.8,33.9,23.1c1.3,1.1,1.1,1.3,0.7-0.1c-3.5-12-8.5-40.4-15.9-67.5
		c-6.3-23.1-14.9-44.8-19.8-57.5c-3-1.5-15.8-7.3-28.7-10.9C1031.2,403.8,1015.9,402.3,1014,403z M1007,1049
		c6.6-0.4,24.1-1.3,42.4-4c17.3-2.5,35.3-6.8,45.6-10c19.7-6.1,41.3,34.4,1,44c-13.2,3.2-26.8,5.8-38.2,8c-21.5,4.1-38.7,4.4-47.8,5
		c-14,0.8-31-6.6-31-20C979,1055.9,994.1,1049.8,1007,1049z"/>
	<path id="L-Body2" class="st27" d="M885,420c5,14.9,17.1,54.7,29,115"/>
	<path id="L-Body3" class="st27" d="M1045,408c3.7,10.6,12.3,32.6,18.4,55.5c5.3,20,12.7,48.8,14.6,60.5"/>
	<path id="L-Neck" class="st27" d="M1065,778l16,24l-2,16l42,59c0,0,24.3-0.1,40,13c16.5,13.8,34.4,35.6,19,66s-88.9,69-202,69
		s-200.7-41.3-214-80s4.1-50.9,14-54c0-9.9,0-16,0-16s1.4-9.5,12-9c-1.1-10.6-4-34-4-34s-12.4-4.4-14-14s-2-21-2-21"/>
	<path id="Shape_13" class="st27" d="M1030,1047l2,42"/>
	<path id="Shape_13_copy" class="st27" d="M1070,1039l2,42"/>
	<path id="L-Body4" class="st28" d="M700.1,607.5c21.6,18.1,59.4,32,104.5,41 M821.2,651.6c18.5,3.1,38.1,5.5,58,7 M1141.1,620
		c-9.7,5.5-20.6,9-29.8,11.9c-2.2-1.3-15.3-9.9-15.3-9.9 M1094,643l16,10 M1154.4,610.3c6.9-6.7,11.9-13.3,13-24.6"/>
</g>
</svg>
