<?xml version="1.0" encoding="utf-8"?>
<!-- Generator: Adobe Illustrator 22.0.0, SVG Export Plug-In . SVG Version: 6.00 Build 0)  -->
<svg version="1.1" id="Слой_1" xmlns="http://www.w3.org/2000/svg" xmlns:xlink="http://www.w3.org/1999/xlink" x="0px" y="0px"
	 viewBox="0 0 1920 1920" style="enable-background:new 0 0 1920 1920;" xml:space="preserve">
<style type="text/css">
	.st0{fill:#F2F2F2;}
	.st1{fill:#D9D9D9;}
	.st2{fill:#DADADA;}
	.st3{opacity:0.6;fill:url(#Body-Shadow6_1_);enable-background:new    ;}
	.st4{opacity:0.6;fill:url(#Body-Shadow44_1_);enable-background:new    ;}
	.st5{opacity:0.8;fill:url(#Body-Shadow45_1_);enable-background:new    ;}
	.st6{opacity:0.502;fill:url(#Body-Shadow43_1_);enable-background:new    ;}
	.st7{opacity:0.502;fill:url(#Body-Shadow42_1_);enable-background:new    ;}
	.st8{opacity:0.702;fill:url(#Body-Shadow46_1_);enable-background:new    ;}
	.st9{opacity:0.502;fill:url(#Body-Shadow40_1_);enable-background:new    ;}
	.st10{opacity:0.302;fill:url(#Body-Shadow41_1_);enable-background:new    ;}
	.st11{opacity:0.702;fill:url(#Body-Shadow4_1_);enable-background:new    ;}
	.st12{fill:url(#Eye-Shadow2_1_);}
	.st13{fill:url(#Eye-Shadow_1_);}
	.st14{fill:url(#Body-Shadow9_1_);}
	.st15{fill:#CCCCCC;}
	.st16{fill:#D8D8D8;}
	.st17{fill:url(#Body-Shadow2_1_);}
	.st18{fill:url(#Rocket-Shadow3_1_);}
	.st19{fill:url(#Rocket-Shadow2_1_);}
	.st20{fill:url(#Rocket-Shadow_1_);}
	.st21{fill:#B3B3B3;}
	.st22{fill:url(#Tail-Shadow3_1_);}
	.st23{fill:url(#Tail-Shadow2_1_);}
	.st24{fill:#979799;}
	.st25{fill:url(#Body-Shadow3_1_);}
	.st26{fill:#A800A8;}
	.st27{opacity:0.2;fill:url(#Eye-Shadow4_1_);enable-background:new    ;}
	.st28{opacity:0.2;fill:url(#Eye-Shadow3_1_);enable-background:new    ;}
	.st29{fill:#6E1370;}
	.st30{fill:#FF0000;}
	.st31{fill:none;stroke:#FFFFFF;stroke-width:10;}
	.st32{fill:none;stroke:#1A1A1A;stroke-width:10;}
	.st33{fill:none;stroke:#1A1A1A;stroke-width:6;}
</style>
<title>Sawfish 34</title>
<path id="Line-All" class="st0" d="M1224,1326c7.2,7.3,16.5,16.3,27,29c-2.1,30.3-3.4,54.1-4,76c-19.6,5.1-35.6,7.1-42,8
	c-27.4-10.9-124.1-48.5-168-70c-7.4-8.1-12.7-16.6-20.1-27.8c-101-31.1-192.2-98.7-257.6-185.1C703,1081.6,656.8,1002.7,613,949
	c-2.4,2.1-12.8,11.7-25.1,23.2c-11,5-19.9,7.7-31.9,11.8c-14.8,13.8-27,27-27,27l-36-9l-71-93l35-44l39,1c0,0,26.6-26.1,51-48
	c-10.9-26.1-16.3-67.2-23-111c-14.8-22.1-12-40-12-40l-10-8l-7-20l2-27l104-42l42,23h42l-16-10l6-17l169,50c0,0,25.5,15.2,54,33
	c16.3-18.2,63.4-2.8,82,20c25.6,6,35.1,13,45,24c34.1,9.5,51.4,35.2,49,42s-8,22-8,22s29.6,10.9,54.9,20.1
	c74-16.6,198,2.5,243.1,63.9c32.7,44.6,15.4,115.8-14.7,162.2c8,13.1,23.8,26.5,7.7,78.8c-20.8,21.4-55.1,30-72.6,34.9
	c-24,38.4-15.6,58-14.5,62.5c2.5,18.6,9.1,28.2,9.1,47.6C1279,1250.8,1271.3,1297.8,1224,1326z"/>
<path id="Body-Shadow10" class="st1" d="M819,1224c-36.5-34.4-80.3-90.9-207-276c-83.5-132.1-86.6-226.8-87-240
	c27.4,23,62.7,47.2,71,51s19.7,0.3,23-10c3.7,18.4,9.1,47.9,16,46s19-19,19-19l8,38l5,44l39,24c0,0,67.1,63.2,91,84
	c46.2,36.3,195.8,169.9,412,166c57.5-8.3,61.9-10.7,72-13c-8.3,14.5-17.9,38.8-12,63s27.8,95.7-42,144c-19.8-15.3-40-35-40-35l-40,9
	l5,44l-16,21C1136,1365,956.1,1357.3,819,1224z"/>
<path id="Body-Shadow8" class="st2" d="M947,711l147,99l-10,22L936,724L947,711z"/>
<radialGradient id="Body-Shadow6_1_" cx="1158.366" cy="688.821" r="124.95" gradientTransform="matrix(1 0 0 -1 0 1920)" gradientUnits="userSpaceOnUse">
	<stop  offset="0.7227" style="stop-color:#000000;stop-opacity:0"/>
	<stop  offset="1" style="stop-color:#000004;stop-opacity:0.8"/>
</radialGradient>
<path id="Body-Shadow6" class="st3" d="M1225,1326c18.1-11.7,76.3-58.7,43-147c-13,24.1-25,48.6-102,63c1.3,9.8,3.7,37.2,3,53
	c9.1-1.3,17-3,17-3S1212.8,1316,1225,1326z"/>
<radialGradient id="Body-Shadow44_1_" cx="1130.825" cy="989.239" r="792.743" gradientTransform="matrix(1 0 0 -1 0 1920)" gradientUnits="userSpaceOnUse">
	<stop  offset="0.492" style="stop-color:#000000;stop-opacity:0"/>
	<stop  offset="0.55" style="stop-color:#000000"/>
</radialGradient>
<path id="Body-Shadow44" class="st4" d="M959.7,1319c48.5,22.4,108.1,41.1,177.3,46c7.5-9.4,17-20,17-20l-6-44l21-7
	c0,0-0.5-40.5-4-52c-46.8,1.2-100.3,23.2-218.5-35.6C944.5,1236.7,948.1,1299.4,959.7,1319z"/>
<radialGradient id="Body-Shadow45_1_" cx="1170.293" cy="1133.5759" r="1085" gradientTransform="matrix(1 0 0 -1 0 1920)" gradientUnits="userSpaceOnUse">
	<stop  offset="0.492" style="stop-color:#000000;stop-opacity:0"/>
	<stop  offset="0.55" style="stop-color:#000000"/>
</radialGradient>
<path id="Body-Shadow45" class="st5" d="M820,1225c-5.7-13.5-28-77.8-24-120c45.3,41.8,150,102,150,102s-3.4,90,17,115
	C928,1304.1,881.8,1280.8,820,1225z"/>
<radialGradient id="Body-Shadow43_1_" cx="1203.459" cy="953.751" r="369" gradientTransform="matrix(1 0 0 -1 0 1920)" gradientUnits="userSpaceOnUse">
	<stop  offset="0.447" style="stop-color:#000000"/>
	<stop  offset="0.508" style="stop-color:#000000;stop-opacity:0"/>
</radialGradient>
<path id="Body-Shadow43" class="st6" d="M1280,1120c0,0-16.3,30.1-13,58c-11.7,24.5-19,46.4-102,65c3.1-54.4,29.8-93.5,46-113
	C1243.7,1128.4,1280,1120,1280,1120z"/>
<radialGradient id="Body-Shadow42_1_" cx="1163.902" cy="1195.489" r="859.346" gradientTransform="matrix(1 0 0 -1 0 1920)" gradientUnits="userSpaceOnUse">
	<stop  offset="0.46" style="stop-color:#000000"/>
	<stop  offset="0.508" style="stop-color:#000000;stop-opacity:0"/>
</radialGradient>
<path id="Body-Shadow42" class="st7" d="M1206,1131c-31.6-0.4-129.9-2.1-247-56c-2.5,14.3-12.8,107.3-13,133
	c78.1,32.4,161.5,48.3,218,33C1172.1,1203.3,1180.8,1166,1206,1131z"/>
<linearGradient id="Body-Shadow46_1_" gradientUnits="userSpaceOnUse" x1="809.4867" y1="738.0225" x2="962.2157" y2="977.0225" gradientTransform="matrix(1 0 0 -1 0 1920)">
	<stop  offset="0.492" style="stop-color:#000000;stop-opacity:0"/>
	<stop  offset="0.638" style="stop-color:#000000"/>
</linearGradient>
<path id="Body-Shadow46" class="st8" d="M795,967c0,0-2,131.2-1,143c22.1,13.6,152,96,152,96l12-132c0,0-37-20.3-75.8-45.7
	C839.7,1000.3,795,967,795,967z"/>
<radialGradient id="Body-Shadow40_1_" cx="1195.386" cy="1423.361" r="1157.319" gradientTransform="matrix(1 0 0 -1 0 1920)" gradientUnits="userSpaceOnUse">
	<stop  offset="0.492" style="stop-color:#000000;stop-opacity:0"/>
	<stop  offset="0.602" style="stop-color:#000000"/>
</radialGradient>
<path id="Body-Shadow40" class="st9" d="M1264.8,1121.6c-54,11.3-128.7,13.4-218.8-14.6c-38.6-12-120.7-37.8-250-139
	c-52.6-44.8-69-70-69-70l189,113c0,0,42-44.5,67-60c45.6,0.9,188.7,14.2,212.4,19C1221.7,1006.9,1278.3,1058.7,1264.8,1121.6z"/>
<radialGradient id="Body-Shadow41_1_" cx="1185.119" cy="1254.448" r="780" gradientTransform="matrix(1 0 0 -1 0 1920)" gradientUnits="userSpaceOnUse">
	<stop  offset="0.492" style="stop-color:#000000;stop-opacity:0"/>
	<stop  offset="0.602" style="stop-color:#000000"/>
</radialGradient>
<path id="Body-Shadow41" class="st10" d="M1349,1002c8.7,10.5,19.6,38,9,80c-16.1,12.4-83.2,38-94,40c2.4-25.3,9.2-69.9-72-156
	c20.4,6.4,57,9,57,9s26.9,1.9,53,8C1323.8,988.1,1345,997.2,1349,1002z"/>
<linearGradient id="Body-Shadow4_1_" gradientUnits="userSpaceOnUse" x1="753.9583" y1="1008.5779" x2="618.9582" y2="889.476" gradientTransform="matrix(1 0 0 -1 0 1920)">
	<stop  offset="0" style="stop-color:#000004"/>
	<stop  offset="0.198" style="stop-color:#000000;stop-opacity:0"/>
</linearGradient>
<path id="Body-Shadow4" class="st11" d="M798,968c0,0-82-71.1-92-86c-16.4-11-43-24-43-24l42,77l35,31l56,42L798,968z"/>
<linearGradient id="Eye-Shadow2_1_" gradientUnits="userSpaceOnUse" x1="1294.6169" y1="916" x2="1294.6169" y2="1082.9878" gradientTransform="matrix(1 0 0 -1 0 1920)">
	<stop  offset="0" style="stop-color:#BFBFBF"/>
	<stop  offset="1" style="stop-color:#D9D9D9"/>
</linearGradient>
<path id="Eye-Shadow2" class="st12" d="M1208,970c1.1-15,20-122.2,94-132s78.2,57.1,79,63s1.3,43.9-31,103
	c-10.9-8.3-35.1-17.8-43-19c32.6-9.7,56.4-22.8,60-49c3.6-26.2,4.9-69.9-51-77s-65.3,61-66,69s5.9,37.4,20,49
	C1239.9,973.4,1224.1,971.1,1208,970z"/>
<linearGradient id="Eye-Shadow_1_" gradientUnits="userSpaceOnUse" x1="1307.572" y1="941.1711" x2="1307.572" y2="1061.1315" gradientTransform="matrix(1 0 0 -1 0 1920)">
	<stop  offset="0" style="stop-color:#656565"/>
	<stop  offset="1" style="stop-color:#F2F2F2"/>
</linearGradient>
<path id="Eye-Shadow" class="st13" d="M1298,978c-17.7-13.8-30.1-34-23-57s39.3-66.5,90-24c-1.4-16.8-18.2-36.5-43-38
	s-62.9,9.3-71,59c-5.4,40.7,16.7,54.8,20,58C1278.3,977.8,1288.3,980.1,1298,978z"/>
<linearGradient id="Body-Shadow9_1_" gradientUnits="userSpaceOnUse" x1="1059.9915" y1="524.5474" x2="1291.9915" y2="573.3954" gradientTransform="matrix(1 0 0 -1 0 1920)">
	<stop  offset="0" style="stop-color:#595959"/>
	<stop  offset="0.333" style="stop-color:#989898"/>
	<stop  offset="0.501" style="stop-color:#D9D9D9"/>
</linearGradient>
<path id="Body-Shadow9" class="st14" d="M1247,1431l4-75l-41,6l-62-60l4,44l-14,19c0,0-105-17.5-119-22c11.2,17.3,17,26,17,26
	l171,70L1247,1431z"/>
<path id="Shape_24" class="st15" d="M1250,1355l-40,7l-2,79l39-9L1250,1355z"/>
<path id="Rocket-Shadow4" class="st16" d="M994,727c-6.4-5.7-12.5-16.5-12-21c-5.2,1.2-37-11.8-45-25c-11.6-3.8-36-18.6-39-24
	c-5.1,4.9-8,11-8,11l81,53C971,721,1000.4,732.7,994,727z"/>
<linearGradient id="Body-Shadow2_1_" gradientUnits="userSpaceOnUse" x1="492.3185" y1="778.8209" x2="772.3185" y2="982.253" gradientTransform="matrix(1 0 0 -1 0 1920)">
	<stop  offset="0.496" style="stop-color:#000004"/>
	<stop  offset="0.701" style="stop-color:#000000;stop-opacity:0"/>
</linearGradient>
<path id="Body-Shadow2" class="st17" d="M817,1224c-25.5-26-82.2-102.7-141.2-187.5C623.1,960.8,566.6,886.2,537,790
	c39.8,48.8,205.3,281.6,259,330C797.5,1156.4,803.9,1189.6,817,1224z"/>
<linearGradient id="Rocket-Shadow3_1_" gradientUnits="userSpaceOnUse" x1="701" y1="1095.698" x2="701" y2="1163.698" gradientTransform="matrix(1 0 0 -1 0 1920)">
	<stop  offset="0" style="stop-color:#595959"/>
	<stop  offset="1" style="stop-color:#D9D9D9"/>
</linearGradient>
<path id="Rocket-Shadow3" class="st18" d="M753,768l-5-22c0,0-7.9,16.5-45,24c-37.1,7.5-51.2-11.5-54-16c2.7,19.2,14,60,14,60
	L753,768z"/>
<linearGradient id="Rocket-Shadow2_1_" gradientUnits="userSpaceOnUse" x1="663.3276" y1="1168.54" x2="629.3276" y2="1160.8151" gradientTransform="matrix(1 0 0 -1 0 1920)">
	<stop  offset="0.197" style="stop-color:#595959"/>
	<stop  offset="1" style="stop-color:#D9D9D9"/>
</linearGradient>
<path id="Rocket-Shadow2" class="st19" d="M651,779l-6-41l-28-10l12,65C629,793,645.4,791.8,651,779z"/>
<linearGradient id="Rocket-Shadow_1_" gradientUnits="userSpaceOnUse" x1="630.2111" y1="1196.6788" x2="599.2111" y2="1189.6359" gradientTransform="matrix(1 0 0 -1 0 1920)">
	<stop  offset="0.197" style="stop-color:#595959"/>
	<stop  offset="1" style="stop-color:#D9D9D9"/>
</linearGradient>
<path id="Rocket-Shadow" class="st20" d="M619,753l-6-41l-25-11l10,61C598,762,613.2,761.3,619,753z"/>
<path id="Body-Shadow" class="st21" d="M1205,1024c3.1,5.3,0.5,37.1-27,10C1170.9,995.4,1201.9,1018.7,1205,1024z M1260,1022
	c-8.3-14.7,4-30.6,22-9C1293.3,1038.8,1269.3,1036.3,1260,1022z"/>
<linearGradient id="Tail-Shadow3_1_" gradientUnits="userSpaceOnUse" x1="603.2964" y1="988.2606" x2="491.2815" y2="897.2606" gradientTransform="matrix(1 0 0 -1 0 1920)">
	<stop  offset="9.400000e-02" style="stop-color:#4D4C4C"/>
	<stop  offset="0.701" style="stop-color:#CCCCCC"/>
</linearGradient>
<path id="Tail-Shadow3" class="st22" d="M530,1012c0,0,9-11.8,27-26c8.7-6.9,22.1-9,31-15c15.7-10.5,25-23,25-23l-15-27
	c0,0-10.7,11.2-24,23c-12,4.4-26.2,8.8-33,11c-26.4,20.6-48,48-48,48L530,1012z"/>
<linearGradient id="Tail-Shadow2_1_" gradientUnits="userSpaceOnUse" x1="444.2059" y1="941.6862" x2="618.2059" y2="1115.6862" gradientTransform="matrix(1 0 0 -1 0 1920)">
	<stop  offset="0.404" style="stop-color:#E6E6E6"/>
	<stop  offset="0.951" style="stop-color:#000000"/>
</linearGradient>
<path id="Tail-Shadow2" class="st23" d="M547,818c5.2,18.8,45,95.9,51,105c-3.2,3.3-12.4,12.4-23.9,23.7
	c-11.2,2.5-22.3,5.7-36.1,10.3c-23.7,21.3-45,43-45,43l-69-91l34-43l40-2C498,864,527.8,831.4,547,818z"/>
<path id="Tail-Shadow" class="st24" d="M573,944l-75-78h-37l79,88L573,944z"/>
<path id="Body-Shadow7" class="st1" d="M1071,876l6,12c0,0-72.4,52.9-162,124c-51.2-31-249-155-249-155l-1-14l248,149L1071,876z
	 M717,646l-4-14l-53,26l14,11L717,646z M586,682l-51-17l-42-34l6,25l30,25l60,17L586,682z M677,567l152,72l-37,2l-123-59L677,567z"
	/>
<linearGradient id="Body-Shadow3_1_" gradientUnits="userSpaceOnUse" x1="565.365" y1="1234.1034" x2="534.041" y2="1140.1034" gradientTransform="matrix(1 0 0 -1 0 1920)">
	<stop  offset="0" style="stop-color:#666666"/>
	<stop  offset="0.5" style="stop-color:#D9D9D9"/>
</linearGradient>
<path id="Body-Shadow3" class="st25" d="M586,698l12,63c0,0-54.3-31.3-71-53c-16.7-21.7-13.4-37.6-13-41c9.8,10,15,13,15,13L586,698
	z"/>
<path id="Paint" class="st26" d="M1180,954c0,0-49.1,8.4-58,13c-15.4-14.1-66-63-66-63l22-15l-6-11L864,730c0,0,15.5-2.1,23-6
	s17.6-8.9,4-16s-83-54-83-54s-25-6.8-36-2s-17.1,8,1,21s65,49,65,49l-21,9l-107-81l9-5l-4-13l-70-37l42-2l105,48l27,1l122,75l-3,7
	l148,105c0,0,9.1,48.9,26,63S1180,954,1180,954z"/>
<linearGradient id="Eye-Shadow4_1_" gradientUnits="userSpaceOnUse" x1="1122.6434" y1="974.3623" x2="1238.5564" y2="1152.8533" gradientTransform="matrix(1 0 0 -1 0 1920)">
	<stop  offset="0" style="stop-color:#000000"/>
	<stop  offset="1" style="stop-color:#000000;stop-opacity:0"/>
</linearGradient>
<path id="Eye-Shadow4" class="st27" d="M1326,813c-26.8-7.7-103.8-25.7-150,138c-19.7-21.8-60.3-59.9-69-65
	c-9.1-15.1-23.6-41.6-22-50s10.9-42.2,38-59C1153.2,772.3,1259.6,760.5,1326,813z"/>
<linearGradient id="Eye-Shadow3_1_" gradientUnits="userSpaceOnUse" x1="1215.7855" y1="947.419" x2="1343.2616" y2="1110.5811" gradientTransform="matrix(1 0 0 -1 0 1920)">
	<stop  offset="0" style="stop-color:#000000"/>
	<stop  offset="0.902" style="stop-color:#000000;stop-opacity:0"/>
</linearGradient>
<path id="Eye-Shadow3" class="st28" d="M1177,949c12.9-44.4,51.9-180.8,167-130c28.4,27.6,30.9,51.5,34,62c-20.3-23.6-30-43.5-69-46
	s-94.3,57.5-101,136C1197.4,969.6,1189.3,967.4,1177,949z"/>
<path id="Paint-Dark" class="st29" d="M1095,811l-90-60l107,36L1095,811z M1067,877L911,990L667,845l207-109L1067,877z M910,966
	l128-91L870,759l-159,85L910,966z M713,633l-56,26l-29-3l49-23l-78-48l-84,36c0,0,1.6,11.1,6,11c14.1-0.4,37,0,37,0l6,6
	c0,0-12.8,17.6-11,18s44,12,44,12l-8,13l-53-15l-39-34l1-22l100-41L713,633z M872,636l-112-30l-57-33l143,43L872,636z"/>
<path id="Eye-Red" class="st30" d="M1323,878c26.3-2.8,49,14.9,45,48s-23.9,52.2-52,54.8c-28.1,2.5-39.2-14.3-42-40.8
	C1270.8,910,1278.9,882.7,1323,878z">
		<animate attributeType="XML" attributeName="fill" repeatCount="indefinite" fill="freeze" dur="4s"
				 values="#F00;#F33;#C00;#F30;#F30;#f00"/>
</path>
<path id="Eye-White" class="st31" d="M1325.6,901.5c14-0.3,22.9,10.5,22.9,23c0,12.4-8.8,26.7-22.9,32.1
	c-16.3,6.3-32.1-3.2-32.1-21.1C1293.5,917.5,1309.5,901.8,1325.6,901.5z" stroke-linecap="butt">
	<animate attributeType="XML" attributeName="opacity" repeatCount="indefinite" fill="freeze" dur="6s"
			 values="1;1;0.8;0.8;0.6;1"/>
	<animate attributeType="XML" attributeName="stroke-dashoffset" repeatCount="indefinite" fill="freeze" dur="6s"
			 values="0; 50; 0"/>
	<animate attributeName="stroke-dasharray" attributeType="XML" repeatCount="indefinite" fill="freeze" dur="4s"
			 values="3 5 3; 3 3 3; 3 10 10; 3 5 10; 3 3 3; 3 5 3"/>
	<animate attributeName="stroke-width" attributeType="XML" repeatCount="indefinite" fill="freeze" dur="8s"
			 values="10;5;10"/>
</path>
<g id="Line">
	<path id="Line-All_copy" class="st32" d="M1224,1326c7.2,7.3,16.5,16.3,27,29c-2.1,30.3-3.4,54.1-4,76c-19.6,5.1-35.6,7.1-42,8
		c-27.4-10.9-124.1-48.5-168-70c-7.4-8.1-12.7-16.6-20.1-27.8c-101-31.1-192.2-98.7-257.6-185.1C703,1081.6,656.8,1002.7,613,949
		c-2.4,2.1-12.8,11.7-25.1,23.2c-11,5-19.9,7.7-31.9,11.8c-14.8,13.8-27,27-27,27l-36-9l-71-93l35-44l39,1c0,0,26.6-26.1,51-48
		c-10.9-26.1-16.3-67.2-23-111c-14.8-22.1-12-40-12-40l-10-8l-7-20l2-27l104-42l42,23h42l-16-10l6-17l169,50c0,0,25.5,15.2,54,33
		c16.3-18.2,63.4-2.8,82,20c25.6,6,35.1,13,45,24c34.1,9.5,51.4,35.2,49,42s-8,22-8,22s29.6,10.9,54.9,20.1
		c74-16.6,198,2.5,243.1,63.9c32.7,44.6,15.4,115.8-14.7,162.2c8,13.1,23.8,26.5,7.7,78.8c-20.8,21.4-55.1,30-72.6,34.9
		c-24,38.4-15.6,58-14.5,62.5c2.5,18.6,9.1,28.2,9.1,47.6C1279,1250.8,1271.3,1297.8,1224,1326z"/>
	<path id="Line-Body22" class="st32" d="M1014,1340c14.6,5.6,110.9,22.8,124,24c8.7-8.3,15-19,15-19l-6-46l39-7l42,37"/>
	<path id="Line-Body21" class="st32" d="M1149,1303l60,59l-4,76"/>
	<path id="Line-Body20" class="st32" d="M1211,1362l36-6"/>
	<path id="Line-Eye6" class="st32" d="M1191.8,966.7c14.9,7.7,51.4,6,85.2,11.3c31.4,4.9,58.1,16.5,71.7,26.5"/>
	<path id="Line-Eye5" class="st32" d="M1125,777c-15.3,3.6-43.1,43.5-40,63s29,52,29,52"/>
	<path id="Line-Eye4" class="st32" d="M1177,948c11.5-35.8,51.9-183.4,165-128c4.1,2.9,10,8,10,8"/>
	<path id="Line-Eye3" class="st32" d="M1207,970c5.8-47.1,28.9-95.2,61-119c21.5-16,44.9-16.2,70.2-9.5
		c16.3,4.4,38.6,24.5,42.8,45.5"/>
	<path id="Line-Eye2" class="st32" d="M1270,976c-10.2-10-32.3-36.9-12-79s62.6-42.7,81-34s42.2,36.5,24,81s-64.7,37.6-70,37"/>
	<path id="Line-Eye" class="st32" d="M1370,916c-0.6-20.6-29.3-53.2-72-30s-25.8,100.8,18,95"/>
	<path id="Line-Tail" class="st32" d="M458,866l84,90"/>
	<path id="Line-Tail2" class="st32" d="M494.9,861.5c0,0,60.8,64,79,83.2"/>
	<path id="Line-Battery12" class="st32" d="M511,667l19,15l54,15"/>
	<path id="Line-Battery7" class="st32" d="M585,681l-50-15c0,0-30.5-27.2-38.9-34.9"/>
	<path id="Line-Battery6" class="st32" d="M655,658l59-26c0,0,0.9-1.1,0.7-1.2C709.1,627.7,639,590,639,590"/>
	<path id="Line-Battery13" class="st32" d="M675,587l118,54c0,0,66.7,2.2,99,21c2.5-4.5,6-8,6-8"/>
	<path id="Line-Battery11" class="st32" d="M715,631l2,14l-44,21"/>
	<path id="Line-Battery5" class="st32" d="M608.4,665c40.2-17.8,92.6-41,92.6-41"/>
	<path id="L-Body12" class="st33" d="M657,632l-54,24l-6-5l51-23L657,632z M598,596l7,4l-44,18l-7-4L598,596z"/>
	<path id="Line-Battery8" class="st32" d="M496.2,627.5C527.8,614.9,615,580,615,580"/>
	<path id="L-Body11" class="st32" d="M513,607l-1,16l39,33l48,13"/>
	<path id="L-Body10" class="st32" d="M520,629l35,3l9,7l-10,19"/>
	<path id="L-Body9" class="st32" d="M586,577l107,63"/>
	<path id="Line-Body19" class="st32" d="M858,649c28,15.8,96.4,58,108,69"/>
	<path id="Line-Battery9" class="st32" d="M863,650l-68-26l-117-58"/>
	<path id="Line-Battery10" class="st32" d="M742,598c0,0,116.1,34.8,144,43.2"/>
	<path id="Shape_2" class="st32" d="M1117,1362"/>
	<path id="Line-Body18" class="st32" d="M700,877c91.9,92.4,182.3,160.3,269,201c115.4,54.2,222.2,64.9,304.7,42.9
		c4.9-1.3,8.6-2.3,11.3-3.1"/>
	<path id="L-Body8" class="st32" d="M957.1,1072.3c-4.1,27.4-10.2,76.9-11.3,134.4c-0.6,32.5-1,92.8,19.3,114.3"/>
	<path id="Line-Body17" class="st32" d="M820,1224.2c-31.4-61.7-25-178.1-25-259.2"/>
	<path id="Line-Cirkle-Body" class="st32" d="M856.7,1042.3c15.8,8.4,28.7,33.4,28.7,55.8c0,22.4-12.9,33.7-28.7,25.2
		c-15.9-8.4-28.7-33.4-28.7-55.8S840.8,1033.8,856.7,1042.3z"/>
	<path id="Line-Body16" class="st32" d="M857,1066v32"/>
	<path id="Line-Body15" class="st32" d="M569.7,760.2c0.9,15.9,1.4,29.8,2.5,47.6"/>
	<path id="Line-Body14" class="st32" d="M585.1,778.5c0.9,16,1.4,29.8,2.5,47.6"/>
	<path id="Line-Body13" class="st32" d="M601.3,792.7c0.9,15.9,1.4,29.8,2.5,47.6"/>
	<path id="Line-Body12" class="st32" d="M523,704c9.4,12,31.2,31.7,75,55"/>
	<path id="Line-Body11" class="st32" d="M687,1053c-15-27-22.6-68.1-25.3-109.3C624.8,910.4,571.1,843.4,537,785"/>
	<path id="Line-Body10" class="st32" d="M740,966c0,0-2.7,16-3,36s3,38,3,38l-35-42c0,0-2-11.8-2-30s2-35,2-35L740,966z"/>
	<path id="Line-Body9" class="st32" d="M737,999l57,59"/>
	<path id="Line-Body8" class="st32" d="M797,1108c155.7,125.8,246,137.7,305,138c54.1,0.3,157.8-10.2,166-75"/>
	<path id="Line-Body7" class="st32" d="M1168,1297c0-14.2,2.5-44.6-5-55c1.7-32.1,27.2-95.4,50-113"/>
	<path id="Line-Ellipse-Front" class="st32" d="M1144.6,1166.3c7.3,1.8,3.9,15.5-0.3,32.4c-4.2,16.9-6.4,30.9-14.9,28.8
		c-8.5-2.1-3.9-15.5,0.3-32.4C1133.9,1178.2,1137.3,1164.5,1144.6,1166.3z M1220.7,1162.1c6.4,2.6,0.6,15.6-5.3,30.4
		c-5.9,14.8-9.6,27.3-17.1,24.3c-7.5-3-1.6-14.6,4.3-29.4C1208.5,1172.6,1214.3,1159.6,1220.7,1162.1z"/>
	<path id="Line-Body6" class="st32" d="M830.7,1133.3c1.8,19.6,4.8,45.8,10.4,58c7.6,5.7,16.1,13,16.1,13s-7.4-34.9-9.6-57.1"/>
	<path id="Line-Body5" class="st32" d="M867.6,1159.7c1.7,19.9,4.8,49.5,10.7,62.5c7.6,5.7,16.1,12,16.1,12s-8.8-41.5-10-62.8"/>
	<path id="Line-Body4" class="st32" d="M1320,1104c0,0-5.4-13.2-7.7-17.8c-33.1,8.2-45.1,16.1-106.3,23.8c-3.7,9.4-9,19-9,19"/>
	<path id="Line-Body3" class="st32" d="M1264,1123c8.5-35.3,5.9-77-106-192c-27.5-28.3-151.3-120.2-276.8-205.6 M771.7,652
		c-40.7-24.6-75.3-45.9-108.7-61"/>
	<path id="L-Body7" class="st32" d="M1183,956c-13.8-0.6-37.4,1.3-62,11c-23.7-26.8-41.5-43.9-65-63 M822,730.2
		C759.5,684.1,709,647,709,647 M816,642l125,75"/>
	<path id="L-Body6" class="st32" d="M864.3,727.7c6.7,0.2,14.2-0.6,20.7-3.7c16.4-7.8,15.7-7.5,4-16s-79-51-79-51s-16.3-9.4-37-4
		c-12,3.1-20.5,6.7-7,15c10.8,6.7,55.3,39,72.9,51.8"/>
	<path id="Line-Body2" class="st32" d="M711,704c28.5-12.4,51.1-20.7,72.2-25.2 M841,675c27.9,0.1,66.4,14.8,105,27"/>
	<path id="L-Body5" class="st32" d="M769,668c11.8-5.5,24.2-8.4,50,8s70,46,70,46"/>
	<path id="L-Body4" class="st32" d="M789,685l34-6 M846,693l-37,7 M835,716l34-8"/>
	<path id="Line-Cirkle-Body2" class="st32" d="M1181.2,1014.4c5.9-5.2,16.1-3.2,22.7,4.5c6.6,7.6,7.1,18,1.1,23.2
		c-5.9,5.2-16.1,3.2-22.7-4.4C1175.7,1030,1175.2,1019.6,1181.2,1014.4z M1259.1,1002.7c5.8-4.9,15.7-1.9,21.9,6.3
		c5.9,7.8,6.4,17.5,1.3,22.2c-5.2,4.7-14.6,2.8-21.1-4.8C1254.2,1018.4,1253.2,1007.6,1259.1,1002.7z"/>
	<path id="Line-Body" class="st32" d="M612,947c-10.8-16.3-54.1-95.1-65-132"/>
	<path id="Line-Tail3" class="st32" d="M495,1000c0,0,22.6-22.3,45.3-44.8c11.9-3.2,20.8-6.1,33.3-10.1C587,931.9,597,922,597,922"
		/>
	<path id="Line-Battery4" class="st32" d="M1073,876l4,11c0,0-31.2,22.4-79.1,57.5c-23.7,17.4-53,35.5-82.9,66.5
		c-72.1-41.4-248-155-248-155l-3-14"/>
	<path id="Line-Battery3" class="st32" d="M912,992l158-116L847,717l-186,96l2,28L912,992z"/>
	<path id="L-Body3" class="st32" d="M911,968l128-92L871,759l-162,86L911,968z"/>
	<path id="L-Body2" class="st32" d="M877,943l129-91"/>
	<path id="L-Body" class="st32" d="M838,922l131-93 M931,799l-140,95 M747,868l152-89"/>
	<path id="Line-Battery2" class="st32" d="M665,844l205-108"/>
	<path id="Line-Battery17" class="st32" d="M994,743c0,0,64.8,24.6,119.1,45.3"/>
	<path id="Line-Rocket7" class="st32" d="M587,692c1.6,8.2,10.8,15.7,29,16c7.3-9.5,24.1-23.9,64-22"/>
	<path id="Line-Rocket5" class="st32" d="M617,707c-2.7,4.9-6.4,28.6,33,30c17.3-17.9,34.2-20.4,58-23"/>
	<path id="Line-Rocket3" class="st32" d="M650,737c-7.9,15.4,7.9,50,75,26"/>
	<path id="Line-Rocket2" class="st32" d="M721,764c20-9.5,35-22.8,21-40c-8-8.2-23.5-11-33-11c1.4-10.8-2.4-27.1-32-28
		c1.3-13.6-11.2-36.1-61-24c-30,6.7-30.9,28.2-30,33s9.5,54.9,11,61c0.8,3.4,1.6,6,3.7,6.4c1.7,0.3,6.2,1.1,10.3-2.4
		c3.8-4.4,9-11,9-11l6,33c0,0,1.6,10.2,6.1,10.7c1.8,0.2,7.4-0.8,10.9-4.7c6.5-7.3,9-12,9-12l9,41"/>
	<path id="Line-Rocket" class="st32" d="M666.3,747.6c-4.3-7.8,10.4-13.8,25.4-17.7c15-3.8,31.4-2.3,35.9,4.6
		c5.2,7.9-11.6,15.4-22.6,18.6C693.8,756.4,671.3,756.6,666.3,747.6z"/>
	<path id="Line-Rocket6" class="st32" d="M688,717c23.8-14-13.6-19.3-31-16c-12.8,2.4-28.6,6.5-26,16c1.6,5.7,26.2,6.9,37.6,5.8"/>
	<path id="Line-Rocket9" class="st32" d="M660,684c4.3-7.7-11.9-14.7-36-9c-25.8,6.1-31,18.4,2,21"/>
	<path id="Line-Rocket10" class="st32" d="M1032,709c15.3,5.7,26.4,16.2,25,22s-20.6,0.3-32-4s-26.8-13.6-25-19
		S1016.7,703.3,1032,709z"/>
	<path id="Line-Rocket8" class="st32" d="M615,716l5,34"/>
	<path id="Line-Rocket5_1_" class="st32" d="M648,747l5,34"/>
	<path id="Line-Rocket4" class="st32" d="M748,739l4,27"/>
	<path id="Line-Rocket15" class="st32" d="M958,666c-9.6-7-36.8-15.9-43-13c-2.3,4.2,17.8,14.8,26,18"/>
	<path id="Line-Rocket14" class="st32" d="M899,647c-3.3,6.7-3.8,16.7,38,34c0.3-6.4,4.7-21.6,43-14"/>
	<path id="Line-Rocket13" class="st32" d="M1005,690c-13.9-8.3-49.3-15-50-11c-1.1,5.9,25.2,15.5,30,17"/>
	<path id="Line-Rocket12" class="st32" d="M938,682c9,10.8,19.2,18.1,44,25c2.1-12,8.5-20.7,43-14"/>
	<path id="Line-Rocket11" class="st32" d="M982,708c0.6,8.7,15.6,19.3,20,22"/>
	<path id="Line-Battery15" class="st32" d="M1096.1,811.9c-60.9-41.2-136.6-92.4-150-101.5c-1.4-0.9-1.1-1.4-1.1-1.4l125,49"/>
	<path id="Line-Battery14" class="st32" d="M946,707l-9,17c0,0,82.9,58.3,151.1,106.2"/>
</g>
</svg>
