<?xml version="1.0" encoding="utf-8"?>
<!-- Generator: Adobe Illustrator 22.0.0, SVG Export Plug-In . SVG Version: 6.00 Build 0)  -->
<svg version="1.1" id="Слой_1" xmlns="http://www.w3.org/2000/svg" xmlns:xlink="http://www.w3.org/1999/xlink" x="0px" y="0px"
	 viewBox="0 0 1920 1920" style="enable-background:new 0 0 1920 1920;" xml:space="preserve">
<style type="text/css">
	.st0{fill:#F2F2F2;}
	.st1{opacity:0.302;fill:url(#Body-Shadow9_1_);enable-background:new    ;}
	.st2{fill:#DEDEDE;}
	.st3{fill:url(#Tower-Shadow5_1_);}
	.st4{fill:url(#Tower-Shadow3_1_);}
	.st5{opacity:0.502;fill:url(#Tower-Shadow6_1_);enable-background:new    ;}
	.st6{fill:#E6E6E6;}
	.st7{fill:#B3B3B3;}
	.st8{fill:#D9D9D9;}
	.st9{fill:url(#SVGID_1_);}
	.st10{fill:url(#Gun-Shadow3_1_);}
	.st11{display:none;opacity:0.4;fill:url(#Gun-Shadow_1_);enable-background:new    ;}
	.st12{fill:#808080;}
	.st13{fill:#999999;}
	.st14{fill:url(#Gun-Shadow11_1_);}
	.st15{fill:url(#Gun-Shadow10_1_);}
	.st16{fill:url(#Gun-Shadow9_1_);}
	.st17{fill:#CCCCCC;}
	.st18{fill:url(#TurretL-Shadow_1_);}
	.st19{fill:url(#TurretL-2Shadow_1_);}
	.st20{fill:#BFBFBF;}
	.st21{fill:url(#TurretR2-2Shadow_1_);}
	.st22{fill:#8C8C8C;}
	.st23{fill:url(#Body-Shadow3_1_);}
	.st24{fill:url(#Body-Shadow7_1_);}
	.st25{fill:url(#Cylinder-Shadow2_1_);}
	.st26{fill:url(#Cylinder-Shadow3_1_);}
	.st27{fill:url(#Cylinder-Shadow4_1_);}
	.st28{fill:url(#Cylinder-Shadow_1_);}
	.st29{fill:url(#Body-Shadow6_1_);}
	.st30{fill:url(#Dome-Shadow_1_);}
	.st31{fill:url(#Body-Shadow4_1_);}
	.st32{fill:url(#Body-Shadow10_1_);}
	.st33{fill:url(#Hangar-Shadow_1_);}
	.st34{fill:url(#Hangar-Shadow2_1_);}
	.st35{fill:#E8E8E8;}
	.st36{fill:url(#TurretL-Shadow2_1_);}
	.st37{fill:#666666;}
	.st38{fill:#E0E0E0;}
	.st39{opacity:0.502;fill:url(#TurretL-Shadow4_1_);enable-background:new    ;}
	.st40{opacity:0.502;fill:url(#TurretL-2Shadow4_1_);enable-background:new    ;}
	.st41{opacity:0.502;fill:url(#TurretR2-2Shadow3_1_);enable-background:new    ;}
	.st42{opacity:0.502;fill:url(#TurretL-Shadow8_1_);enable-background:new    ;}
	.st43{fill:url(#TurretR2-2Shadow2_1_);}
	.st44{fill:url(#TurretL-2Shadow3_1_);}
	.st45{fill:url(#Kil-Shadow_1_);}
	.st46{fill:#A800A8;}
	.st47{fill:#343434;}
	.st48{fill:#6E1370;}
	.st49{fill:none;stroke:#180D24;stroke-width:5;}
</style>
<path id="Fill-All" class="st0" d="M1201.1,1150.9c-109,8.3-215.2,28.4-215.2,28.4s-22.1,106.9-23.7,117.1
	c-1.5,10.2-3.8,17.7-9.5,17.7c-33.7,0-54.4-59.1-54.4-59.1s-3.1-31.9-3.5-49.7c-93.8,34.5-103.7,62.4-118.3,86.3
	c-2.1,82.1,3.5,143.8,20.1,209.3s58.3,134,73.3,165.6s8,37.4-15.4,42.6s-144.1,30-159.6,33.1s-83.1,13.8-101.7,1.2
	c-219.9-148.8-231.8-165.6-231.8-165.6s-115.2-326-133.6-385.5c6.7-38,46.1-162,46.1-162s-99.8-14-110-16.6
	c-5.4-16.1-26.8-83.2-33.1-102.9c-6.3-19.6-2.7-51,0-65c2.7-14.1,13.7-63.6,20.1-94.6s19.2-39,33.1-47.3c14-8.3,43.8-11.8,43.8-11.8
	s-2-66.2-2.4-74.5s1.2-15.7,5.9-21.3c-4-1.5-5.9-4.7-5.9-4.7l-3.5-63.9c0,0,12.5-21.2,14.2-23.7s5.4-6.9,9.5-10.6
	c-0.7-6.7,1.2-17.7,1.2-17.7l-63.9-21.3l-7.1,1.2L141.5,445l7.1-24.8l35.5,10.6l3.5,4.7l2.4,1.2l3.5-14.2c0,0,46.9,14.2,72.1,20.1
	c19.6-20.1,47.3-14.2,47.3-14.2l-16.6-59.1l27.2-53.2l39-9.5l-1.2-8.3l11.8-3.5l2.4,7.1l15.4-3.5l-2.4-9.5l14.2-3.5l5.9,8.3
	l36.7-8.3c0,0,38.4,25.2,49.7,31.9c15-1.3,28.4-0.9,54.4-2.4c35.4-17.7,66.3-23.2,84-24.8c2.6-9.7,7.7-28.6,9.5-34.3
	s6.4-29,27.2-30.7c20.8-1.8,102.1-6.3,120.6-5.9c18.6,0.4,59.8,12.5,85.1,22.5s42.6,33.5,49.7,42.6c7.1,9.1,43.5,56.4,48.5,61.5
	s24.7,36.7,24.7,36.7s44.4-25.3,49.8-28.4c3.1-0.7,8.3,4.7,8.3,4.7l18.9-11.8l20.1,9.5V368l-24.8,14.2h-4.7l-43.8,24.8l11.8,8.3
	l-3.5,16.6l24.8,14.2l13-5.9l88.7,67.4l-5.9,13l13,9.5c0,0,10.8-1.2,22.5-2.4s26,4.7,26,4.7s62.3,43.5,75.7,50.8
	c13.4,7.3,4.7,20.1,4.7,20.1l-31.9,81.6c0,0,17.9-5.6,23.7-7.1c5.8-1.5,10.4-2,23.7-1.2c9.3-22.7,36.7-41.4,63.9-41.4
	s46.1,16.6,46.1,16.6s41.7-16.1,50.8-18.9c5.6,1.5,7.1,11.8,7.1,11.8l37.8-14.2l3.5-4.7l37.8-14.2l17.7,14.2l1.2,13l-40.2,16.6
	l-3.5-1.2c0,0-68,28.1-87.5,36.7c3.4,9.7,0,34.3,0,34.3l7.1,8.3l17.7,28.4c0,0,0.4,5.8,0,13c3.4,0.1,5.2,3.9,3.5,21.3
	c-1.7,17.4-4.8,19.9-9.5,26c4.3,0.9,4.7,13,4.7,13s-0.2,42.8,0,61.5c7.6,7,113.2,95.5,154.9,137.2c41.7,41.7,84.7,81.9,97,112.3
	s40.6,127.4,48.5,170.3s39.4,156.8,35.5,167.9c-6.9,19.7-62.2,34.2-106.4,44.9c-44.2,10.8-102.4,27.1-119.4,22.5
	C1560.1,1547.1,1287,1245.9,1201.1,1150.9z M1236.5,605.7l-30.7,80.4l11.8,9.5l36.7-91.1L1236.5,605.7z M1201.1,610.4l-22.5,56.8
	l11.8,9.5l24.8-67.4L1201.1,610.4z"/>
<linearGradient id="Body-Shadow9_1_" gradientUnits="userSpaceOnUse" x1="866.345" y1="-2455.2397" x2="818.7175" y2="-2398.4788" gradientTransform="matrix(1 0 0 1 0 2990)">
	<stop  offset="0" style="stop-color:#000004"/>
	<stop  offset="1" style="stop-color:#000000;stop-opacity:0"/>
</linearGradient>
<path id="Body-Shadow9" class="st1" d="M955.1,576.2l-179.7,16.6l-42.6-46.1c0,0,41.4-0.8,60.3-4.7c4.3,4.4,8.3,4.7,8.3,4.7
	l110-10.6l10.6,11.8l17.7,8.3l8.3-1.2v7.1L955.1,576.2z"/>
<path id="Tower-Shadow2" class="st2" d="M645.3,249.8c6.4,12.4,18.2,34.4,133.6,61.5c7.3,1.2,86.6-7.3,143.1-14.2
	c9.3,8,21,22.9,22.5,28.4c-0.2,2.1-167.8,9.2-168,11.6c-7.2,68.7-24.5,197.7-55.5,207.2c-33.3-6-87.2-18.2-105.2-55.6
	c-5.8-26.3-3-45.6-2.4-59.1C613.9,416,627.3,291.2,645.3,249.8z M913.7,269.9c9.3,8,44,52.7,47.3,59.1c-6.3-3.4-10.8-5.1-15.4-4.7
	c-6.5-7.4-24.8-29.6-24.8-29.6S916.6,276.9,913.7,269.9z M971.7,342c7.6,7.4,28.7,40.6,35.5,54.4c-11.7-5.9-27.2-16.6-27.2-16.6
	S966.8,336.2,971.7,342z"/>
<path id="Tower-Shadow4" class="st2" d="M793.1,540.7c2.7,3.8,7.1,7.1,7.1,7.1s16.7-53.6,10.6-115.9c-3.9-39.6-16.3-90.5-20.1-95.8
	c-6.6-0.2-11.8,1.2-11.8,1.2S817.9,432.2,793.1,540.7z"/>
<linearGradient id="Tower-Shadow5_1_" gradientUnits="userSpaceOnUse" x1="761.7537" y1="-2444.595" x2="761.7537" y2="-2650.3999" gradientTransform="matrix(1 0 0 1 0 2990)">
	<stop  offset="0" style="stop-color:#BFBFBF"/>
	<stop  offset="1" style="stop-color:#DEDEDE"/>
</linearGradient>
<path id="Tower-Shadow5" class="st3" d="M722.1,544.2c11.7,2.1,55.1,1.3,71-1.2c7.8-42.5,19.4-119.2-15.4-203.4
	C770.6,393.2,752.9,533.7,722.1,544.2z"/>
<linearGradient id="Tower-Shadow3_1_" gradientUnits="userSpaceOnUse" x1="893.729" y1="-2485.5857" x2="876.7135" y2="-2706.7175" gradientTransform="matrix(1 0 0 1 0 2990)">
	<stop  offset="0" style="stop-color:#BBBBBD"/>
	<stop  offset="0.997" style="stop-color:#E0E0E0"/>
</linearGradient>
<path id="Tower-Shadow3" class="st4" d="M911.3,535.9l-110,10.6c0,0,27.4-100.9-10.6-210.5c23.1-1.5,162-10.6,162-10.6
	s24.4,21.5,27.2,55.6c-19.2,1.1-163.2,14.2-163.2,14.2l82.8,126.5l9.5,4.7L911.3,535.9z"/>
<linearGradient id="Tower-Shadow6_1_" gradientUnits="userSpaceOnUse" x1="909.8647" y1="-2495.2808" x2="798.7075" y2="-2521.4333" gradientTransform="matrix(1 0 0 1 0 2990)">
	<stop  offset="0" style="stop-color:#000004"/>
	<stop  offset="1" style="stop-color:#000000;stop-opacity:0"/>
</linearGradient>
<path id="Tower-Shadow6" class="st5" d="M909,526.5l-9.5-4.7l-82.8-126.5l-10.6-1.2c0,0,5.9,39.5,5.9,76.9s-7.4,68.1-10.6,75.7
	c21.2-1.7,111.2-11.8,111.2-11.8L909,526.5z"/>
<path id="Gun-Shadow12" class="st6" d="M864,430.7l171.5-15.4L1032,433l-150.2,11.8L864,430.7z"/>
<path id="Gun-Shadow5" class="st7" d="M817.9,397.6l44.9,34.3l42.6,33.1l2.4-3.5l88.7,66.2l29.6,20.1l81.6,63.9l53.2,144.3
	l-86.3-68.6l-24.8-62.7l-9.5-7.1l-13,7.1c0,0-21,2-35.5-24.8c-0.5-9.5-1.2-15.4-1.2-15.4l-9.5,4.7c0,0-19.6-4.6-26-15.4
	c-6.4-10.8-9.2-13.1-8.3-17.7c-5.2,0.7-22.5-4.1-27.2-9.5s-9-15-9.5-17.7c-5.8-3.1-11.8-8.3-11.8-8.3L817.9,397.6z"/>
<path id="Gun-Shadow4" class="st8" d="M1106.5,610.4l190.4-18.9l-60.3,159.6l-74.5,5.9L1106.5,610.4z M1199.9,610.4l-20.1,55.6
	l10.6,10.6l26-67.4L1199.9,610.4z M1237.7,606.9l-31.9,79.2l13,9.5l36.7-91.1L1237.7,606.9z"/>
<linearGradient id="SVGID_1_" gradientUnits="userSpaceOnUse" x1="1334.3694" y1="1304.0819" x2="1156.4203" y2="1232.1852" gradientTransform="matrix(1 0 0 -1 0 1920)">
	<stop  offset="0" style="stop-color:#B3B3B3"/>
	<stop  offset="1" style="stop-color:#808080"/>
</linearGradient>
<path class="st9" d="M1255.5,603.3l-37.8,4.7l-27.2,67.4l-11.8-9.5l22.5-55.6l-78,8.3l21.3,60.3l7.1-1.2l79.2,62.7L1285,601
	L1255.5,603.3z M1218.2,695.4c-2.9-1.7-12.3-9.1-12.3-9.1c2.3-5.8,26.2-70,29.7-68s10.2,5.5,12.1,6.5
	C1244.7,631.7,1219.4,693,1218.2,695.4z"/>
<linearGradient id="Gun-Shadow3_1_" gradientUnits="userSpaceOnUse" x1="1190.4329" y1="-2242.4258" x2="1182.9287" y2="-2312.1948" gradientTransform="matrix(1 0 0 1 0 2990)">
	<stop  offset="0" style="stop-color:#E6E6E6"/>
	<stop  offset="1" style="stop-color:#4D4D4D"/>
</linearGradient>
<path id="Gun-Shadow3" class="st10" d="M1168,747.6l60.3-7.1l-76.9-62.7h-7.1L1168,747.6z"/>
<linearGradient id="Gun-Shadow_1_" gradientUnits="userSpaceOnUse" x1="1202.8" y1="-2389.1001" x2="1202.8" y2="-2250.7" gradientTransform="matrix(1 0 0 1 0 2990)">
	<stop  offset="0" style="stop-color:#000004"/>
	<stop  offset="1" style="stop-color:#000000;stop-opacity:0"/>
</linearGradient>
<path id="Gun-Shadow" class="st11" d="M1230.6,739.3l-79.2-61.5l-8.3,3.5l-20.1-61.5l77.9-9.2l-24.7,56.5l14.2,9.5l26-66.2h-13.6
	l79.8-9.5L1230.6,739.3z M1218.8,694.4l28.8-69.6l-14.4-6.8l-27.5,68.1L1218.8,694.4z"/>
<path id="Gun-Shadow7" class="st12" d="M1095.8,634.1l26,68.6l-14.2-9.5l-21.3-65L1095.8,634.1z M1058,604.5l9.5,5.9l24.8,69.8
	l-13-10.6L1058,604.5z"/>
<path id="Gun-Shadow6" class="st13" d="M1094.6,551.3l78-7.1l11.8,8.3l-80.4,8.3L1094.6,551.3z M1115.9,569.1l82.8-5.9l11.8,8.3
	l-82.8,8.3L1115.9,569.1z"/>
<linearGradient id="Gun-Shadow11_1_" gradientUnits="userSpaceOnUse" x1="956.9631" y1="-2436.2041" x2="914.7353" y2="-2496.5127" gradientTransform="matrix(1 0 0 1 0 2990)">
	<stop  offset="0" style="stop-color:#3B3B3B"/>
	<stop  offset="1" style="stop-color:#E6E6E6"/>
</linearGradient>
<path id="Gun-Shadow11" class="st14" d="M909,511.1c7.6,5,27.9,23.3,31.9,44.9c3.9,0,7.1-1.2,7.1-1.2l1.2-13l7.1-10.6
	c0,0-3.1-18-30.7-35.5C917.7,501.4,917,501.1,909,511.1z"/>
<linearGradient id="Gun-Shadow10_1_" gradientUnits="userSpaceOnUse" x1="999.1216" y1="-2401.6868" x2="956.0659" y2="-2463.178" gradientTransform="matrix(1 0 0 1 0 2990)">
	<stop  offset="0" style="stop-color:#3B3B3B"/>
	<stop  offset="1" style="stop-color:#E6E6E6"/>
</linearGradient>
<path id="Gun-Shadow10" class="st15" d="M949.2,541.9c7.6,5,27.9,25.7,31.9,47.3c9.6-5.7,22.5-17.7,22.5-17.7s-14.7-35.2-41.4-43.8
	C957.7,531.5,953.2,536.7,949.2,541.9z"/>
<linearGradient id="Gun-Shadow9_1_" gradientUnits="userSpaceOnUse" x1="1047.2527" y1="-2365.5674" x2="1001.7114" y2="-2430.6062" gradientTransform="matrix(1 0 0 1 0 2990)">
	<stop  offset="0" style="stop-color:#3B3B3B"/>
	<stop  offset="1" style="stop-color:#E6E6E6"/>
</linearGradient>
<path id="Gun-Shadow9" class="st16" d="M995.3,579.7c7.6,5,27.9,24.5,31.9,46.1c4-2.4,7.8-8.2,11.8-8.3c4.7,1.9,10.6,5.9,10.6,5.9
	s-9-31-14.2-45.9c-5.7-7.2-13.1-13.7-22.5-16.8C1008.6,564.6,999.3,574.5,995.3,579.7z"/>
<path id="Gun-Shadow8" class="st17" d="M1021.3,462.6v11.8l53.2,41.4l78,3.5l4.7-13l-81.6-5.9L1021.3,462.6z M1041.4,502.8v13
	l-29.6,20.1l-17.7-10.6L1041.4,502.8z"/>
<path id="Tower-Shadow" class="st2" d="M702,267.5c7.7,3,46.4,8.5,68.6-1.2c0.8,4.3,1.2,9.5,1.2,9.5s-33.1,12.9-71,1.2
	C700.9,273.4,701.8,269.9,702,267.5z"/>
<linearGradient id="TurretL-Shadow_1_" gradientUnits="userSpaceOnUse" x1="659.6" y1="-2059.8" x2="412.5803" y2="-2059.8" gradientTransform="matrix(1 0 0 1 0 2990)">
	<stop  offset="0" style="stop-color:#CCCCCC"/>
	<stop  offset="0.497" style="stop-color:#D9D9D9"/>
	<stop  offset="1" style="stop-color:#CCCCCC"/>
</linearGradient>
<path id="TurretL-Shadow" class="st18" d="M417.1,877.7c13,10.6,46.4,28.1,118.3,3.5s109.4-57.5,118.3-82.8c1.4,33.2,2.4,78,2.4,78
	l-7.1,11.8l10.6,1.2c0,0-13.2,42-86.3,67.4C557.6,976.9,462.7,1062,433.8,1062c-16.3,0-17.7-21.6-17.7-27.2s0-85.1,0-85.1l5.9-13
	l-3.5-3.5l-1.2-7.1c0,0-4.7-5.4-4.7-22.5C412.3,886.7,415.5,882.7,417.1,877.7z"/>
<linearGradient id="TurretL-2Shadow_1_" gradientUnits="userSpaceOnUse" x1="404" y1="-2398.5647" x2="221.9" y2="-2398.5647" gradientTransform="matrix(1 0 0 1 0 2990)">
	<stop  offset="0" style="stop-color:#999999"/>
	<stop  offset="0.497" style="stop-color:#D9D9D9"/>
	<stop  offset="1" style="stop-color:#CCCCCC"/>
</linearGradient>
<path id="TurretL-2Shadow" class="st19" d="M221.9,531.2c14.3,4.5,51.7,4.5,108.8-18.9c34.9-17.5,40.8-19.3,46.1-23.7
	c6.9,8,18.3,22.7,27.2,36.7c-0.5,7.3,0,16.6,0,23.7c-7.3,9.7-30.5,29-60.3,36.7c-8.6,8-18.9,21.3-18.9,21.3l-1.2,10.6
	c0,0-81.2,91.8-94.6,74.5c-1.5-34.6-2.4-81.6-2.4-81.6s-0.4-9.7,5.9-14.2c-2.6-1.7-7.1-4.7-7.1-4.7S223.1,545.9,221.9,531.2z"/>
<path id="TurretL-2Shadow6" class="st20" d="M145.1,433.1l33.1,10.6h7.1l65,22.5l-2.4,10.6L184,454.3h-5.9l-35.5-9.5L145.1,433.1z"
	/>
<linearGradient id="TurretR2-2Shadow_1_" gradientUnits="userSpaceOnUse" x1="1473.373" y1="-2190.8501" x2="1247.2" y2="-2190.8501" gradientTransform="matrix(1 0 0 1 0 2990)">
	<stop  offset="0" style="stop-color:#CCCCCC"/>
	<stop  offset="0.497" style="stop-color:#D9D9D9"/>
	<stop  offset="1" style="stop-color:#CCCCCC"/>
</linearGradient>
<path id="TurretR2-2Shadow" class="st21" d="M1256.6,701.5c18.2,13.6,151.7,83.1,212.9,62.7c0.1,5.1,0,9.5,0,9.5s5.3,3.2,3.5,23.7
	s-8.2,20.5-10.6,23.7c4.4,2,5,10.4,4.7,15.4s1.2,60.3,1.2,60.3l-78-57.9c0,0-98.3-5.1-115.9-20.1c-16.3-10.2-27.2-12.4-27.2-36.7
	c0.6-2.1,8.3-5.9,8.3-5.9l-8.3-9.5l2.4-48.5C1249.5,718.1,1252.9,704,1256.6,701.5z"/>
<path id="TurretR2-2Shadow4" class="st20" d="M1441.1,680.2l85.1-35.5l8.3-2.4l39-16.6l2.4,13l-39,16.6l-7.1-1.2l-85.1,36.7
	L1441.1,680.2z"/>
<path id="TurretL-Shadow3" class="st22" d="M423,938c12.2,10.3,56.5,42.8,144.3,5.9c43.8-12.7,77.6-51.1,81.6-54.4
	c5.6,0,9.5,0,9.5,0s-0.8,33.7-81.6,66.2c-80.8,32.4-153.7,10.6-160.8-7.1C419.3,941,419.4,940.6,423,938z M1255.5,774.8
	c9.7,9.3,47.1,43.2,113.5,52c66.5,8.9,87.4-2.6,94.6-5.9c3.2,4,6.9,13.4,1.2,17.7c-5.7,4.4-32.9,9.7-60.3,9.5
	c-10.6-7.3-16.6-11.8-16.6-11.8s-65.6,3.5-97-10.6c-31.3-14.2-42.5-21.6-43.8-37.8C1246.7,778.5,1251.9,777.7,1255.5,774.8z"/>
<path id="TurretL-2Shadow2" class="st12" d="M232.6,596.3c14.4,5.2,54,13,101.7,0c-6.1,6.1-9.5,10.6-9.5,10.6l-1.2,9.5
	c0,0-75.7,16.7-97-3.5C227.4,603.8,227.6,598.6,232.6,596.3z"/>
<linearGradient id="Body-Shadow3_1_" gradientUnits="userSpaceOnUse" x1="995.4188" y1="-2084.0603" x2="960.5178" y2="-2332.3904" gradientTransform="matrix(1 0 0 1 0 2990)">
	<stop  offset="0" style="stop-color:#F2F2F2"/>
	<stop  offset="0.996" style="stop-color:#000004"/>
</linearGradient>
<path id="Body-Shadow3" class="st23" d="M579.1,955.7c3.3,8.3,7.1,11.8,7.1,11.8l825.4-112.3l-21.3-17.7c0,0-80.2,0.2-115.9-18.9
	c-35.7-19.2-28.1-33.9-26-36.7c1.3-1.7,4.2-3.6,6.2-4.8c0.2-0.1,0.5-0.3,0.7-0.4c0.7-0.4,0.8-1.3,0.3-1.9l-1.5-1.5l-8-8l4.7-46.1
	l-14.2,33.1L1168,757l-2.4,5.9l-368.9,43.8L653.6,789l1.2,91.1l-7.1,9.5c0,0,8.8-0.8,10.6,1.2C657.5,896.4,661,914.2,579.1,955.7z"
	/>
<linearGradient id="Body-Shadow7_1_" gradientUnits="userSpaceOnUse" x1="392.3038" y1="-2276.2856" x2="631.1736" y2="-2449.834" gradientTransform="matrix(1 0 0 1 0 2990)">
	<stop  offset="0" style="stop-color:#F2F2F2"/>
	<stop  offset="1" style="stop-color:#000004"/>
</linearGradient>
<path id="Body-Shadow7" class="st24" d="M463.2,758.3c11.6-18.2,65.9-48,117.1-2.4c-21.3-28.7-33.1-43.8-33.1-43.8L451.3,724
	l-15.4-5.9c0,0-11.1-16.9-3.5-36.7c6.5-8.3,9.5-11.8,9.5-11.8l-24.8,2.4l-15.4-5.9c0,0-8.8-3.7-5.9-33.1c4.7-5.9,7.1-10.6,7.1-10.6
	l-18.9,3.5l-13-7.1c0,0-10.3-2.4-7.1-31.9c8.6-6.7,16.6-11.8,16.6-11.8l59.1-3.5l-34.3-46.1V549c0,0-22.3,23.7-63.9,37.8
	c11.9,19.2,111.2,170.3,111.2,170.3S459.6,758.9,463.2,758.3z"/>
<path id="Body-Shadow8" class="st12" d="M379.2,576.2l61.5-4.7l-37.8-47.3l1.2,23.7l-27.2,24.8L379.2,576.2z"/>
<linearGradient id="Cylinder-Shadow2_1_" gradientUnits="userSpaceOnUse" x1="494.4332" y1="-2255.7019" x2="486.9599" y2="-2317.1931" gradientTransform="matrix(1 0 0 1 0 2990)">
	<stop  offset="0" style="stop-color:#4C4C4C"/>
	<stop  offset="1" style="stop-color:#F1F1F1"/>
</linearGradient>
<path id="Cylinder-Shadow2" class="st25" d="M547.1,712.1L452.5,724l-15.4-5.9c0,0,8.8-21.2-4.7-39c7.1-7.1,11.8-8.3,11.8-8.3
	l65-8.3L547.1,712.1z"/>
<linearGradient id="Cylinder-Shadow3_1_" gradientUnits="userSpaceOnUse" x1="457.1522" y1="-2305.6099" x2="449.8217" y2="-2365.9185" gradientTransform="matrix(1 0 0 1 0 2990)">
	<stop  offset="0" style="stop-color:#4C4C4C"/>
	<stop  offset="1" style="stop-color:#F1F1F1"/>
</linearGradient>
<path id="Cylinder-Shadow3" class="st26" d="M508.1,662.5L417,674.3l-15.4-5.9c0,0,8.8-21.2-4.7-39c7.1-7.1,11.8-10.6,11.8-10.6
	l62.7-4.7L508.1,662.5z"/>
<linearGradient id="Cylinder-Shadow4_1_" gradientUnits="userSpaceOnUse" x1="424.5857" y1="-2354.8938" x2="417.9743" y2="-2409.2898" gradientTransform="matrix(1 0 0 1 0 2990)">
	<stop  offset="0" style="stop-color:#4C4C4C"/>
	<stop  offset="1" style="stop-color:#F1F1F1"/>
</linearGradient>
<path id="Cylinder-Shadow4" class="st27" d="M473.8,614c0,0-37.6,1.2-63.9,4.7c-3.1,0.4-5.4,4.5-8.2,4.8c-9.8,1.3-16.7,2.2-16.7,2.2
	l-14.2-7.1c0,0,9.9-16.4-3.5-34.3c7.1-7.1,11.8-8.3,11.8-8.3l57.9-4.7L473.8,614z"/>
<linearGradient id="Cylinder-Shadow_1_" gradientUnits="userSpaceOnUse" x1="359.7953" y1="-2269.3367" x2="527.7137" y2="-2391.3364" gradientTransform="matrix(1 0 0 1 0 2990)">
	<stop  offset="0.5" style="stop-color:#000000;stop-opacity:0"/>
	<stop  offset="1" style="stop-color:#000004"/>
</linearGradient>
<path id="Cylinder-Shadow" class="st28" d="M548.3,713.3L439.5,571.4c0,0-47.9,3.2-59.1,4.7c4.5,9.5,7.3,32,3.5,50.8
	c7.2-1.4,20.1-4.7,20.1-4.7l4.7-2.4c0,0,10.6,14.7,7.1,52c8.8,0.4,28.4-2.4,28.4-2.4s18.8,17.6,7.1,54.4
	C470.7,722.8,548.3,713.3,548.3,713.3z"/>
<linearGradient id="Body-Shadow6_1_" gradientUnits="userSpaceOnUse" x1="313" y1="-2059.05" x2="165.2" y2="-2059.05" gradientTransform="matrix(1 0 0 1 0 2990)">
	<stop  offset="0" style="stop-color:#666666"/>
	<stop  offset="1" style="stop-color:#D6D6D6"/>
</linearGradient>
<path id="Body-Shadow6" class="st29" d="M230.2,832.8c15.6,9.8,71.4,46.1,82.8,112.3c-17.6,35.4-30.7,65.3-37.8,84
	c-14.1-1.2-110-15.4-110-15.4S184.5,903.8,230.2,832.8z"/>
<path id="Body-Shadow5" class="st2" d="M439.5,331.4c0.6,12.9,2.6,22.6,65,93.4S629.6,559,637,565.5c10.5,1.7,139.5,26,139.5,26
	l178.6-15.4c0,0,16.7,12.3,24.8,13c7-2.5,11.8-8.3,11.8-8.3v18.9l16.6,20.1c0,0,19.2,5.8,18.9,4.7c-0.2-1.1,11.8-7.1,11.8-7.1
	l11.8,9.5l22.5,59.1l87.5,69.8l3.5,7.1l-367.8,43.8L653.6,789c0,0-4-22.3-47.3-27.2c-8.3-0.7-21.3-1.2-21.3-1.2l-11.8-14.2
	L376.8,488.6C376.8,488.6,420.4,377.4,439.5,331.4z M432.4,680.2c5.6,0.4,12.9,36.1,3.5,37.8C426.6,719.8,428.2,680,432.4,680.2z
	 M398.1,632.9c5.2,0.2,11.5,29.4,2.4,29.6S393.6,632.7,398.1,632.9z M366.2,586.8c5.6,0.4,9.8,30,2.4,29.6S360.6,586.4,366.2,586.8z
	 M853.4,562v9.5l-80.4,5.9l-9.5-8.3l1.2-10.6l10.6,8.3L853.4,562z"/>
<radialGradient id="Dome-Shadow_1_" cx="757.339" cy="-2956.1721" r="500.2075" gradientTransform="matrix(1 0 0 1 0 2990)" gradientUnits="userSpaceOnUse">
	<stop  offset="0.497" style="stop-color:#F2F2F2"/>
	<stop  offset="0.895" style="stop-color:#D9D9D9"/>
</radialGradient>
<path id="Dome-Shadow" class="st30" d="M615.7,401.1c-23.1-0.7-112.6-11.7-131.3-30.7c4.3-5.3,20.1-23.7,20.1-23.7
	s48.2-49.7,128.9-56.8C630.9,307,618.7,373.2,615.7,401.1z"/>
<path id="Body-Shadow13" class="st12" d="M1060.3,654.2l-276.7,33.1l-163.2-24.8l-75.7-85.1L553,614l63.9,71L786,709.8l282.6-31.9
	 M1097,707.4l-307.5,36.7l-176.2-24.8L536.5,627l9.5,36.7l62.7,76.9L792,767.8l328.7-40.2"/>
<linearGradient id="Body-Shadow4_1_" gradientUnits="userSpaceOnUse" x1="1592.5924" y1="-1616.7003" x2="1204.7247" y2="-1664.3251" gradientTransform="matrix(1 0 0 1 0 2990)">
	<stop  offset="0" style="stop-color:#D9D9D9"/>
	<stop  offset="1" style="stop-color:#333333"/>
</linearGradient>
<path id="Body-Shadow4" class="st31" d="M1455.3,1232.5l137.2,145.5l-17.7,172.6l-143.1-149c0,0-198.8-210.3-227-250.7
	c42.3-4.4,160.4,14.9,229.4,44.9C1444.2,1210.9,1455.3,1232.5,1455.3,1232.5z"/>
<path id="Body-Shadow" class="st2" d="M438.3,1354.3c32.3,0.4,280.6,12.8,338.2,16.6c-0.1-29.1,0.4-116.5,2.5-205.3
	c2.6-105.6,7.2-213,9.3-226.3c-35.9,5.2-202.2,27.2-202.2,27.2S467.5,1273.6,438.3,1354.3z M379.2,645.9
	c7.2,11.5,67.9,103.8,74.5,112.3c-12.9-2.1-28.7-4.7-31.9-4.7c-3.2,0-17.5,1.7-11.8,20.1c-15.6-3.4-52-10.6-52-10.6l-7.1-5.9
	l-44.9-4.7l-5.9,21.3l11.8,10.6l46.1,10.6l11.8-3.5l46.1,9.5c0,0-53.5,51.4-101.7,141.9c-11.4-31.8-21.3-70.7-84-108.8
	C265.8,784.9,301.8,724,379.2,645.9z M780.1,1536.4c16.7,22.8,63.9,84.2,74.5,99.3c-29.8-59.6-53.1-105.8-61.5-153.7
	c-8.4-47.9-15.5-59.6-14.2-191.6c9.8-17.9,27.2-52,92.2-76.9c62.1-28.9,158.8-46.1,332.3-62.7c103,0,192.4,24.8,233,47.3
	c7.4,13.2,21.3,35.5,21.3,35.5l251.9-106.4c0,0-100.8-123.8-296.8-272c-52.7,5.7-624.4,85.1-624.4,85.1l-13,430.4
	C775.4,1370.8,778.2,1492.4,780.1,1536.4z M439.5,1356.6l167.9,223.5c0,0,123.6-44.3,171.5-43.8c17.9,22.2,69.7,92.5,76.9,102.9
	s27.8,50.8,22.5,57.9s-50.4,19.5-125.3,31.9s-54.2,18.9-151.4,16.6c-45.9-28.7-226.7-151.8-240.1-169.1
	c-8.8-27.1-133.6-385.5-133.6-385.5s36.5-143.4,47.3-159.6C288.9,1058.3,439.5,1356.6,439.5,1356.6z M1713.1,1131.9
	c19.9,27.4,81.5,287,91.1,346.5c-17.3-27.8-63.3-117.8-74.5-125.3C1728.8,1332.1,1708.6,1128.3,1713.1,1131.9z M159.3,733.4
	c-0.5,14.7,0.9,53.7,47.3,143.1c-20.2,55.1-32.8,92.6-40.2,136c-8.3-17.3-34.9-97-36.7-108.8c-1.8-11.8-3-44.7,5.9-78
	C144.5,792.3,152.9,724.9,159.3,733.4z M443.1,1206.4l15.4,24.8l-22.5,61.5l-16.6-26L443.1,1206.4z M1592.5,1375.5
	c22.1-3,127.1-20.9,134.8-22.5c8.5,8.8,52.4,76.4,75.7,126.5c-4.7,16.7-7.6,23.5-113.5,50.8c-106,27.3-107.7,21.6-113.5,18.9
	C1578.8,1520.5,1588.3,1389.6,1592.5,1375.5z"/>
<linearGradient id="Body-Shadow10_1_" gradientUnits="userSpaceOnUse" x1="406.6968" y1="-2486.5281" x2="370.2586" y2="-2622.5183" gradientTransform="matrix(1 0 0 1 0 2990)">
	<stop  offset="0" style="stop-color:#4D4D4D"/>
	<stop  offset="1" style="stop-color:#D9D9D9"/>
</linearGradient>
<path id="Body-Shadow10" class="st32" d="M297.6,368c1.5,0.4,112.3-28.4,112.3-28.4l-2.4-5.9l22.5-9.5l5.9,14.2l-46.1,121.8
	l-15.4-7.1l-20.1-1.2c0,0-10.6-18-40.2-24.8C307.3,404.7,296.1,367.7,297.6,368z"/>
<linearGradient id="Hangar-Shadow_1_" gradientUnits="userSpaceOnUse" x1="1068.562" y1="-1837.4646" x2="1038.0341" y2="-2030.2159" gradientTransform="matrix(1 0 0 1 0 2990)">
	<stop  offset="0" style="stop-color:#EDEDED"/>
	<stop  offset="1" style="stop-color:#656566"/>
</linearGradient>
<path id="Hangar-Shadow" class="st33" d="M894.8,1150.9l338.2-55.6l-198.7-137.2l-114.7,16.6L894.8,1150.9z"/>
<linearGradient id="Hangar-Shadow2_1_" gradientUnits="userSpaceOnUse" x1="1145.37" y1="-1893.3563" x2="1120.8348" y2="-2048.2668" gradientTransform="matrix(1 0 0 1 0 2990)">
	<stop  offset="0" style="stop-color:#BFBFBF"/>
	<stop  offset="1" style="stop-color:#434343"/>
</linearGradient>
<path id="Hangar-Shadow2" class="st34" d="M1140.8,941.6l94.6,154.9L1033.2,957L1140.8,941.6z"/>
<path id="Body-Shadow2" class="st35" d="M438.3,1354.3l337,17.7l3.5,164.4c0,0-86.1,9.3-171.5,43.8
	C560.4,1519.6,438.3,1354.3,438.3,1354.3z M1592.5,1376.7l137.2-23.7l-20.1-224.7l-254.2,104.1L1592.5,1376.7z M1261.4,684.9
	c11.9-4.7,27.2-8.3,27.2-8.3h18.9l-2.4,10.6c0,0,17.5,18.4,65,33.1c47.5,14.7,64.8,14.1,68.6,13c3.7-3.4,5.9-4.5,5.9-7.1
	c4.8,4.5,24.5,34.3,24.8,39c-6,2.1-45.6,8.4-121.8-20.1s-89.3-40.8-92.2-43.8C1258.5,692.4,1260.7,690.4,1261.4,684.9z M443.1,825.7
	c2,8.5,5.4,29.3,34.3,26s57.9-10.1,95.8-35.5c40.1-23.5,13.6-50.5,9.5-56.8c20,2.4,64.8,3,69.8,29.6c-4.5,22.8-12.7,41.2-65,71
	s-128.9,47.8-170.3,17.7C417.1,856.9,424.9,839.3,443.1,825.7z M245.6,493.4c-5.7,3.8-23.9,30.4-23.7,35.5
	c8.4,5.8,33.7,8.8,76.9-4.7c26.5-8.3,56.4-23.3,77.2-36.7c5.2-9.9,9.7-18.9,11.8-28.1c-7.4-3.5-13.4-6.1-13.4-6.1h-17.7
	c0,0-4.1,19.6-47.3,36.7C266.3,506.9,244.8,507.8,245.6,493.4z"/>
<path id="Body-Shadow11" class="st35" d="M323.6,316l67.4-18.9l-1.2-8.3l13-3.5l7.1,8.3l37.8-8.3L495,316c0,0-57.6,5-57.9,20.1
	c-2.1,1.2-3.5-1.2-3.5-1.2l-2.4-9.5l-23.7,7.1l2.4,5.9c0,0-110.8,27-111.2,28.4S323.6,316,323.6,316z"/>
<linearGradient id="TurretL-Shadow2_1_" gradientUnits="userSpaceOnUse" x1="518.4961" y1="-2139.2427" x2="518.4961" y2="-2259.0933" gradientTransform="matrix(1 0 0 1 0 2990)">
	<stop  offset="0" style="stop-color:#DADADA"/>
	<stop  offset="1" style="stop-color:#F2F2F2"/>
</linearGradient>
<path id="TurretL-Shadow2" class="st36" d="M462,850.5c18.9,1.5,65.6-3,102.9-28.4c37.2-25.4,29.6-33.9,29.6-37.8
	c0-3.9-5.4-29.9-41.4-46.1c-35.9-16.2-65.5-1.2-72.1,4.7s-17.7,16.6-17.7,16.6s14.9-1.1,13,7.1c-1.9,8.2-8.9,15.6-14.2,17.7
	c5.7,5.1,10.6,10.6,10.6,10.6l-11.8,14.2l-18.9-3.5C441.9,805.6,439.2,846,462,850.5z"/>
<path id="TurretL-Shadow7" class="st37" d="M304.7,752.3l18.9,16.6L313,784.3l-11.8-10.6L304.7,752.3z"/>
<path id="TurretL-Shadow6" class="st20" d="M323.6,768.9l40.2,8.3h11.8l97,17.7L462,809.1l-93.4-17.7l-10.6,2.4l-46.1-9.5
	L323.6,768.9z"/>
<path id="TurretL-Shadow5" class="st38" d="M419.4,752.3c4.3,3.4,5.9,28-5.9,23.7c-7.8-3.5-5.9-11.6-4.7-15.4
	C410,756.8,413.3,751.9,419.4,752.3z"/>
<linearGradient id="TurretL-Shadow4_1_" gradientUnits="userSpaceOnUse" x1="445.187" y1="-2205.6772" x2="448.9616" y2="-2236.4229" gradientTransform="matrix(1 0 0 1 0 2990)">
	<stop  offset="0" style="stop-color:#000004"/>
	<stop  offset="1" style="stop-color:#000000;stop-opacity:0"/>
</linearGradient>
<path id="TurretL-Shadow4" class="st39" d="M420.6,753.5c0,0,51.7,4.4,55.6,9.5c1.3,6.7-6.4,18.4-14.2,21.3
	c-10.3-1.3-44.9-5.9-44.9-5.9s4.8,0,5.9-11.8C424,754.7,420.6,753.5,420.6,753.5z"/>
<linearGradient id="TurretL-2Shadow4_1_" gradientUnits="userSpaceOnUse" x1="224.4341" y1="-2536.1357" x2="237.4632" y2="-2573.9763" gradientTransform="matrix(1 0 0 1 0 2990)">
	<stop  offset="0" style="stop-color:#000004"/>
	<stop  offset="0.5" style="stop-color:#000000;stop-opacity:0"/>
</linearGradient>
<path id="TurretL-2Shadow4" class="st40" d="M197.1,422.4l69.8,21.3c0,0-9.8,7.4-13,16.6c-7.9-2.6-59.6-20.3-60.3-20.1
	c-0.4,0.1-1.1-4.7,0-9.5C194.5,426.4,197.1,422.4,197.1,422.4z"/>
<linearGradient id="TurretR2-2Shadow3_1_" gradientUnits="userSpaceOnUse" x1="1455.4148" y1="-2324.2847" x2="1440.3342" y2="-2364.4905" gradientTransform="matrix(1 0 0 1 0 2990)">
	<stop  offset="0" style="stop-color:#000004"/>
	<stop  offset="0.5" style="stop-color:#000000;stop-opacity:0"/>
</linearGradient>
<path id="TurretR2-2Shadow3" class="st41" d="M1435.2,670.8l41.4-16.6c0,0,4.5-11.1-7.1-23.7c-15,6-49.7,20.1-49.7,20.1
	L1435.2,670.8z"/>
<linearGradient id="TurretL-Shadow8_1_" gradientUnits="userSpaceOnUse" x1="439.5853" y1="-2189.9546" x2="480.9736" y2="-2166.0596" gradientTransform="matrix(1 0 0 1 0 2990)">
	<stop  offset="0" style="stop-color:#000000"/>
	<stop  offset="1" style="stop-color:#FFFFFF;stop-opacity:0"/>
</linearGradient>
<path id="TurretL-Shadow8" class="st42" d="M440.7,805.6l20.1,2.4l11.8-13l9.5,42.6c0,0-32.9-1.2-39-14.2
	C441.1,808.5,440.7,805.6,440.7,805.6z"/>
<linearGradient id="TurretR2-2Shadow2_1_" gradientUnits="userSpaceOnUse" x1="1374.7716" y1="-2256.1416" x2="1374.7716" y2="-2355.0378" gradientTransform="matrix(1 0 0 1 0 2990)">
	<stop  offset="0" style="stop-color:#DADADA"/>
	<stop  offset="1" style="stop-color:#F2F2F2"/>
</linearGradient>
<path id="TurretR2-2Shadow2" class="st43" d="M1305.1,686.1c5.3-13.6,27.1-55.3,72.1-50.8c45.1,4.5,73.4,41.5,66.2,89.9
	c-4,7.8-3,12.4-37.8,4.7C1370.8,722.2,1302.5,696.4,1305.1,686.1z"/>
<linearGradient id="TurretL-2Shadow3_1_" gradientUnits="userSpaceOnUse" x1="301.9308" y1="-2487.1953" x2="301.9308" y2="-2564" gradientTransform="matrix(1 0 0 1 0 2990)">
	<stop  offset="0" style="stop-color:#DADADA"/>
	<stop  offset="1" style="stop-color:#F2F2F2"/>
</linearGradient>
<path id="TurretL-2Shadow3" class="st44" d="M249.1,502.8c12.1,0.2,76.3-5.8,107.6-49.7C336.4,433.4,315.1,426,300,426
	S237,449.3,249.1,502.8z"/>
<linearGradient id="Kil-Shadow_1_" gradientUnits="userSpaceOnUse" x1="940.754" y1="-1677.1188" x2="940.754" y2="-1811.9" gradientTransform="matrix(1 0 0 1 0 2990)">
	<stop  offset="0" style="stop-color:#808080"/>
	<stop  offset="1" style="stop-color:#4D4D4D"/>
</linearGradient>
<path id="Kil-Shadow" class="st45" d="M958.6,1310.5c4.8-13,27.2-132.4,27.2-132.4s-49.3,10.4-89.9,26c0,15.4-1.2,30.2,2.4,50.8
	C910.5,1280.2,932,1323.5,958.6,1310.5z"/>
<path id="Paint" class="st46" d="M500.1,316.1c-28,1.9-57,6.1-60.5,14.1c-6.1,13.8,48,75.8,56.8,84s127.4,144.1,141.9,150.2
	c18.4,5.7,138.4,27.2,138.4,27.2s-27.6-27.7-46.1-46.1c-31.5-1.9-67.2-10.3-99.3-35.5c-18.1-20-19-24.1-18.9-44.9
	c0-10.3,0.6-23.9,1.4-35.9c-8.4-7.8-18.1-18.6-28.7-29.8c-60.8-7.1-72.1-13.7-100.3-25.3c4.7-12.7,22.3-28.3,34.2-38.8
	C511.8,329,508.1,325.2,500.1,316.1z"/>
<path id="Dop-Color" class="st47" d="M484.5,740.5c4.8,9.8,59.1,20.5,67.4-2.4c-10.3-5.8-27.8-7.1-33.1-7.1S490,735.3,484.5,740.5z
	 M1345.3,641.2c2.4,4.4,16.4,10.6,35.5,10.6s23.3-5.9,24.8-8.3C1396.9,638,1372.1,627.8,1345.3,641.2z M275.1,436.6
	c7.7,2.6,41.5,7.2,52-4.7C319.4,428,291.6,419.8,275.1,436.6z M658.3,264l27.2-17.7L666.6,225l15.4-1.2l22.5,26l-36.7,22.5
	L658.3,264 M773,219l52,17.7l50.8,5.9l22.5,11.8l-76.9-5.9l-69.8-28.4L773,219z M588.5,301.8c11.5,3.1,36.5,9.6,40.2,10.6
	c0.8-4.7,3.5-10.6,3.5-10.6l-28.4-5.9C603.9,295.9,592.7,298.6,588.5,301.8z"/>
<path id="Paint-Dark" class="st48" d="M418.2,1049.2c14.7,25.7,58.4,96.7,85.7,133.4c-28.3,74.9-55.5,146.6-65.6,172.9
	c-17.3-35-163.2-324-163.2-324c-0.7-5.2,22.6-64.2,61.8-127.7C348.1,926.1,403.6,1023.5,418.2,1049.2z M270.1,776
	c-22,30.6-44.1,64.6-62.3,99.3c-17.1-20.8-38-78.2-40.2-92.2c-2.2-14.1-16.1-46.2-5.9-59.1c10.2-12.9,25-28.1,66.2-31.9
	C231.3,699,250.3,740,270.1,776z M420.6,1265.6l14.2,28.4l22.5-65l-13-23.7L420.6,1265.6z"/>
<g id="Line">
	<path id="Line-All" class="st49" d="M1577.1,1551.7c17,4.6,75.2-11.7,119.4-22.5c44.2-10.8,99.7-25.2,106.4-44.9
		c3.9-11.1-27.6-125-35.5-167.9s-36.2-139.9-48.5-170.3s-55.2-70.7-97-112.3S1474.6,903.6,1467,896.6c-0.2-18.7,0-61.5,0-61.5
		s-0.5-12.1-4.7-13c4.6-6.1,7.8-8.6,9.5-26s-0.1-21.2-3.5-21.3c0.4-7.2,0-13,0-13l-17.7-28.4l-7.1-8.3c0,0,3.4-24.6,0-34.3
		c19.5-8.5,87.5-36.7,87.5-36.7l3.5,1.2l40.2-16.6l-1.2-13l-17.7-14.2l-37.8,14.2l-3.5,4.7l-37.8,14.2c0,0-1.5-10.3-7.1-11.8
		c-9.1,2.8-50.8,18.9-50.8,18.9s-18.9-16.6-46.1-16.6s-54.5,18.7-63.9,41.4c-13.2-0.8-17.9-0.4-23.7,1.2c-5.8,1.5-23.7,7.1-23.7,7.1
		l31.9-81.6c0,0,8.6-12.8-4.7-20.1c-13.4-7.3-75.7-50.8-75.7-50.8s-14.3-5.9-26-4.7s-22.5,2.4-22.5,2.4l-13-9.5l5.9-13l-88.7-67.4
		l-13,5.9l-24.8-14.2l3.5-16.6l-11.8-8.3l43.8-24.8h4.7l24.8-14.2v-11.8l-20.1-9.5l-18.9,11.8c0,0-5.2-5.4-8.3-4.7
		c-5.4,3.1-50.8,27.4-50.8,27.4S979,350.6,974,345.6s-41.4-52.4-48.5-61.5s-24.4-32.6-49.7-42.6s-66.6-22.1-85.1-22.5
		c-18.6-0.4-99.8,4.1-120.6,5.9c-20.8,1.8-25.4,25.1-27.2,30.7c-1.8,5.7-6.9,24.6-9.5,34.3c-17.6,1.7-48.6,7.1-84,24.8
		c-26,1.4-38.3,2-54.4,2.4c-11.2-6.7-49.7-31.9-49.7-31.9l-36.7,8.3l-5.9-8.3l-14.2,3.5l2.4,9.5l-15.4,3.5l-2.4-7.1l-11.8,3.5
		l1.2,8.3l-39,9.5l-27.2,53.2l16.6,59.1c0,0-27.7-5.9-47.3,14.2c-25.2-5.9-69.8-18.9-69.8-18.9l-5.9,13l-2.4-1.2l-3.5-4.7L148.5,420
		l-7.1,24.8l34.3,10.6l7.1-1.2l63.9,21.3c0,0-1.9,11-1.2,17.7c-4,3.8-7.8,8.2-9.5,10.6c-1.7,2.5-14.2,23.7-14.2,23.7l3.5,63.9
		c0,0,1.9,3.2,5.9,4.7c-4.7,5.6-6.3,13-5.9,21.3c0.4,8.3,2.4,74.5,2.4,74.5s-29.8,3.5-43.8,11.8S157.2,720,150.8,751
		s-17.5,80.5-20.1,94.6s-6.3,45.4,0,65s27.7,86.8,33.1,102.9c10.2,2.7,110,16.6,110,16.6s-39.4,124-46.1,162
		c18.4,59.5,133.6,385.5,133.6,385.5s11.8,16.8,231.8,165.6c18.6,12.7,86.2,1.9,101.7-1.2s136.2-27.9,159.6-33.1s30.4-11,15.4-42.6
		s-56.8-100-73.3-165.6c-16.6-65.5-21.6-124.5-18.9-208.1c17.5-28.1,23.9-53.8,117.1-87.5c0.5,17.7,3.5,49.7,3.5,49.7
		s20.7,59.1,54.4,59.1c5.7,0,7.9-7.6,9.5-17.7c1.5-10.2,23.7-117.1,23.7-117.1s106.2-20.1,215.2-28.4
		C1287,1245.9,1560.1,1547.1,1577.1,1551.7z"/>
	<path id="Line-BodyBack2" class="st49" d="M353.2,353.8v-44.9"/>
	<path id="Line-BodyBack" class="st49" d="M360.3,306.5l22.5-7.1"/>
	<path id="Line-BodyBack6" class="st49" d="M296.4,369.2L410,339.6l-2.4-5.9"/>
	<path id="Line-BodyBack5" class="st49" d="M430.1,324.3l4.7,15.4"/>
	<path id="Line-BodyBack4" class="st49" d="M408.8,339.6l11.8,37.8"/>
	<path id="Line-BodyBack3" class="st49" d="M389.9,290l16.6,42.6l23.7-7.1l-26-39"/>
	<path id="Line-Body33" class="st49" d="M438.3,332.6c0.4,14,6.3,33.5,196.3,230.6c28.7,8.2,141.9,28.4,141.9,28.4L956.3,575"/>
	<path id="Lime-Circle4" class="st49" d="M581.4,300.6l47.3,13"/>
	<path id="Lime-Circle3" class="st49" d="M517.8,335.5c22.9,9,70,19.9,103.2,21.6"/>
	<path id="Lime-Circle2" class="st49" d="M493.9,362.1c14.4,10.2,83.4,27.2,123,27.2"/>
	<path id="Lime-Circle" class="st49" d="M549.5,314.8c-16.8,8.5-35.7,20.6-44.9,31.9c-5.7,5.2-11.8,13-11.8,13l-8.3,11.8
		c0,0,27.9,23.4,130.1,29.6"/>
	<path id="Line-Gun24" class="st49" d="M634.6,287.6c-3.9,16.9-30.5,147.9-21.3,192.8c1.7,27.2,36.3,43,60.3,53.2s53.8,13.4,75.7,13
		s40.9-3,44.9-3.5c2,2.4,5.9,4.7,5.9,4.7L911.3,536c0,0,9.2,12.7,13,14.2s16.6,7.1,16.6,7.1l4.7-2.4l1.2,7.1c0,0,7.9,15.8,15.4,20.1
		c8.2,3.8,17.7,8.3,17.7,8.3l10.6-5.9l1.2,14.2c0,0,11.9,19.5,18.9,22.5c8.8,3.1,16.6,4.7,16.6,4.7l11.8-8.3l10.6,7.1l23.7,62.7
		l88.7,71h11.8"/>
	<path id="Line-Body34" class="st49" d="M771.8,577.3l80.4-7.1v-9.5l-20.1-7.1l-68.6,4.7v10.6L771.8,577.3z"/>
	<path id="Line-Body35" class="st49" d="M852.2,562l-76.9,4.7l-9.5-8.3"/>
	<path id="Line-Tower" class="st49" d="M800.2,547.8c7.9-18.2,25-109.5-9.5-210.5"/>
	<path id="Line-Tower6" class="st49" d="M818.5,354.9c5,0,9,4.3,9,9.6s-4,9.6-9,9.6s-9-4.3-9-9.6S813.6,354.9,818.5,354.9z"/>
	<path id="Line-Tower3_1_" class="st49" d="M778.9,311.3c0,0-16.3,222.5-56.2,231.8"/>
	<path id="Line-Tower7" class="st49" d="M612.2,455.5c16.2,17.1,74.1,41.4,97,48.5c8.5,14.9,14.2,40.2,14.2,40.2"/>
	<path id="Line-Tower5" class="st49" d="M714.8,327.1l36.1,15.4l-1.9,8.8L714,336L714.8,327.1z M710.8,347.8l36.1,15.4l-1.9,8.6
		l-35-15.3L710.8,347.8z M706.9,367.3l36.1,15.4l-1.9,8.6l-35-15.3L706.9,367.3z"/>
	<path id="Line-Tower8" class="st49" d="M920.8,294.7l26,30.7"/>
	<path id="Line-Gun16" class="st49" d="M903.1,457.9l16.6,42.6l-11.8,9.5l1.2,17.7l3.5,8.3"/>
	<path id="Line-Gun15" class="st49" d="M917.3,501.7l8.3-5.9c0,0,27.1,17.5,30.7,36.7c-5.1,4.8-8.3,9.5-8.3,9.5l-1.2,20.1"/>
	<path id="Line-Gun14" class="st49" d="M949.2,540.7l13-14.2c0,0,25.8,11,37.8,43.8"/>
	<path id="Line-Gun13" class="st49" d="M1035.5,579.7c-9.9-11.4-16.8-17.5-22.5-18.9c-9.1,8.9-23.7,24.8-23.7,24.8"/>
	<path id="Line-Gun20" class="st49" d="M995.3,579.7c12.4,4.7,29.9,31.1,31.9,43.8"/>
	<path id="Line-Gun12" class="st49" d="M994.1,525.3l14.2,37.8"/>
	<path id="Line-Gun18" class="st49" d="M909,509.9c9.5,7.2,28.4,24,33.1,44.9"/>
	<path id="Line-Gun19" class="st49" d="M949.2,543c10.8,4.8,29,24.6,30.7,44.9"/>
	<path id="Line-Gun23" class="st49" d="M816.7,395.2l82.8,126.5l10.6,7.1"/>
	<path id="Line-Gun17" class="st49" d="M861.7,430.7l47.3,78"/>
	<path id="Line-Tower2" class="st49" d="M979.9,378.7c0-6.5-7.6-40.6-28.4-53.2c-34.9,1.8-173.8,11.8-173.8,11.8
		s42.2,92.4,15.4,205.8"/>
	<path id="Line-Gun11" class="st49" d="M1067.4,440.2l-41.4,22.5c0,0,49.2,37,49.7,36.7s81.6,8.1,81.6,8.1"/>
	<path id="Line-Gun10" class="st49" d="M991.8,525.3l44.9-23.7l-57.9-35.5l-80.4-11.8"/>
	<path id="Line-Gun9_1_" class="st49" d="M1050.9,627l-27.2-82.8l142.2-14.3"/>
	<path id="Line-Gun8" class="st49" d="M1107.6,611.6l-82.8-66.2l-2.4,1.2l-21.3-16.6l-11.8-7.1l-86.3-65l2.4,7.1l-88.7-69.8
		c0,0,0.2-1.2,0.6-1.2c10.6-0.9,165-13,165-13l49.7,32"/>
	<path id="Line-Gun7" class="st49" d="M1160.9,757.1l-54.4-147.8l188-20.1"/>
	<path id="Line-Gun6" class="st49" d="M1139.2,666.7c7.1-18.3,20.5-52.7,20.5-52.7"/>
	<path id="Line-Gun5" class="st49" d="M1229.4,740.5l-78-62.7l24.8-63.9"/>
	<path id="Line-Gun4" class="st49" d="M1121.8,618.7l162-17.7l-53.2,138.4l-62.7,8.3L1121.8,618.7z"/>
	<path id="Line-Gun3" class="st49" d="M1201.1,611.6l-22.5,55.6l11.8,9.5l26-68.6"/>
	<path id="Line-Gun2_2_" class="st49" d="M1234.1,617.4l-28.3,68.8l11.8,9.5l30-70.8l-15.7-8.3"/>
	<path id="Line-Gun" class="st49" d="M1079.3,669.6l14.2,11.8l-26-71l-11.8-9.5L1079.3,669.6z M1107.6,692l14.2,11.8l-26-69.8
		l-11.8-10.6L1107.6,692z M1171.5,544.2l14.2,8.3l-81.6,8.3l-13-8.3L1171.5,544.2z M1197.5,563.1l14.2,8.3l-84,8.3l-13-9.5
		L1197.5,563.1z"/>
	<path id="Line-Gun22" class="st49" d="M1034.3,415.3l-172.6,14.2"/>
	<path id="Line-Gun21" class="st49" d="M1032,431.9l-152.4,12.8"/>
	<path id="Line-Tower4" class="st49" d="M646.5,245c-1.9,9.5,5.8,33,133.6,66.2c120.1-12.1,140.7-15.4,140.7-15.4s-0.8-14.6-13-32.3
		"/>
	<path id="Line-Tower9" class="st49" d="M735.7,259.2c19.3,0,34.9,2.6,34.9,5.9S755,271,735.7,271c-19.3,0-34.9-2.6-34.9-5.9
		C700.9,261.8,716.5,259.2,735.7,259.2z"/>
	<path id="Line-Tower10" class="st49" d="M700.9,266.3V277c0,0,45.2,11.1,69.8-1.2c0-6,0-10.6,0-10.6"/>
	<path id="Line-Body28" class="st49" d="M775.4,592.7l20.1,214"/>
	<path id="Line-Body31" class="st49" d="M635.8,564.3l-29.6,196.3"/>
	<path id="Line-Body29" class="st49" d="M1097,707.4l-307.5,36.7l-176.2-24.8L536.5,627l9.5,36.7l62.7,76.9L792,767.8l328.7-40.2"/>
	<path id="Line-Body30" class="st49" d="M1060.3,654.2l-276.7,33.1l-163.2-24.8l-75.7-85.1L553,614l63.9,71L786,709.8l282.6-31.9"/>
	<path id="Line-Protection4" class="st49" d="M678.4,601c0.2-9.6,9.1-15.4,20.1-15.4s19.3,8,18.9,16.6c2.2,8.3,5.9,21.3,5.9,21.3
		s-6,14.2-7.1,21.3c-5.7,3.2-19.3,8-26,0C685.5,631.8,678.2,612.6,678.4,601z"/>
	<path id="Line-Protection3" class="st49" d="M679.6,608.1c5.4,9.7,11.6,11.6,21.3,9.5s17.4-6.5,15.4-18.9"/>
	<path id="Line-Protection5" class="st49" d="M723.3,622.3c0,0,20-11.2,27.2-14.2s18.6,2.1,22.5,11.8s1.1,20.6-10.6,26
		s-16.6,5.9-16.6,5.9s-19.9,2.2-29.6-5.9"/>
	<path id="Line-Protection6" class="st49" d="M749.3,609.3c-4.1,2.2-11,14.9-2.4,26s16.3,11,20.1,8.3"/>
	<path id="Line-Protection2" class="st49" d="M679.6,605.7l-23.7-16.6c0,0-7.6-1.3-17.7,11.8s-4.8,19.3,0,22.5s31.9,22.5,31.9,22.5
		s15.4,3,22.5-1.2"/>
	<path id="Line-Protection" class="st49" d="M658.3,590.3c7.8,4.5-13.4,35.9-22.5,30.7"/>
	<path id="Line-BodyBack7" class="st49" d="M388.7,459.1l49.7-127.7c0,0,2.8-7.2,34.3-11.8c31.5-4.6,36.7-2.4,36.7-2.4"/>
	<path id="Line-Body11" class="st49" d="M1574.7,1549.4l16.6-172.6c0,0,124.5-20.1,137.2-23.7c27.6,34.3,74.5,128.9,74.5,128.9"/>
	<path id="Line-Body12" class="st49" d="M1592.5,1377.9c-16.6-16.3-138.4-147.8-138.4-147.8l-201-352.4l-172.3-105.4"/>
	<path id="Line-Body15" class="st49" d="M1729.7,1353.1l-20.1-224.7"/>
	<path id="Line-Body14" class="st49" d="M1199.9,1150.9c33-2.2,123.1-0.9,237.7,47.3"/>
	<path id="Line-Body13" class="st49" d="M1709.6,1127.2l-255.4,104.1l-23.7,171.5"/>
	<path id="Line-Body-Kil" class="st49" d="M892.4,1205.3c17.3-6.9,66.3-23.1,101.7-28.4"/>
	<path id="Line-Body22" class="st49" d="M271.6,1037.3c5.3-16.1,56.6-149.5,144.4-236.4"/>
	<path id="Line-Body21" class="st49" d="M313,945.1c-3.4-18.1-12.5-65.2-82.8-112.3"/>
	<path id="Line-Body24" class="st49" d="M205.4,877.7c-21.6-43.8-56.6-125.6-44.9-152.5"/>
	<path id="Line-Body23" class="st49" d="M166.4,1013.7c6.1-43.4,29.4-130.6,63.9-179.7S307,718.6,380.4,643.6"/>
	<path id="Line-Body19" class="st49" d="M226.7,692c3.5,7.3,20,40.1,43.8,85.7 M337.4,904.5c58.8,109.1,126.9,229.3,166.6,279"/>
	<path id="Line-Body26" class="st49" d="M453.7,757.1L340.2,586.8"/>
	<path id="Line-Body5" class="st49" d="M438.3,1353.1l335.8,17.7"/>
	<path id="Line-Body6" class="st49" d="M561.3,1329.5l101.1,5.6l-42.8-81.5L561.3,1329.5z M1527.1,1175.3l75.9-30.6l-65.4-47.4
		L1527.1,1175.3z"/>
	<path id="Line-Body16" class="st49" d="M577.9,954.6c0,0,2.5,10.3,8.3,11.8s825.4-112.3,825.4-112.3"/>
	<path id="Line-Body27" class="st49" d="M653.6,789c0,0,114.6,20.2,140.7,17.7c26.1-2.5,370.1-43.8,370.1-43.8l3.5-4.7l67.4-7.1
		l15.4-37.8"/>
	<path id="Line-Body18" class="st49" d="M750.5,899c26.1-2.5,438.7-60.4,438.7-60.4"/>
	<path id="Line-Body32" class="st49" d="M583.8,759.4L404,524.1l-28.4-34.3l16.6-39"/>
	<path id="Line-Cylinder9" class="st49" d="M438.3,570.2l-59.1,4.7l-14.2,9.5c0,0-6.4,20.6,4.7,33.1c9.3,6.6,14.2,8.3,14.2,8.3
		l18.9-3.5l5.9-4.7l61.5-4.7"/>
	<path id="Line-Cylinder8" class="st49" d="M367.4,584.4c5.7,1.2,8.3,31.6,2.4,33.1"/>
	<path id="Line-Cylinder7" class="st49" d="M378,576.2c7.8,4.1,10.1,26,5.9,49.7"/>
	<path id="Line-Cylinder6" class="st49" d="M404,622.3l-8.3,10.6c0,0-4.1,20.2,5.9,34.3c6,3,15.4,5.9,15.4,5.9l22.5-2.4l67.4-8.3"/>
	<path id="Line-Cylinder5" class="st49" d="M407.6,619.9c5.4,5.6,12.8,19,7.1,52"/>
	<path id="Line-Cylinder4" class="st49" d="M396.9,630.5c7.3,2.5,11,17.5,4.7,35.5"/>
	<path id="Line-Cylinder3" class="st49" d="M440.7,670.8l-8.3,9.5c0,0-7.8,18.8,3.5,39c7.4,4.1,15.4,5.9,15.4,5.9l94.6-11.8"/>
	<path id="Line-Cylinder2" class="st49" d="M432.4,680.2c6.3-1.7,13.8,33.3,3.5,37.8"/>
	<path id="Line-Cylinder" class="st49" d="M443.1,669.6c9.9,2.1,18.2,31.8,7.1,55.6"/>
	<path id="Line-Body25" class="st49" d="M227.8,692c6.9,3.5,22.1-1.9,40.2-18.9s43.8-42.9,55.6-56.8c-0.8-2.8,0-9.5,0-9.5l18.9-21.3
		c0,0,28.7-9.7,42.6-20.1s18.4-12.9,18.9-20.1c0.1-2.4-0.2-11.6-0.7-23.2 M388.1,459.6c-8.2-3.5-17.1-7.6-17.1-7.6s-11.5-0.8-15.4,0
		c-5.6-5.3-21.5-22.2-43.8-24.8"/>
	<path id="Line-TurretL2-14" class="st49" d="M225.5,606.9c0,6.7,11.6,26.7,97,9.5"/>
	<path id="Line-TurretL2-13" class="st49" d="M227.8,593.9c10.2,6.6,38.4,16.2,105.2,2.4"/>
	<path id="Line-TurretL2-12" class="st49" d="M223.1,530c18.3,11.7,105.2-9.8,153-42"/>
	<path id="Line-TurretL2-11" class="st49" d="M266.3,544.5c7.8,0,14.2,8.6,14.2,19.3c0,10.6-6.4,19.3-14.2,19.3s-14.2-8.6-14.2-19.3
		C252.1,553.1,258.5,544.5,266.3,544.5z"/>
	<path id="Line-TurretL2-10" class="st49" d="M236.1,504c2.1,7,31.5,11.6,74.5-5.9c43-17.5,68.3-37.8,63.9-44.9"/>
	<path id="Line-TurretL2-9" class="st49" d="M321.3,494.6l11.8,15.4"/>
	<path id="Line-TurretL2-8" class="st49" d="M272.8,436.6c8.3,3.9,45.4,4.5,55.6-3.5"/>
	<path id="Line-TurretL2-7" class="st49" d="M303.5,441.3c1.8,3.2,5,15.8,5.9,23.7c5.4-0.9,8.3-1.2,8.3-1.2s-3.3-18.4-7.1-23.7"/>
	<path id="Line-TurretR2-" class="st49" d="M1054.4,356.2c3.8,5,3,11.2,2.4,13c-4.3,2.7-46.1,27.2-46.1,27.2l-13-15.4"/>
	<path id="Line-TurretR2-2" class="st49" d="M1095.8,357.4l-27.2,14.2l-5.9,3.5l-47.3,27.2"/>
	<path id="Line-TurretR2-3" class="st49" d="M1072.2,381l-2.4-9.5l-11.8-4.7"/>
	<path id="Line-TurretL2-6" class="st49" d="M246.8,492.2c0.1,4.1-0.7,9.8,5.9,10.6s34.2-2.7,59.1-14.2s49.1-27,44.9-35.5"/>
	<path id="Line-TurretL2-5" class="st49" d="M245.6,480.4c1.7-10.4,9.7-30.3,24.8-42.6"/>
	<path id="Line-TurretL2-4" class="st49" d="M191.2,433.1c0.2,4.7,0,7.1,3.5,8.3c3.5,1.2,59.1,16.6,59.1,16.6"/>
	<path id="Line-TurretL2-3" class="st49" d="M249.1,466.2l-63.9-21.3l-5.9-1.2c0,0-35.5-9.7-34.3-10.6"/>
	<path id="Line-TurretL2-2" class="st49" d="M175.8,454.4l5.9-23.7"/>
	<path id="Line-TurretL2-" class="st49" d="M242,601c4.3,12.8,32,16.6,84,7.1"/>
	<path id="Line-TurretR-7" class="st49" d="M1467.1,896.6l-76.9-59.1c0,0-86,2.8-125.3-24.8c-19.3-9.7-17.7-24.6-17.7-28.4
		c0-3,3.2-5.2,6-6.9c1-0.6,1.2-2.1,0.3-2.9c-3.9-3.6-6.3-9.1-6.3-9.1l3.5-50.8l11.8-31.9"/>
	<path id="Line-TurretR-15" class="st49" d="M1400.9,846.9c14.5,1.2,67.3-1.9,65-14.2"/>
	<path id="Line-TurretR" class="st49" d="M1250.7,771.3c37.6,48.8,149.5,73.7,211.7,49.6"/>
	<path id="Line-TurretR-2" class="st49" d="M1255.5,700.3c14.9,11.9,51.8,33.5,108.8,50.8c57,17.4,98,22.1,104.1,11.8"/>
	<path id="Line-TurretR-5" class="st49" d="M1391.5,758.3l-1.2-23.7"/>
	<path id="Line-TurretR-6" class="st49" d="M1468.3,774.8c-5.6,0-18,16-9.5,44.9"/>
	<path id="Line-TurretR-3" class="st49" d="M1309.9,674.3c-2.8,5.9-4.3,10.8-4.7,13c7.7,7,23.5,19.2,68.6,33.1
		c45.1,14,62.6,14.3,66.2,11.8c3.1-4.3,4.4-2.7,4.7-10.6"/>
	<path id="Line-TurretR-14" class="st49" d="M1345.3,642.4c4.5,6.9,39.4,16.8,61.5,2.4"/>
	<path id="Line-TurretR-8" class="st49" d="M1391.5,651.8c5.1,5.8,13.7,30.5,15.4,35.5c-6.5,1.2-10.6,1.2-10.6,1.2
		s-7.2-24.6-14.2-35.5"/>
	<path id="Line-TurretR-9" class="st49" d="M1417.5,650.7c6.1,4.3,27.2,30.4,27.2,47.3"/>
	<path id="Line-TurretR-10" class="st49" d="M1434,670.8c8.4-3.3,42.6-16.6,42.6-16.6s2.1-5.6,0-11.8"/>
	<path id="Line-TurretR-12" class="st49" d="M1521.5,624.6l13,16.6l1.2,14.2"/>
	<path id="Line-TurretR-13" class="st49" d="M1528.6,655.4l-1.2-10.6l-11.8-14.2"/>
	<path id="Line-TurretR-11" class="st49" d="M1441.1,679l84-34.3l9.5-3.5l37.8-15.4"/>
	<path id="Line-TurretR-4" class="st49" d="M1288.6,677.8c-5,7.3,34.4,35,74.5,47.3s91.9,23.7,87.5,9.5"/>
	<path id="Line-Body2" class="st49" d="M865.2,1655.8c-17.9-29.9-67.8-93.9-85.1-118.3c-5.7-8-116.4,21.2-172.6,42.6
		c-2.2,22.5-5.9,165.6-5.9,165.6"/>
	<path id="Line-Body" class="st49" d="M632.3,1748l1.2-40.2l203.4-41.4l26,37.8"/>
	<path id="Line-Body10" class="st49" d="M1598.4,1551.7l7.1-40.2l163.2-41.4l23.7,23.7"/>
	<path id="Line-Body7" class="st49" d="M780.1,1536.4c-2.2-48.2-11.5-273.9,9.5-596c-52.3-51.7-136-144.3-136-144.3"/>
	<path id="Line-Body17" class="st49" d="M755.8,965.8c5.8,0,10.5,5.6,10.5,12.4c0,6.9-4.7,12.4-10.5,12.4s-10.5-5.6-10.5-12.4
		C745.3,971.4,750.1,965.8,755.8,965.8z M1290.6,886.8c5.1-1.5,10.8,2.1,12.5,8.2c1.8,6-0.9,12.2-6,13.7s-10.8-2.1-12.5-8.2
		C1282.8,894.5,1285.5,888.3,1290.6,886.8z"/>
	<path id="Line-Hangar4" class="st49" d="M1192.1,1023.7c-22-16.7-73.9-56.2-100.9-76.5"/>
	<path id="Line-Hangar3" class="st49" d="M1233,1096.5c0,0-167.2-116.2-201-139.8"/>
	<path id="Line-Hangar2" class="st49" d="M919.6,974.7l-26,176.2l344.1-55.6l-97-153.7L919.6,974.7z"/>
	<path id="Line-Hangar" class="st49" d="M942.7,1140.2V1119c0,0,16.6-2.1,41.9-5.6c9.2,6.3,24.4,17.3,24.4,17.3 M1031.5,1127.3
		l-2.4-20c0,0,16.2-1.5,41.9-5.6c10.5,6.9,26.8,16.1,26.8,16.1 M1121.5,1112.1l-3.5-18.8c0,0,17.3-2.7,41.9-6.7
		c11.2,6.5,28,16.1,28,16.1"/>
	<path id="Line-Body8" class="st49" d="M361.5,1576.6c11.8-45.2,68.6-202.4,80.4-235.3s144.3-376,144.3-376"/>
	<path id="Line-Body20" class="st49" d="M444.3,1204l13.4,25.8l-22.3,62.3l-14.8-26.4L444.3,1204z"/>
	<path id="Line-Body4" class="st49" d="M607.4,1580.1l-169.1-224.7l-163.2-324"/>
	<path id="Line-Body9" class="st49" d="M234.9,1214.7c3.5-24.4,36.8-130,41.4-145.5c10.5,25.7,143.1,286.2,143.1,286.2
		s-61.4,158.5-68.6,193.9"/>
	<path id="Line-Turret2" class="st49" d="M417.1,868.2v13c0,0-4.5,0.4-3.5,20.1c0.9,19.7,3.2,20.1,4.7,22.5c0,4,0,8.3,0,8.3l3.5,3.5
		l-5.9,11.8c0,0,0,67.3,0,85.1s5.3,38.7,39,21.3s77.9-54.4,119.4-98.1c27.2-12.8,39.6-16.7,60.3-33.1c20.7-16.4,23.7-25.3,23.7-34.3
		c-3.4,0.1-9.5,0-9.5,0s6.6-7.9,7.1-13c-0.2-17.1-2.4-84-2.4-84s1.2-24.1-46.1-29.6c-15.5-2.5-26-3.5-26-3.5S562.1,731,517.5,731
		c-29.2,0-48,20.9-55.6,27.2c-12.4-0.9-41.4-5.9-41.4-5.9s-15.4,0.2-10.6,18.9c-12.7-2.4-50.8-8.3-50.8-8.3l-7.1-4.7l-47.3-7.1
		l-3.5,22.5l11.8,10.6l46.1,9.5l7.1-3.5l75.7,14.2c0,0-0.2,12.2,1.2,17.7C439.8,826.3,419.2,846,417.1,868.2z"/>
	<path id="Line-Turret10" class="st49" d="M484.5,741.7c0.2,3.5,13.7,10.6,34.3,10.6s33.3-7.8,31.9-15.4"/>
	<path id="Line-Turret12" class="st49" d="M443.1,823.3c12.4,14.8,46.2,19.3,89.9,15.4"/>
	<path id="Line-Turret9" class="st49" d="M524.7,753.5c1.2,5.3,6.6,28.6,7.1,36.7c3.9,0.2,10.6-1.2,10.6-1.2s-5.8-27.9-10.6-36.7"/>
	<path id="Line-Turret14" class="st49" d="M567.2,835.1l18.9,23.7"/>
	<path id="Line-Turret16" class="st49" d="M417.1,926.2c1.9,0.6,6.3,2.1,8.3-3.5c2-5.7,3.1-30.5-3.5-39"/>
	<path id="Line-Turret17" class="st49" d="M453.7,926.2c0-10.2,4.5-21.3,18.9-20.1s20.1,15.5,20.1,23.7c0,12.2-8.6,18.9-18.9,18.9
		C463.5,948.6,453.7,936.3,453.7,926.2z"/>
	<path id="Line-Turret19" class="st49" d="M417.1,947.5c-0.9,10.4,53.3,45.1,157.3,8.3"/>
	<path id="Line-Turret18" class="st49" d="M421.8,936.8c14.4,11.7,40.4,30.5,95.8,22.5c55.3-8,114.6-43.5,133.6-74.5"/>
	<path id="Line-Turret15" class="st49" d="M417.1,876.5c6.4,10.2,38.3,23.1,87.5,13c52.9-10.9,101.3-37.4,123-57.9
		c15.3-14.5,23.9-28.6,24.8-41.4"/>
	<path id="Line-Turret13" class="st49" d="M436,831.6c-1.5,7.7,6.9,23.4,18.9,26c20.3,4.4,38.7,3.8,87.5-13s92.7-68.6,69.8-81.6"/>
	<path id="Line-Turret11" class="st49" d="M441.9,823.3c1.4,6.7,6.6,25.9,20.1,27.2s43.6-0.4,78-15.4c34.6-15.1,54.6-32.3,54.4-47.3
		s-13-28-16.6-31.9"/>
	<path id="Line-Turret8" class="st49" d="M440.7,804.4l20.1,3.5l11.8-14.2l-13-9.5c0,0,13.8-3.3,16.6-18.9
		c1.4-6.5-15.4-7.1-15.4-7.1"/>
	<path id="Line-Turret3" class="st49" d="M304.7,752.3l18.9,15.4L313,783.1"/>
	<path id="Line-Turret4" class="st49" d="M356.7,793.7l9.5-17.7l-16.6-16.6"/>
	<path id="Line-Turret5" class="st49" d="M367.4,791.4l8.3-15.4l-9.5-10.6"/>
	<path id="Line-Turret" class="st49" d="M322.5,767.7l41.4,8.3l10.6,1.2l95.8,16.6"/>
	<path id="Line-Turret6" class="st49" d="M408.8,770.1c1.2,4.6,4.6,5.9,7.1,5.9s4.8-2.4,5.9-8.3c1.1-5.8,0.9-13.1-3.5-14.2"/>
	<path id="Line-Turret7" class="st49" d="M415.9,776l46.1,8.3"/>
	<path id="L-Gun100" class="st49" d="M1151.9,677.8c-3.4,0-7,0.2-8.4,0.3"/>
</g>
</svg>
