<?xml version="1.0" encoding="utf-8"?>
<!-- Generator: Adobe Illustrator 22.0.0, SVG Export Plug-In . SVG Version: 6.00 Build 0)  -->
<svg version="1.1" id="Слой_1" xmlns="http://www.w3.org/2000/svg" xmlns:xlink="http://www.w3.org/1999/xlink" x="0px" y="0px"
	 viewBox="0 0 1920 1920" style="enable-background:new 0 0 1920 1920;" xml:space="preserve">
<style type="text/css">
	.st0{fill:url(#Gun-Shadow2_1_);}
	.st1{fill:#666666;}
	.st2{fill:url(#Body-Fill_1_);}
	.st3{fill:url(#Body-Shadow2_1_);}
	.st4{fill:url(#Body-Shadow_1_);}
	.st5{opacity:0.302;fill:url(#Body-Light_1_);enable-background:new    ;}
	.st6{fill:#B8BFCC;}
	.st7{fill:#DAE3F2;}
	.st8{fill:#F2F2F2;}
	.st9{fill:#6E1370;}
	.st10{fill:#A800A8;}
	.st11{fill:url(#Glass-Fill_1_);}
	.st12{fill:url(#Glass-Fill2_1_);}
	.st13{fill:none;stroke:#1A1A1A;stroke-width:10;}
	.st14{fill:url(#Body-Shape_1_);stroke:#1A1A1A;stroke-width:10;}
</style>
<title>Makeshift Fighter 34</title>
<linearGradient id="Gun-Shadow2_1_" gradientUnits="userSpaceOnUse" x1="1012" y1="619.939" x2="1012" y2="724.9189" gradientTransform="matrix(1 0 0 -1 0 1920)">
	<stop  offset="0.303" style="stop-color:#FFFFFF"/>
	<stop  offset="0.782" style="stop-color:#333333"/>
</linearGradient>
<path id="Gun-Shadow2" class="st0" d="M1033,1216l37,45l-34,50c0,0-54.9-70.3-82-105C989.3,1221.7,1033,1216,1033,1216z"/>
<path id="Gun-Shadow" class="st1" d="M1034,1305l35-50l-8-1l-57,13L1034,1305z"/>
<linearGradient id="Body-Fill_1_" gradientUnits="userSpaceOnUse" x1="516.9556" y1="734.6941" x2="991.2396" y2="1066.7911" gradientTransform="matrix(1 0 0 -1 0 1920)">
	<stop  offset="0" style="stop-color:#2E3033"/>
	<stop  offset="0.801" style="stop-color:#DAE3F2"/>
</linearGradient>
<path id="Body-Fill" class="st2" d="M600,779c0-44.1,41.2-120,110-120c114.6,0,169,91,169,91s43.8,64.6,85,134
	c28,47.2,52.8,105.9,67,147c8.1,22.5,84.6,193.4,7.1,192c-105.2,9.2-225.7-115.9-227.1-117c-35.6-27.2-108.2-115-147-157
	c-21.5-35.3-42.1-50.5-52-88C589.9,807.9,601.3,795.1,600,779z"/>
<linearGradient id="Body-Shadow2_1_" gradientUnits="userSpaceOnUse" x1="607.2615" y1="797.9265" x2="1081.5444" y2="1130.0236" gradientTransform="matrix(1 0 0 -1 0 1920)">
	<stop  offset="0" style="stop-color:#0B0C0D"/>
	<stop  offset="0.6" style="stop-color:#DAE3F2;stop-opacity:0"/>
</linearGradient>
<path id="Body-Shadow2" class="st3" d="M600,779c0-44.1,41.2-120,110-120c114.6,0,169,91,169,91s43.8,64.6,85,134
	c28,47.2,52.8,105.9,67,147c8.1,22.5,84.6,193.4,7.1,192c-105.2,9.2-225.7-115.9-227.1-117c-35.6-27.2-108.2-115-147-157
	c-21.5-35.3-42.1-50.5-52-88C589.9,807.9,601.3,795.1,600,779z"/>
<linearGradient id="Body-Shadow_1_" gradientUnits="userSpaceOnUse" x1="632.3882" y1="891.0997" x2="1106.6721" y2="990.9608" gradientTransform="matrix(1 0 0 -1 0 1920)">
	<stop  offset="0" style="stop-color:#333333"/>
	<stop  offset="0.399" style="stop-color:#DAE3F2;stop-opacity:0"/>
</linearGradient>
<path id="Body-Shadow" class="st4" d="M600,779c0-44.1,30.3-25.8,92-9c126.8,37.3,190.2,63,272,114c28,47.2,52.8,105.9,67,147
	c8.1,22.5,84.6,193.4,7.1,192c-105.2,9.2-225.7-115.9-227.1-117c-35.6-27.2-108.2-115-147-157c-21.5-35.3-42.1-50.5-52-88
	C589.9,807.9,601.3,795.1,600,779z"/>
<linearGradient id="Body-Light_1_" gradientUnits="userSpaceOnUse" x1="537.8084" y1="834.6508" x2="921.7994" y2="1180.3977" gradientTransform="matrix(1 0 0 -1 0 1920)">
	<stop  offset="0.598" style="stop-color:#FFFFFF;stop-opacity:0"/>
	<stop  offset="0.676" style="stop-color:#FFFFFF"/>
	<stop  offset="0.699" style="stop-color:#FFFFFF"/>
	<stop  offset="0.751" style="stop-color:#FFFFFF;stop-opacity:0"/>
</linearGradient>
<path id="Body-Light" class="st5" d="M598,768c0-44.1,49.2-109,118-109c104.1,0,182,118,182,118s42.8,58.3,84,127.8
	c-65.6-8.5-163.5-19.5-142,213.3c-0.8-35.7-126.9-165.6-168-203c-0.2-6.1,0.3-35.2-2-72C629.9,803.1,605.3,775,598,768z"/>
<path id="Tail-Fill" class="st6" d="M771,665c0.7-11.9,6-150,6-150l-23-29l-35,153l-24,22c0,0-10.2,0.5-31,12c-14.3-8.7-36-25-36-25
	l-65-99c0,0-28.6-23.7-29-21s70,224,70,224s16.9-63,65-79S729.7,658.1,771,665z"/>
<path id="Tail-Light" class="st7" d="M754,491c0,0-6,8.9-5,9c0.9,0.1,9.9,12,16.3,19.1L777,516L754,491z M540,548l18,12l7-8l-30-23
	L540,548z"/>
<path id="Wing-R" class="st8" d="M614,751c-129,61.5-294.4,201.5-334,349c26,105.9,78.8,197.1,90,189c54.3-26,120.8-400.1,358-476
	C784.4,795,658.2,754,614,751z M864,733c194.1,14.2,755.1,187.4,876.6,301.4c6.2,7.9-233.5-84.5-369-130
	c-125.1-42-238.1-76.3-459.6-107.4C894.3,771.4,889.1,760.3,864,733z"/>
<path id="Paint-Dark" class="st9" d="M667,672c8,1.8,36.3,23.7,65,53c29.3,30,59.1,67.8,79,96c12.1,17.1,22.8,34,29,36
	c24.8-12.5,35.6-20.4,72-18c-34.1-53.1-133.5-181.9-184-178C708,661.4,690.4,663.3,667,672z"/>
<path id="Paint" class="st10" d="M734,805c-78.1,13.4-244.4,16-451,294c17.5-51.4,42.6-102.7,78-147c28.8-36.1,77-82.4,124-119
	c60.9-47.5,119.9-81.2,134-81C654.9,755.3,756.8,792.7,734,805z M869,735c163,17.3,423.2,94.7,593,159c54.9,20.8,111.3,39.9,129,58
	c-69.4-31.6-561.9-210.2-676-159c-3.1-4.5-10.6-6.5-13-10C887.2,761.2,881.7,749.9,869,735z"/>
<radialGradient id="Glass-Fill_1_" cx="939.4333" cy="975.6285" r="292.7122" gradientTransform="matrix(0.4349 0.9005 -0.2237 0.1081 749.1197 24.2779)" gradientUnits="userSpaceOnUse">
	<stop  offset="0.49" style="stop-color:#969696"/>
	<stop  offset="0.8284" style="stop-color:#474747"/>
</radialGradient>
<path id="Glass-Fill" class="st11" d="M997.4,1066.1c0.4-0.3,1.2-0.6,1-1c-5.7-10.8-60.2-130-129.2-212.6
	c-28.4,9.3-35.6,17.2-53.1,44.1c5.2,42.7,13.5,80.4,33,102.1c19.5,21.7,96.4,76.4,107.2,83.1c9.6,0.1,19.1,0.8,19.1,0.8
	s0.1-0.1,0.4-0.4C981.4,1074.2,989.7,1070.5,997.4,1066.1z M949,862c-11.3-7.3-33.1-20.2-60.7-17.6
	c62.1,80.7,106.1,165.7,131.2,220.3c10.9-1.3,20.6,4.5,28.5,10.3C1032.2,1028.2,994.1,931.9,949,862z"/>
<radialGradient id="Glass-Fill2_1_" cx="-106.4763" cy="9.1988" r="1764.0154" gradientTransform="matrix(0.8863 -0.4631 -0.7171 -1.3725 -207.3843 1924.1511)" gradientUnits="userSpaceOnUse">
	<stop  offset="0.8576" style="stop-color:#666666"/>
	<stop  offset="0.8806" style="stop-color:#CCCCCC"/>
	<stop  offset="0.9054" style="stop-color:#666666"/>
</radialGradient>
<path id="Glass-Fill2" class="st12" d="M998.1,1066c0.4-0.3,1.2-0.6,1-1c-5.7-10.8-60.2-130-129.2-212.6
	c-28.4,9.3-35.6,17.2-53.1,44.1c5.2,42.7,13.5,80.4,33,102.1s96.4,76.4,107.2,83.1c9.6,0.1,19.1,0.8,19.1,0.8s0.1-0.1,0.4-0.4
	C982.1,1074.1,990.4,1070.4,998.1,1066z"/>
<path id="Tail-Line" class="st13" d="M771,665l6-150c0,0-21.4-30.1-23-29s-35,153-35,153l-24,22c0,0-10.2,0.5-31,12
	c-12.5-7.6-31.7-21.8-36-25c-0.6-0.5,17,36,17,36s-17.3-36.4-17.8-37.2C619.7,634.7,566,550,566,550s-33.6-27.7-34-25s72,227,72,227
	"/>
<path id="Body-Line-All" class="st13" d="M618.4,877.3c3.6,7.8,7.5,15,11.6,21.7c37.7,61.2,304,390.1,432,314
	c57.2-34-122.7-447.2-252-528c-41.5-25.9-127.2-47.5-179,14c-14.8,17.6-23.8,37.2-28.4,57.5"/>
<path id="L-Glass" class="st13" d="M1004.5,1068.7c0.4-0.3,1.2-0.6,1-1c-5.7-10.8-64.3-138.5-133.2-221.3
	c-28.4,9.3-42.6,21.2-60.1,48.1c5.2,42.7,13.5,83.4,33,105.1c19.5,21.7,100.4,79.4,111.2,86.1c9.2,0.6,23,0,23,0s0.1-0.1,0.4-0.4
	C984.3,1077.4,994.6,1070.3,1004.5,1068.7z M950,861c-11.3-7.3-33.1-20.2-60.7-17.6c62.1,80.7,106.1,165.7,131.2,220.3
	c10.9-1.3,20.6,4.5,28.5,10.3C1033.2,1027.2,995.1,930.9,950,861z"/>
<path id="Body-Line3" class="st13" d="M836.7,860.3c-34.1-53.1-134.1-196.6-182.3-183.2"/>
<path id="Body-Line2" class="st13" d="M915.8,843.3C881.6,790.2,783.1,654.9,728,659"/>
<path id="Body-Line" class="st13" d="M1050,1219c-67.6,0-46.8-31-88.2-53.8c-81.7-45-172.5-150.4-243.1-229.9
	C702,916.4,651,853,651,853"/>
<linearGradient id="Body-Shape_1_" gradientUnits="userSpaceOnUse" x1="645.4915" y1="1080.786" x2="747.4915" y2="1004.2861" gradientTransform="matrix(1 0 0 -1 0 1920)">
	<stop  offset="0" style="stop-color:#575757"/>
	<stop  offset="1" style="stop-color:#D9D9D9"/>
</linearGradient>
<path id="Body-Shape" class="st14" d="M745,966c-3.2-34,0.9-68,6-83c-24.8-26.1-45.2-51.5-55-58c-14.4,4.7-47,27-47,27
	S709,925.4,745,966z"/>
<path id="L-Wing2" class="st13" d="M864,733c194.1,14.2,755.1,187.4,876.6,301.4c6.2,7.9-233.5-84.5-369-130
	c-125.1-42-238.1-76.3-459.6-107.4"/>
<path id="L-Wing" class="st13" d="M614,751c-129,61.5-294.4,201.5-334,349c26,105.9,78.8,197.1,90,189c54.3-26,120.8-400.1,358-476
	C784.4,795,658.2,754,614,751z"/>
<path id="L-Gun2" class="st13" d="M1039.4,1221.9c11.8,13.2,31.2,35,31.2,35l-35.9,50.8c0,0-48.1-58.5-82.2-100.1"/>
<path id="L-Gun" class="st13" d="M1002.8,1268.9l64.9-14"/>
</svg>
