<?xml version="1.0" encoding="utf-8"?>
<!-- Generator: Adobe Illustrator 22.0.0, SVG Export Plug-In . SVG Version: 6.00 Build 0)  -->
<svg version="1.1" id="Слой_1" xmlns="http://www.w3.org/2000/svg" xmlns:xlink="http://www.w3.org/1999/xlink" x="0px" y="0px"
	 viewBox="0 0 1920 1920" style="enable-background:new 0 0 1920 1920;" xml:space="preserve">
<style type="text/css">
	.st0{fill:url(#Gun_1_);}
	.st1{fill:#808080;}
	.st2{fill:#F2F2F2;}
	.st3{fill:#A800A8;}
	.st4{opacity:0.502;fill:url(#Body-SHadow2_1_);enable-background:new    ;}
	.st5{opacity:0.4;fill:url(#Body-SHadow_1_);enable-background:new    ;}
	.st6{opacity:0.7;fill:url(#Body-SHadow3_1_);enable-background:new    ;}
	.st7{opacity:0.502;fill:url(#Engine-Shadow_1_);enable-background:new    ;}
	.st8{opacity:0.2;fill:url(#Wing-Left-Shadow_1_);enable-background:new    ;}
	.st9{fill:#E6E6E6;}
	.st10{fill:#999999;}
	.st11{opacity:0.8;fill:url(#Tail-Shadow_1_);enable-background:new    ;}
	.st12{opacity:0.702;fill:url(#Body-SHadow6_1_);enable-background:new    ;}
	.st13{fill:url(#Engine-Shadow3_1_);}
	.st14{fill:#CCCCCC;}
	.st15{fill:#8C8C8C;}
	.st16{opacity:0.502;fill:url(#Wing-left-2_1_);enable-background:new    ;}
	.st17{fill:url(#Engine-Left_1_);}
	.st18{opacity:0.302;fill:url(#Wing-Right_1_);enable-background:new    ;}
	.st19{fill:#D9D9D9;}
	.st20{fill:url(#Glass_1_);}
	.st21{opacity:0.2;fill:url(#Paint_copy_1_);enable-background:new    ;}
	.st22{opacity:0.4;fill:url(#Engine-Shadow2_1_);enable-background:new    ;}
	.st23{fill:#6E1370;}
	.st24{fill:none;stroke:#1A1A1A;stroke-width:10;}
	.st25{fill:none;stroke:#191919;stroke-width:10;}
	.st26{fill:none;}
</style>
<linearGradient id="Gun_1_" gradientUnits="userSpaceOnUse" x1="1228.0504" y1="605.8352" x2="1252.2355" y2="508.8352" gradientTransform="matrix(1 0 0 -1 0 1920)">
	<stop  offset="0" style="stop-color:#666363"/>
	<stop  offset="0.397" style="stop-color:#FFFFFF"/>
</linearGradient>
<path id="Gun" class="st0" d="M1259,1401l30-56l-49-41c0,0-28.8,4.8-66,7C1186.2,1323.7,1259,1401,1259,1401z"/>
<path id="Gun-Shadow" class="st1" d="M1257,1394l24-44l-41,10L1257,1394z"/>
<path id="Gun-Shadow-2" class="st1" d="M1232,1366c0,0-0.4-0.8-4-8c-7.8-8.9-24-26-24-26l-4,1L1232,1366z"/>
<path id="Body" class="st2" d="M1039,725c-41.2-16.1-33.5-18.6-116.3-13.5c-25.6,1.6-44.3,7.6-49.7,7.5c-12.3-0.2-25.3-7.3-39-10
	c13.1-35.5,156-312,156-312l-53-21L766,659h-40L468,429l-54-24l-13,14l224,221l33,27c0,0,6.3,19.1,14,35c-0.7,8.9,23.2,54.8,29,70
	c0.7,3.4,1.8,7.1,3,11.2C682,791.2,477,870,477,870l-35-59c0,0-21.9-18.6-50.4-21.3c-1.4-0.1-2.8-0.2-4.2-0.3c0,2.5-2.1,9-2.4,10.6
	c-10.8,1.9-29.1,5.8-34,9c-0.6,0.3-9.6-6.7-10.2-6.3c-29.3,15.8-48.7,41.3-43.8,82.3c12.1,46.6,28,83,28,83l29,67
	c0,0,36.8,57.6,87,46s93.3-33.6,87-113c26.7-0.6,239.1-5.9,257-6c22.7,48.7,50.4,91.3,89,135s91.4,104.7,109,120s50.2,54.9,93,83
	s76.9,29,101,29s95.1-7.1,123-49c7.7-11.6,13.8-28.1,15.5-46.7c4.4-48.3-9-110.4-12.5-135.3c-3.6-25.8-23.8-122.4-27-130
	c-1.5-3.5-10.7-25.2-24.6-51.6C1267,906.8,1363,851,1363,851s9.2-16.2,4-40s-19.7-40.8-68-47S1083.4,733.6,1039,725z"/>
<path id="Shape_21" class="st2" d="M765,761L477,871l51,97l324-6c0,0,19.5-6.2,27-24c8.2-19.4,4.2-51.4-6-75
	c-10.4-24-31.3-55.1-53-73C792.7,767.5,765,761,765,761z"/>
<path id="Paint" class="st3" d="M444,815c-12.3-6.8-30-15.3-58-13c-10.1,0.8-22.3,2.8-34.3,7.9c-21,9-41.1,28.9-47.7,69.1
	c-0.7-5.7-6-8-6-8s11.8-57.1,45-70c10.4,3.8,10,6,10,6l33-9l1-7C387,791,427.4,791.6,444,815z M1138,1135
	c10.4,19.2,61.9,121.3,42,194c32-2.1,87.8-8.3,114-40s14.3-141.7,0-185c-16.1-5.7-33-5-33-5l3,30l-51,6l-27-30
	C1186,1105,1146.3,1119.7,1138,1135z M839,809l12-23l-37-27l-30,8C784,767,828.7,791.7,839,809z M527,968c1,0.2,324-8,324-8
	s32.5-7.7,33-39s-4-33-4-33l-310,38c0,0-15.1-7-15-26c-21.4,0.8-40,6-40,6s-8.4-31.5-28-39c-6.9,2.2-10,3-10,3S520.8,947.4,527,968z
	 M470,890l-24-51l-18-5l23,50L470,890z M370,899l-14,14l-22-46l14-13L370,899z M1349,715c-9.9,6.2-30.8,26.1-31,53
	c-18.3-3.1-33-4-33-4s13.6-55.1,37-60c14.8,3.8,31,5,31,5l6-14l19,8C1378,703,1358.9,708.8,1349,715z M1366,813c0,0-14.9-1.9-27-1
	c-0.5,23.1-16,24-16,24l-110,18l40,62c0,0,116.4-70.4,134-79c1.4-3,16.4-40.6-18-60c-18.5-1.4-33-6-33-6S1366.6,786.6,1366,813z"/>
<radialGradient id="Body-SHadow2_1_" cx="1194.167" cy="822.2271" r="345.038" gradientTransform="matrix(1 0 0 -1 0 1920)" gradientUnits="userSpaceOnUse">
	<stop  offset="0.492" style="stop-color:#000000;stop-opacity:0"/>
	<stop  offset="0.803" style="stop-color:#000000"/>
</radialGradient>
<path id="Body-SHadow2" class="st4" d="M1138,1135c10.4,19.2,61.9,121.3,42,194c32-2.1,87.8-8.3,114-40s14.3-141.7,0-185
	c-16.1-5.7-33-5-33-5l3,30l-51,6l-27-30C1186,1105,1146.3,1119.7,1138,1135z"/>
<radialGradient id="Body-SHadow_1_" cx="1163.08" cy="836.061" r="328.476" gradientTransform="matrix(1 0 0 -1 0 1920)" gradientUnits="userSpaceOnUse">
	<stop  offset="0.492" style="stop-color:#000000;stop-opacity:0"/>
	<stop  offset="0.803" style="stop-color:#000000"/>
</radialGradient>
<path id="Body-SHadow" class="st5" d="M1137,1131c-7.4,6.7-48.9,37.3-89-21c-15.3,24.3-37.8,109.6-10,160
	c39.8,32.9,80.1,65.1,144,58C1189.1,1298,1189.7,1250.9,1137,1131z"/>
<linearGradient id="Body-SHadow3_1_" gradientUnits="userSpaceOnUse" x1="1322.4723" y1="1171.7393" x2="539.4722" y2="501.1013" gradientTransform="matrix(1 0 0 -1 0 1920)">
	<stop  offset="0.492" style="stop-color:#000000;stop-opacity:0"/>
	<stop  offset="0.6428" style="stop-color:#000000"/>
</linearGradient>
<path id="Body-SHadow3" class="st6" d="M1047,1107c0,0-38.5,107.8-9,160c-36.4-30.6-118.8-120.8-157-163s-93.3-133.8-95-143
	c17,0.8,69-1,69-1s50.2-11.7,17-101c31.7,7.4,158,154,158,154s-8.7,25.1-4,51C1029.7,1084.4,1047,1107,1047,1107z"/>
<linearGradient id="Engine-Shadow_1_" gradientUnits="userSpaceOnUse" x1="1305.6125" y1="1126.8739" x2="1321.5696" y2="1190.8739" gradientTransform="matrix(1 0 0 -1 0 1920)">
	<stop  offset="0" style="stop-color:#000000"/>
	<stop  offset="1" style="stop-color:#000000;stop-opacity:0"/>
</linearGradient>
<path id="Engine-Shadow" class="st7" d="M1289,764c-0.5-10.3,4.6-49.5,36-60c13.7,3.8,27,8,27,8s-33.4,13.8-34,56
	C1301.9,764.8,1296.3,765.8,1289,764z"/>
<linearGradient id="Wing-Left-Shadow_1_" gradientUnits="userSpaceOnUse" x1="688.2917" y1="945.6407" x2="679.9457" y2="1151.6407" gradientTransform="matrix(1 0 0 -1 0 1920)">
	<stop  offset="0" style="stop-color:#000000"/>
	<stop  offset="0.508" style="stop-color:#000000;stop-opacity:0"/>
</linearGradient>
<path id="Wing-Left-Shadow" class="st8" d="M851,960c-6.1,0-323,7-323,7s-7.5-4-11-14c-2.5-7.2,0.1-35.2-2-46c-6.7-34-29-40-29-40
	s270.3-104.5,274-106c59,12.2,92.2,60.2,103,81S909.6,943.7,851,960z"/>
<path id="Shape_15" class="st9" d="M771,702l-32,17L450,443l14-13L771,702z M810,703l164-312l12,8L832,709L810,703z"/>
<path id="Shape_17" class="st10" d="M405,422l46,23l280,267l-93-58L405,422z"/>
<linearGradient id="Tail-Shadow_1_" gradientUnits="userSpaceOnUse" x1="674.8017" y1="1249.6353" x2="772.9457" y2="1140.6353" gradientTransform="matrix(1 0 0 -1 0 1920)">
	<stop  offset="0" style="stop-color:#4F4F4F"/>
	<stop  offset="1" style="stop-color:#FFFFFF;stop-opacity:0"/>
</linearGradient>
<path id="Tail-Shadow" class="st11" d="M769,704c-3,0-17.1,19.5-30,13c-32.5-16.5-79.3-48.6-83-49c4.6,11,49,109,49,109l92-38
	c0,0-7.7-17.5-14-15C780.1,715,773,704,769,704z"/>
<linearGradient id="Body-SHadow6_1_" gradientUnits="userSpaceOnUse" x1="924.9672" y1="889.6077" x2="791.5782" y2="948.8837" gradientTransform="matrix(1 0 0 -1 0 1920)">
	<stop  offset="0.389" style="stop-color:#F2F2F2;stop-opacity:0"/>
	<stop  offset="1" style="stop-color:#313131"/>
</linearGradient>
<path id="Body-SHadow6" class="st12" d="M784,961c0,0,62.3,0.7,72-1s17.6-12.6,21-26c90.7,18,1.7,117.6-8,149
	C829.8,1046.8,784,961,784,961z"/>
<linearGradient id="Engine-Shadow3_1_" gradientUnits="userSpaceOnUse" x1="1345.184" y1="1013.213" x2="1492.309" y2="1223.3301" gradientTransform="matrix(1 0 0 -1 0 1920)">
	<stop  offset="0" style="stop-color:#000000"/>
	<stop  offset="0.63" style="stop-color:#F2F2F2"/>
</linearGradient>
<path id="Engine-Shadow3" class="st13" d="M1364,710l21-8l15,6l117,58c0,0,11.3,6.5,17,10c-104.9-11.3-85.7,110.2-55,136
	c2.9,2.4-51.1-30.4-102.9-66c-0.3-1.1,4.2-3.4,9.9-9c6.7-6.5,6.3-21.9,3-35c-5.3-20.9-12.5-19.4-17-25c0-0.9-29.3-5.3-53.3-9
	c-0.8-39.6,35.3-57,35.3-57L1364,710z"/>
<path id="Engine-Shadow4" class="st14" d="M1506,767c42.5,0,77,34.7,77,77.5s-34.5,77.5-77,77.5s-77-34.7-77-77.5
	S1463.5,767,1506,767z"/>
<path id="Engine-Shadow7" class="st15" d="M1504,786c18.8-0.7,56.7,15.6,60.9,50.5c4.1,34.7-24,62.7-51.9,65.5
	c-32.1,3.1-59.2-18.7-63.1-47.1C1446,826.7,1469.5,787.2,1504,786z"/>
<linearGradient id="Wing-left-2_1_" gradientUnits="userSpaceOnUse" x1="493.8575" y1="991.659" x2="493.8575" y2="1064.9076" gradientTransform="matrix(1 0 0 -1 0 1920)">
	<stop  offset="0" style="stop-color:#000000"/>
	<stop  offset="0.503" style="stop-color:#000000;stop-opacity:0"/>
</linearGradient>
<path id="Wing-left-2" class="st16" d="M481,867l-8,2l37,71c0,0,12.4-26.9-3-52S481,867,481,867z"/>
<linearGradient id="Engine-Left_1_" gradientUnits="userSpaceOnUse" x1="306.8103" y1="900.8907" x2="498.7543" y2="1114.0657" gradientTransform="matrix(1 0 0 -1 0 1920)">
	<stop  offset="0" style="stop-color:#999999"/>
	<stop  offset="0.637" style="stop-color:#FFFFFF"/>
</linearGradient>
<path id="Engine-Left" class="st17" d="M514,944c-6.7-18.8-47.2-62.7-103-44c-23.9,8-49.4,29.6-59,48c-16.9,32.5-2.2,51.3-2.2,66.6
	c0,5.5,8.7,12.9,0.6,4.5C342.1,995.5,316,941,316,941s-6.5-18.6-11.2-32.1c-2.7-7.8-3.2-9.1-4.8-13.9c9.7-47.6,61.1-113.9,150-72
	C464.6,847.4,509.4,929.6,514,944z"/>
<linearGradient id="Wing-Right_1_" gradientUnits="userSpaceOnUse" x1="1273.059" y1="978.4864" x2="1206.546" y2="1169.4865" gradientTransform="matrix(1 0 0 -1 0 1920)">
	<stop  offset="0" style="stop-color:#000000"/>
	<stop  offset="0.503" style="stop-color:#000000;stop-opacity:0"/>
</linearGradient>
<path id="Wing-Right" class="st18" d="M1252,915l135-77c0,0,20.5-37.9-17-61c-43.9-8-339-53-339-53
	C1100.1,753.9,1195.5,822.2,1252,915z"/>
<path id="Engine-Shadow9" class="st19" d="M436,896c51.4,0,93,41.6,93,93s-41.6,93-93,93s-93-41.6-93-93S384.6,896,436,896z"/>
<path id="Engine-Shadow8" class="st15" d="M437,920c38.7,0,70,31.3,70,70c0,38.7-31.3,70-70,70s-70-31.3-70-70
	C367,951.3,398.3,920,437,920z"/>
<linearGradient id="Glass_1_" gradientUnits="userSpaceOnUse" x1="1025.9247" y1="826.9396" x2="1305.6887" y2="923.2706" gradientTransform="matrix(1 0 0 -1 0 1920)">
	<stop  offset="0" style="stop-color:#595959"/>
	<stop  offset="0.413" style="stop-color:#666666"/>
	<stop  offset="0.64" style="stop-color:#ADADAD"/>
	<stop  offset="0.699" style="stop-color:#FFFFFF"/>
	<stop  offset="0.757" style="stop-color:#ADADAD"/>
	<stop  offset="0.877" style="stop-color:#666666"/>
</linearGradient>
<path id="Glass" class="st20" d="M1282,990c14,68.3,22,117,22,117s-16.5-5.5-41.2-7.7c-0.7-0.1,1.9,31.7,1.2,31.7
	c-19.9-1.6-23.3-2.3-49,5c-1.2,0.3-27-29.8-28.2-29.4c-20.2,6.2-40.8,16.6-59.8,33.4c-51.5,24.7-80.2-35.5-89-49
	c-43.1-61.7,21.5-144.8,103-154C1231.5,926.8,1261.2,943.5,1282,990z"/>
<linearGradient id="Paint_copy_1_" gradientUnits="userSpaceOnUse" x1="296.5663" y1="975.5867" x2="514.9183" y2="1091.6857" gradientTransform="matrix(1 0 0 -1 0 1920)">
	<stop  offset="0" style="stop-color:#000000"/>
	<stop  offset="0.496" style="stop-color:#000000;stop-opacity:0"/>
	<stop  offset="1" style="stop-color:#000000"/>
</linearGradient>
<path id="Paint_copy" class="st21" d="M345,1009c-2-20-4.2-95.1,67-109s93.4,33.2,103,47c-11.5-26.6-50.4-99.1-63-122
	c-9.2-16.7-36-34.6-64.8-36.1c-10.7-0.6,2.3,5.2-8.2,10.1c-2.7,1.3-27.4,8.7-30,10c-1.9,1-5.7-8.2-7.6-7.2
	c-32,17.5-54.7,42.4-40.4,95.2C313.1,921.5,341.4,1002,345,1009z"/>
<linearGradient id="Engine-Shadow2_1_" gradientUnits="userSpaceOnUse" x1="1333.811" y1="972.5937" x2="1436.511" y2="1157.8688" gradientTransform="matrix(1 0 0 -1 0 1920)">
	<stop  offset="0" style="stop-color:#000000"/>
	<stop  offset="1" style="stop-color:#000000;stop-opacity:0"/>
</linearGradient>
<path id="Engine-Shadow2" class="st22" d="M1531,775c-21.4-10.3-74.2-10.8-93,32c-20.3,46.2,5.1,77.8,9.6,90.3
	c-25.9-13-70.7-51.3-70.6-51.3l12-8c0,0,4-15.8,4-27s-16.4-30.6-25-34c-11.7-1.9-32-4-32-4s1.7-57.3,67-61
	C1469.6,743,1510.9,763.3,1531,775z"/>
<path id="Paint-Dark" class="st23" d="M809,708l166-315l-38-15L762,662l-40-1l45,44C767,705,795.6,699.7,809,708z"/>
<path id="Tail-White" class="st9" d="M886,463l3,20l-65,106l-19,4L886,463z"/>
<g id="Line">
	<path id="L-Engine" class="st24" d="M355.6,914.5l-21.2-46.9c0,0,7.8-11.8,13.6-15.5c2.6,6.4,23,48,23,48s-8,6-10.7,8.8
		C357.9,911.2,355.6,914.5,355.6,914.5z M452.6,885.5l-27.2-50.9c0,0,12.2,1.4,20.6,7.5c2.3,5.8,22.6,42.2,26.4,48.9
		c0.2,0.4,0.1,0.7-0.4,0.4c-1.6-1-5-3.1-9-4.3C458.4,885.5,452.6,885.5,452.6,885.5z"/>
	<path id="L-Engine11" class="st25" d="M351.4,1029.1C343.1,1005.5,316,941,316,941l-16-46c0,0-12-66.5,43-95c2,1,6.2,4.6,8.7,6.3
		c3.4-1.3,6.2-3,12.3-4.3c8.3-1.9,18.8-3.8,23-4c0-1,0-7.4-0.2-8.2c30.3,0.1,53.2,16.5,63.2,33.2c11,18.4,48.6,85,61.4,111.3"/>
	<path id="Shape_6" class="st24" d="M741,721c0,0-0.4-1.4-1.3-2.3C718.8,697.9,446,441,446,441l-45-23c0,0-0.5,0.5,0.5,1.5
		C422.4,440.4,637,651,637,651L741,721z"/>
	<path id="Shape_7" class="st24" d="M399.9,419.2c4.4-4.1,15.1-14.2,15.1-14.2l47,22c0,0,247.6,214.8,310,276
		c-10.3,4.3-29.9,15.3-34,21"/>
	<path id="Shape_10" class="st24" d="M736,658c7.2-1.3,13.1-0.5,29,1c13.2-23,173-284,173-284l38,14.5l-165,314"/>
	<path id="Shape_11" class="st24" d="M978,391l12,11L834,709"/>
	<path id="Shape_8" class="st24" d="M448,443c0,0,11-9.5,17.1-14.7"/>
	<path id="L-Engine3" class="st24" d="M308,918c-11.3-44.6,18-102.3,75.4-107.9c19.2-1.9,41.6,3,66.6,14.9"/>
	<path id="Leftwing-2" class="st24" d="M881,889c-23.7,2.7-306,35-306,35s-19.6,7.5-19-26c-11.6,1.8-42,7-42,7l352-57"/>
	<path id="Glass-2" class="st24" d="M1073,1132c2.3-50.7,103.9-124.9,218-81"/>
	<path id="Glass-Outline" class="st24" d="M1034,1081c4.8-16.2,20.8-40.2,45.2-59c41.8-32.5,111.1-55.8,202.8-25"/>
	<path id="L-Body9" class="st24" d="M1048,1104c-11.3,18.4-39.2,139.9-3,173"/>
	<path id="L-Body8" class="st24" d="M829,731c127.8,54.8,389.8,471.9,354,590c-2.2,6.6-4,11-4,11"/>
	<path id="L-Body7" class="st24" d="M1006.3,714.4c81.7,46.1,182,123.7,228.5,224.3c63.6,137.7,91,281,65,339.1
		c-0.8,1.7-1.6,3.3-2.3,4.6"/>
	<path id="L-Body6" class="st24" d="M801,742c-10.7-12-8.7-21.1-8-37c0.7-2.7,1-4,1-4s51,11,83,19"/>
	<path id="Shape_12" class="st24" d="M769,703c9.4-3.3,32.2-7.2,44-4"/>
	<path id="Shape_9" class="st24" d="M795,701l-60-43l-10,1"/>
	<path id="Body-Outline" class="st24" d="M751,765c29-11,87-55,218-55c27.9,0,44,8,44,8"/>
	<path id="Leftwing" class="st24" d="M373,1004l130-19"/>
	<path id="Rightwing-3" class="st24" d="M1361,852c14.1-32.7,5.9-64.1-17-74c-17.9-7.8-27-9-27-9"/>
	<path id="Rightwing-2" class="st24" d="M1211,854l117-19c0,0,13.4-4.5,11-23c14.2-0.4,16.6-0.8,28-1c-4.6,0-186,8-186,8"/>
	<path id="Rightwing" class="st24" d="M1451.9,855l113.1-18.1"/>
	<path id="Gun-3" class="st24" d="M1288,1344l-55,13l26,45"/>
	<path id="Gun-" class="st24" d="M1234,1356l-29-31"/>
	<path id="L-Engine9" class="st24" d="M1354,711c0,0-25.1-5.6-31.1-7.1c-16.3,6.9-33.6,22.8-34.8,59.7 M1376.6,846.2
		c35.2,24.2,72.9,53.7,91.4,64.8 M1544,777c-5.7-3.5-24-13-24-13l-120-56l-15-6l-27-8l-7,4l13,12"/>
	<path id="L-Engine2" class="st24" d="M436,896c51.4,0,93,41.6,93,93s-41.6,93-93,93s-93-41.6-93-93S384.6,896,436,896z"/>
	<path id="Shape_22" class="st24" d="M418,898l-40-85"/>
	<path id="L-Engine10" class="st24" d="M1388,706c-44.6,0-68.1,24.3-70,63.7"/>
	<path id="L-Engine5" class="st24" d="M1409,712c-43.6,0-69.5,23.3-72.8,61.3"/>
	<path id="L-Engine7" class="st24" d="M1506,767c42.5,0,77,34.7,77,77.5s-34.5,77.5-77,77.5s-77-34.7-77-77.5S1463.5,767,1506,767z"
		/>
	<path id="L-Engine6" class="st24" d="M1384,736l67,35c0,0-10.5,6.3-17,15c-11-5-64-36-64-36S1373.1,745.6,1384,736z"/>
	<path id="L-Engine8" class="st24" d="M1507,785.2c32.5,0,58.8,26.4,58.8,58.8s-26.3,58.8-58.8,58.8s-58.8-26.4-58.8-58.8
		S1474.5,785.2,1507,785.2z"/>
	<path id="Wing-Right_copy" class="st24" d="M1252,915l135-77c0,0,20.5-37.9-17-61c-43.9-8-337-53-337-53"/>
	<path id="L-Body5" class="st24" d="M785,962c22.7,48.7,50.4,91.3,89,135s91.4,104.7,109,120s50.2,54.9,93,83s76.9,29,101,29
		s95.1-7.1,123-49c7.7-11.6,13.8-28.1,15.5-46.7c4.4-48.3-9-110.4-12.5-135.3c-3.6-25.8-23.8-122.4-27-130s-42.3-99.3-86-141
		c-41.7-39.8-114.8-86.9-156-103c-22.9-9-39.7-12.4-62.9-13.8 M703.8,782.6c-1.2-3.8-2.1-7.4-2.8-10.6
		c-4.5-11.9-20.1-42.6-26.4-59.7C672.9,707.6,653,662,653,662"/>
	<path id="Wing-Left_copy" class="st24" d="M515.9,941.5c-0.2-11.3,0.6-27-0.9-34.5c-6.7-34-29-40-29-40s270.3-104.5,274-106
		c59,12.2,92.2,60.2,103,81s46.6,101.7-12,118c-5.7,0-291.5,6.1-329,6.9"/>
	<path id="L-Body4" class="st24" d="M838,808l14-23c0,0-16.4-15.5-38-25c-17.7,5-35,6-35,6"/>
	<path id="L-Engine4" class="st24" d="M437,920c38.7,0,70,31.3,70,70c0,38.7-31.3,70-70,70s-70-31.3-70-70
		C367,951.3,398.3,920,437,920z"/>
	<path id="L-Glass" class="st24" d="M1282,990c14,68.3,22,117,22,117s-17.1-5.7-42.4-7.8c-4.5-0.4,6.6,31.4,1.6,31.3
		c-14.6-0.3-31,0.9-48,4.8c-4.5,1-25-29.8-29.5-28.3c-19.9,6.3-40.1,16.6-58.7,33.1c-51.5,24.7-80.2-35.5-89-49
		c-25.3-36.2-13.5-79.8,17-111.5c21.5-22.3,55.3-34.7,89-38.5c45.1-5.1,72.1-7.5,93.5,1.2C1258.9,950.9,1271.6,966.7,1282,990z"/>
	<path id="L-Body3" class="st24" d="M1002,901c47.9-37.1,126.1-51,178-44"/>
	<path id="L-Body2" class="st24" d="M940,832c46.5-36,121.8-50.3,173.6-44.5"/>
	<path id="L-Body" class="st24" d="M880,770c39.8-30.9,105.7-37.7,154.9-37.8"/>
	<path id="Gun_copy" class="st24" d="M1190.8,1328.6c25.5,26.9,68.3,72.4,68.3,72.4l30-56c0,0-22.6-18.9-37.1-31"/>
</g>
<path id="Dot" class="st26" d="M-114-138c1.1,0,2,0.9,2,2s-0.9,2-2,2s-2-0.9-2-2S-115.1-138-114-138z"/>
</svg>
