<?xml version="1.0" encoding="utf-8"?>
<!-- Generator: Adobe Illustrator 22.0.0, SVG Export Plug-In . SVG Version: 6.00 Build 0)  -->
<svg version="1.1" id="Слой_1" xmlns="http://www.w3.org/2000/svg" xmlns:xlink="http://www.w3.org/1999/xlink" x="0px" y="0px"
	 viewBox="0 0 1920 1920" style="enable-background:new 0 0 1920 1920;" xml:space="preserve">
<style type="text/css">
	.st0{fill:#F2F2F2;}
	.st1{fill:#6E1370;}
	.st2{fill:#E0E0E0;}
	.st3{fill:url(#Wing-Left-Shadow4_1_);}
	.st4{opacity:0.8;fill:url(#Wing-Left-Shadow3_1_);enable-background:new    ;}
	.st5{fill:url(#Wing-Right-Shadow3_1_);}
	.st6{opacity:0.4;fill:url(#Wing-Left-Shadow2_1_);enable-background:new    ;}
	.st7{fill:#BFBFBF;}
	.st8{fill:url(#Wing-Left-Shadow_2_);}
	.st9{fill:url(#Body-Fill_1_);}
	.st10{fill:url(#Body-Shadow_2_);}
	.st11{opacity:0.302;fill:url(#Body-Light2_1_);enable-background:new    ;}
	.st12{opacity:0.302;fill:url(#Body-Light_1_);enable-background:new    ;}
	.st13{opacity:0.502;fill:url(#Engine-Shadow2_1_);enable-background:new    ;}
	.st14{fill:#CCCCCC;}
	.st15{fill:#D6D6D6;}
	.st16{fill:#666666;}
	.st17{fill:url(#Gun-Shadow2_1_);}
	.st18{fill:#4D4D4D;}
	.st19{opacity:0.302;fill:url(#Engine-Shadow_1_);enable-background:new    ;}
	.st20{fill:#E6E6E6;}
	.st21{fill:#A800A8;}
	.st22{opacity:0.102;enable-background:new    ;}
	.st23{opacity:0.5;fill:url(#Glass2_1_);enable-background:new    ;}
	.st24{fill:url(#Glass-Fill-L_1_);}
	.st25{fill:none;stroke:#1A1A1A;stroke-width:10;}
</style>
<title>Eagle 34</title>
<path id="Fill-All" class="st0" d="M361,1042l24,6l279,167l23,27l124,42l-8-49l-60-99l320,93c0,0,120.3,115,223,115
	c85.9,0-3.9-164.5-12-187c19.7-20.3,111-117,111-117l158,117l37-72c0,0,2.6-29.9,3.6-42c0.3-3.1-3.6-8-3.6-8l10-130l3-19l12-38
	l-13-241l-20-10l-18,1l-72,193l-121,24l-23-18l-110,35l-2,24l-105,32c0,0-77.9-118-182-118c-68.8,0-118,63.9-118,108
	c-17.4-12.5-36.9-33.9-64-13s-5.2,58.3,7,78c-37.5-2-139-10-139-10l-14-25l-151-14l1,30l-142,7L217,724l-25,2l134,334l27,5L361,1042
	z"/>
<path id="Paint-Dark" class="st1" d="M1586.9,952.3c-3.5,43-6.9,83.7-6.9,83.7s-212.6-212.8-222-222c23.1-5.4,123-22,123-22l114,61
	c0,0-2,24-4.5,54.7c-10.2-15.1-33.7-33.4-57.5-41.7c-1.4,11.6-6,28-6,28S1573,909.5,1586.9,952.3z M499.1,1119.9
	C577.8,1164.7,661,1212,661,1212s-26.5-68.1-201-288c-49.4,1-139,7-139,7l41,111c0,0,40.2,22.9,91.2,51.8
	c2.7-9.9-0.5-41.1-25.2-74.8c20.4,6.8,51,19,51,19S514.1,1098.9,499.1,1119.9z"/>
<path id="Engine-Shadow3" class="st2" d="M912,1044l-93-20c0,0,14.4-68.4,71-68C900,987.3,912,1044,912,1044z"/>
<linearGradient id="Wing-Left-Shadow4_1_" gradientUnits="userSpaceOnUse" x1="854.4018" y1="745.8309" x2="914.0447" y2="953.8309" gradientTransform="matrix(1 0 0 -1 0 1920)">
	<stop  offset="0" style="stop-color:#808080"/>
	<stop  offset="0.306" style="stop-color:#F2F2F2;stop-opacity:0"/>
</linearGradient>
<path id="Wing-Left-Shadow4" class="st3" d="M744,1137l318,92c0,0,10.1-26.3-150-186c-35.6-7.1-93-21-93-21l-144-1L744,1137z"/>
<linearGradient id="Wing-Left-Shadow3_1_" gradientUnits="userSpaceOnUse" x1="794.1111" y1="706.3469" x2="968.6441" y2="914.3469" gradientTransform="matrix(1 0 0 -1 0 1920)">
	<stop  offset="0" style="stop-color:#000000"/>
	<stop  offset="0.303" style="stop-color:#949494;stop-opacity:0"/>
</linearGradient>
<path id="Wing-Left-Shadow3" class="st4" d="M744,1137l318,92c0,0,10.1-26.3-150-186c-35.6-7.1-93-21-93-21l-144-1L744,1137z"/>
<linearGradient id="Wing-Right-Shadow3_1_" gradientUnits="userSpaceOnUse" x1="1362.116" y1="802.8378" x2="1173.847" y2="1004.7318" gradientTransform="matrix(1 0 0 -1 0 1920)">
	<stop  offset="0" style="stop-color:#000000"/>
	<stop  offset="0.251" style="stop-color:#000000;stop-opacity:0"/>
</linearGradient>
<path id="Wing-Right-Shadow3" class="st5" d="M1275,1158l111-118c0,0,8.6-27.5-71-107c-28,13-117,70-117,70s21.8,37.2,41,76
	C1258.3,1117.7,1275,1158,1275,1158z"/>
<linearGradient id="Wing-Left-Shadow2_1_" gradientUnits="userSpaceOnUse" x1="481.4025" y1="785.5562" x2="613.6525" y2="1014.6201" gradientTransform="matrix(1 0 0 -1 0 1920)">
	<stop  offset="0" style="stop-color:#000000"/>
	<stop  offset="0.251" style="stop-color:#000000;stop-opacity:0"/>
</linearGradient>
<path id="Wing-Left-Shadow2" class="st6" d="M361,1042l301,173c0,0-4.8-30.1-104-166c-62.5-40.8-205.2-64.5-218-63
	C344.7,996.7,361,1042,361,1042z"/>
<path id="Wing-Left-Shadow" class="st7" d="M677,1192L462,894l1,30c0,0,145.6,181.2,200,290c6.5,7.3,22,23,22,23L677,1192z"/>
<linearGradient id="Wing-Left-Shadow_2_" gradientUnits="userSpaceOnUse" x1="762.479" y1="726" x2="726.521" y2="637" gradientTransform="matrix(1 0 0 -1 0 1920)">
	<stop  offset="0" style="stop-color:#4D4D4D"/>
	<stop  offset="1" style="stop-color:#CCCCCC"/>
</linearGradient>
<path id="Wing-Left-Shadow_1_" class="st8" d="M802,1237l9,46l-126-41l-7-48L802,1237z"/>
<linearGradient id="Body-Fill_1_" gradientUnits="userSpaceOnUse" x1="735.329" y1="606.105" x2="1237.207" y2="957.5241" gradientTransform="matrix(1 0 0 -1 0 1920)">
	<stop  offset="0" style="stop-color:#2E3033"/>
	<stop  offset="0.801" style="stop-color:#DAE3F2"/>
</linearGradient>
<path id="Body-Fill" class="st9" d="M821,879c0-44.1,49.2-109,118-109c104.1,0,182,118,182,118s42.8,58.3,84,127.8
	c28,47.2,54.8,100.2,69,141.3c8.1,22.5,97.9,187,12,187c-99.9,0.5-221.7-113.9-223-115c-0.8-35.7-126.8-165.6-168-203
	c-0.2-6.1,0.3-35.2-2-72C852.9,914.1,828.3,886,821,879z"/>
<linearGradient id="Body-Shadow_2_" gradientUnits="userSpaceOnUse" x1="971.6187" y1="647.2376" x2="1284.7037" y2="1221.2375" gradientTransform="matrix(1 0 0 -1 0 1920)">
	<stop  offset="0" style="stop-color:#000000"/>
	<stop  offset="0.251" style="stop-color:#DAE3F2;stop-opacity:0"/>
</linearGradient>
<path id="Body-Shadow" class="st10" d="M821,879c0-44.1,49.2-109,118-109c104.1,0,182,118,182,118s42.8,58.3,84,127.8
	c28,47.2,54.8,100.2,69,141.3c8.1,22.5,97.9,187,12,187c-99.9,0.5-221.7-113.9-223-115c-0.8-35.7-126.8-165.6-168-203
	c-0.2-6.1,0.3-35.2-2-72C852.9,914.1,828.3,886,821,879z"/>
<linearGradient id="Body-Light2_1_" gradientUnits="userSpaceOnUse" x1="1062.1135" y1="640.2349" x2="1322.0535" y2="761.447" gradientTransform="matrix(1 0 0 -1 0 1920)">
	<stop  offset="0.598" style="stop-color:#FFFFFF;stop-opacity:0"/>
	<stop  offset="0.676" style="stop-color:#FFFFFF"/>
	<stop  offset="0.699" style="stop-color:#FFFFFF"/>
	<stop  offset="0.798" style="stop-color:#FFFFFF;stop-opacity:0"/>
</linearGradient>
<path id="Body-Light2" class="st11" d="M1159,1066c61.2,0,68.6-28.1,117,89c8.1,22.5,97.9,187,12,187
	c-99.9,0.5-221.7-113.9-223.1-115C1065,1104.4,1131.9,1066.8,1159,1066z"/>
<linearGradient id="Body-Light_1_" gradientUnits="userSpaceOnUse" x1="798.5567" y1="757.6489" x2="1182.5156" y2="1103.3678" gradientTransform="matrix(1 0 0 -1 0 1920)">
	<stop  offset="0.598" style="stop-color:#FFFFFF;stop-opacity:0"/>
	<stop  offset="0.676" style="stop-color:#FFFFFF"/>
	<stop  offset="0.699" style="stop-color:#FFFFFF"/>
	<stop  offset="0.751" style="stop-color:#FFFFFF;stop-opacity:0"/>
</linearGradient>
<path id="Body-Light" class="st12" d="M821,879c0-44.1,49.2-109,118-109c104.1,0,182,118,182,118s42.8,58.3,84,127.8
	c-65.6-8.5-163.5-19.5-142,213.3c-0.8-35.7-126.8-165.6-168-203c-0.2-6.1,0.3-35.2-2-72C852.9,914.1,828.3,886,821,879z"/>
<linearGradient id="Engine-Shadow2_1_" gradientUnits="userSpaceOnUse" x1="774.1971" y1="985.245" x2="774.1971" y2="1057.5385" gradientTransform="matrix(1 0 0 -1 0 1920)">
	<stop  offset="0" style="stop-color:#494949"/>
	<stop  offset="1" style="stop-color:#F2F2F2"/>
</linearGradient>
<path id="Engine-Shadow2" class="st13" d="M758,925c-1.2-19.1,2.5-46.7,46-54c0.4-3.6-20.2-27.1-48-5S759.2,944.1,758,925z"/>
<path id="Wing-Right-Shadow" class="st14" d="M1596,854l-114-62l73-194l38,9l12,247H1596z"/>
<path id="Wing-Right-Shadow_1_" class="st14" d="M1259.3,857.8C1242.3,843,1232,834,1232,834s-3.2,7.3-4,19
	c6.4,5.3,12.6,10.4,18.6,15.4C1250.8,864.3,1257,861,1259.3,857.8z M1329.4,946.8c61.4,67.5,57.6,96.2,57.6,96.2l155,115l11-44
	c0,0-127-110.8-221.3-193c-0.8,4.3-2.7,10-2.7,10l-37,27l35-6C1327,952,1329.3,944.3,1329.4,946.8z M1320,910.7
	c-15.3-13.4-29.5-25.8-41.9-36.5c-18.1-3-45.1,26.8-45.1,26.8s34.6-8.5,43.7-6.3c11,9.9,20.8,19.3,29.8,28.2
	C1311.5,918.5,1316.1,913.7,1320,910.7z"/>
<path id="Body-Shadow_1_" class="st7" d="M676,1020l35,15l-20,7L676,1020z M642,964l36,14l-22,8L642,964z"/>
<path id="Body-Shape" class="st15" d="M850,911l35-21c0,0,40.4,48.8,85,103c-11.7,62.2-2,106-2,106c-20-21.8-54-55-54-55l-22-88
	L850,911z"/>
<path id="Wing-Right-Line3" class="st7" d="M1554,598c0,0,0.6-0.2,1.5-0.5c5.3-1.8,22.5-7.5,22.5-7.5l32,9l11,248l-12,44l-16,13v-16
	v-2l12-39l-13-239L1554,598z"/>
<path id="Wing-Right-Shadow_2_" class="st16" d="M1588,898l9-9h7c0,0-16,12.5-16,13S1588,898,1588,898z"/>
<linearGradient id="Gun-Shadow2_1_" gradientUnits="userSpaceOnUse" x1="1253.5" y1="482" x2="1253.5" y2="598" gradientTransform="matrix(1 0 0 -1 0 1920)">
	<stop  offset="0.303" style="stop-color:#FFFFFF"/>
	<stop  offset="1" style="stop-color:#616161"/>
</linearGradient>
<path id="Gun-Shadow2" class="st17" d="M1276,1344l43,45l-34,49c0,0-70-81.3-97-116C1223.3,1337.7,1276,1344,1276,1344z"/>
<path id="Gun-Shadow" class="st18" d="M1284,1438l-27-36l64-13l-34,52L1284,1438z"/>
<path id="Wing-Left" class="st7" d="M361,1043l-42-111l-89-182l-26,6l89,219l38,94l23-5L361,1043z"/>
<linearGradient id="Engine-Shadow_1_" gradientUnits="userSpaceOnUse" x1="748.7922" y1="946.0358" x2="893.8552" y2="1061.3408" gradientTransform="matrix(1 0 0 -1 0 1920)">
	<stop  offset="0" style="stop-color:#000000"/>
	<stop  offset="0.503" style="stop-color:#000000;stop-opacity:0"/>
</linearGradient>
<path id="Engine-Shadow" class="st19" d="M892,955l-92-93c0,0-32.3-11-44,5c-11.7,16-12.8,38.8,1,64s61,90,61,90s9.4-39.9,34-50
	S892,955,892,955z"/>
<path id="Engine-SHadow" class="st20" d="M819,1023c6.7-53.5,60.7-66.8,74-67c0.1,2.1,21,88,21,88S856.3,1030.8,819,1023z"/>
<path id="Glass-R_copy" class="st18" d="M1244,1185.3c0.4-0.3,1.2-0.6,1-1c-5.6-10.8-60.1-134.8-129-217.3
	c-28.4,9.3-42.5,20.2-60,47c5.2,42.7,14.5,83.3,34,105s99.2,78.3,110,85c9.6,0.1,21,0.8,21,0.8s0.1-0.1,0.4-0.4
	C1226.9,1196.5,1236.3,1189.8,1244,1185.3z M1182,977c-11.3-7.3-21.4-16.6-49-14c62,80.6,105.9,165.5,131,220
	c10.9-1.3,17.1,2.2,25,8C1275.7,1159,1226.8,1041.9,1182,977z"/>
<path id="Paint" class="st21" d="M1503,805c1.1-0.9,16-44,16-44l-22-12l59-150l35,10l21-8l8,246l-11,45l-15,9l8-45
	C1602,856,1501.9,805.9,1503,805z M331,1070l25-6l4-21l-44-116l-86-175l-28,5L331,1070z"/>
<path id="Wing-Shadow41" class="st22" d="M1602,855l-99-54l13-40l-19-12l55-152l39,14l14,232l16,4l-10,43l-17,10L1602,855z"/>
<path id="Wing-SHadow40" class="st22" d="M331,1070l25-6l4-21l-44-116l-86-175l-28,5L331,1070z"/>
<radialGradient id="Glass2_1_" cx="1167.7101" cy="-706.832" r="325.8229" gradientTransform="matrix(0.5204 0.8539 0.2366 -0.1442 696.9999 -11.707)" gradientUnits="userSpaceOnUse">
	<stop  offset="0.344" style="stop-color:#4D4D4D"/>
	<stop  offset="0.8336" style="stop-color:#808080"/>
	<stop  offset="0.8938" style="stop-color:#E6E6E6"/>
	<stop  offset="0.9656" style="stop-color:#808080"/>
	<stop  offset="1" style="stop-color:#4D4D4D"/>
</radialGradient>
<path id="Glass2" class="st23" d="M1138,963.2c32-1.7,42.7,9.5,47.7,17s96.6,176.9,103.3,211.5c-14.7-7.5-15.7-8.8-23.3-6.5
	C1254.3,1162.2,1138,963.2,1138,963.2z"/>
<radialGradient id="Glass-Fill-L_1_" cx="2078.7915" cy="448.5783" r="229.5637" fx="2077.1191" fy="448.5915" gradientTransform="matrix(0.8656 -0.502 -1.522 -2.4745 -60.8824 3329.4553)" gradientUnits="userSpaceOnUse">
	<stop  offset="0.344" style="stop-color:#4D4D4D"/>
	<stop  offset="0.5263" style="stop-color:#808080"/>
	<stop  offset="0.628" style="stop-color:#E6E6E6"/>
	<stop  offset="0.7351" style="stop-color:#808080"/>
	<stop  offset="0.9452" style="stop-color:#4D4D4D"/>
</radialGradient>
<path id="Glass-Fill-L" class="st24" d="M1244.5,1187.2c0.4-0.3,1.2-0.6,1-1c-5.6-10.8-60.1-134.8-129-217.3
	c-28.4,9.3-41.5,22.2-59,49c5.2,42.7,19.5,86.3,39,108s96.2,70.3,107,77c9.6,0.1,20-0.3,20-0.3s0.1-0.1,0.4-0.4
	C1229.4,1194.4,1236.8,1191.7,1244.5,1187.2z"/>
<g id="Line">
	<path id="L-Glass" class="st25" d="M1182,977c-11.3-7.3-21.4-16.6-49-14c62,80.6,105.9,165.5,131,220c10.9-1.3,17.1,2.2,25,8
		C1275.7,1159,1226.8,1041.9,1182,977z"/>
	<path id="L-Wing4" class="st25" d="M464.3,896.9C482.4,922,677,1193,677,1193s111.7,37.2,124.8,41.6c0.6,0.3,1.1,0,0.6-0.7
		C790.1,1213.2,610,908,610,908s-128-11.3-145.1-12.8C464.1,895.1,464.1,896.3,464.3,896.9z"/>
	<path id="L-Body7" class="st25" d="M696,1215c0.1,1.3,2,18,2,18l92,30l-2-18C788,1245,695.9,1213.7,696,1215z"/>
	<path id="L-Body6" class="st25" d="M631,944l43,19l14,20c0,0-0.2,0.9-0.7,0.7C681.8,981.3,644,964,644,964"/>
	<path id="L-Body5" class="st25" d="M685,983l-28,3"/>
	<path id="L-Body4" class="st25" d="M664,999l43,19l14,20c0,0-0.2,0.9-0.7,0.7c-5.5-2.4-43.3-19.7-43.3-19.7"/>
	<path id="L-Body3" class="st25" d="M718,1038l-28,3"/>
	<path id="L-Wing3" class="st25" d="M1230.8,831.4c-2.4,0.8-2.1,0.3-0.9,1.5C1249.1,849.5,1552,1114,1552,1114s17.9-37.6,33.4-70.3
		c0.8-0.9,0.9-0.4-0.4-1.6c-17.2-16.5-243-244.1-243-244.1"/>
	<path id="L-Body2" class="st25" d="M1257,857l-43,33l14,12l42-32l1,2v19l-43,12"/>
	<path id="L-Body" class="st25" d="M1319,912l-47,38l14,12l42-32l1,2v19l-43,12"/>
	<path id="Wing-Left-Line" class="st25" d="M461,921c25.7,30.5,204.4,272.2,202,293"/>
	<path id="Wing-Right-Line2" class="st25" d="M1480,791l122,65c0,0,0,1.7-1,2"/>
	<path id="Wing-Right-Line" class="st25" d="M1225,852c0,0,7.9,6.3,20.1,16.6 M1385,1039c2.9-21.8-22.4-56.4-53.7-89.8 M1305.5,923
		c-9.8-9.5-19.7-18.7-29-27c-4.9-4.4-6.6-6-6.6-6"/>
	<path id="L-Gun2" class="st25" d="M1282,1344l40,45l-36,51c0,0-74.7-90.9-104-127"/>
	<path id="L-Gun" class="st25" d="M1254,1401l65-14"/>
	<path id="L-Cabin5" class="st25" d="M1121,888c98.9,141.3,103.8,162.1,157,280"/>
	<path id="Wing-Line3" class="st25" d="M1062,1229c-4.3-40.4-105.3-142.7-151.5-187.5"/>
	<path id="Wing-Line2" class="st25" d="M1552,1114l-9,44"/>
	<path id="Wing-Line" class="st25" d="M677,1193l9,50"/>
	<path id="L-Wing2" class="st25" d="M361,1043l-42-111l-89-182l-26,6l89,219l38,94l23-5L361,1043z"/>
	<path id="L-Engine2" class="st25" d="M893,954l-79-81c0,0-69.7-6.1-53,65c5.2,8.9,57,85,57,85"/>
	<path id="L-Glass_1_" class="st25" d="M1248,1188c0.4-0.3,1.2-0.6,1-1c-5.6-10.8-64.2-138.3-133-221c-28.4,9.3-42.5,21.2-60,48
		c5.2,42.7,13.5,83.3,33,105s100.2,79.3,111,86c9.2,0.6,23,0,23,0s0.1-0.1,0.4-0.4C1227.9,1196.7,1238.2,1189.6,1248,1188z"/>
	<path id="L-Engine" class="st25" d="M819,1023c6.7-53.5,60.7-66.8,74-67c0.1,2.1,21,88,21,88S856.3,1030.8,819,1023z"/>
	<path id="L-Cabin3" class="st25" d="M892,781c48.2-13.4,170.9,136.9,205,190 M1127,979l14-2"/>
	<path id="L-Cabin4" class="st25" d="M1153,965c-30.4-47.4-125.3-169.7-184.5-192.4"/>
	<path id="L-Cabin2" class="st25" d="M1296,1343c-74.7,0-46.8-31.1-88.1-53.9c-81.6-45.1-172.4-150.6-242.9-230.1"/>
	<path id="L-Cabin7" class="st25" d="M1224,1300c0-10.8,3-50.4,48.4-59.9c24-5,34.3-0.5,38.6,4.8"/>
	<path id="L-Wing" class="st25" d="M1593,886l12-39l-13-239l-38-10c0,0,0.6-1.2,1.5-1.5c5.3-1.8,23.5-5.5,23.5-5.5l32,9l10,247
		l-12,44c0,0-10.9,8.8-18.6,15"/>
	<path id="Line-All" class="st25" d="M1358,814l124-23l72-193 M1592,609l18-8 M1346,799l-118,33l-1,22l-106,34c0,0-77.9-118-182-118
		c-68.8,0-118,63.9-118,108c-17.4-12.5-36.9-33.9-64-13s-5.2,58.3,7,78c-37.5-2-139-10-139-10l-14-25l-151-14l1,30l-142,7L217,724
		l-25,2l139,343l22-4l8-23l303,173l23,27l124,42l-8-49l-59-100l319,94c0,0,123.1,115.5,223,115c85.9,0-3.9-164.5-12-187
		c19.7-20.3,111-117,111-117l158,117l37-75l6-38c0,0-2.7-4.4-6-9c0.8-37.3,16-181,16-181"/>
	<path id="L-Wing32" class="st25" d="M821,1157c0.6-26,1-42.5-37-81c0.1-0.3,0.6-0.9,0.9-0.8c39.9,6.8,54.1,9.8,54.1,9.8
		s42.5,35.8,28,84"/>
	<path id="L-Wing31" class="st25" d="M1335,1093c0-16.5,9-37.7-52-78c-19.1,9.9-30,18-30,18s66.6,45.4,52.9,91.2"/>
	<path id="L-Wing30" class="st25" d="M456,1097c0-14.2,0.8-29.9-24.9-72c-2.6-3.8-1.4-4.7,3-2.9c29.1,10,42.9,16.9,42.9,16.9
		s37.9,56.9,22,80"/>
	<path id="L-Wing33" class="st25" d="M1586,954c-2.5-13.1-7.4-34.3-59-60c4.6-19.6,6-28,6-28s55.2,19.8,57,48"/>
	<path id="L-Wing34" class="st25" d="M1500,751l20,9l-15,42"/>
	<path id="L-Cabin" class="st25" d="M850,911l35-21c0,0,40.4,48.8,85,103c-11.7,62.2-2,106-2,106c-20-21.8-54-55-54-55l-22-88
		L850,911z"/>
</g>
</svg>
