Name;Description;ID;Cooldown;Target;Range
"Ballistic Assistance";"Target continuously stacks 10% Hit Chance and 0.5 Range on all weapons each turn";"10001";"3";"abl_unit";"7"
"Computer Guidance";"This Unit and Units around gets +50% Dodge versus all Attacks and +1 Speed for 3 turns";"10002";"5";"abl_circle";"3"
"Orbital assistance";"Target unit gets +50% hit chance and +2 range on all weapons for 3 turns";"10003";"3";"abl_unit";"6"
"Mainframe support";"Target gets +30% dodge versus all attacks, +40% hit chance and +0.5 attack rate, as well as bonus XP on destroy, for 2 turns";"10004";"3";"abl_unit";"9"
"Infest";"Permanently reduce target's Dodge by 30% and destroy Reactive and Elusive Defenses";"12001";"4";"abl_unit";"14"
"Mycotoxin";"Reduce unit speed by 60% for 3 turns. After effect expires, deal 200 BIO Damage to unit";"12002";"3";"abl_unit";"13"
"Predator sense";"Increase an Organic unit Scan Range by 5, Speed by 3 and Hit Points by 40 for 2 turns.";"12003";"1";"abl_unit";"9"
"Enzyme Inhibitors";"Remove Resilient Defense. Unit takes double BIO Damage to Hit Points for the duration";"12004";"4";"abl_unit";"9"
"Neural Parasite";"Take control over an Organic unit for 2 turns. Other units take 80 BIO Hit Points Damage";"12005";"3";"abl_unit";"10"
"Wild Growth";"Grant a unit a Disposable Shield equal to 150% of its maximal Hit Points, which fully negates BIO and HEA Damage. While effect is active, the unit regenerates 5 Hit Points every time it is attacked";"12006";"5";"abl_unit";"12"
"Stasis Matrix";"Put a unit into stasis, rendering it Disabled and Non-Targetable for 2 turns";"20001";"4";"abl_unit";"16"
"Molten Core";"Destroy the Olympius Reactor, dealing up to 600 HEA, EMP and RAD damage in radius 5. If the unit survives the explosion, it loses shield batteries and an ability to move";"25000";"0";"abl_self";"0"
"Self destruct";"Trigger doomsday device, exploding this unit and dealing damage around";"25001";"0";"abl_self";"0"
"Electrocute";"Charge a unit with electrical aura, dealing 150 EMP Damage to all targets in Range 4 in the Deferred stage for 3 turns";"37000";"5";"abl_unit";"9"
"Swap";"Swap positions with unit";"37001";"3";"abl_unit";"12"
"Quantum tunnel";"Drain shields from all targets in Range and restore the drained amount to this unit";"37002";"5";"abl_circle";"4"
"Flares";"Temporarily increase Dodge against Missile and Aerial by 70%. Deal 50 HEA Aerial damage in Range 2";"37003";"4";"abl_self";"0"
"Wear And Tear";"All Mechanical units around lose half of their current health, but gain Unstoppable perk, +2 Speed and +20% Damage for 2 turns";"37004";"4";"abl_circle";"4"
"Mytochondrial Mutation";"Organic unit becomes immune to Radiation, gains 30% Max Hit Points and +1 speed";"37005";"5";"abl_unit";"2"
"Decompose";"Consume an organic unit and transfer its Hit Points to this unit. Other units take 120 BIO Damage instead";"37006";"5";"abl_unit";"7"
"Circuit Breaker";"Robotic units are immobilized for 3 turns and a stripped of any shields. Other units take 150 EMP Damage";"37007";"5";"abl_unit";"3"
"Tactical Node";"If target is a Robotic unit, reduce its speed by 3 and grant it +10% Damage and Dodge per each friendly Robotic unit in range 5 for 2 turns";"37008";"4";"abl_unit";"10"
"Safety Dome";"Create a zone that provides 50 Damage Threshold to all units inside and restores 50 Shields to them by the end of turn";"37009";"6";"abl_map";"12"
"Timebomb Zone";"Units that start their turn in the area do not restore Abilities cooldowns, and all effects they have persist their duration. When effect expires, the zone explodes dealing 200 WRP Damage to all units inside";"37010";"5";"abl_map";"11"
"Orbital Strike";"Deal up to 500 HEA, EMP and TRM damage in area of radius 3 as Bombardment";"45000";"4";"abl_map";"90"
"Evacuation";"Put all friendly units in radius 3 into your Bay, as long as space is provided";"45001";"6";"abl_map";"90"
"Abduction";"Steal a unit from map and put it into your bay, taking control over it and boosting some of technologies this unit posseses";"45002";"5";"abl_unit";"90"
"Force Field";"Create an Force Field on map, which can't be traversed or shot through. All units captured inside the Force Field are disabled for duration";"45003";"4";"abl_map";"90"
"Deploy Beacon";"Create additional area where units can be deployed to";"45004";"6";"abl_map";"90"
"Planet cracker";"Destroy ground and naval units in area, flatten hills, if any, otherwise create a rift on surface, unless it's in water";"45005";"10";"abl_map";"90"
"Inspire";"Grant all friendly units in area +20% Hit Points and +20% Damage permanently. Does not stack with itself.";"45006";"5";"abl_map";"90"
"Mine Field";"Fill an area with proximity mines, which all detonate simultaneously whenever a unit moves inside the area";"45007";"3";"abl_map";"90"
"Irradiate";"Create an area that does 100 RAD Damage to Robotic Units and heals Organic units for 100 Hit Points immediately and and the beginning of turn. For each unit in the area, increase the damage/heal by 20% and area radius by 0.5";"45008";"6";"abl_map";"90"
"Mainframe Jammer";"Reduce unit's Scan Range by 5 and Attack and Ability ranges by 3 for 3 turns. Deal 25 EMP damage per turn for duration";"50001";"3";"abl_unit";"12"
"Negative surge";"Deal 50 WRP Damage to unit, if it's not Robotic, otherwise heal it for 35 Hit Points";"50002";"2";"abl_unit";"9"
"Mending Stream";"Deal 50 RAD Damage to unit, if it's not Organic, otherwise heal it for 35 Hit Points";"50003";"2";"abl_unit";"9"
"Defragmentation";"Organic and Robotic units take 75 ANH Damage. Other units are healed for 50 Hit Points";"50004";"3";"abl_unit";"12"
"Caustic Isomers";"Increase a friendly unit's Armor Absorption by 15% or deal 45 BIO Precision Damage to an enemy unit";"50005";"4";"abl_unit";"7"
"Shutdown";"Reset Abilities Cooldown on a unit, and disable them for 3 turns";"50006";"4";"abl_unit";"10"
"Segmentation fault";"Gain an extra Deployment next turn";"60000";"3";"abl_player_self";"0"
"Exploit";"Reduce Player's Intelligence and Counter-Intelligence by 2";"60001";"5";"abl_player";"90"
"Seize Droids";"Disable Player's production for 2 turns";"60002";"6";"abl_player";"90"
"Smoke Screen";"Create a zone which blocks sight and provides units inside with Cloaking and bonus Dodge, but reduces their Hit Chance";"60003";"7";"abl_map";"90"
"Weather Storm";"Create a zone that strikes all units inside with 200 EMP Cloud Damage in the end of every turn";"60004";"10";"abl_map";"90"
"Celestial Flow";"Create a zone which heals all units inside at the beginning of each turn";"60005";"6";"abl_map";"90"
"Orbital energy transfer";"All units in area has their shields repaired and overcharged by 30% if applicable. If a unit is Robotic, it's also repaired";"60006";"7";"abl_map";"90"
"Shield funnel";"Increase a friendly unit's shields capacity by 1% per each point of your Base Energy Output and fully restore them. Enemy unit's shields are discharged by 1% of shield capacity per point instead";"60007";"5";"abl_unit";"90"
"Crumble";"Destroy all Doodads and Air units in area. Turn down all cushions for Hover units, making them move on ground. If a unit can't land properly, it's destroyed";"60008";"8";"abl_map";"90"
"Equinox Barrage";"Shoot 3 missiles at enemy's Base, each dealing up to 200 mixed Damage";"60009";"9";"abl_player";"90"
"Apocalypse";"Drop a BHG bomb to location and 11 more on the map randomly. Each explodes in Range 8 dealing massive damage to all units, destroying doodads and reshaping coastlines";"60010";"10";"abl_map";"90"
"Surveillance assistance";"Player gains +3 Intelligence level for 3 turns";"99901";"4";"abl_player_self";"0"
"Transmission intercept";"Player gains +3 Counter-Intelligence level for 3 turns";"99902";"5";"abl_player_self";"0"
"Nano swarm";"Non-robotic, non-organic friendly units are healed for 50 Hit Points, other friendly units get 50 Precision HEA Damage. For enemy units works the other way around";"99903";"2";"abl_unit";"10"
"Nullify";"Remove all status effects from target";"99904";"3";"abl_unit";"12"
"Cleanse";"Remove all negative non-constant effects on a target unit and restore it 50% of maximum health";"99905";"4";"abl_unit";"10"
"Blind";"Target unit gets -150% Hit Chance on all weapons for 2 turns";"99906";"2";"abl_unit";"15"
"Subjugate";"Disable a unit for 2 turns. Disabled units do not take any actions and can't move";"99907";"4";"abl_unit";"13"
"Feedback";"Target unit loses all shields and takes EMP Precision damage equal to amount of shields lost";"99908";"2";"abl_unit";"13"
"Time Twist";"Restore this unit's Hit Points and recharge all abilities's cooldowns, but revert all that after 2 turns";"99909";"6";"abl_unit";"10"
"Survey";"Provide Scanning in 4 Range around the point for 3 turns, revealing all Stealthed units in area";"99910";"3";"abl_map";"12"
"Hallucination";"All enemy Units around have their Hit Chance and Dodge reduced by 25% for 2 turns and take 45 Precision Heat Damage immediately and once again when the effect expires";"99911";"2";"abl_circle";"5"
