Name;Description;ID;Tier;Research Output;Engineering Output;Base Bonuses;Energy Consumption;Resource Cost
"Science Lab";"Dedicated research complex";"100";"1";"12";"0";"+1 Recon Level, +2 Research Output to every Establishment";"15";"Helium: 400, Minerals: 1200, Ores: 5000, Isotopes: 40, Nitrogen: 500"
"Braintank";"Advanced research and scientific complex";"101";"2";"20";"0";"+2 Recon Level, +2 Research Output to every Establishment, +2 Repair Output to every Facility";"19";"Helium: 500, Minerals: 4120, Isotopes: 100, Nitrogen: 740, Halogens: 475"
"VPR Network";"The most advanced research establishment";"102";"3";"25";"0";"+1 Recon Level, +2 Research Output to every Establishment, -10% Base Energy Consumption";"26";"Isotopes: 150, Carbon: 3540, Ores: 6250, Minerals: 3300"
"Investigation Bureau";"An establishment focused on gathering information about enemy technologies";"200";"1";"0";"5";"+2 Recon Level, +1 Counter-Recon Level, +2 Research Output to every Establishment";"22";"Nitrogen: 500, Carbon: 2500, Proteins: 780, Ores: 2280, Oxygen: 840"
"Reconnaissance Agency";"The gathering of data scientists and security specialists that work hard on providing combat info on opponents and maintain a security firewall that counteracts enemy intelligence";"201";"2";"0";"5";"+4 Recon Level, +3 Counter-Recon Level, +2 Research Output to every Establishment, +1 Repair Output to every Facility";"28";"Nitrogen: 1200, Minerals: 2240, Ores: 2350, Proteins: 400"
"Hacker Forum";"All sorts of digital warfare are researched, developed and counteracted here by a group of cybersecurity enthusiasts";"202";"2";"5";"0";"+3 Recon Level, +4 Counter-Recon Level, +2 Research Output to every Establishment";"30";"Nitrogen: 600, Halogens: 900, Hydrogen: 2200, Ores: 3600, Proteins: 900"
"Frequency Array";"Densely packed collection of various transmission and survey devices, providing a deeper look into what's happening on the planet surface";"203";"3";"10";"0";"+5 Recon Level, +2 Research Output to every Establishment, +5% Base Energy Consumption";"24";"Carbon: 6000, Minerals: 1050, Isotopes: 60"
"Tachyon Lattice";"Orbital tachyon field projector that scrambles enemies' communication and surveillance, offers the Base some protection from energy weapons and grants a Force Field ability";"204";"3";"2";"2";"+5 Counter-Recon Level, +2 Research Output to every Establishment, +100 Energy Storage, -25% HEA|-25% EMG|-25% RAD Base Armor Damage";"37";"Halogens: 1200, Ores: 2450, Nitrogen: 1250, Minerals: 4700, Helium: 650, Isotopes: 460"
"Nanocell Hull";"An exterior protection for the Base that provides universal damage mitigation from Orbital Attacks";"300";"1";"0";"0";"+2 Research Output to every Establishment, -5% Repair Output to every Facility, -30% All Base Armor Damage";"17";"Carbon: 2200, Halogens: 450, Minerals: 1180"
"Reactive Hull";"An exterior protection for the Base that provides universal protection from Orbital Attacks and some extra defense against explosives";"301";"2";"0";"0";"+2 Research Output to every Establishment, -10% Repair Output to every Facility, -30 KIN|-30 TRM|-30 HEA|-30% Other Base Armor Damage";"26";"Minerals: 1320, Carbon: 1450, Ores: 2200"
"Neutrino Hull";"An exterior protection for the Base that provides universal protection from Orbital Attacks and some extra defense against destructuring effects";"302";"2";"0";"0";"+2 Research Output to every Establishment, -10% Repair Output to every Facility, -30 BIO|-30 WRP|-30 ANH|-30% Other Base Armor Damage";"29";"Minerals: 2600, Carbon: 1850, Halogens: 220, Ores: 1600"
"Vertebral Armor";"Dense chine going through the hull of the Base provides significant protection versus Orbital Attacks";"303";"3";"0";"6";"+2 Research Output to every Establishment, -15% Repair Output to every Facility, -50% All Base Armor Damage";"35";"Ores: 5600, Carbon: 2250, Helium: 400, Nitrogen: 900, Minerals: 1750"
"Nanite Cloud";"A storage for Autonomous microbots that protect the Base from Orbital Attacks and help to repair units and hull. Also grants a Celestial Flow ability";"304";"3";"0";"0";"+2 Research Output to every Establishment, +10% Repair Output to every Facility, -20%/-20 All Base Armor Damage";"32";"Minerals: 3300, Carbon: 4340, Proteins: 140, Isotopes: 450"
"Campus";"An establishment for technicians who can reverse engineer almost anything";"400";"1";"0";"10";"+2 Research Output to every Establishment";"17";"Isotopes: 15, Proteins: 140, Nitrogen: 1080, Carbon: 2200, Oxygen: 650"
"Proving Grounds";"Advanced training Establishment performing automated combat tests and simulations";"401";"2";"0";"15";"+2 Research Output to every Establishment";"27";"Ores: 2490, Helium: 1650, Halogens: 800, Carbon: 2250"
"Grinder";"Utilization plant that provides plenty of supply for engineering works";"402";"2";"0";"17";"+2 Research Output to every Establishment, +10% Repair Output to every Facility";"30";"Minerals: 2430, Carbon: 2850, Isotopes: 200"
"Manufactory";"Huge plant full of technological toys and conceptual machines for engineering works";"403";"3";"0";"30";"+2 Research Output to every Establishment, -1 Base Energy Consumption, +3 Repair Output to every Facility";"35";"Minerals: 3600, Ores: 5270, Halogens: 230, Carbon: 4160"
"Simulation Chamber";"Augmented reality simulations can be conducted at this establishment, providing for all kinds of scientific and engineering experiments";"404";"3";"5";"24";"+2 Research Output to every Establishment, +1 Base Energy Consumption";"31";"Isotopes: 900, Ores: 3700, Helium: 500, Proteins: 250, Nitrogen: 750"
"Amphitheatre";"Entertainment establishment that generally increases productivity of the staff";"500";"1";"3";"3";"+2 Research Output to every Establishment, +5% Raw Material Output to every Facility";"11";"Proteins: 640, Ores: 1200, Oxygen: 450"
"Holostage";"Holographic staging establishment that heavility boosts the overall productivity of the Base";"501";"2";"5";"5";"+2 Research Output to every Establishment, +10% Raw Material Output to every Facility";"26";"Proteins: 250, Isotopes: 50, Helium: 250, Carbon: 3200, Ores: 4500"
"Observation Deck";"A great place to gather and peer into the endless space, which increases the morale of the crew nicely";"502";"2";"10";"2";"+2 Research Output to every Establishment, +5% Raw Material Output to every Facility";"22";"Halogens: 450, Minerals: 1250, Carbon: 4200, Ores: 1500"
"Ascendancy Summit";"Literally the pinnacle of the Base. An establishment that provides huge boosts to all the other projects and grants an unique Inspire ability.";"503";"3";"0";"0";"+15% Research Output to every Establishment, +15% Engineering Output to every Establishment, +15% Repair Output to every Facility, +15% Raw Material Output to every Facility, +250 Energy Storage";"50";"Isotopes: 350, Hydrogen: 1500, Helium: 350, Minerals: 8200, Proteins: 200, Halogens: 370"
