
> far-galaxy@1.0.1 build:server C:\Users\neolo\far-galaxy
> node ./make.srv.js "dev" "exportFactories"

Building
 [
  'exportFactories=C:/Users/neolo/far-galaxy/tools/exportFactories.ts'
]
[94mi[39m [90m｢atl｣[39m: Using typescript@[1m3.9.7[22m from [1mtypescript[22m
[94mi[39m [90m｢atl｣[39m: Using [1mtsconfig.json[22m from [1mC:/Users/neolo/far-galaxy/tsconfig.json[22m
[94mi[39m [90m｢atl｣[39m: Checking started in a separate process...
[94mi[39m [90m｢atl｣[39m: Time: [1m9504[22mms
   53 modules
Name;Description;ID;Tier;Prototype Slots;Production Speed;Max Prototype Cost;Compatible Chassis;Energy Consumption;Resource Cost
"Training Hall";"A shooting range, a military lectorium and simulation training compounds naturally attract all the fiercest mercenaries around,     but also could be used for training operatives";"100";"1";"1";"8";"45";"Infantry, Exo, Biotech";"5";"Carbon: 1500, Minerals: 1000, Ores: 400, Proteins: 120, Oxygen: 175,"
"Bionic Institute";"A dedicated military research establishment that prepares highly advanced operatives and produces experimental bionic units";"101";"2";"2";"12";"90";"Infantry, Exo, Biotech";"10";"Carbon: 2800, Minerals: 1500, Ores: 4000, Oxygen: 200, Isotopes: 20, Nitrogen: 420,"
"Military University";"Highest grade operatives are forged here";"102";"3";"3";"18";"180";"Infantry, Exo, Biotech";"16";"Carbon: 4000, Minerals: 2200, Ores: 9500, Oxygen: 600, Isotopes: 100, Nitrogen: 2000, Proteins: 200,"
"Barracks";"A training establishment for infantry, having enough space for several running projects,     though not very technologically advanced";"103";"2";"3";"12";"100";"Infantry, Exo";"12";"Carbon: 4000, Minerals: 1200, Ores: 1800, Oxygen: 500, Isotopes: 25, Hydrogen: 250, Proteins: 400,"
"BioForge";"A military lab packed with all sorts of new experimental technologies, preparing the best soldiers     and breeding the evilest biounits in the known Universe";"104";"3";"2";"18";"210";"Infantry, Exo, Biotech, Swarm, Hydra";"18";"Carbon: 2500, Minerals: 2000, Ores: 3600, Oxygen: 100, Isotopes: 250, Nitrogen: 1000, Halogens: 250,"
"Cloning Vats";"A bionic lab equipped to rapidly produce any biotechnological units";"105";"3";"4";"16";"200";"Biotech, Swarm, Hydra";"20";"Carbon: 5000, Minerals: 600, Ores: 4250, Isotopes: 150, Halogens: 400, Proteins: 250,"
"Special Forces Academy";"A military establishment preparing best special operatives in class";"106";"2";"2";"12";"200";"Infantry, Exo";"11";"Carbon: 1200, Minerals: 500, Ores: 700, Oxygen: 200, Isotopes: 30,"
"Motor works";"Basic vehicle production facility with single conveyor";"200";"1";"1";"8";"50";"Scout, Lav, Sup_vehicle";"10";"Carbon: 2200, Minerals: 1000, Ores: 2500, Oxygen: 100, Nitrogen: 400,"
"Light vehicle factory";"A factory equipped to produce all but most heavy combat vehicles, capable of maintaining two projects at a time";"201";"2";"2";"12";"100";"Scout, Lav, Sup_vehicle, Tank";"14";"Carbon: 4000, Minerals: 1800, Ores: 4000, Oxygen: 160, Nitrogen: 900,"
"Heavy vehicle factory";"An advanced factory with 3 production facilities, capable of producing all combat vehicles";"202";"3";"3";"16";"150";"Scout, Lav, Sup_vehicle, Tank, Artillery, Hav, Combatmech";"18";"Carbon: 2200, Minerals: 1000, Ores: 2500, Oxygen: 100, Nitrogen: 400,"
"Automated Assembly Yard";"Fully robotized assembly facility for combat vehicles, capable of flawlessly reproducing almost any blueprint in a timely manner";"203";"2";"1";"14";"170";"Lav, Tank, Artillery, Hav, Combatmech, Combatdrone";"15";"Carbon: 4800, Minerals: 2900, Ores: 3200, Oxygen: 120, Nitrogen: 750, Helium: 2500, Isotopes: 80,"
"Machinery";"4 workshops full of hardworking people, ready to quickly adapt and rapidly assemble any machinery, if it's not too complex. And the quality might differ. But hey, it's cheap!";"204";"2";"4";"12";"120";"Lav, Scout, Sup_vehicle, Combatmech";"12";"Carbon: 2300, Minerals: 5900, Ores: 2700, Oxygen: 240, Nitrogen: 250,"
"Warfare Multiplex";"Top-class vehicle engineering facility with the best available stuff, capable of building pretty much anything which traverses the ground,     and they always manage somehow to get the most out of any combat platform";"205";"3";"2";"18";"210";"Scout, Exo, Rover, Lav, Sup_vehicle, Tank, Launcher_pad, Artillery, Hav, Combatmech, Hovertank";"21";"Carbon: 900, Minerals: 4200, Ores: 4800, Oxygen: 950, Nitrogen: 900,"
"Robotics bay";"An advanced production facility equipped with AI labs and specialized in building robotic units";"300";"1";"1";"8";"90";"Combatdrone, Droid, Science_vessel";"12";"Carbon: 4000, Ores: 1800, Oxygen: 200, Isotopes: 100, Hydrogen: 2500,"
"Cybernetic forge";"Military grade robots and cybernetic warfare are produced here";"301";"2";"2";"14";"150";"Combatdrone, Pd, Droid, Science_vessel";"16";"Carbon: 8000, Ores: 1000, Isotopes: 50, Hydrogen: 5000,"
"Nexus Foundry";"A full-scale cybernetic plant with 3 conveyor lines and a huge assembly hall for massive units";"302";"3";"3";"16";"210";"Combatdrone, Quadrapod, Fortress, Pd, Droid, Science_vessel";"20";"Carbon: 1550, Ores: 9000, Halogens: 200, Minerals: 600, Hydrogen: 1500,"
"Self-Maintained Factory";"A huge, fully robotized workshop which builds other robots. Everything is AI-controlled, all human factor excluded, imagine the quality!";"303";"3";"2";"18";"250";"Combatdrone, Quadrapod, Pd, Droid, Science_vessel";"22";"Carbon: 5500, Ores: 4250, Halogens: 1200, Minerals: 1430, Isotopes: 230,"
"Junkyard";"All the best engineers, tinkerers and software alchemists gather here and play with robots. Like a sandbox for old nerdy guys.     If you ask them well, they can probably assemble few combat droids for you too";"304";"3";"4";"16";"130";"Combatdrone, Pd, Droid, Science_vessel";"17";"Carbon: 2200, Ores: 2760, Proteins: 1200, Nitrogen: 1200, Isotopes: 240,"
"Water dock";"A small water dock for boat construction";"400";"1";"1";"8";"100";"Corvette, Sup_ship, Cruiser";"15";"Carbon: 2400, Ores: 1200, Oxygen: 800, Isotopes: 250, Hydrogen: 1800,"
"Shipyard";"Military production facility for building naval units";"401";"2";"2";"12";"170";"Corvette, Sup_ship, Destroyer, Battleship, Cruiser";"20";"Carbon: 4500, Ores: 1400, Oxygen: 400, Isotopes: 100, Halogens: 320, Hydrogen: 2230,"
"Naval engineering corpus";"The biggest and the most advanced shipbuilding facility";"402";"3";"2";"24";"260";"Corvette, Sup_ship, Capital_ship, Destroyer, Battleship, Cruiser, Hydra";"25";"Carbon: 5000, Ores: 2200, Oxygen: 900, Minerals: 450, Halogens: 140, Hydrogen: 1230,"
"Submarine pool";"A specialized construction dock for submarines, which can occasionally be used for building small ships like corvettes.";"403";"2";"2";"12";"190";"Corvette, Sup_ship, Submarine";"21";"Carbon: 500, Ores: 2200, Oxygen: 900, Minerals: 330, Hydrogen: 3000,"
"Navyforge";"A shipbuilding facility with fully automated production cycle, which can maintain a plenty of naval projects and assemble them at a spectacular rate";"404";"3";"4";"20";"220";"Corvette, Sup_ship, Destroyer, Battleship, Cruiser";"27";"Carbon: 2300, Ores: 900, Oxygen: 3300, Minerals: 220, Isotopes: 550, Hydrogen: 5000,"
"Aeronautics Complex";"An advanced production facility with a wind tunnel and special equipment to produce small flying vehicles";"500";"2";"2";"12";"140";"Rover, Sup_aircraft, Tiltjet";"14";"Carbon: 2250, Ores: 900, Nitrogen: 900, Minerals: 900, Isotopes: 30, Helium: 1900,"
"Hoverforge";"A fully automated production facility designated specifically for hover combat vehicles";"501";"3";"3";"20";"200";"Rover, Hovertank, Launcher_pad, Tiltjet";"20";"Ores: 1800, Nitrogen: 1900, Halogens: 400, Helium: 800, Hydrogen: 4450,"
"Airforge";"A fully automated production facility designated specifically for combat aircrafts";"502";"3";"3";"20";"200";"Sup_aircraft, Fighter, Strike_aircraft, Bomber, Tiltjet";"22";"Ores: 4500, Carbon: 5200, Oxygen: 820, Isotopes: 400,"
"Massive Industrial Complex";"A huge construction workshop, enabling production of massive war machines. One of few production buildings big enough to house a Carrier, a Fortress or a Flagship.";"600";"3";"3";"24";"280";"Fortress, Capital_ship, Carrier, Helipad, Mothership, Artillery, Pd, Quadrapod, Battleship, Hav, Combatmech";"24";"Carbon: 9000, Ores: 5700, Nitrogen: 1900, Minerals: 1250, Isotopes: 400, Helium: 2400,"
"Titan Forge";"The most advanced production complex, purposed specifically for colossal war machines";"601";"3";"2";"24";"350";"Fortress, Capital_ship, Carrier, Helipad, Quadrapod, Mothership";"30";"Carbon: 14000, Ores: 7500, Nitrogen: 2000, Minerals: 4300, Isotopes: 560, Halogens: 1950,"
