Name;Description;ID;Base Cost;Slot;Protection;Capacity;Overcharge Decay;Perks
"Repulsive shield";"Generic electromagnetic shield, offering basic protection from most conventional weapons";"10000";"15";"shield_small";"+3 KIN, ≥5 TRM, ≥5 HEA, ≥5 EMG";"35";"";""
"Reactive Shield";"Electromagnetic directional shield with automated controls, offering some protection from most energy weapons, while intercepting certain ammunition types";"10001";"15";"shield_small";"+3 HEA, +3 EMG, +3 RAD";"25";"";"def_reactive"
"AEGIS";"Advanced Electronic Guard and Intercept System. Pretty advanced for its size!";"10002";"18";"shield_small";"+3 KIN, +5 TRM, +5 HEA, +3 EMG";"40";"";""
"Hystrix shield";"Advanced electronic warfare combined with superconductors yields the best protection among similar devices";"10003";"20";"shield_small";"+5 KIN, +5 TRM, +5 HEA, +5 EMG";"30";"";"def_reactive"
"Small Neutronium Shield";"A layer of neutrons suspended in a warp field offer no defense from conventional weapons, but significantly reduces energy damage and can absorb much energy";"10004";"21";"shield_small";"+5 EMG, +5 RAD, +5 ANH";"50";"";""
"Small Plasma Shield";"An ionized gaz locked in a magnetic field, providing best in class protection from certain things, while completely useless against others";"10005";"17";"shield_small";"+5 BIO, +5 EMG, +8 ANH";"35";"1";""
"Small Warp Shield";"A targeted shield which creates space-time tears in front of incoming projectiles, as well as counteracts enemy gravity fields";"10006";"21";"shield_small";"≥6 KIN, +10 EMG, +5 WRP";"30";"";"def_warp"
"Small Nano Shield";"A flock of tiny self-repairing robots, always ready to sacrifice themselves whenever the danger is approaching";"10007";"16";"shield_small";"+5 KIN, +3 TRM, +3 HEA, +3 BIO";"25";"";"def_restore"
"Small Magnetic Hull";"A gravity wave emitter which displaces matter thus protecting the bearer";"10008";"22";"shield_small";"+3 All";"35";"";"def_hull"
"A shield";"Just a solid shield. Like a military or police one, shaped to the host chassis. Not very helpful in most situations, but very cheap";"10009";"12";"shield_small";"≥3 KIN, +2 TRM, +2 HEA, +2 BIO";"15";"";""
"Bulwark shield";"Advanced reflective shield with high level protection";"20000";"25";"shield_medium";"+5/+12% KIN, +5/+12% TRM, +5/+12% HEA, +5/+12% EMG";"70";"";""
"Proactive Shield";"Highly robotized directional shield with substantial protection against most conventional weapons";"20001";"28";"shield_medium";"+15%/≥5 KIN, +15%/≥5 HEA, +15%/≥5 EMG";"60";"";"def_reactive"
"Locust Shield";"Cybernetic insects create a protective barrier, effective against certain weapons and able to repair itself";"20002";"29";"shield_medium";"≥8 KIN, +12/+20% TRM, +12/+20% BIO";"80";"";"def_restore"
"Carapace shield";"Top grade military shield with substantial protection against most conventional weapons";"20003";"35";"shield_medium";"+10/+15% KIN, +5/+15% TRM, +5/+15% HEA, +5/+15% EMG";"85";"";"def_reactive"
"Neutronium Shield";"A bigger version of neutronium shield, exhibiting solid protection and capacity, especially against energy damage";"20004";"32";"shield_medium";"+20%/≥10 EMG, +20%/≥10 RAD, +20%/≥10 ANH, +5 Other";"100";"";""
"Plasma Shield";"An ionized gaz locked in a magnetic field, providing best in class protection from certain things, while completely useless against others";"20005";"29";"shield_medium";"+12/+25% BIO, +12/+25% EMG, +15/+30% ANH";"90";"3";""
"Warp Shield";"A targeted shield which creates space-time tears in front of incoming projectiles and counteracts incoming gravity waves";"20006";"32";"shield_medium";"+15/+30% EMG, +15/+30% RAD, +10/+20% WRP";"80";"";"def_warp"
"Nano Shield";"A swarm of tiny self-repairing robots, always ready to sacrifice themselves whenever the danger is approaching";"20007";"32";"shield_medium";"+12/+20% KIN, +10/+15% HEA, +10/+15% EMG";"75";"";"def_restore"
"Magnetic hull";"A gravity wave emitter which displaces matter thus protecting the bearer";"20008";"34";"shield_medium";"+5/+8% All";"80";"";"def_hull"
"Antimatter Shield";"A high power device which reacts to neutrino surges, which often accompany the annihilation, and locks down the electron exchange processes in the area of contact";"20009";"30";"shield_medium";"+10/+20% BIO, +10/+20% RAD, +20/+30% ANH";"75";"";""
"Quantum Shield";"A black market device of unknown origin, which somehow creates a shaped cloud of quantum entangled photons, which can absorb tremendous amounts of radiation, while yielding minuscule defense against conventional weapons";"20010";"33";"shield_medium";"+50% EMG, +50% RAD, +8% Other";"85";"5";"def_tachyon"
"Hardened shield";"An experimental device which overflows a kinetic shield with energy right at the moment of impact, effectively limiting all incoming damage";"20011";"35";"shield_medium";"+20% KIN, +15% TRM, +15% ANH, Other";"60";"";""
"SMA shield";"A repulsive shield implemented with a superconductor magnetic array, which is essentialy a capacitor that absorbs the damage and, depending on the damage source, can be used to recharge the shield itself and connected to most weapons to increase their muzzle energy, when the shield can't be maintained anymore";"20012";"36";"shield_medium";"+35 HEA, +35 EMG, +50 ANH, +5 Other";"65";"15";"def_capacitor"
"Phasing shield";"Top tier reflective magnetic shield with energy supply so huge that it completely ignores smaller damage factors";"30000";"35";"shield_large";"+5/+15%/≥10 KIN, +5/+15%/≥10 TRM, +5/+12%/≥10 HEA, +5/+15%/≥10 EMG, ≥5 Other";"135";"";""
"TARGA";"Targeted attack repulsion guided assistant : a top tier robotic technology and bigger generator for good old repulsive shield, offering solid protection vs most conventional weapons, but discharges and energy shots still get through this one pretty easily";"30001";"42";"shield_large";"+25%/≥10 KIN, +25%/≥10 TRM, +25%/≥10 HEA, +25%/≥10 EMG, Other";"125";"";"def_reactive"
"Ion Curtain";"A large device generation a thick ion shield, which reacts very differently to various damage sources";"30002";"40";"shield_large";"+10/+10% KIN, +10/+10% TRM, +10/+10% HEA, +20 BIO, +20 EMG, +20 RAD, ≥10 Other";"110";"";""
"Large SMA Shield";"The biggest superconductor magnetic array repulsors in the field. Recharges itself from directed energy weapons and stores other types of energy, which improves onboarded weapon, if any, when the shield is broken.";"30003";"46";"shield_large";"+50 HEA, +50 EMG, +75 ANH, +15 Other";"145";"20";"def_capacitor"
"Large Neutronium Shield";"The biggest version of neutronium shield, offering outstanding protection against all damage, and even better defense against energy weapons";"30004";"47";"shield_large";"+12/+20%/≥15 EMG, +8/+20%/≥15 RAD, +12/+20%/≥15 ANH, +8/+10% Other";"150";"";""
"Large Plasma Shield";"An ionized gaz locked in a magnetic field, providing best in class protection from certain things, while completely useless against others";"30005";"43";"shield_large";"+20/+35%/≥25 BIO, +20/+35%/≥25 EMG, +20/+35%/≥25 ANH";"140";"5";""
"Large Warp Shield";"The biggest verson of targeted warp shield, offering amazing protection versus energy weapons";"30006";"47";"shield_large";"+30/+40% EMG, +30/+40% RAD, +25/+30% WRP, Other";"135";"";"def_warp"
"Large Nano Shield";"A giant swarm of tiny self-reproducing robots, always ready to sacrifice themselves whenever the danger is approaching";"30007";"46";"shield_large";"+20/+30% KIN, +15/+20% HEA, +15/+20% BIO";"125";"";"def_restore"
"Giant Magnetic Hull";"The biggest version of a gravity displacing shield";"30008";"46";"shield_large";"+10/+15% All";"135";"";"def_hull"
"Recharging Shield";"A bulky, but simple kinetic shield in a original design: some of capacitors volume is sacrificed in favor of a regenerator device, which allows to restore the shield in a short while";"30009";"39";"shield_large";"+8/+20%/≥10 KIN, +8/+20%/≥10 TRM, +8/+20%/≥10 HEA, ≥5 Other";"140";"";"def_boosters"
"The Immortal";"A shielding device manufactured by a private company and sold mostly on the black market, using some sort of warp technologies to dissipate most incoming energy before discharging, capable of withstanding at least few shots against any weapons, even the heaviest ones";"30010";"42";"shield_large";"≥15 HEA, ≥15 RAD, ≥15 ANH, +12 Other";"115";"";""
"WIND";"Warp induction and negation device. Quite a big device as well. A shield which, despite offering some basic protection against most weapons too,is only and ultimately helpful against warp weapons, recharging the shield from incoming damage";"30011";"48";"shield_large";"+125% WRP, +8%/≥15 Other";"140";"";"def_warp"
"Cluster Shield";"A large version of robotized proactive shield, which is extremely efficient against explosives, while yielding some defense from energy weapons as well";"30013";"45";"shield_large";"+12/+20% KIN, +18/+40% TRM, +18/+40% HEA, +12/+20% EMG, +12/+20% RAD, +12/+20% ANH";"130";"";"def_elusive"
"Gluon Shield";"Energy-hungry device which generates a thick bubble of quark-gluon plasma around the bearer, which barely offers any protection, but is completely impenetrable without bringing in some high energies";"30014";"50";"shield_large";"+5%/≥40 All";"115";"";"def_tachyon"
