<svg shape-rendering="geometricPrecision"  viewBox="-20 -20 552 552"  xmlns="http://www.w3.org/2000/svg">
    <linearGradient id="a" class="ability_defensive" x1="25%" x2="75%" y1="5%" y2="95%" gradientUnits="objectBoundingBox">
        <stop offset="0%" stop-color="#874773" stop-opacity="1"/>
        <stop offset="100%" stop-color="#ccf8ff" stop-opacity="1"/>
    </linearGradient>
    <g fill="url(#a)" style="transform-origin:50% 50%; transform:rotate(-15) scale(0.95) translate(0, -16)">
            <path d="M434.646,286.159c-40.927-40.927-107.534-40.927-148.491,0.001c-40.928,40.942-40.928,107.563,0,148.491
			c2.93,2.93,6.768,4.395,10.605,4.395c3.837,0,7.676-1.465,10.605-4.395l53.035-53.035l14.827,14.822
			c5.859,5.859,15.352,5.859,21.211,0s5.859-15.352,0-21.211l-14.827-14.822l53.035-53.035
			C440.505,301.511,440.505,292.018,434.646,286.159z"/>
            <path d="M497,392.044c-8.291,0-15,6.709-15,15c0,20.054-7.778,38.892-21.914,53.042C445.936,474.222,427.098,482,407.044,482
			c-8.291,0-15,6.709-15,15c0,8.291,6.709,15,15,15c28.066,0,54.434-10.898,74.253-30.703C501.102,461.478,512,435.11,512,407.044
			C512,398.753,505.291,392.044,497,392.044z"/>
            <path d="M437.044,392.044c-8.291,0-15,6.709-15,15c0,3.999-1.567,7.764-4.395,10.605c-2.842,2.827-6.606,4.395-10.605,4.395
			c-8.291,0-15,6.709-15,15c0,8.291,6.709,15,15,15c12.012,0,23.32-4.688,31.816-13.184c8.496-8.496,13.184-19.805,13.184-31.816
			C452.044,398.753,445.335,392.044,437.044,392.044z"/>
            <path d="M48.436,378.645l-45.64,63.902c-4.263,5.962-3.589,14.136,1.597,19.321l42.421,42.422
			c5.176,5.176,13.343,5.872,19.321,1.597l63.909-45.645L48.436,378.645z"/>
            <path d="M504.285,46.819L461.863,4.397c-5.186-5.2-13.374-5.859-19.321-1.597L378.64,48.441l81.597,81.608l45.645-63.909
			C510.145,60.178,509.471,52.004,504.285,46.819z"/>
            <path d="M353.892,66.114l-59.843,42.74c-3.589,2.563-5.874,6.577-6.24,10.972c-0.352,4.38,1.23,8.716,4.351,11.836l31.824,31.824
			l-27.222,27.222l-53.029-53.04c-16.992-17.007-46.67-16.978-63.633,0l-42.437,42.422c-8.495,8.497-13.183,19.805-13.183,31.832
			c0,12.012,4.687,23.32,13.184,31.816l53.04,53.029l-27.222,27.222l-31.824-31.824c-3.12-3.12-7.485-4.658-11.836-4.351
			c-4.395,0.366-8.408,2.651-10.972,6.24l-42.74,59.843l88.682,88.669l59.835-42.735c7.614-5.438,8.39-16.307,1.89-22.808
			L184.693,345.2l27.224-27.224c0,0,14.648,13.182,16.624,14.597c5.193-24.783,17.203-48.419,36.403-67.625
			c18.766-18.755,42.153-31.179,67.571-36.486c-1.401-1.948-14.544-16.542-14.544-16.542l27.224-27.224l31.824,31.824
			c2.827,2.827,6.65,4.395,10.605,4.395c0.41,0,0.82-0.015,1.23-0.044c4.395-0.366,8.408-2.651,10.972-6.24l42.735-59.835
			L353.892,66.114z"/>
            <path d="M148.271,84.64l10.604-10.604c5.859-5.859,5.859-15.352,0-21.211s-15.352-5.859-21.211,0L52.82,137.669
			c-5.859,5.859-5.859,15.352,0,21.211s15.352,5.859,21.211,0l10.604-10.604l22.282,22.286c2.758-4.155,5.929-8.075,9.536-11.682
			l42.437-42.422c3.561-3.565,7.538-6.685,11.781-9.423L148.271,84.64z"/>
    </g>
</svg>