<svg shape-rendering="geometricPrecision" xmlns="http://www.w3.org/2000/svg" viewBox="0 0 300 300">
    <linearGradient id="a" x1="25%" x2="75%" y1="5%" y2="95%" gradientUnits="objectBoundingBox">
        <stop offset="0%" stop-color="#874773" stop-opacity="1"/>
        <stop offset="100%" stop-color="#ccf8ff" stop-opacity="1"/>
    </linearGradient>
    <g fill="url(#a)" style="transform-origin:50% 50%; transform:rotate(-10) scale(1.1)">
        <path id="Shape_1" d="M77,166l12-26l13,6l-12,27L77,166z"/>
        <path id="Shape_1_copy_6" d="M109,182.2l19.8-20.7l10.3,9.9L119,193.1L109,182.2z"/>
        <path id="Shape_1_copy_9" d="M129.3,211.2l25.7-13l6.2,13L134.9,225L129.3,211.2z"/>
        <path id="Shape_1_copy_10" d="M167.3,192.2l25.7-13l6.2,13L172.9,206L167.3,192.2z"/>
        <path id="Shape_1_copy_11" d="M204.3,173.2l25.7-13l6.2,13L209.9,187L204.3,173.2z"/>
        <path id="Shape_1_copy_7" d="M139,151.2l19.8-20.7l10.3,9.9L149,162.1L139,151.2z"/>
        <path id="Shape_1_copy_8" d="M168,121.2l19.8-20.7l10.3,9.9L178,132.1L168,121.2z"/>
        <path id="Shape_1_copy_3" d="M95,126l12-26l13,6l-12,27L95,126z"/>
        <path id="Shape_2" d="M141,1l-14,32c0,0-2.1,16.7,5,30c10.5-3.3,22-9.7,25-17s14-34,14-34L141,1z"/>
        <path id="Shape_2_copy" d="M227.5,45.6l-23.9,25.5c0,0-7.6,15-5.4,29.9c10.9,0.4,23.9-1.8,29.1-7.7c5.2-5.9,24.5-27.4,24.5-27.4
	L227.5,45.6z"/>
        <path id="Shape_2_copy_2" d="M283.5,121.8l-30.9,16.1c0,0-12.1,11.6-14.9,26.3c10.2,4,23.2,6.1,30.1,2.3
	c6.9-3.8,32.2-17.6,32.2-17.6L283.5,121.8z"/>
        <path id="Shape_1_copy_5" d="M112,89l12-26l13,6l-12,27L112,89z"/>
        <path id="Ellipse_1" d="M32,249.8c8.8-1.2,16.9,5,18.1,13.8c1.2,8.8-5,16.9-13.8,18.1c-8.8,1.2-16.9-5-18.1-13.8S23.2,251,32,249.8z
	"/>
        <path id="Shape_1_copy" d="M61.3,242.9c21.2,23.3,9.1,42.3,2.1,54.6c0.6,0.2,1,0.7,1.3,0.9c11.4-11.3,30.7-36.5,7.1-66.5
	c-0.5-0.6-2.8-2.9-3.3-3.4c-29.8-24.3-55.3-4.8-66.8,6.6c0.1,0.3,0.6,0.7,0.9,1.4c12-6.8,30.3-18.4,52.4,0.4
	C56.3,238.1,60.6,242.2,61.3,242.9z"/>
        <path id="Shape_1_copy_2" d="M94.8,212.9c33.5,36.6,14.4,66.4,3.3,85.7c1,0.4,1.6,1.2,2.1,1.4c17.9-17.8,48.3-57.3,11-104.4
	c-0.8-1-5.2-5.5-6.1-6.2C58.2,151.2,18,181.7,0,199.6c0.2,0.5,1,1.2,1.4,2.1c18.9-10.6,47.7-28.8,82.5,0.8
	C86.1,204.4,93.8,211.8,94.8,212.9z"/>
    </g>
</svg>