<svg shape-rendering="geometricPrecision"  viewBox="0 0 512 512"  xmlns="http://www.w3.org/2000/svg">
    <linearGradient id="a" class="ability_map" x1="25%" x2="75%" y1="5%" y2="95%" gradientUnits="objectBoundingBox">
        <stop offset="0%" stop-color="#ffbb95" stop-opacity="1"/>
        <stop offset="100%" stop-color="#fe5b59" stop-opacity="1"/>
    </linearGradient>
    <g fill="url(#a)" transform="scale(0.9) translate(32, 32)">
        <path d="m340.634 157.322c12.341 10.56 22.486 23.226 30.154 37.646 7.668 14.423 12.495 29.916 14.349 46.051.012.104.047.143.066.157l126.353-.137c-3.615-62.511-29.82-120.933-74.738-165.852-8.163-8.163-16.781-15.693-25.779-22.597l-70.504 104.636c.016-.012.031.039.099.096z"/>
        <path d="m.444 241.198 126.407-.043c-.014-.006.012-.048.022-.136 1.854-16.137 6.681-31.63 14.349-46.05 7.667-14.421 17.813-27.087 30.154-37.647.08-.068.093-.119.093-.143l-70.493-104.592c-9 6.906-17.619 14.437-25.783 22.601-44.957 44.957-71.169 103.439-74.749 166.01z"/>
        <path d="m303.532 377.006c.001.015-.048.011-.13.043-15.118 5.939-31.064 8.951-47.397 8.951s-32.279-3.011-47.396-8.95c-.096-.039-.147-.025-.169-.016l-52.444 98.562-6.898 12.958c33.144 15.346 69.432 23.446 106.907 23.446 37.476 0 73.763-8.1 106.908-23.447z"/>
        <circle cx="256.005" cy="256" r="25"/>
        <path d="m385.155 271.155c-15.262-.008-28.073-11.491-29.823-26.711-1.423-12.391-5.135-24.298-11.032-35.392-5.898-11.091-13.693-20.827-23.17-28.936-11.641-9.96-13.997-27.003-5.482-39.643l70.571-104.734c-39.087-23.299-83.74-35.739-130.214-35.739s-91.127 12.44-130.213 35.74l70.569 104.733c8.516 12.639 6.16 29.682-5.481 39.644-9.477 8.109-17.272 17.845-23.17 28.937-5.897 11.092-9.609 22.999-11.033 35.39-1.748 15.221-14.56 26.705-29.8 26.712l-126.406.042c3.667 62.422 29.86 120.752 74.722 165.614 14.518 14.518 30.455 27.066 47.475 37.546l59.333-111.459c7.162-13.454 23.315-19.374 37.577-13.772 11.608 4.561 23.864 6.873 36.427 6.873s24.818-2.313 36.428-6.873c14.257-5.601 30.414.316 37.576 13.772l59.334 111.459c17.021-10.48 32.957-23.028 47.475-37.546 44.901-44.901 71.1-103.293 74.731-165.777zm-129.15 39.845c-30.327 0-55-24.673-55-55s24.673-55 55-55 55 24.673 55 55-24.673 55-55 55z"/>
    </g>
</svg>