<svg shape-rendering="geometricPrecision"  viewBox="0 0 512 512"  xmlns="http://www.w3.org/2000/svg">
    <linearGradient id="a" class="ability_defensive" x1="25%" x2="75%" y1="5%" y2="95%" gradientUnits="objectBoundingBox">
        <stop offset="0%" stop-color="#874773" stop-opacity="1"/>
        <stop offset="100%" stop-color="#ccf8ff" stop-opacity="1"/>
    </linearGradient>
    <g fill="url(#a)">
        <path d="M353.5,0c-45.901,0-78.6,28.5-97.5,62.1C240.099,34.799,210.099,0,158.5,0C94.6,0,46.3,52.899,46.3,121.599
			C46.3,143.2,51.4,162.4,60.7,181h96l39.3-78.6l60,120l60-120l39.3,78.6h96c9-18.001,14.399-37.5,14.399-59.401
			C465.7,52.899,417.4,0,353.5,0z"/>
        <path d="M406,392c-12.101,0-23.055,4.856-31.15,12.653L361,397.728V284.213c10.942-9.853,21.464-19.475,31.199-28.813
			c14.702-13.801,28.5-28.5,40.201-44.399h-95.7L316,169.6l-60,120l-60-120L175.3,211H80.2c17.494,22.846,41.865,45.71,70.8,70.695
			v116.032l-13.85,6.925C129.055,396.856,118.101,392,106,392c-24.814,0-45,20.186-45,45c0,24.814,20.186,45,45,45
			c24.814,0,45-20.186,45-45c0-1.868-0.33-3.646-0.551-5.453L181,416.272V307.18c4.162,3.477,7.989,6.733,12.299,10.32
			c14.943,12.625,31.115,26.122,47.701,40.455v66.808c-17.422,6.213-30,22.707-30,42.237c0,24.814,20.186,45,45,45
			c24.814,0,45-20.186,45-45c0-19.53-12.578-36.024-30-42.237v-61.828l14.399-12.437c16.558-14.374,31.45-27.301,45.601-39.683
			v105.456l30.551,15.275C361.33,433.354,361,435.132,361,437c0,24.814,20.186,45,45,45c24.814,0,45-20.186,45-45
			C451,412.186,430.814,392,406,392z"/>
        <path d="M60.699,181H31v30h49.2C72.4,201.099,65.799,191.199,60.699,181z"/>
        <path d="M451.3,181c-5.099,10.499-11.4,20.4-18.9,30H481v-30H451.3z"/>
    </g>
</svg>