<svg shape-rendering="geometricPrecision" xmlns="http://www.w3.org/2000/svg" viewBox="0 0 512 512">
    <linearGradient id="a" class="ability_map" x1="25%" x2="75%" y1="5%" y2="95%" gradientUnits="objectBoundingBox">
        <stop offset="0%" stop-color="#ffbb95" stop-opacity="1"/>
        <stop offset="100%" stop-color="#fe5b59" stop-opacity="1"/>
    </linearGradient>
    <g fill="url(#a)" transform="scale(.85) translate(40, 32)">
        <path d="m207 252h98v28h-98z"/>
        <path d="m255.937 62.063-46.474 152.591a54.1 54.1 0 0 0 -2.463 15.713v9.633h98v-9.633a54.1 54.1 0 0 0 -2.5-15.713z"/>
        <path d="m207 412h98v38h-98z"/>
        <path d="m207 292h98v108h-98z"/>
        <path d="m367 292h98v108h-98z"/>
        <path d="m367 412h98v38h-98z"/>
        <path d="m415.937 62.063-46.474 152.591a54.1 54.1 0 0 0 -2.463 15.713v9.633h98v-9.633a54.1 54.1 0 0 0 -2.5-15.713z"/>
        <path d="m367 252h98v28h-98z"/>
        <path d="m95.937 62.063-46.474 152.591a54.1 54.1 0 0 0 -2.463 15.713v9.633h98v-9.633a54.1 54.1 0 0 0 -2.5-15.713z"/>
        <path d="m47 252h98v28h-98z"/>
        <path d="m47 292h98v108h-98z"/>
        <path d="m47 412h98v38h-98z"/>
    </g>
</svg>