<svg shape-rendering="geometricPrecision" id="Layer_1" enable-background="new 0 0 512 512" height="512" viewBox="0 0 512 512" width="512"
     xmlns="http://www.w3.org/2000/svg">
<linearGradient id="linear0" gradientUnits="objectBoundingBox" x1="25%" x2="75%" y1="25%" y2="75%">
    <stop offset="0" stop-color="#Faf538"/>
    <stop offset="1" stop-color="#2ecc00"/>
</linearGradient>
<g fill="url(#linear0)">
    <path d="m256 118.91c-75.59 0-137.086 61.499-137.086 137.09 7.53 181.869 266.671 181.816 274.174-.001-.001-75.591-61.498-137.089-137.088-137.089zm0 227.023c-49.589 0-89.933-40.344-89.933-89.933 4.94-119.309 174.945-119.274 179.867.001 0 49.588-40.344 89.932-89.934 89.932z"/>
    <path d="m256 196.067c-33.047 0-59.933 26.886-59.933 59.933 3.292 79.51 116.587 79.486 119.867 0 0-33.047-26.886-59.933-59.934-59.933zm0 77.423c-9.654 0-17.49-7.837-17.49-17.49.946-23.205 34.036-23.198 34.979 0 .001 9.653-7.835 17.49-17.489 17.49z"/>
    <path d="m312.611 479.295c12.051 12.184 25.497 22.654 40.208 31.319 5.72 3.369 13.096.314 14.758-6.112 4.275-16.521 6.379-33.433 6.288-50.579-16.615-6.814-32.425-15.783-46.888-26.565-2.601 17.846-7.436 35.368-14.366 51.937z"/>
    <path d="m199.39 32.702c-12.05-12.184-25.496-22.653-40.209-31.316-5.72-3.368-13.095-.313-14.757 6.113-4.275 16.521-6.38 33.431-6.289 50.575 16.613 6.811 32.424 15.781 46.888 26.564 2.601-17.846 7.437-35.367 14.367-51.936z"/>
    <path d="m400.016 171.371c19.795-24.894 32.628-54.202 37.486-85.508 1.03-6.636-4.732-12.398-11.368-11.368-31.312 4.857-60.618 17.689-85.508 37.486 24.469 14.434 44.956 34.921 59.39 59.39z"/>
    <path d="m111.986 171.369c14.434-24.469 34.92-44.955 59.389-59.389-24.894-19.796-54.203-32.628-85.509-37.486-6.636-1.03-12.398 4.732-11.368 11.368 4.857 31.307 17.69 60.613 37.488 85.507z"/>
    <path d="m297.99 94.256c-3.612-31.577-15.259-61.351-33.95-86.905-3.964-5.42-12.113-5.419-16.076.001-18.685 25.553-30.331 55.327-33.944 86.902 26.635-7.091 57.335-7.09 83.97.002z"/>
    <path d="m504.648 264.037c5.42-3.964 5.421-12.112.001-16.077-25.555-18.691-55.329-30.337-86.908-33.95 7.091 26.636 7.092 57.335.002 83.971 31.578-3.613 61.353-15.258 86.905-33.944z"/>
    <path d="m214.02 417.747c3.614 31.574 15.258 61.346 33.941 86.898 3.964 5.421 12.113 5.421 16.077 0 18.684-25.552 30.327-55.323 33.941-86.898-26.631 7.089-57.327 7.089-83.959 0z"/>
    <path d="m400.015 340.631c-14.432 24.467-34.917 44.951-59.382 59.385 24.895 19.795 54.2 32.628 85.501 37.487 6.636 1.03 12.399-4.732 11.369-11.368-4.86-31.304-17.693-60.611-37.488-85.504z"/>
    <path d="m111.986 340.631c-19.796 24.893-32.628 54.2-37.488 85.504-1.03 6.636 4.732 12.399 11.369 11.369 31.301-4.859 60.607-17.692 85.501-37.487-24.466-14.435-44.95-34.92-59.382-59.386z"/>
    <path d="m7.353 247.961c-5.421 3.964-5.421 12.113 0 16.077 25.552 18.685 55.326 30.33 86.903 33.944-7.089-26.634-7.089-57.33 0-83.964-31.577 3.614-61.351 15.258-86.903 33.943z"/>
    <path d="m138.134 453.923c-.091 17.146 2.014 34.057 6.288 50.579 1.663 6.426 9.039 9.481 14.758 6.112 14.711-8.665 28.157-19.135 40.208-31.319-6.929-16.568-11.765-34.091-14.367-51.937-14.462 10.782-30.271 19.751-46.887 26.565z"/>
    <path d="m373.866 58.073c.092-17.144-2.014-34.054-6.289-50.575-1.663-6.426-9.038-9.48-14.757-6.113-14.713 8.664-28.159 19.133-40.209 31.316 6.929 16.57 11.766 34.09 14.367 51.935 14.464-10.782 30.275-19.751 46.888-26.563z"/>
    <path d="m32.705 312.61c-12.184 12.051-22.654 25.497-31.319 40.208-3.369 5.72-.314 13.096 6.112 14.758 16.521 4.275 33.433 6.379 50.579 6.288 6.814-16.615 15.783-32.425 26.565-46.888-17.846-2.601-35.368-7.436-51.937-14.366z"/>
    <path d="m479.298 199.388c12.184-12.05 22.653-25.496 31.316-40.209 3.368-5.72.313-13.095-6.113-14.757-16.521-4.275-33.431-6.38-50.575-6.289-6.812 16.613-15.781 32.424-26.564 46.888 17.846 2.601 35.367 7.438 51.936 14.367z"/>
    <path d="m32.705 199.388c16.569-6.929 34.091-11.765 51.937-14.367-10.782-14.463-19.751-30.273-26.565-46.888-17.146-.091-34.057 2.014-50.579 6.288-6.426 1.663-9.481 9.039-6.112 14.758 8.665 14.712 19.135 28.158 31.319 40.209z"/>
    <path d="m479.298 312.61c-16.57 6.929-34.09 11.766-51.935 14.367 10.783 14.464 19.752 30.275 26.564 46.888 17.144.092 34.054-2.014 50.575-6.289 6.426-1.663 9.48-9.038 6.113-14.757-8.664-14.714-19.133-28.159-31.317-40.209z"/>
</g>
</svg>