<svg shape-rendering="geometricPrecision" xmlns="http://www.w3.org/2000/svg" viewBox="0 0 64 64">
    <linearGradient id="a" class="ability_player" x1="25%" x2="75%" y1="5%" y2="95%" gradientUnits="objectBoundingBox">
        <stop offset="0%" stop-color="#ffbb95" stop-opacity="1"/>
        <stop offset="100%" stop-color="#874773" stop-opacity="1"/>
    </linearGradient>
    <g fill="url(#a)" style="transform-origin:50% 50%" transform="scale(0.95) translate(0,-4)">
    <path d="M63.4,53.5L35.9,5.9c-0.8-1.4-2.3-2.3-3.9-2.3c-1.6,0-3.1,0.8-3.9,2.3L0.6,53.5c-0.8,1.4-0.8,3.1,0,4.5c0.8,1.4,2.3,2.3,3.9,2.3h55c1.6,0,3.1-0.8,3.9-2.3C64.2,56.6,64.2,55,63.4,53.5z M60.9,56.6c-0.3,0.5-0.8,0.8-1.4,0.8h-55c-0.6,0-1.1-0.3-1.4-0.8c-0.3-0.5-0.3-1.1,0-1.6L30.6,7.4c0.3-0.5,0.8-0.8,1.4-0.8c0.6,0,1.1,0.3,1.4,0.8L60.9,55C61.2,55.5,61.2,56.1,60.9,56.6z"/>
    <path d="M32.8,11c-0.2-0.3-0.5-0.5-0.8-0.5c-0.3,0-0.6,0.2-0.8,0.5L6.8,53.2c-0.2,0.3-0.2,0.6,0,0.9c0.2,0.3,0.5,0.5,0.8,0.5h48.8c0.3,0,0.6-0.2,0.8-0.5c0.2-0.3,0.2-0.6,0-0.9L32.8,11z M42.1,35.3C42,35.7,41.6,36,41.2,36c-0.1,0-0.2,0-0.2,0l-1.7-0.5l-0.1,0.1l0.7,0.2c0.5,0.1,0.8,0.6,0.7,1.1c-0.1,0.4-0.5,0.7-0.9,0.7c-0.1,0-0.2,0-0.2,0l-2.5-0.7l-1,0.6c0.1,0.4,0.2,0.7,0.2,1.1c0,0.4-0.1,0.8-0.2,1.1l1,0.6l2.5-0.7c0.5-0.1,1,0.1,1.1,0.6c0.1,0.5-0.1,1-0.6,1.1L39,41.6l0.2,0.1l1.7-0.5c0.5-0.1,1,0.1,1.1,0.6c0.1,0.5-0.1,1-0.6,1.1l0.4,0.2c0.4,0.3,0.6,0.8,0.3,1.3C42,44.8,41.7,45,41.4,45c-0.2,0-0.3,0-0.5-0.1l-0.4-0.2c0.1,0.5-0.2,0.9-0.7,1.1c-0.1,0-0.2,0-0.2,0c-0.4,0-0.8-0.3-0.9-0.7l-0.5-1.7l-0.1-0.1l0.2,0.7c0.1,0.5-0.2,1-0.6,1.1c-0.1,0-0.2,0-0.2,0c-0.4,0-0.8-0.3-0.9-0.7l-0.7-2.5l-1.1-0.6c-0.5,0.5-1.2,0.8-1.9,1v1.3l1.9,1.8c0.4,0.4,0.4,0.9,0,1.3c-0.4,0.4-0.9,0.4-1.3,0l-0.6-0.6v0.2l1.2,1.2c0.4,0.4,0.4,0.9,0,1.3c-0.2,0.2-0.4,0.3-0.7,0.3c-0.2,0-0.4-0.1-0.6-0.2v0.5c0,0.5-0.4,0.9-0.9,0.9c-0.5,0-0.9-0.4-0.9-0.9V49c-0.4,0.3-0.9,0.3-1.3,0c-0.4-0.4-0.4-1,0-1.3l1.3-1.3v-0.2l-0.5,0.5c-0.2,0.2-0.4,0.3-0.7,0.3c-0.2,0-0.5-0.1-0.7-0.3c-0.4-0.4-0.4-0.9,0-1.3l1.8-1.8v-1.3c-0.7-0.2-1.4-0.5-1.9-1l-1.1,0.6l-0.6,2.5c-0.1,0.4-0.5,0.7-0.9,0.7c-0.1,0-0.1,0-0.2,0c-0.5-0.1-0.8-0.6-0.7-1.1l0.2-0.8l-0.2,0.1L25.3,45c-0.1,0.4-0.5,0.7-0.9,0.7c-0.1,0-0.1,0-0.2,0c-0.5-0.1-0.8-0.6-0.7-1.1l-0.4,0.2c-0.1,0.1-0.3,0.1-0.5,0.1c-0.3,0-0.6-0.2-0.8-0.5c-0.3-0.4-0.1-1,0.3-1.3l0.4-0.2c-0.5-0.2-0.7-0.6-0.6-1.1c0.1-0.5,0.6-0.8,1.1-0.7l1.7,0.5l0.1-0.1l-0.7-0.2c-0.5-0.1-0.8-0.6-0.6-1.1c0.1-0.5,0.6-0.8,1.1-0.7l2.5,0.7l1-0.6C28.1,39.4,28,39,28,38.6c0-0.4,0.1-0.8,0.2-1.1l-1-0.6l-2.5,0.7c-0.1,0-0.2,0-0.3,0c-0.4,0-0.8-0.3-0.9-0.7c-0.1-0.5,0.1-1,0.6-1.1l0.8-0.2l-0.2-0.1L23.1,36c-0.1,0-0.2,0-0.3,0c-0.4,0-0.8-0.3-0.9-0.7c-0.1-0.5,0.1-1,0.6-1.1L22.1,34c-0.4-0.3-0.6-0.8-0.3-1.3c0.3-0.4,0.8-0.6,1.3-0.3l0.4,0.2c-0.1-0.5,0.2-0.9,0.7-1.1c0.5-0.1,1,0.2,1.1,0.6l0.5,1.7l0.1,0.1l-0.2-0.7c-0.1-0.5,0.2-1,0.7-1.1c0.5-0.1,1,0.2,1.1,0.7l0.7,2.5l1.1,0.6c0.5-0.5,1.2-0.8,1.9-1v-1.3l-1.9-1.8c-0.4-0.4-0.4-0.9,0-1.3c0.4-0.4,0.9-0.4,1.3,0l0.6,0.6v-0.2l-1.2-1.2c-0.4-0.4-0.4-0.9,0-1.3c0.3-0.4,0.9-0.4,1.3-0.1v-0.5c0-0.5,0.4-0.9,0.9-0.9c0.5,0,0.9,0.4,0.9,0.9v0.5c0.4-0.3,0.9-0.3,1.3,0c0.4,0.4,0.4,0.9,0,1.3l-1.3,1.3V31l0.5-0.5c0.4-0.4,0.9-0.4,1.3,0c0.4,0.4,0.4,1,0,1.3l-1.8,1.8v1.3c0.7,0.2,1.4,0.5,1.9,1l1.1-0.6l0.6-2.5c0.1-0.5,0.6-0.8,1.1-0.7c0.5,0.1,0.8,0.6,0.7,1.1L38.1,34l0.2-0.1l0.4-1.7c0.1-0.5,0.6-0.8,1.1-0.7c0.5,0.1,0.8,0.6,0.7,1.1l0.4-0.2c0.4-0.3,1-0.1,1.3,0.3c0.3,0.4,0.1,1-0.3,1.3l-0.4,0.2C41.9,34.4,42.2,34.8,42.1,35.3z"/>
    </g>
</svg>