<svg shape-rendering="geometricPrecision" xmlns="http://www.w3.org/2000/svg" viewBox="0 0 512 512">
    <linearGradient id="a" class="ability_player" x1="25%" x2="75%" y1="5%" y2="95%" gradientUnits="objectBoundingBox">
        <stop offset="0%" stop-color="#ffbb95" stop-opacity="1"/>
        <stop offset="100%" stop-color="#874773" stop-opacity="1"/>
    </linearGradient>
    <g fill="url(#a)">
        <path d="M429.644,95.395l-21.211,21.21c36.885,36.885,57.188,85.825,57.188,137.813c0,52.002-20.303,100.942-57.188,137.827
			l21.211,21.211c42.539-42.539,65.977-99.023,65.977-159.038C495.621,194.418,472.183,137.934,429.644,95.395z"/>
        <path d="M387.236,137.802l-21.211,21.211c25.532,25.518,39.595,59.399,39.595,95.405c0,35.991-14.063,69.888-39.595,95.42
			l21.211,21.211c31.201-31.201,48.384-72.627,48.384-116.631C435.619,210.399,418.436,168.988,387.236,137.802z"/>
        <path d="M344.829,180.209l-21.211,21.211c14.194,14.18,22.002,33.003,22.002,52.998s-7.808,38.818-22.002,53.013l21.211,21.211
			c19.863-19.849,30.791-46.216,30.791-74.224C375.619,226.396,364.678,200.043,344.829,180.209z"/>
        <path d="M58.788,114.249C34.184,150.897,19.116,194.312,16.379,241h119.588c0.613-25.893,2.69-50.806,6.24-74.271
			C111.627,157.293,77.845,141.515,58.788,114.249z"/>
        <path d="M135.967,271H16.379c2.736,46.688,17.805,90.103,42.409,126.751c1.551-2.219,2.845-4.497,4.673-6.649
			c16.685-19.622,44.7-35.33,78.746-45.833C138.658,321.804,136.579,296.891,135.967,271z"/>
        <path d="M240.619,361c-22.401,0-44.075,2.391-64.16,6.449C194.783,456.248,233.604,512,270.619,512c4.986,0,10.001-1.271,15-3.201
			V364.312C271.012,362.329,255.999,361,240.619,361z"/>
        <path d="M270.619,0c-37.015,0-75.837,55.752-94.16,144.551c20.085,4.058,41.759,6.449,64.16,6.449c15.436,0,30.456-1.205,45-3.17
			V3.201C280.621,1.271,275.605,0,270.619,0z"/>
        <path d="M227.749,271h-61.796c0.568,23.668,2.333,46.133,5.306,66.98c21.817-4.384,45.137-6.98,69.36-6.98
			c15.291,0,30.287,1.271,45,3.098V316C257.738,316,234.457,296.807,227.749,271z"/>
        <path d="M147.59,374.718c-26.959,8.678-48.699,21.037-61.262,35.823c-3.549,4.166-6.008,8.394-7.793,12.645
			c32.047,36.769,74.359,65.232,122.52,78.924C177.543,472.764,158.861,427.873,147.59,374.718z"/>
        <path d="M240.619,181c-24.219,0-47.541-2.598-69.36-6.982c-2.974,20.848-4.739,43.314-5.306,66.982h61.796
			c6.707-25.807,29.989-45,57.87-45v-17.999C270.967,179.808,255.983,181,240.619,181z"/>
        <path d="M78.533,88.816c10.274,24.494,43.784,40.33,69.057,48.466c11.272-53.156,29.954-98.046,53.465-127.392
			C152.892,23.582,110.579,52.046,78.533,88.816z"/>
        <circle cx="285.619" cy="256" r="30"/>
    </g>
</svg>