<?xml version="1.0" encoding="iso-8859-1"?>
<!-- Generator: Adobe Illustrator 17.1.0, SVG Export Plug-In . SVG Version: 6.00 Build 0)  -->
<!DOCTYPE svg PUBLIC "-//W3C//DTD SVG 1.1//EN" "http://www.w3.org/Graphics/SVG/1.1/DTD/svg11.dtd">
<svg version="1.1" id="Capa_1" xmlns="http://www.w3.org/2000/svg" xmlns:xlink="http://www.w3.org/1999/xlink" x="0px" y="0px"
	 viewBox="0 0 292.57 292.57" style="enable-background:new 0 0 292.57 292.57;" xml:space="preserve">
<path d="M76.574,238.709c5.858-5.858,5.858-15.355,0-21.213c-5.857-5.857-15.355-5.857-21.213,0l-22.363,22.363
	C15.052,218.17,3.205,191.261,0.102,161.785h100.766c4.854,14.182,16.084,25.385,30.084,30.087v100.654
	c-29-2.945-55.227-14.321-76.749-31.612L76.574,238.709z M191.702,161.785c-4.854,14.182-15.75,25.385-30.75,30.086v100.654
	c30-2.996,56.472-14.71,78.189-32.504l-21.229-21.312c-5.858-5.857-5.817-15.355,0.042-21.213c5.857-5.857,15.376-5.857,21.234,0
	l21.268,21.258c17.442-21.496,28.961-47.989,32.012-76.969H191.702z M239.209,76.074c-2.929,2.929-6.768,4.394-10.606,4.394
	s-7.678-1.465-10.606-4.394c-5.858-5.857-5.858-15.355,0-21.213l21.696-21.863c-21.812-18.048-48.74-29.932-78.74-32.953v100.654
	c15,4.812,26.434,16.431,31.089,31.086H292.57c-2.865-29.122-14.266-55.771-31.657-77.415L239.209,76.074z M146.285,128.285
	c-9.925,0-18,8.075-18,18s8.075,18,18,18s18-8.075,18-18S156.21,128.285,146.285,128.285z M100.529,131.785
	c4.655-14.656,16.423-26.275,30.423-31.087V0.044c-29,2.97-55.682,14.516-77.302,32.058l22.841,22.758
	c5.858,5.858,5.9,15.355,0.042,21.213c-2.929,2.929-6.748,4.394-10.586,4.394c-3.839,0-7.667-1.464-10.596-4.394L32.544,53.262
	C14.649,75.101,2.914,102.166,0,131.785H100.529z"/>
<g>
</g>
<g>
</g>
<g>
</g>
<g>
</g>
<g>
</g>
<g>
</g>
<g>
</g>
<g>
</g>
<g>
</g>
<g>
</g>
<g>
</g>
<g>
</g>
<g>
</g>
<g>
</g>
<g>
</g>
</svg>
