<?xml version="1.0" encoding="iso-8859-1"?>
<!-- Generator: Adobe Illustrator 19.0.0, SVG Export Plug-In . SVG Version: 6.00 Build 0)  -->
<svg version="1.1" id="Capa_1" xmlns="http://www.w3.org/2000/svg" xmlns:xlink="http://www.w3.org/1999/xlink" x="0px" y="0px"
	 viewBox="0 0 511.993 511.993" style="enable-background:new 0 0 511.993 511.993;" xml:space="preserve">
<g>
	<g>
		
			<rect x="65.459" y="311.536" transform="matrix(0.7071 -0.7071 0.7071 0.7071 -266.5756 189.4992)" width="59.998" height="209.998"/>
	</g>
</g>
<g>
	<g>
		<path d="M95.453,289.261c5.852,5.852,5.852,15.361,0,21.213c-5.854,5.852-15.362,5.852-21.214,0l127.28,127.278
			c-5.852-5.852-5.852-15.361,0-21.213c5.852-5.852,15.361-5.852,21.213,0L95.453,289.261z"/>
	</g>
</g>
<g>
	<g>
		<polygon points="299.519,93.294 267.699,103.901 408.092,244.294 418.699,212.474 		"/>
	</g>
</g>
<g>
	<g>
		
			<rect x="152.059" y="158.5" transform="matrix(0.7071 -0.7071 0.7071 0.7071 -113.5399 252.8884)" width="192.868" height="209.998"/>
	</g>
</g>
<g>
	<g>
		<path d="M496.995,0c-58.729,0-113.939,22.87-155.464,64.395l-14.242,14.244l106.066,106.066l14.242-14.242
			c41.526-41.527,64.396-96.736,64.396-155.465V0H496.995z"/>
	</g>
</g>
<g>
</g>
<g>
</g>
<g>
</g>
<g>
</g>
<g>
</g>
<g>
</g>
<g>
</g>
<g>
</g>
<g>
</g>
<g>
</g>
<g>
</g>
<g>
</g>
<g>
</g>
<g>
</g>
<g>
</g>
</svg>
