<?xml version="1.0" encoding="utf-8"?>
<!-- Generator: Adobe Illustrator 22.0.0, SVG Export Plug-In . SVG Version: 6.00 Build 0)  -->
<svg version="1.1" id="Слой_1" xmlns="http://www.w3.org/2000/svg" xmlns:xlink="http://www.w3.org/1999/xlink" x="0px" y="0px"
	 viewBox="0 0 1920 1920" style="enable-background:new 0 0 1920 1920;" xml:space="preserve">
<style type="text/css">
	.st0{fill:none;stroke:#00FF00;stroke-width:5;}
	.st1{fill:#F2F2F2;}
	.st2{fill:#8C8C8C;}
	.st3{fill:#B3B3B3;}
	.st4{fill:#A800A8;}
	.st5{fill:#6E1370;}
	.st6{opacity:0.702;fill:url(#Body-Shadow5_1_);enable-background:new    ;}
	.st7{opacity:0.702;fill:url(#Body-Shadow3_1_);enable-background:new    ;}
	.st8{opacity:0.702;fill:url(#Body-Shadow2_1_);enable-background:new    ;}
	.st9{opacity:0.702;fill:url(#Body-Shadow4_1_);enable-background:new    ;}
	.st10{opacity:0.302;fill:url(#Engine-Shadow_1_);enable-background:new    ;}
	.st11{opacity:0.2;fill:url(#Body-Shadow10_1_);enable-background:new    ;}
	.st12{opacity:0.2;fill:url(#Body-Shadow30_1_);enable-background:new    ;}
	.st13{fill:#DB0100;}
	.st14{fill:#DEDEDE;}
	.st15{fill:url(#Body-Shadow31_1_);}
	.st16{fill:none;stroke:#1A1A1A;stroke-width:10;}
</style>
<path id="Ellipse-Green" class="st0" d="M959.3,643.3c172.8,0,312.9,140.1,312.9,312.9s-140.1,312.9-312.9,312.9
	s-312.9-140.1-312.9-312.9S786.5,643.3,959.3,643.3z"/>
<path id="Fill-All" class="st1" d="M1046,1615l-166-1.5l1.5-15l-59.8-0.7c0,0-0.3,6-3,6c-6.1,0-23.9-7.5-23.9-7.5H788v6.7h-68.8
	v-9.7l-29.2-3.7c0,0-59.1-86.9-69-103.8c-11.4,13.7-49.1,58.9-49.1,58.9s-3.8-2.6-7.5-5.2c-62.8-43.1-242.3-197.4-242.3-462.1
	c0-295.2,215.6-452.4,249.7-474.1c18.8-59.3,48.5-118.2,79-164.4c24.7-37.5,50.6-66.4,65.4-80.2c32.8-30.7,72-55.3,103.9-59.8
	c9.5,23.4,6,295.4,6,295.4h19.4l32.2-100.2l164.4,0.4l32.2,100.2h19.4c0,0-3.5-272,6-295.4c31.9,4.6,71.2,29.1,103.9,59.8
	c14.7,13.8,40.6,42.8,65.4,80.2c30.4,46.1,60.3,105.1,79,164.4c34.2,21.7,249.8,178.9,249.8,474.2c0,264.8-179.5,419-242.3,462.2
	c-3.7,2.6-7.5,5.2-7.5,5.2s-37.8-45.3-49.1-59c-9.9,17-69,103.9-69,103.9l-29.2,3.7v9.7H1129v-9c0,0-25.4,9-28.4,9c-3,0-3.7-6-3.7-6
	s-31.6,0.3-49.6,0.5C1046.7,1602.3,1046,1615,1046,1615z M361.1,1016.8l124.9,0.7c0,0-3.3-120.8,61.3-347.7
	c-41.1,32.8-98.8,103.9-133.1,177.2c-18.9,40.4-35.7,81.6-44.1,112.9C360.9,994.2,361.1,1016.8,361.1,1016.8z M414.9,1310.7
	c27.1,48.2,59.1,96.7,89,129.4c33.9,37.2,64.3,55.3,64.3,55.3s10.4-15.6,29.2-38.9c-95.9-93.8-109.9-326-109.9-326l-124.1,0.7
	C363.3,1131.2,373,1236.1,414.9,1310.7z M1435.6,1016.8h125.6c0,0-4.2-179.3-187.7-350.7c9.2,38.7,31.6,118.8,44.9,197.4
	C1431.4,940.8,1435.6,1016.8,1435.6,1016.8z M1399.7,1315.2c-12.4,36-26.9,72.5-41.9,97.2c-17.8,29.5-35.1,44.1-35.1,44.1
	s13.7,18.3,32.9,39.6c196.8-160.8,203.6-365.9,203.4-364.9s-124.1,0-124.1,0S1428.5,1231.6,1399.7,1315.2z"/>
<path id="Body-Shadow8" class="st2" d="M624.3,1490.1l66.5,100.9l28.4,3l-2.2-37.4c0,0-25-13.8-48.6-30.7
	C645.6,1509.6,624.3,1490.1,624.3,1490.1z M1296.5,1490.1l-66.5,100.9l-28.4,3l2.2-37.4c0,0,25-13.8,48.6-30.7
	C1275.2,1509.6,1296.5,1490.1,1296.5,1490.1z"/>
<path id="Body-Shadow9" class="st3" d="M716.2,1557.4l3,23.2l44.1,1.5C763.3,1582.1,724.7,1559.7,716.2,1557.4z M1204.5,1557.4
	l-3,23.2l-44.1,1.5C1157.4,1582.1,1196.1,1559.7,1204.5,1557.4z"/>
<path id="Body-Shadow7" class="st3" d="M820.9,1517l56.8,1.5l2.2,82.3l-59.1-1.5V1517z M1100.6,1517l-56.8,1.5l-2.2,82.3l59.1-1.5
	V1517z"/>
<path id="Paint" class="st4" d="M568.9,607.8c0.1,0.1-60.8,26.5-153,157.5c-47.9,68-79.3,160.6-89.1,242.3
	c-3.1,25.6-7.9,92.5,2.8,161.7c8.8,57.4,29.7,114.2,57.6,169c61.7,121.1,180.7,200.4,183.9,207.1c12.9-15.4,38.4-44,53.1-64.3
	l-25.4-26.9l-30.7,41.9c0,0-169.1-105.1-204.9-364.9c34.2,0.2,124.1-1.5,124.1-1.5l-0.7-112.9l-124.1,0.7c0,0-1.4-23,7.3-59.2
	c17-71.3,64.5-193.6,178.1-290C554.9,651.1,568.9,607.8,568.9,607.8z M1351.1,607.8c-0.1,0.1,60.8,26.5,153.1,157.5
	c47.9,68,79.3,160.6,89.1,242.3c3.1,25.6,7.9,92.5-2.8,161.7c-8.8,57.4-29.7,114.2-57.6,169c-61.8,121.1-180.8,200.4-184,207.1
	c-12.9-15.4-38.4-44-53.1-64.3l25.4-26.9l30.7,41.9c0,0,169.2-105.1,205-364.9c-34.2,0.2-124.2-1.5-124.2-1.5l0.7-112.9l124.2,0.7
	c0,0,1.4-23-7.3-59.2c-17-71.3-64.5-193.6-178.3-290C1365.1,651.1,1351.1,607.8,1351.1,607.8z"/>
<path id="Paint-Dark" class="st5" d="M826.2,527.1c0,0-84.1,114.8-128.6,318.5c-21.2,97.2-26.2,181.3-26.2,226.6
	c0,45.2-1,108.2,6.7,183.2c29.7-0.3,144.3,0.7,144.3,0.7l-1.5,344l-9,3c0,0-158.1-70.1-191.4-118.9c1.9-1.7,4.5-3.7,4.5-3.7
	l-24.7-24.7l-3,2.2c0,0-89.1-79.2-110.7-327.5c-2.9-33.9,0-115.2,0-115.2s13.8-200.6,77-389.6c50.7-151.6,135.1-295.1,255.7-326
	c8.3,58.8,6.7,225.8,6.7,225.8 M595.1,1274l23.2-46.4c0,0,0.7-11,0.7-12s0.7-13.5,0.7-13.5l-8.2-7.5l-4.5-173.5l-6.7-6l-5.2,5.2
	l-7.5,174.2l-4.5,7.5c0,0-0.7,63-0.7,63.6C583.6,1286.1,595.1,1274,595.1,1274z M1095.5,525.6c0,0-1.6-167,6.7-225.8
	c120.7,31,205,174.4,255.8,326c63.2,189,77,389.6,77,389.6s2.9,81.2,0,115.2c-21.5,248.3-110.7,327.5-110.7,327.5l-3-2.2l-24.7,24.7
	c0,0,2.6,2,4.5,3.7c-33.3,48.8-191.4,118.9-191.4,118.9l-9-3l-1.5-344c0,0,114.6-1,144.3-0.7c7.8-75,6.7-138,6.7-183.2
	c0-45.2-4.9-129.4-26.2-226.6c-44.5-203.8-128.6-318.5-128.6-318.5L1095.5,525.6L1095.5,525.6z M1339.2,1265.8
	c0.1-0.6-0.7-63.6-0.7-63.6l-4.5-7.5l-7.5-174.2l-5.2-5.2l-6.7,6l-4.5,173.5l-8.2,7.5c0,0,0.7,12.5,0.7,13.5c0.1,1,0.7,12,0.7,12
	l23.2,46.4C1326.5,1274,1338.1,1286.1,1339.2,1265.8z"/>
<path id="Ellipse-White" class="st1" d="M779,1510.3c5.8,0,10.5,4.7,10.5,10.5c0,0.1,0,15.2,0,15.3c-0.1,5.7-4.8,10.2-10.5,10.2
	c-5.7,0-10.3-4.6-10.5-10.2c0-0.1,0-15.1,0-15.2C768.6,1515,773.3,1510.3,779,1510.3z M1142.6,1510.3c-5.8,0-10.5,4.7-10.5,10.5
	c0,0.1,0,15.2,0,15.3c0.1,5.7,4.8,10.2,10.5,10.2s10.3-4.6,10.5-10.2c0-0.1,0-15.1,0-15.2C1153.1,1515,1148.4,1510.3,1142.6,1510.3z
	"/>
<radialGradient id="Body-Shadow5_1_" cx="1012.4142" cy="536.7174" r="929.7757" gradientTransform="matrix(1 0 0 1 0 586)" gradientUnits="userSpaceOnUse">
	<stop  offset="0.401" style="stop-color:#000000;stop-opacity:0"/>
	<stop  offset="1" style="stop-color:#000000"/>
</radialGradient>
<path id="Body-Shadow5" class="st6" d="M821.7,1600l1.5-344.7l-143.6-1.5c0,0-13.9-106.1-9-181.7c-49.9,0.6-62.1,0.7-62.1,0.7
	l3.7,120.4l6,8.2l2.2,23.2c0,0-24.7,53.8-32.9,53.8c-8.2,0-4.5-15.9-4.5-17.9s-0.7-55.3-0.7-55.3l5.2-11.2l3.7-121.1H486.7l0.7,59.1
	c0,0,14.9,233.5,111.4,324.5c2.3,0.5,5.2,3,5.2,3l19.4,21.7l-1.5,6c0,0,61.5,65.9,185.4,115.2c3.4,0.5,6.6,1.6,9.1,1
	C819.7,1602.5,821.7,1600,821.7,1600z"/>
<radialGradient id="Body-Shadow3_1_" cx="912.9007" cy="495.3366" r="930.3896" gradientTransform="matrix(1 0 0 1 0 586)" gradientUnits="userSpaceOnUse">
	<stop  offset="0.402" style="stop-color:#000000;stop-opacity:0"/>
	<stop  offset="1" style="stop-color:#000000"/>
</radialGradient>
<path id="Body-Shadow3" class="st7" d="M1100.6,1600.4l-1.5-344.9l143.6-1.5c0,0,13.9-106.2,9-181.8c49.9,0.6,62.1,0.7,62.1,0.7
	l-3.7,120.5l-6,8.2l-2.2,23.2c0,0,24.7,53.9,32.9,53.9s4.5-15.9,4.5-17.9c0-2.1,0.7-55.4,0.7-55.4l-5.2-11.2l-3.7-121.2h104.7
	l-0.7,59.1c0,0-14.9,233.7-111.4,324.7c-2.3,0.5-5.2,3-5.2,3l-19.4,21.7l1.5,6c0,0-61.5,65.9-185.4,115.2c-3.4,0.5-6.6,1.6-9.1,1
	C1102.6,1602.9,1100.6,1600.4,1100.6,1600.4z"/>
<radialGradient id="Body-Shadow2_1_" cx="1717.797" cy="496.1658" r="2319.45" gradientTransform="matrix(1 0 0 1 0 586)" gradientUnits="userSpaceOnUse">
	<stop  offset="0.446" style="stop-color:#000000;stop-opacity:0"/>
	<stop  offset="0.75" style="stop-color:#000000"/>
</radialGradient>
<path id="Body-Shadow2" class="st8" d="M671.4,1072.2c0,0-7.7-200.9,95.7-435.2c15.9-36,36.9-72.2,58.3-109.2
	c0.7-30.2,1.9-215-6-228.8c-19.1,4.8-73.4,23.3-124.9,83c-27.5,31.9-58,76.1-83.7,127.1c-21.5,42.5-38.6,89.1-56.8,143.6
	c-30.4,91.1-55.6,205.6-65.8,323c-2,30.6-0.8,62.1-0.7,95c40.1,1,103.2,1.5,103.2,1.5l3-50.1c0,0,7.6-11.7,12.7-1.5
	c0.1,15.2,2.2,51.6,2.2,51.6H671.4z"/>
<radialGradient id="Body-Shadow4_1_" cx="175.0703" cy="414.4153" r="2319.45" gradientTransform="matrix(1 0 0 1 0 586)" gradientUnits="userSpaceOnUse">
	<stop  offset="0.461" style="stop-color:#000000;stop-opacity:0"/>
	<stop  offset="0.75" style="stop-color:#000000"/>
</radialGradient>
<path id="Body-Shadow4" class="st9" d="M1250.6,1072.2c0,0,7.7-200.9-95.6-435.2c-15.9-36-36.9-72.2-58.2-109.2
	c-0.7-30.2-1.9-215,6-228.8c19.1,4.8,73.3,23.3,124.8,83c27.4,31.9,58,76.1,83.7,127.1c21.5,42.5,38.6,89.1,56.8,143.6
	c30.4,91.1,55.5,205.6,65.7,323c2,30.6,0.8,62.1,0.7,95c-40,1-103.1,1.5-103.1,1.5l-3-50.1c0,0-7.6-11.7-12.7-1.5
	c-0.1,15.2-2.2,51.6-2.2,51.6H1250.6z"/>
<linearGradient id="Engine-Shadow_1_" gradientUnits="userSpaceOnUse" x1="844.8381" y1="-25.0955" x2="1074.3335" y2="-29.1008" gradientTransform="matrix(1 0 0 1 0 586)">
	<stop  offset="0" style="stop-color:#000000"/>
	<stop  offset="0.498" style="stop-color:#E6E6E6"/>
	<stop  offset="1" style="stop-color:#000000"/>
</linearGradient>
<path id="Engine-Shadow" class="st10" d="M844.8,595.1l32.9-100.9l164.5,1.5l32.2,98.7c0,0-34.9,30.7-113.7,30.7
	S844.8,595.1,844.8,595.1z"/>
<linearGradient id="Body-Shadow10_1_" gradientUnits="userSpaceOnUse" x1="414.533" y1="545.2205" x2="414.533" y2="431.5659" gradientTransform="matrix(1 0 0 1 0 586)">
	<stop  offset="0" style="stop-color:#000000"/>
	<stop  offset="0.499" style="stop-color:#000000;stop-opacity:0"/>
	<stop  offset="1" style="stop-color:#000000"/>
</linearGradient>
<path id="Body-Shadow10" class="st11" d="M486.7,1018.3l-126.4-0.7l-18.7,9l-0.7,95.7l21.7,7.5l125.6,1.5L486.7,1018.3z"/>
<linearGradient id="Body-Shadow30_1_" gradientUnits="userSpaceOnUse" x1="1509.2057" y1="545.2205" x2="1509.2057" y2="431.5659" gradientTransform="matrix(1 0 0 1 0 586)">
	<stop  offset="0" style="stop-color:#000000"/>
	<stop  offset="0.499" style="stop-color:#000000;stop-opacity:0"/>
	<stop  offset="1" style="stop-color:#000000"/>
</linearGradient>
<path id="Body-Shadow30" class="st12" d="M1437.1,1018.3l126.4-0.7l18.7,9l0.7,95.7l-21.7,7.5l-125.6,1.5L1437.1,1018.3z"/>
<path id="Red-Eye" class="st13" d="M719.2,1581.4v23.2h69.5v-10.5l-26.2-13.5L719.2,1581.4z M1200,1581.4v23.2h-69.5v-10.5
	l26.2-13.5L1200,1581.4z"/>
<path id="Body-Shadow6" class="st14" d="M826.2,526.3c0,0-90.7,141.4-124.9,310.3c-19.2,95-29.5,197.4-30.4,277
	c-0.9,82.3,7.9,140.3,7.9,140.3l145.1,0.7L826.2,526.3z M1094.7,526.3c0,0,90.8,141.4,124.9,310.3c19.2,95,29.5,197.4,30.4,277
	c0.9,82.3-7.9,140.3-7.9,140.3l-145.1,0.7L1094.7,526.3z M1099.8,1381.7H823.2l-2.2,135.3l278.2,0.7L1099.8,1381.7z"/>
<linearGradient id="Body-Shadow31_1_" gradientUnits="userSpaceOnUse" x1="960.3234" y1="795.7091" x2="960.3234" y2="8.3523" gradientTransform="matrix(1 0 0 1 0 586)">
	<stop  offset="0" style="stop-color:#E6E6E6"/>
	<stop  offset="1" style="stop-color:#CCCCCC"/>
</linearGradient>
<path id="Body-Shadow31" class="st15" d="M821.7,1381.7c0.9-0.1,277.4-1.5,277.4-1.5l-6-785.1h-18.7c0,0-37.8,28.4-110.7,28.4
	s-118.1-29.2-118.1-29.2l-19.4,0.7C826.2,595.1,820.8,1381.9,821.7,1381.7z"/>
<path id="Body-Shadow" class="st14" d="M588.4,1278.5c0,0,7.7-0.6,19.4-26.2s11.2-29.2,11.2-29.2l-0.7-20.2l-6-9.7l-6-172.7
	c0,0-10.5-9.5-12.7,2.2c-1.2,15.5-6,172.7-6,172.7s-5.2,4.1-5.2,18.7s0,52.3,0,52.3L588.4,1278.5z M1314.4,1022.1l-6,172
	c0,0-5.4,3.5-6,9.7c-0.6,6.2,0,20.2,0,20.2s23.7,53.8,30.7,53.8c7,0,6.7-8.5,6.7-12.7s-0.7-59.8-0.7-59.8s-3.3-10-6-12
	c-0.3-8.3-6-172-6-172s-7.7-12.1-12.7,0"/>
<path id="L-All" class="st16" d="M1047.9,1598.3c18.1-0.2,48.9-0.5,48.9-0.5s0.7,6,3.7,6c3,0,28.4-9,28.4-9v9h71.6v-9.7l29.2-3.7
	c0,0,59.1-86.9,69-103.9c11.4,13.7,49.1,59,49.1,59s3.8-2.6,7.5-5.2c62.8-43.1,242.3-197.5,242.3-462.2
	c0-295.3-215.6-452.5-249.8-474.2c-18.8-59.3-48.5-118.3-79-164.4c-24.7-37.5-50.7-66.4-65.4-80.2c-32.8-30.7-72.1-55.3-103.9-59.8
	c-9.5,23.4-6,295.4-6,295.4h-19.4L1042,494.6l-164.3-0.4l-32.2,100.2h-19.4c0,0,3.5-271.9-6-295.4c-31.9,4.6-71.1,29.1-103.9,59.8
	c-14.7,13.8-40.6,42.7-65.4,80.2c-30.4,46.1-60.2,105.1-79,164.4c-34.1,21.7-249.7,178.9-249.7,474.1c0,264.7,179.5,419,242.3,462.1
	c3.7,2.6,7.5,5.2,7.5,5.2s37.8-45.3,49.1-58.9c9.9,16.9,69,103.8,69,103.8l29.2,3.7v9.7H788v-6.7h6.7c0,0,17.8,7.5,23.9,7.5
	c2.7,0,3-6,3-6l59.8,0.7"/>
<g id="Line">
	<path id="L-Gun" class="st16" d="M1100.6,1517H823.9 M823.2,1381.7l277.4-0.7 M1098.3,1553.7c0,0-25.6,0-50.8,0 M878.3,1553.7
		c-34.5,0-58.9,0-58.9,0 M877.8,1517.8l2.2,95.7c0,0,164.6,1,165.2,0c0.6-1,2.2-94.2,2.2-94.2"/>
	<path id="L-Body10" class="st16" d="M843.4,595.1c7.6-0.7,35.7,28.4,118.1,28.4s112.9-29.2,112.9-29.2"/>
	<path id="L-Body16" class="st16" d="M620.5,1487.9l3-6.7l-23.9-26.2c0,0-14.4,19.1-32.2,41.1c-192.4-146.3-204.9-365.6-204.9-365.6
		l-21.7-8.2v-96.5c0,0,4-1.6,20.2-8.2c0-80.2,72.2-253.7,189.2-353.7c6.6-19.1,13-38.4,23.2-64.3"/>
	<path id="L-Body14" class="st16" d="M549.5,664.6c-12.5,37.5-63.6,238.2-63.6,352.9c-42.6,0-124.1,0-124.1,0 M361.8,1131.2h124.1
		 M486.7,1127.7c8.7,102.8,37.8,255.2,110.7,328.8 M622.8,1486.4c9.6,9.3,30.3,35.2,89.7,68c23.9,12.5,65.6,34.8,91.2,46.4
		 M717.7,1559.7v21.7h46.4 M719.2,1582.8v10.5"/>
	<path id="L-Body15" class="st16" d="M361.8,1132v-112.9 M485.9,1018.3l0.7,112.2"/>
	<path id="L-Body11" class="st16" d="M619,1224.7v-20.9c0,0-2.3-6.7-6.7-10.5c-0.7-12.1-6-172.7-6-172.7s-6.7-10.6-12,0.7
		c-1.6,11.3-6,172.7-6,172.7s-5,4-6,12.7c0.1,12,0,60.6,0,60.6s3.1,22.1,15,3S619,1224.7,619,1224.7z"/>
	<path id="L-Body12" class="st16" d="M587.6,1193.3c1.8,3.9,13.8,13.1,24.7,0.7"/>
	<path id="L-Body13" class="st16" d="M582.8,1214.4c2.6,4,20.1,13.5,35.9,0.7"/>
	<path id="L-Body" class="st16" d="M820.9,1602.3l2.2-347.7H678.9c0,0-61.5-389.7,147.3-730.5 M826.2,595.8l-3,656.5"/>
	<path id="L-Body3" class="st16" d="M486.7,1072.2c0,0,40.5,0,104.9,0.1 M608.3,1072.2c19.8,0,41.4,0,64.6,0.1 M1249.5,1072.7
		c22.7,0,44.1,0,63.6,0.1 M1330.4,1072.8c64.5,0.1,105.1,0.1,105.1,0.1"/>
	<path id="L-Body9" class="st16" d="M1299.5,1488.3l-4.5-4.9l27.7-28.8c0,0,14.4,19.1,32.2,41.1
		c192.4-146.3,204.9-365.6,204.9-365.6l21.7-8.2v-96.5c0,0-4-1.6-20.2-8.2c0-80.2-72.2-253.6-189.2-353.6
		c-6.6-19-15.3-38.4-25.4-64.3"/>
	<path id="L-Body8" class="st16" d="M1372,664.3c12.5,37.5,63.6,238.1,63.6,352.9c42.6-0.1,124.1,0,124.1,0 M1559.7,1130.8h-124.1
		 M1434.8,1127.4c-8.7,102.8-37.8,255.1-110.7,328.7 M1298.7,1486c-9.6,9.3-30.3,35.2-89.7,68c-23.9,12.5-65.6,34.8-91.2,46.4
		 M1203.8,1559.2v21.7h-46.4 M1200.8,1582.4v10.5"/>
	<path id="L-Body7" class="st16" d="M1559.7,1131.6v-112.9 M1435.6,1017.9l-0.7,112.2"/>
	<path id="L-Body4" class="st16" d="M1302.5,1224.3v-20.9c0,0,2.3-6.7,6.7-10.5c0.7-12.1,6-172.7,6-172.7s6.7-10.6,12,0.7
		c1.6,11.3,6,172.7,6,172.7s5,4,6,12.7c-0.1,11.9,0,60.6,0,60.6s-3.1,22.1-15,3C1312.3,1250.9,1302.5,1224.3,1302.5,1224.3z"/>
	<path id="L-Body5" class="st16" d="M1333.9,1192.9c-1.8,3.9-13.8,13.1-24.7,0.7"/>
	<path id="L-Body6" class="st16" d="M1338.6,1214.1c-2.6,4-20.1,13.5-35.9,0.7"/>
	<path id="L-Body2" class="st16" d="M1100.6,1603.3l-2.2-349.1h144.3c0,0,59.3-392-149.5-732.7 M1093.8,595.5l4.5,656.4"/>
</g>
</svg>
