<?xml version="1.0" encoding="utf-8"?>
<!-- Generator: Adobe Illustrator 22.0.0, SVG Export Plug-In . SVG Version: 6.00 Build 0)  -->
<svg version="1.1" id="Слой_1" xmlns="http://www.w3.org/2000/svg" xmlns:xlink="http://www.w3.org/1999/xlink" x="0px" y="0px"
	 viewBox="0 0 1920 1920" style="enable-background:new 0 0 1920 1920;" xml:space="preserve">
<style type="text/css">
	.st0{fill:#F2F2F2;}
	.st1{opacity:0.22;fill:url(#Body-Shadow_1_);enable-background:new    ;}
	.st2{fill:#E6E6E6;}
	.st3{fill:#BFBFBF;}
	.st4{opacity:0.502;fill:url(#Caterpillars-Shadow7_1_);enable-background:new    ;}
	.st5{opacity:0.502;fill:url(#Caterpillars-Shadow6_1_);enable-background:new    ;}
	.st6{opacity:0.702;fill:url(#Caterpillars-Shadow2_1_);enable-background:new    ;}
	.st7{opacity:0.6;fill:url(#Caterpillars-Shadow_1_);enable-background:new    ;}
	.st8{fill:#CCCCCC;}
	.st9{fill:#DEDEDE;}
	.st10{fill:#DADADA;}
	.st11{fill:#A800A8;}
	.st12{opacity:0.102;enable-background:new    ;}
	.st13{fill:#6E1370;}
	.st14{opacity:0.2;fill:url(#Body-Shadow3_1_);enable-background:new    ;}
	.st15{opacity:0.302;fill:url(#Body-Shadow130_1_);enable-background:new    ;}
	.st16{opacity:0.302;fill:url(#Body-Shadow131_1_);enable-background:new    ;}
	.st17{fill:url(#Body-Shadow4_1_);}
	.st18{fill:url(#Body-Shadow5_1_);}
	.st19{fill:url(#Body-Shadow6_1_);}
	.st20{fill:none;stroke:#1A1A1A;stroke-width:10;}
	.st21{opacity:0.2;enable-background:new    ;}
	.st22{fill:#D9D9D9;}
	.st23{fill:#B3B3B3;}
	.st24{fill:none;stroke:#191919;stroke-width:10;}
	.st25{fill:#00FF00;}
</style>
<g id="Fill">
	<path id="Fill-All" class="st0" d="M960,1895c-5.8,0-11.6,0-17.3,0c-55.8,0-106.8,0-106.8,0s0-105.5,0-143c-14,10-26.4,18.9-40,5
		c-13.6-13.9-14-68.5-14-92c0-23.5,0-68.3,3-110c-89.1-292.4-114.5-814.5-117-849c-10.9-14.1-31.3-36.9-41-61
		c-17.2-61.8-22.9-65.3-31-74c0,30.9,0,36,0,46c-10.4,0-137.7,0-154.9,0c0.2-16.4,0-56,0-56s-4.9,0-24,0c0-10.3,0-467,0-467h24V27
		l155.9-1c0,0-0.4,21.1,0,68c92.3,0,63.7,151.3,98,196c33.6-91.2,63.8-99.8,115-128c52.3-25.8,96.2-31.4,128.9-32.7
		c7.6-0.3,34.7-0.3,42.3,0c32.8,1.2,76.6,6.9,129,32.7c51.2,28.3,81.4,36.8,115,128c34.3-44.7,5.7-196,98-196c0.4-46.9,0-68,0-68
		l156,1v67h25c0,0,0,456.7,0,467c-19.1,0-25,0-25,0s-0.2,39.6,0,56c-17.3,0-144.6,0-155,0c0-10,0-15.1,0-46
		c-8.1,8.7-13.8,12.2-31,74c-9.7,24.1-30.1,46.9-41,61c-2.4,34.5-27.8,556.6-117,849c3,41.7,3,86.5,3,110s-0.4,78.1-14,92
		s-26,5-40-5c0,37.5,0,143,0,143s-51.1,0-106.9,0c-5.7,0-11.5,0-17.3,0"/>
	
		<linearGradient id="Body-Shadow_1_" gradientUnits="userSpaceOnUse" x1="1251" y1="956.1144" x2="667" y2="956.1144" gradientTransform="matrix(1 0 0 -1 0 1920)">
		<stop  offset="0" style="stop-color:#000000"/>
		<stop  offset="0.497" style="stop-color:#E6E6E6"/>
		<stop  offset="1" style="stop-color:#000000"/>
	</linearGradient>
	<path id="Body-Shadow" class="st1" d="M667,708c1.7,24.3,19.6,448.8,94,761c44.4,186.2,114.2,331,198,331
		c63.9,0,106.6-65.5,146-162c102.1-250,128.7-700.7,146-931c-25.4,29.6-73.6,84-105,84s-41.2-26-33-99
		c30.3-274.7,91.3-321.3,114-397c-17.3-53.4-57.9-154-267-167c-60.9-3.8-246.8,38.9-266,172c6.9,25.1,39.8,96.6,61,157
		s45.2,206.9,50,281s-53.3,52-66,43S682.1,722.6,667,708z"/>
	<path id="Body-Shadow7" class="st2" d="M960,159v34c0,0,105.3-6.3,137,66c23.3,71,4.9,195.3-17,214s-59.4,30-120,30
		s-110.8-4.3-136-53c-20.7-54.9-16.8-195.6,10-213c23.8-16.2,41-44,126-44c-0.1-29.2,0-33.8,0-36c-6-0.1-179-4.1-179,141
		c0,97.1,3.5,132,9,154s18.2,85,170,85s164.5-59.2,170-93s26.5-185.3-22-236S960,159,960,159z"/>
	<path id="Caterpillars-Shadow3" class="st3" d="M440,561c16.5,0.1,135,7.4,151,10c16.8,14.6,28,47,28,47l-179,1
		C440,619,440.3,584.2,440,561z M440,27c23.4,0,185.9-0.9,201-1c-0.7,18.5,1,85,1,85s-14.3-14.1-35.3-14.3C548.6,96.1,439,95,439,95
		S441.2,51.9,440,27z M1280,26c16.5-0.3,193.5,1.3,200,1c-0.2,12.2,1,68,1,68s-105.8-0.5-162.7-0.8c-21-0.1-38.3,15.8-38.3,15.8
		S1276.8,44.3,1280,26z M1304,616c14.1-0.7,169.3,0.2,175,0c-0.2-11.9,0.4-47.4,1-55c-17.2-1.1-133.8-0.9-158,15
		C1314.7,582.4,1303.9,596.5,1304,616z"/>
	<path id="Caterpillars-Shadow77" class="st3" d="M834,1753l2,142l247,1l2-145l-25-20c0,0-47,70-100,70s-99-71-99-71L834,1753z"/>
	
		<linearGradient id="Caterpillars-Shadow7_1_" gradientUnits="userSpaceOnUse" x1="959.4757" y1="24" x2="959.4757" y2="192" gradientTransform="matrix(1 0 0 -1 0 1920)">
		<stop  offset="0" style="stop-color:#000004"/>
		<stop  offset="0.3" style="stop-color:#000000;stop-opacity:0"/>
	</linearGradient>
	<path id="Caterpillars-Shadow7" class="st4" d="M836,1896c14.9,0,232.7-1,245-1c0.4-26,2-142,2-142l-27-23c0,0-42.6,70-98,70
		s-90.8-60.7-101-72c-9,14.1-16.2,23.2-21,26C835.7,1772.9,837.3,1856.8,836,1896z"/>
	
		<linearGradient id="Caterpillars-Shadow6_1_" gradientUnits="userSpaceOnUse" x1="959.4757" y1="192" x2="959.4757" y2="24" gradientTransform="matrix(1 0 0 -1 0 1920)">
		<stop  offset="0" style="stop-color:#000004"/>
		<stop  offset="0.3" style="stop-color:#000000;stop-opacity:0"/>
	</linearGradient>
	<path id="Caterpillars-Shadow6" class="st5" d="M836,1896c14.9,0,232.7-1,245-1c0.4-26,2-142,2-142l-27-23c0,0-42.6,70-98,70
		s-90.8-60.7-101-72c-9,14.1-16.2,23.2-21,26C835.7,1772.9,837.3,1856.8,836,1896z"/>
	
		<linearGradient id="Caterpillars-Shadow2_1_" gradientUnits="userSpaceOnUse" x1="960.5" y1="1281.623" x2="960.5" y2="1339.623" gradientTransform="matrix(1 0 0 -1 0 1920)">
		<stop  offset="0" style="stop-color:#000000"/>
		<stop  offset="1" style="stop-color:#000000;stop-opacity:0"/>
	</linearGradient>
	<path id="Caterpillars-Shadow2" class="st6" d="M441,561v57h177c0,0-2.5-12.5-9-24c-7-12.5-18-24-18-24L441,561z M1325,567l-22,51
		l177,1l-2-57L1325,567z"/>
	
		<linearGradient id="Caterpillars-Shadow_1_" gradientUnits="userSpaceOnUse" x1="960.5" y1="1915.967" x2="960.5" y2="1829.967" gradientTransform="matrix(1 0 0 -1 0 1920)">
		<stop  offset="0" style="stop-color:#000000"/>
		<stop  offset="0.8" style="stop-color:#000000;stop-opacity:0"/>
	</linearGradient>
	<path id="Caterpillars-Shadow" class="st7" d="M440,94l1-66l201-1v86c0,0-15.5-19.9-37.9-19.8C545.6,93.5,440,94,440,94z M1280,111
		V28l200-1l1,67c0,0-114.6-0.6-170.7-0.8C1292.1,93.1,1280,111,1280,111z"/>
	<path id="Body-Shadow2" class="st8" d="M708,749c7.1,183.5,29.2,660.4,144,903c33.5,70.8,61.3,122,108,122
		c134,0,237.2-498.8,247-1019c22.1-24.6,35.3-38.5,44-47c-36.9,801.6-178.6,1093-291,1093S724.1,1587,668,706
		C687.2,727.8,692.8,730.3,708,749z M711,344c10.6-116.9,131.6-184,248-184s216.4,53.2,246,188c10.2-20.9,18.2-38.2,22-52
		c-18.3-62-73.7-158.4-267-167c-203.7,8.6-256.3,119.8-268,168C699,317,701.5,322.8,711,344z"/>
	<path id="Body-Shadow99" class="st9" d="M790,1343c13.4,59.8,75.4,317.2,130,362c45.5,0.6,82,0,82,0s69.1-54,120-364
		c13.5,6.6,27,17,27,17s-61.6,417-190,417c-113.3,0-189.2-392.7-193-419C773.6,1350.8,782.3,1346.9,790,1343z"/>
	<path id="Caterpillars-Shadow4" class="st10" d="M785,1561c-2.4,23.5-17.7,201.5,24,203c17.7,0.7,44.3-26,52-34
		C851.8,1714.6,825,1684.1,785,1561z M1059,1731c9.7-15.6,62.8-121.1,75-169c2.5,61.8,11.3,188.5-17,201
		C1099.2,1770.9,1073.4,1741.1,1059,1731z"/>
	<path id="Caterpillars-Shadow5" class="st3" d="M801,1760c11.9-7.3,45.8-36.4,52-44c4.8,9.6,4.8,9.9,7,13
		C855.6,1735.7,816.1,1775.7,801,1760z M1068,1713c9.7,11.1,44.6,50.6,60,40c-14.2,16.1-30.6,15-69-23
		C1062.8,1723.9,1063,1719.8,1068,1713z"/>
	<path id="Paint" class="st11" d="M1322,94c27.3,1,163.4-0.1,181,0c-0.2,32.8-0.2,446.3,0,466c-21.7,1.1-154.5-1-179,14
		C1324.3,536.6,1322.8,151.5,1322,94z M418,96l174-2l-1,477c0,0-119.3-10-173-10C418.4,529.4,418,96,418,96z"/>
	<path id="Paint-Shadow" class="st12" d="M1322,94c27.3,1,163.4-0.1,181,0c-0.2,32.8-0.2,446.3,0,466c-21.7,1.1-154.5-1-179,14
		C1324.3,536.6,1322.8,151.5,1322,94z M418,96l174-2l-1,477c0,0-119.3-10-173-10C418.4,529.4,418,96,418,96z"/>
	<path id="Paint-Dark" class="st13" d="M748,784c0.1,70.7,13.3,368.5,28,445c-33.1,13.9-95,40-95,40s-54-257.8-60-640
		C631.7,652.6,656.5,718.4,748,784z M1172,783c17-13.1,110.1-92.2,126-145c-0.2,19.8-2,135.8-12,266c-10.4,135.5-29.4,286.5-46,366
		c-38.4-14.4-97-40-97-40S1168,1007.8,1172,783z M983,1640l-48,1c0,0-75.6-196.1-78-242c17.8-15.6,37-29,37-29h130l37,30
		c0,0-17,72.3-38,137C1005.3,1591.3,983,1640,983,1640z"/>
	
		<linearGradient id="Body-Shadow3_1_" gradientUnits="userSpaceOnUse" x1="959.739" y1="1239.2781" x2="959.739" y2="990.2261" gradientTransform="matrix(1 0 0 -1 0 1920)">
		<stop  offset="0" style="stop-color:#000004"/>
		<stop  offset="0.5" style="stop-color:#000000;stop-opacity:0"/>
	</linearGradient>
	<path id="Body-Shadow3" class="st14" d="M1297,643c-39,62.7-126.5,167.8-170,144c-2.5,11.2-4.9,69-4,97c41.6,0.1,141.8,0,164,0
		C1292.6,836.3,1299.3,700.7,1297,643z M622,635c28.7,57.7,125.4,175.7,168.8,152c2.5,11.2,1.6,67.3,4,97
		c-32.2,0.2-140.7,0.1-162.8,0.1C626.4,836.3,623.5,683.7,622,635z"/>
	
		<linearGradient id="Body-Shadow130_1_" gradientUnits="userSpaceOnUse" x1="620.6392" y1="968.3439" x2="775.6392" y2="981.904" gradientTransform="matrix(1 0 0 -1 0 1920)">
		<stop  offset="0" style="stop-color:#000000"/>
		<stop  offset="0.8" style="stop-color:#000000;stop-opacity:0"/>
	</linearGradient>
	<path id="Body-Shadow130" class="st15" d="M748,784c0.1,70.7,13.3,368.5,28,445c-33.1,13.9-95,40-95,40s-54-257.8-60-640
		C631.7,652.6,656.5,718.4,748,784z"/>
	
		<linearGradient id="Body-Shadow131_1_" gradientUnits="userSpaceOnUse" x1="1276.3851" y1="970.1572" x2="1121.3851" y2="987.8452" gradientTransform="matrix(1 0 0 -1 0 1920)">
		<stop  offset="0" style="stop-color:#000000"/>
		<stop  offset="0.503" style="stop-color:#000000;stop-opacity:0"/>
	</linearGradient>
	<path id="Body-Shadow131" class="st16" d="M1172,784c-0.1,70.7-13.3,368.5-28,445c33.1,13.9,95,40,95,40s54-257.8,60-640
		C1288.3,652.6,1263.5,718.4,1172,784z"/>
	
		<linearGradient id="Body-Shadow4_1_" gradientUnits="userSpaceOnUse" x1="1324" y1="1477.7181" x2="1110.0009" y2="1477.7181" gradientTransform="matrix(1 0 0 -1 0 1920)">
		<stop  offset="0" style="stop-color:#A6A6A6"/>
		<stop  offset="1" style="stop-color:#D9D9D9"/>
	</linearGradient>
	<path id="Body-Shadow4" class="st17" d="M1324,573c-0.3-11.3-1.9-473.9-1-480c-23.3,3.7-53.3,0.8-73,88
		c-12,113.3-23.2,122.4-46,172c-39.5,57.8-68,172.9-88,317c-12.2,74.5-11.6,153.9,59,108c51.6-34.5,103.5-99.8,116-129
		S1309.3,582.3,1324,573z"/>
	
		<linearGradient id="Body-Shadow5_1_" gradientUnits="userSpaceOnUse" x1="591" y1="1478.1338" x2="805.4807" y2="1478.1338" gradientTransform="matrix(1 0 0 -1 0 1920)">
		<stop  offset="0" style="stop-color:#A6A6A6"/>
		<stop  offset="1" style="stop-color:#D9D9D9"/>
	</linearGradient>
	<path id="Body-Shadow5" class="st18" d="M591,573c0.3-11.3,3-473.9,2-480c23.3,3.7,56.3-1.3,76,86c13.2,90.1,20.2,124.6,43,174.2
		c39.5,57.8,68,173.1,88,317.2c8.9,79.7,16,143-56,112.6c-51.6-34.5-102.5-104.4-115-133.7C616.5,620.1,611.7,586.3,591,573z"/>
	
		<radialGradient id="Body-Shadow6_1_" cx="961.5" cy="1557.5" r="234.5" gradientTransform="matrix(1 0 0 -1 0 1920)" gradientUnits="userSpaceOnUse">
		<stop  offset="0" style="stop-color:#000004"/>
		<stop  offset="1" style="stop-color:#000000;stop-opacity:0"/>
	</radialGradient>
	<path id="Body-Shadow6" class="st19" d="M960,128c75.5,0,141.4,25.4,190.5,56.6c37.7,43.7,60.5,100.6,60.5,162.9
		c0,137.8-111.7,249.5-249.5,249.5C823.7,597,712,485.3,712,347.5c0-63.8,23.9-122,63.3-166.1C817.2,153.6,886,128,960,128z"/>
</g>
<g id="Line">
	<path id="Line-All" class="st20" d="M960,1895c-5.8,0-11.6,0-17.3,0c-55.8,0-106.8,0-106.8,0s0-105.5,0-143c-14,10-26.4,18.9-40,5
		c-13.6-13.9-14-68.5-14-92c0-23.5,0-68.3,3-110c-26.5-87-47.4-194.3-63.7-303 M667.9,706c-10.9-14.1-31.3-36.9-41-61
		c-17.2-61.8-22.9-58.3-31-67c-0.9-1-5.9-5-5.9-5 M616.9,617c-10.4,0-158.7,0-175.9,0c0.2-16.4,0-56,0-56s-3.9,0-23,0
		c0-10.3,0-467,0-467h23V27h200.9c0,0,0,72.6,0,86.5 M959.8,1895c5.8,0,11.6,0,17.3,0c55.8,0,106.9,0,106.9,0s0-105.5,0-143
		c14,10,26.4,18.9,40,5s14-68.5,14-92s0-68.3-3-110c26.5-87,47.4-194.3,63.7-303 M1252,707c10.9-14.1,31.3-37.9,41-62
		c17.2-61.8,22.9-65.3,31-74 M1306,603c0,3.2,0,10.3,0,14c10.4,0,155.7,0,173,0c-0.2-16.4,0-56,0-56s4.9,0,24,0c0-10.3,0-467,0-467
		h-24V27l-200-1c0,0,0.3,71.6,0,85.8c-39.1,41.3-27,143-54,178.2c-33.6-91.2-63.8-99.8-115-128c-52.3-25.8-96.2-31.4-129-32.7
		c-7.6-0.3-34.7-0.3-42.3,0c-32.7,1.2-76.6,6.9-128.9,32.7c-51.2,28.3-81.4,36.8-115,128c-34.3-44.7-5.7-196-98-196
		c-1,0-4.9,0-4.9,0"/>
	<path id="Line-Body5" class="st20" d="M786,1559c10.2,36.1,73.3,241,174,241s162.3-204.8,179-260"/>
	<path id="Line-Caterpillars8" class="st20" d="M1088,1755c-10.3-9.2-21.4-18.7-31-26 M861,1728c-8,7.8-18.5,19.7-29,28 M801,1759
		c14.3-5.9,36.4-26.6,51-44 M1069,1714c10.4,12.9,41.1,45.1,56,42"/>
	<path id="Line-Caterpillars7" class="st20" d="M836,1859h246"/>
	<path id="Line-Body10" class="st20" d="M1253,706c-11,12.2-62.7,64-79,75s-55.6,22.7-63-21s27.8-262.2,61-340s52.2-98.7,67-165"/>
	<path id="Line-Body" class="st20" d="M1125,787c-1.5,35.9-8.4,317.4-34,539c38.2,17,56.6,23.2,86,56 M741.5,1377.4
		c27.2-29.2,45.6-35.5,82.1-51.8c-25.5-221.6-32.5-503-34-538.9"/>
	<path id="Line-Body2" class="st20" d="M940.6,536.9c-41.2-0.8-120.2-8-144.6-64.9c-15.4-35.9-16-119.1-16-138
		c0-47.6-12.6-164.5,158.6-173.5c6.8-0.4,34.7,0.1,41.6,0.4c171.2,8.9,158.6,125.8,158.6,173.3c0,18.9-0.6,102-16,137.9
		c-24.4,56.9-103.4,64.1-144.7,64.9C969.9,537.2,948.8,537.1,940.6,536.9z"/>
	<path id="Line-Body_1_" class="st20" d="M944,503.7c-34-0.7-99.3-6.6-119.5-53.6c-12.7-29.6-13.2-98.3-13.2-113.9
		c0-39.2-10.4-135.7,131-143.1c5.6-0.3,28.7,0.1,34.3,0.3c141.4,7.4,131,103.8,131,143c0,15.6-0.5,84.1-13.2,113.7
		c-20.2,47-85.4,52.9-119.5,53.5C968.2,503.9,950.8,503.9,944,503.7z"/>
	<path id="Line-Body6" class="st20" d="M960,1773v28"/>
	<path id="Line-Body4" class="st20" d="M1113,1041c-39.5-10.7-97.8-15-154-15s-129.3,9.7-156,16"/>
	<path id="Line-Body3" class="st20" d="M710,344c0.4-68,85.6-185,249-185s238.4,109,245,190 M747.9,1241.3
		c7.2,54,13.3,93.9,16.1,109.7c15.2,84.5,92.5,423,195,423c84.9,0,152.3-194.3,191-416c6.8-38.8,12.7-78.3,18-117.8 M1173,783
		c-0.5,89.2-15.5,351.1-31,448c37.9,13.6,98,39,98,39s63.8-369.9,58-639 M748,785c-0.4,25.5,7.8,320.6,28,443c-41,18-95,41-95,41
		s-60-315.6-60-641"/>
	<path id="Line-Body2_1_" class="st20" d="M1122,1342c-22.7,144.5-65.2,313.3-121,363c-37.4,0-82,0-82,0s-67.3-73.6-128-361"/>
	<path id="L-Body-70" class="st20" d="M937,1640h46c0,0,14.5-23.2,35-82.9c12.8-37.3,27.3-89,44-158.1c-11.4-9-37-30-37-30H894
		l-38,31c0,0,23.2,86.4,46.5,155.6C918,1601.6,937,1640,937,1640z"/>
	<path id="L-Body-71" class="st20" d="M903,1557h113"/>
	<path id="Line-Body9" class="st20" d="M1160,788c-16,3.1-33.8-13.2-32-57s27-203.4,53-279c27.1-78.8,53.5-115.7,66-160
		s6.6-159.8,38-185c15.3-13.8,39-13,39-13"/>
	<path id="Line-Caterpillars6" class="st20" d="M1482,94c-17.2,0-151.1,0-161,0"/>
	<path id="Line-Caterpillars5" class="st20" d="M1322,576l-1.4-477"/>
	<path id="Line-Caterpillars4" class="st20" d="M1489,561c-14.5,0-154.8,1.7-166,13"/>
	<path id="Line-Body7" class="st20" d="M664,700c11.4,13.8,60.4,69.8,76.7,80.8c16.3,11,55.5,22.7,62.9-21
		c7.4-43.7-27.8-262.1-60.9-339.9c-33.2-77.8-47.1-98.6-61.9-164.9"/>
	<path id="Line-Body8" class="st20" d="M754.7,787.8c16,3.1,33.8-13.2,32-57c-1.8-43.8-27-203.3-52.9-278.9
		c-27.1-78.7-53.4-115.6-65.9-159.9c-12.5-44.3-6.6-163.8-38-189"/>
	<path id="Line-Caterpillars3" class="st20" d="M426,560.9c14.5,0,154.7,1.7,165.8,13"/>
	<path id="Line-Caterpillars2" class="st20" d="M433,94c17.2,0,151,0,160.9,0"/>
	<path id="Line-Caterpillars" class="st20" d="M590.8,571.9L592.2,95"/>
</g>
<g id="Animation">
	<path id="Fill-Gun" class="st0" d="M1011,1125l8-454h13v-23h-12v-23h12l1-23h-12v-23h15v-23h-15l1-16c0,0,28.9-12.1,59-63
		s54.3-99.4,61-154c8.7-70.6-43.8-285.9-170.4-298.4c-3.8-0.4-19.4-0.4-23.2,0C821.7,37.1,769.3,252.4,777.9,323
		c6.7,54.6,30.9,103.1,61,154c30.1,50.9,59,63,59,63l1,16h-15v23h15v23h-12l1,23h12v23h-12v23h13l8,454H1011z"/>
	<path id="Paint-Tower" class="st11" d="M1011,1124H908l-6-451l36-5V545c0,0-33.6,0.3-42-7c-8.4-7.3-70.9-111.3-80-189
		c-9.3-6.3-22-18-22-18s0.4-116.7,38-176c8.4-0.7,15-2,15-2S894.1,43,960,43s115,114,115,114l15-2c0,0,37.8,59.1,35,176
		c-10,11.2-21,23-21,23s-27.3,126.4-84,186c-7,3-38,9-38,9v119l37,5L1011,1124z"/>
	<path id="Tower-Shadow" class="st21" d="M845,155h-12c0,0-35,33.5-38,177c10.8,10.7,21,18,21,18s-5.9-45.9,1-92
		C824.6,206.9,845,155,845,155z M1076,155h12c0,0,35,33.5,38,177c-10.8,10.7-21,18-21,18s5.9-45.9-1-92
		C1096.4,206.9,1076,155,1076,155z"/>
	<path id="Gun-Shadow2" class="st22" d="M1036,532c16.4-14.2,102.9-121.4,108-226C1123.5,97.6,1029.9,25,961,25
		c-131.4-6.4-185,214.5-185,280s64.8,208.3,121,236c-48.5-82.2-70.6-113.2-80.3-190.9c-5.6-5.1-12.2-10.3-21.7-23.1
		c-1.1-16.6-0.9-105,35-170c5.2-1,13.5-2.2,18.3-3.8C871.8,95.5,908.1,44,960,44c54.5,0,91.4,52.3,114.8,111.2
		c0.5,1.3,14.7-0.5,15.2,0.8c24.2,51.8,36.9,103.6,36,173c-0.3,2.1-22.5,20.3-22.9,22.4c-13.3,70.7-50.8,160.9-77.1,186.6
		C1032.8,533.9,1019.6,546.2,1036,532z"/>
	<path id="Gun-Shadow" class="st23" d="M897,540c11.6,2.2,33.1,4.9,41,5c-0.1,2.7,0,8,0,8l-38,2C900,555,896.2,544.2,897,540z
		 M938,582v20h-38v-21l33-1L938,582z M938,628v21l-38-1l1-23L938,628z M982,545v10c0,0,37.9-0.1,38,0s1.4-13.8,1-13S982,545,982,545
		z M982,580v20h40l-1-19L982,580z M982,625v23l37-1v-19L982,625z"/>
	<path id="Line-Head" class="st24" d="M1011,1125l8-454h13v-23h-12v-23h12l1-23h-12v-23h15v-23h-15l1-16c0,0,28.9-12.1,59-63
		s54.3-99.4,61-154c8.7-70.6-43.8-285.9-170.4-298.4c-3.8-0.4-19.4-0.4-23.2,0C821.7,37.1,769.3,252.4,777.9,323
		c6.7,54.6,30.9,103.1,61,154c30.1,50.9,59,63,59,63l1,16h-15v23h15v23h-12l1,23h12v23h-12v23h13l8,454H1011z"/>
	<path id="Line-Gun" class="st24" d="M899,671h34v-23h-38 M899,625h34v-23h-38 M899,579h34v-23h-38"/>
	<path id="Line-Gun2" class="st24" d="M1021,671h-34v-23h38 M1021,625h-34v-23h38 M1021,579h-34v-23h38"/>
	<path id="Line-Gun3" class="st24" d="M897,540c7,3.8,111.5,9.3,127-1"/>
	<path id="Line-Gun4" class="st20" d="M897,539c-17-21-84.7-120.8-84-233c0.8-122.2,71.1-256.3,141.7-262.8c1.8-0.2,11.2,0,14.1,0.4
		c69.4,10.5,137.4,142.2,138.2,262.3c0.7,112.2-67,212-84,233"/>
	<path id="Line-Gun5" class="st20" d="M817,355l-22-23c0,0-4.3-109.9,36-177c4.8-0.8,12-1,12-1"/>
	<path id="Line-Gun6" class="st20" d="M1102.9,355l21.9-23c0,0,4.3-109.9-35.9-177c-4.8-0.8-14-1-14-1"/>
	<circle id="Animation-Coordinates" class="st25" cx="960.5" cy="347.5" r="0.5"/>
</g>
</svg>
