<?xml version="1.0" encoding="utf-8"?>
<!-- Generator: Adobe Illustrator 22.0.0, SVG Export Plug-In . SVG Version: 6.00 Build 0)  -->
<svg version="1.1" id="Слой_1" xmlns="http://www.w3.org/2000/svg" xmlns:xlink="http://www.w3.org/1999/xlink" x="0px" y="0px"
	 viewBox="0 0 1920 1920" style="enable-background:new 0 0 1920 1920;" xml:space="preserve">
<style type="text/css">
	.st0{fill:#4D4D4D;}
	.st1{opacity:0.502;fill:#BFBFBF;enable-background:new    ;}
	.st2{fill:url(#Bubbles-Shadow20_1_);}
	.st3{opacity:0.4;fill:url(#Bubbles-Shadow27_1_);enable-background:new    ;}
	.st4{opacity:0.4;fill:url(#Bubbles-Shadow26_1_);enable-background:new    ;}
	.st5{opacity:0.4;fill:url(#Bubbles-Shadow30_1_);enable-background:new    ;}
	.st6{opacity:0.302;fill:url(#Bubbles-Shadow29_1_);enable-background:new    ;}
	.st7{opacity:0.302;fill:url(#Bubbles-Shadow28_1_);enable-background:new    ;}
	.st8{opacity:0.502;fill:url(#Bubbles-Shadow25_1_);enable-background:new    ;}
	.st9{opacity:0.502;fill:url(#Bubbles-Shadow24_1_);enable-background:new    ;}
	.st10{opacity:0.302;fill:url(#Bubbles-Shadow23_1_);enable-background:new    ;}
	.st11{opacity:0.4;fill:url(#Bubbles-Shadow22_1_);enable-background:new    ;}
	.st12{opacity:0.4;fill:url(#Bubbles-Shadow21_1_);enable-background:new    ;}
	.st13{opacity:0.302;fill:url(#Bubbles-Shadow31_1_);enable-background:new    ;}
	.st14{opacity:0.4;fill:url(#Bubbles-Shadow33_1_);enable-background:new    ;}
	.st15{opacity:0.4;fill:url(#Bubbles-Shadow32_1_);enable-background:new    ;}
	.st16{opacity:0.302;fill:url(#Bubbles-Shadow35_1_);enable-background:new    ;}
	.st17{opacity:0.2;enable-background:new    ;}
	.st18{opacity:0.302;fill:url(#Bubbles-Shadow18_1_);enable-background:new    ;}
	.st19{opacity:0.302;fill:url(#Bubbles-Shadow17_1_);enable-background:new    ;}
	.st20{fill:url(#Bubbles-Shadow19_1_);}
	.st21{opacity:0.302;fill:url(#Bubbles-Shadow16_1_);enable-background:new    ;}
	.st22{opacity:0.302;fill:url(#Bubbles-Shadow15_1_);enable-background:new    ;}
	.st23{opacity:0.302;fill:url(#Bubbles-Shadow14_1_);enable-background:new    ;}
	.st24{opacity:0.4;fill:url(#Bubbles-Shadow13_1_);enable-background:new    ;}
	.st25{opacity:0.4;fill:url(#Bubbles-Shadow12_1_);enable-background:new    ;}
	.st26{opacity:0.4;fill:url(#Bubbles-Shadow10_1_);enable-background:new    ;}
	.st27{opacity:0.302;fill:url(#Bubbles-Shadow11_1_);enable-background:new    ;}
	.st28{opacity:0.502;fill:url(#Bubbles-Shadow9_1_);enable-background:new    ;}
	.st29{opacity:0.502;fill:url(#Bubbles-Shadow8_1_);enable-background:new    ;}
	.st30{opacity:0.4;fill:url(#Bubbles-Shadow7_1_);enable-background:new    ;}
	.st31{opacity:0.502;fill:url(#Bubbles-Shadow6_1_);enable-background:new    ;}
	.st32{opacity:0.4;fill:url(#Bubbles-Shadow5_1_);enable-background:new    ;}
	.st33{opacity:0.4;fill:url(#Bubbles-Shadow4_1_);enable-background:new    ;}
	.st34{opacity:0.502;fill:url(#Bubbles-Shadow3_1_);enable-background:new    ;}
	.st35{fill:#F2F2F2;}
	.st36{fill:#DEDEDE;}
	.st37{fill:#999999;}
	.st38{opacity:0.4;fill:url(#Gun-Shadow91_1_);enable-background:new    ;}
	.st39{fill:none;stroke:#B3B3B3;stroke-width:10;}
	.st40{fill:#A800A8;}
	.st41{fill:#6E1370;}
	.st42{opacity:0.2;fill:url(#Body-Shadow_1_);enable-background:new    ;}
	.st43{fill:#E0E0E0;}
	.st44{fill:#B3B3B3;}
	.st45{opacity:0.302;fill:url(#Body-Shadow2_1_);enable-background:new    ;}
	.st46{fill:none;stroke:#1A1A1A;stroke-width:5;}
</style>
<path id="Tentacles1-Point1_1_" class="st0" d="M988.8,635c-0.5-7.9-2.3-15.4-5.2-22.5s-6.6-13.8-10.8-20.2s-8.8-12.5-13.6-18.6
	c-1.2-1.5-2.4-2.9-3.6-4.3c-0.6-0.7-1.2-1.4-1.8-2.1l-1.9-2c-1.2-1.4-2.6-2.6-3.9-3.9c-1.3-1.3-2.7-2.5-4.1-3.7
	c-11.1-9.8-24.1-17.3-37.6-25.6c-6.8-4.1-13.7-8.5-20.4-13.9c-6.7-5.3-13.3-11.9-18.4-20c-5-8.1-8.2-17.5-9.4-26.8
	c-0.3-2.3-0.5-4.6-0.6-6.9c0-2.3-0.1-4.5-0.1-6.8c0.1-2.2,0.2-4.4,0.4-6.7l0.8-6.5c0-0.3,0-0.5,0.1-0.9l0.2-1.1
	c0.1-0.7,0.3-1.5,0.4-2l0.5-1.9c0.2-0.6,0.3-1.2,0.5-1.8c0.7-2.4,1.5-4.4,2.2-6.5c1.6-4.1,3.2-7.9,4.9-11.5
	c3.4-7.3,6.7-14.3,9.8-21.2c3.1-6.9,6-13.7,8.2-20.4c2.2-6.6,3.8-13.2,3.9-18.7c0-0.7,0-1.4,0-2v-1c0-0.3-0.1-0.6-0.1-0.9l-0.1-0.9
	c0-0.3-0.1-0.8-0.2-1.2l-0.4-2.5c-0.2-1.7-0.6-3.3-1-4.9c-0.2-0.8-0.4-1.6-0.6-2.4l-0.7-2.4c-1.9-6.4-4.5-12.4-7.9-18.3
	c-3.3-5.9-7.4-11.5-12.1-17.4l-7.4-9.2c-0.6-0.8-1.3-1.7-1.9-2.5c-0.6-0.9-1.3-1.7-1.9-2.6l-1.9-2.7c-0.6-1-1.3-2-1.9-2.9
	c-2.5-4-4.9-8.6-6.6-13.7c-1.7-5.2-2.5-10.9-2.4-16.4c0.1-1.4,0.1-2.7,0.2-4.1l0.6-3.9c0.2-1.3,0.5-2.6,0.8-3.8s0.6-2.5,1-3.7
	c1.5-4.7,3.4-9.1,5.5-13.1c1.1-2,2.1-4,3.3-5.8l1.7-2.8l0.9-1.4l0.9-1.3c1.2-1.8,2.4-3.5,3.7-5.3l4.1-5.3c5.6-6.8,11.8-12.7,18-18.2
	c6.3-5.5,12.6-10.4,18.9-15.2c6.3-4.8,12.6-9.4,18.7-14.1c6.1-4.7,12-9.4,17.8-14.2c2.8-2.5,5.6-4.9,8.3-7.5l2-1.9l1-1l1-1l3.9-4
	c5-5.2,9.2-10.9,12.8-17c3.5-6.1,6.1-12.6,7.6-19.4c0.7-3.4,1.2-6.9,1.2-10.4s-0.2-7-0.8-10.5c-1.2-7-3.7-14-7.2-20.5
	s-8-12.8-13.1-18.5c-5.1-5.8-10.8-11.2-16.7-16.3c6.9,3.7,13.6,8,19.9,13c6.3,5,12.1,10.7,17,17.3c5,6.5,9,14.1,11.6,22.3
	c1.3,4.1,2.1,8.4,2.6,12.7c0.5,4.3,0.4,8.7,0.1,13.1c-0.8,8.7-3.1,17.2-6.6,25.1c-1.7,4-3.8,7.8-6,11.4c-2.2,3.7-4.7,7.2-7.3,10.5
	c-2.6,3.2-5.1,6.5-7.9,9.5c-2.7,3.1-5.6,6-8.4,9c-5.8,5.8-11.6,11.3-17.7,16.6c-6,5.3-12,10.4-17.8,15.4s-11.6,10-16.9,15.1
	c-5.3,5.1-10.1,10.4-14.3,15.8l-3,4.1c-1,1.5-1.9,3-2.9,4.5l-0.7,1.1l-0.6,1.1l-1.3,2.2c-0.9,1.5-1.6,3-2.3,4.5
	c-1.5,3-2.5,5.9-3.4,8.6c-0.2,0.7-0.3,1.3-0.5,2s-0.3,1.3-0.4,1.9c-0.1,0.6-0.2,1.2-0.3,1.9c0,0.6,0,1.2,0,1.8
	c0,2.3,0.4,4.4,1.2,6.6s2.1,4.7,3.8,7.2c3.4,5.2,8.3,11,13.4,17.3c5.1,6.4,10.3,13.3,14.7,21.1c4.4,7.7,8,16.2,10.5,24.8l0.9,3.2
	c0.3,1.1,0.5,2.2,0.8,3.3c0.5,2.2,1,4.4,1.3,6.6l0.5,3.3c0.1,0.6,0.2,1.1,0.3,1.7l0.2,2c0.1,0.7,0.1,1.4,0.2,2v2
	c0,1.3,0,2.6-0.1,3.9c-0.3,5.1-1.1,9.8-2.2,14.2c-1.1,4.5-2.4,8.7-3.9,12.7c-2.9,8.1-6.4,15.7-10,22.9c-3.6,7.2-7.3,14.2-10.7,21
	c-1.7,3.4-3.3,6.7-4.7,9.9c-0.7,1.6-1.3,3.1-1.8,4.5c-0.1,0.3-0.3,0.7-0.4,1l-0.3,0.9c-0.1,0.3-0.1,0.5-0.2,0.8l-0.1,0.4
	c0,0.1-0.1,0.4-0.1,0.6c-1.4,6.8-1.9,13.6-1.5,19.9s2,12.1,4.8,17.6c3,5.4,7,10.6,12.2,15.4c5.1,4.8,11.1,9.4,17.3,14.1
	c6.2,4.7,12.6,9.4,18.9,14.5c6.3,5.2,12.4,10.7,17.9,16.8c1.4,1.6,2.8,3.1,4.1,4.7c1.3,1.6,2.6,3.2,3.8,4.9l1.8,2.5
	c0.6,0.8,1.2,1.7,1.7,2.6l1.7,2.6c0.6,0.9,1,1.7,1.6,2.6c4.1,6.8,8,13.9,11.3,21.2c3.4,7.3,6.1,15,7.8,22.9S990,627.2,988.8,635z"/>
<path id="Tentacles2-Point1_1_" class="st0" d="M962.3,620.9c4.5-5.3,9.7-10,14.4-15c4.7-4.9,9.1-10.1,11.6-15.7
	c1.2-2.8,2-5.6,2.1-8.3c0.1-1.4,0-2.7-0.2-4.1c-0.1-0.7-0.3-1.4-0.4-2c-0.1-0.3-0.2-0.7-0.3-1.1l-0.3-1.2c-1.8-6.5-3.7-12.9-6-19.3
	c-4.4-12.8-9.4-25.5-14.2-38.7c-2.4-6.6-4.7-13.2-6.7-20.1c-2.1-6.8-4-13.8-5.3-21.1c-1.4-7.2-2.4-14.7-2.6-22.3
	c-0.3-7.6,0.2-15.4,1.5-23.1c0.4-1.9,0.7-3.9,1.1-5.8l1.4-5.7c0.6-1.9,1.2-3.8,1.8-5.6c0.6-1.9,1.4-3.7,2.1-5.5
	c3-7.3,6.7-14.2,10.9-20.6c4.3-6.5,9.2-12.5,14.5-18.1c5.3-5.5,11-10.7,17.3-15.3c6.3-4.6,13-8.7,20.5-12.1l1.4-0.6l0.7-0.3l0.8-0.3
	c1.1-0.4,2.2-0.9,3.3-1.2l3.1-1l3-0.8c3.9-0.9,7.5-1.6,10.7-2.2c3.3-0.6,6.2-1.2,8.7-2c2.5-0.7,4.5-1.5,6-2.4c0.3-0.2,0.7-0.4,1-0.6
	s0.5-0.5,0.8-0.7s0.4-0.5,0.7-0.7l0.2-0.2l0.3-0.4l0.6-0.8l1.3-1.6c0.4-0.5,0.7-1.1,1.1-1.6l1.1-1.6l0.9-1.7
	c1.3-2.2,2.2-4.5,3.1-6.8l0.5-1.8l0.3-0.9l0.2-0.9l0.4-1.9l0.3-2c0.1-0.6,0.2-1.3,0.3-2c0.1-0.7,0.2-1.4,0.2-2.1
	c0.1-1.4,0.2-2.8,0.2-4.4c0-3,0-6.2-0.1-9.6c-0.2-6.8-0.6-14.5,0.4-22.9l0.5-3.2l0.7-3.2c0.2-1.1,0.5-2.2,0.8-3.2
	c0.3-1.1,0.6-2.2,1-3.2l1.2-3.2c0.4-1.1,0.9-2,1.4-3.1c0.9-2.1,2.1-3.9,3.3-5.8c0.6-1,1.3-1.8,1.9-2.7c0.7-0.9,1.3-1.8,2-2.6
	l2.1-2.4c0.7-0.8,1.4-1.6,2.1-2.3c2.9-3,6-5.6,9.1-8c1.6-1.1,3.2-2.4,4.8-3.4l4.8-3.1c3.3-1.9,6.6-3.8,9.8-5.4
	c6.4-3.3,13.2-6.4,20.3-8.9c7.1-2.5,14.5-4.4,21.7-5.5c7.2-1.2,14.1-2,21-2.8c6.9-0.7,13.6-1.5,20.4-2.4l5.1-0.6
	c0.9-0.1,1.6-0.2,2.4-0.3s1.5-0.2,2.3-0.4c1.5-0.3,3-0.7,4.6-1c1.5-0.5,3-0.9,4.5-1.4c3-1,6-2.3,8.9-3.7c1.4-0.8,2.9-1.5,4.3-2.3
	c1.4-0.9,2.8-1.6,4.2-2.6c5.5-3.7,10.7-7.9,15.5-12.7s9.3-10,13.6-15.5c-2.8,6.3-6.2,12.5-10.1,18.4c-4,5.8-8.5,11.4-13.8,16.3
	c-1.3,1.3-2.7,2.4-4.1,3.6c-1.4,1.2-2.9,2.2-4.3,3.4c-3,2.1-6.1,4.1-9.4,5.9c-3.3,1.8-6.8,3.3-10.4,4.5c-0.9,0.3-1.8,0.6-2.7,0.9
	c-0.9,0.3-1.9,0.6-2.7,0.8l-5.1,1.4c-6.7,1.8-13.5,3.4-20.3,5c-6.7,1.6-13.4,3.1-19.7,4.9c-6.3,1.8-12.2,3.8-17.9,6.5
	c-5.7,2.6-11.3,5.9-16.8,9.3c-2.9,1.7-5.4,3.5-8,5.2l-3.7,2.8c-1.2,0.9-2.3,1.9-3.4,2.9c-4.4,3.9-8.2,8-10.5,12.3
	c-0.5,1.1-1.2,2.2-1.6,3.3c-0.2,0.6-0.5,1.1-0.7,1.7l-0.5,1.7c-0.6,2.3-1.1,4.7-1.3,7.4c-0.4,5.3,0.1,11.4,0.6,18.4l0.4,5.4
	c0.1,1.9,0.2,3.7,0.2,5.7c0.1,1.9,0,4-0.1,6c0,1-0.1,2.1-0.2,3.1s-0.2,2.1-0.3,3.1l-0.4,3.2l-0.6,3.2l-0.3,1.6l-0.4,1.6l-0.9,3.2
	c-1.4,4.2-3,8.3-5.1,12.1c-0.5,1-1,1.9-1.6,2.8l-1.7,2.7c-0.6,0.9-1.1,1.8-1.8,2.6l-1.9,2.5l-1,1.2l-0.5,0.6l-0.7,0.8
	c-0.9,1-1.9,2.1-2.9,3s-2.1,1.8-3.2,2.6c-1.1,0.8-2.2,1.5-3.3,2.2c-4.5,2.7-8.9,4.4-13,5.6s-8,2-11.4,2.7c-3.5,0.7-6.7,1.2-9.5,1.9
	l-2,0.5l-1.8,0.5c-0.6,0.2-1,0.4-1.6,0.6l-0.4,0.1l-0.5,0.2l-1,0.4c-5.2,2.2-10.3,5.3-15.2,8.7c-4.9,3.4-9.6,7.4-14,11.7
	c-4.3,4.3-8.3,9-11.8,13.8c-3.5,4.9-6.6,10.1-9.1,15.5c-0.6,1.4-1.3,2.7-1.8,4.1s-1.1,2.8-1.6,4.1l-1.3,4.2
	c-0.4,1.4-0.7,2.9-1.1,4.3c-1.3,5.8-2,11.8-2.3,18c-0.2,6.2,0.1,12.5,0.8,18.8c0.7,6.4,1.8,12.9,3.1,19.4s2.9,13.1,4.5,19.7
	c1.6,6.6,3.4,13.3,5,20.1s3.2,13.6,4.6,20.5c1.3,6.9,2.5,13.9,3.3,21l0.1,1.3c0,0.4,0.1,0.9,0.1,1.4c0.1,1,0.2,2.1,0.1,3.1
	c0,2.1-0.2,4.2-0.6,6.2c-0.8,4.1-2.6,7.8-4.8,11c-2.2,3.2-4.8,6-7.5,8.4s-5.6,4.6-8.4,6.6C973.9,613.4,968,616.9,962.3,620.9z"/>
<path id="Tentacles3-Point2_1_" class="st0" d="M990.6,668.6c5.4-5,9.1-11.3,11.8-17.9c2.8-6.6,4.6-13.5,6.3-20.6
	c1.6-7,2.9-14.2,4.2-21.4c0.3-1.8,0.7-3.6,1.1-5.5l1.2-5.5c0.4-1.7,0.8-3.5,1.1-5.2l1-5.3c2.5-14.1,4-28.5,5.7-43.1
	c0.8-7.3,1.8-14.7,3-22.2c1.2-7.4,2.6-15,4.5-22.5s4.3-15.1,7.5-22.6c3.1-7.4,7.1-14.7,11.8-21.5c4.8-6.8,10.3-13.2,16.6-18.7
	c6.3-5.5,13.1-10.4,20.2-14.5c7.2-4.1,14.7-7.4,22.5-10c7.7-2.6,15.7-4.6,23.9-5.9c4.1-0.6,8.3-1,12.5-1.1c1.1-0.1,2.1-0.1,3.2-0.1
	s2.1,0,3.2,0l3.2,0.2h0.8c0.3,0,0.6,0.1,0.9,0.1l1.9,0.2c4.9,0.6,9.1,1.7,12.9,2.7s7.2,2.1,10.3,2.8c3.1,0.8,5.8,1.3,8,1.4
	s3.8-0.1,5.1-0.5c0.2-0.1,0.3-0.1,0.5-0.2h0.1c0,0,0.1,0,0.2-0.1l0.7-0.3l2.9-1.2c1.9-0.8,3.9-1.5,5.9-2.2c4.1-1.3,8.2-2.6,12.8-3.3
	c4.5-0.8,9.2-1.2,14.1-1c4.8,0.2,9.6,1,14,2.2s8.4,2.6,12,4.1c3.7,1.4,7,2.9,10.2,4.2c3.2,1.3,6.3,2.5,9.4,3.6
	c1.6,0.6,3.1,1,4.7,1.5c1.6,0.4,3.1,0.9,4.7,1.3c6.3,1.5,12.8,2.6,19.5,3.2c1.7,0.2,3.4,0.2,5,0.3c1.7,0.1,3.4,0.2,5.1,0.2
	s3.4,0.1,5.1,0h2.6h1.3h0.3h0.2h0.4c0.5-0.1,1.2,0,1.7-0.1s1-0.2,1.5-0.2c0.4-0.1,0.8-0.2,1.3-0.3c0.4-0.2,0.7-0.3,1.1-0.4
	c1.4-0.6,2.7-1.7,4.2-3.5c1.4-1.8,2.8-4.4,4.1-7.2c1.3-2.9,2.5-6.2,3.7-9.6s2.5-7,3.9-10.6c1.4-3.7,3.1-7.4,5-11.1s4.3-7.3,7-10.7
	c1.3-1.7,2.9-3.3,4.4-4.9l2.5-2.2c0.8-0.8,1.7-1.4,2.6-2.1l1.3-1c0.4-0.3,0.9-0.6,1.4-0.9c0.9-0.6,1.8-1.2,2.8-1.7
	c1.9-1,3.8-2.1,5.8-2.8l1.5-0.6c0.5-0.2,0.9-0.4,1.6-0.6c0.6-0.2,1.2-0.4,1.8-0.6l1.7-0.4c2.2-0.5,4.3-0.8,6.4-1
	c4.1-0.4,7.9-0.4,11.7-0.4c3.8,0,7.4,0.1,11.1,0.2c7.3,0.2,14.5,0.3,21.7-0.1c7.2-0.3,14.3-1.1,21.3-2.6c3.5-0.7,7-1.7,10.5-2.8
	c3.4-1.2,6.8-2.5,10.2-4.1c-2.9,2.3-6,4.4-9.2,6.3s-6.6,3.5-10.1,5c-7,2.9-14.3,5-21.6,6.5c-7.4,1.6-14.8,2.6-22.2,3.5l-10.9,1.3
	c-3.6,0.5-7,1-10.2,1.7c-1.6,0.4-3.1,0.8-4.4,1.3l-0.9,0.4l-0.8,0.4c-0.2,0.1-0.6,0.3-0.9,0.5l-1,0.6c-1.4,0.7-2.6,1.6-3.8,2.5
	c-0.6,0.4-1.2,0.9-1.7,1.4c-0.3,0.2-0.6,0.5-0.9,0.7l-0.8,0.8c-0.5,0.5-1.1,1-1.5,1.6c-0.5,0.6-1,1.1-1.4,1.6
	c-0.9,1.2-1.8,2.3-2.6,3.6c-1.6,2.5-3,5.2-4.2,8.2c-2.4,5.9-4.1,12.5-5.9,19.7c-1,3.6-1.9,7.3-3.3,11.3c-1.4,3.9-3.1,8.1-5.8,12.4
	c-0.7,1.1-1.5,2.1-2.3,3.2c-0.8,1-1.8,2-2.7,3.1c-1,1-2.1,1.9-3.2,2.8c-1.2,0.8-2.3,1.7-3.5,2.4c-1.2,0.7-2.5,1.3-3.8,2
	c-1.3,0.5-2.6,1-3.9,1.5c-1.3,0.4-2.6,0.7-3.9,1s-2.5,0.4-3.8,0.6l-0.9,0.1l-0.5,0.1h-0.4l-1.5,0.1l-2.9,0.2
	c-1.9,0.2-3.9,0.2-5.9,0.3c-2,0.1-3.9,0.1-5.9,0.1s-3.9,0-5.9-0.1c-7.9-0.2-16-1-24-2.7c-8-1.6-15.9-4-23.1-6.7
	c-3.6-1.3-7.1-2.7-10.3-3.9c-3.2-1.2-6.1-2.2-8.9-2.8c-5.4-1.3-10-1.4-15.5-0.2c-0.7,0.2-1.3,0.2-2.1,0.4l-2.1,0.5
	c-0.7,0.2-1.4,0.4-2.1,0.6s-1.4,0.4-2.2,0.7c-1.5,0.6-2.9,1-4.4,1.7l-2.2,0.9l-0.6,0.2l-0.9,0.4l-2.1,0.8c-5.6,2-11.5,2.5-16.5,2.2
	c-5.1-0.3-9.6-1.2-13.6-2.2s-7.6-2.2-10.9-3.1s-6.2-1.6-8.6-1.9l-0.9-0.1c-0.2,0-0.3,0-0.5-0.1h-0.6l-2.2-0.1c-0.8,0-1.5,0-2.3,0
	s-1.5,0-2.3,0c-3.1,0-6.2,0.4-9.4,0.7c-12.6,1.6-25.5,5.7-36.8,11.5c-11.5,6-21.4,13.9-29.2,23.9c-3.9,5-7.3,10.5-10.3,16.4
	s-5.5,12.2-7.7,18.7s-4.1,13.3-5.8,20.2c-1.7,6.9-3.3,14-4.9,21.1c-3.2,14.3-6.4,28.9-10.9,43.3l-1.8,5.4c-0.6,1.8-1.3,3.6-1.9,5.4
	l-1.9,5.1l-1.8,5.1c-2.4,6.9-4.7,14-7.6,20.9c-2.8,7-6.1,13.8-10.2,20.2c-2.1,3.2-4.4,6.2-7,8.9
	C996.8,664.4,993.8,666.8,990.6,668.6z"/>
<path id="Tentacles4-Point2_1_" class="st0" d="M974.2,638.7c3.4-0.7,7-0.8,10.5-0.5s7,1.1,10.5,2c3.4,0.9,6.8,2,10,2.9
	c3.3,1,6.5,1.9,9.5,2.3c1.5,0.2,3,0.2,4.3,0.2c1.3-0.1,2.6-0.4,3.7-0.8c1.1-0.4,2.1-1,3-1.8c0.5-0.4,0.9-0.8,1.4-1.3
	c0.1-0.1,0.2-0.2,0.4-0.4l0.4-0.5l0.9-0.9c4.6-4.9,9-10,13.3-15.2c8.6-10.5,16.8-21.4,25.5-32.4c4.3-5.5,8.8-10.9,13.6-16.3
	c4.8-5.3,9.7-10.6,15.2-15.6s11.3-9.7,17.7-13.9c6.4-4.2,13.2-7.9,20.5-10.8c7.3-2.9,14.9-5.2,22.7-6.3c7.8-1.2,15.6-1.7,23.3-1.5
	c7.8,0.3,15.5,1.3,23,2.9c7.5,1.7,14.9,3.8,22.1,6.7s14.3,6.5,21,11.1c0.9,0.6,1.6,1.1,2.6,1.9l1.4,1.1c0.5,0.4,0.9,0.7,1.3,1.1
	c0.8,0.7,1.7,1.5,2.5,2.2l2.2,2.1c2.8,2.8,5.3,5.5,7.5,7.9l3.2,3.5l1.5,1.5c0.5,0.5,1,0.9,1.5,1.4c1.9,1.7,3.7,3,5.2,3.8
	c0.4,0.1,0.7,0.4,1.1,0.5c0.3,0.1,0.7,0.2,1,0.3s0.6,0.1,1,0.2c0.1,0,0.1,0.1,0.3,0.1l0.5,0.1l1,0.1l2,0.2c0.7,0.1,1.3,0,2,0.1
	l2,0.1c0.6,0,1.3-0.1,1.9-0.1c2.6,0,5-0.5,7.5-0.9l1.8-0.5c0.3-0.1,0.6-0.1,0.9-0.2l0.9-0.3l1.8-0.6l1.8-0.8
	c2.5-1.1,4.9-2.3,7.5-3.9c1.3-0.7,2.6-1.6,3.9-2.4l4.2-2.7c5.7-3.7,12-8.1,19.8-11.6l2.9-1.3l3.1-1.1c1-0.4,2.1-0.7,3.2-1
	s2.1-0.6,3.3-0.8l3.3-0.6c1.1-0.2,2.2-0.3,3.4-0.4c2.2-0.3,4.5-0.2,6.7-0.2c1.1,0,2.2,0.1,3.3,0.2c1.1,0.1,2.2,0.1,3.2,0.3l3.2,0.5
	l1.6,0.3c0.5,0.1,1,0.2,1.5,0.4c2,0.5,4.1,0.9,6,1.6l2.9,0.9c0.5,0.2,1,0.3,1.4,0.5l1.4,0.6c1.8,0.8,3.7,1.4,5.4,2.3l5.2,2.5
	c3.3,1.8,6.7,3.6,9.7,5.5c6.2,3.7,12.4,7.9,18.2,12.6c5.9,4.7,11.3,10.1,16.1,15.5c4.8,5.5,9.1,11,13.4,16.4
	c4.2,5.5,8.5,10.8,12.8,16.1l3.2,4c0.6,0.7,1,1.2,1.5,1.9c0.5,0.6,1,1.2,1.5,1.7c1,1.2,2.2,2.2,3.3,3.3c1.2,1,2.3,2.1,3.6,3.1
	c2.4,2.1,5.1,3.8,7.8,5.6c1.4,0.8,2.8,1.6,4.2,2.4c1.5,0.7,2.9,1.6,4.4,2.2c6,2.8,12.4,4.9,19,6.6c6.6,1.6,13.4,2.6,20.3,3.5
	c-6.9,0.9-13.9,1.3-20.9,1c-7.1-0.3-14.2-1.3-21.2-3.2c-1.8-0.4-3.5-1-5.2-1.6s-3.4-1.3-5.1-1.9c-3.4-1.5-6.7-3-9.9-4.9
	c-3.2-1.9-6.3-4-9.3-6.4c-0.7-0.6-1.5-1.2-2.2-1.8s-1.5-1.3-2.1-1.9l-3.8-3.6c-5.1-4.8-10-9.7-14.9-14.6c-4.9-4.9-9.7-9.8-14.5-14.2
	s-9.7-8.3-14.9-11.8c-5.2-3.5-10.9-6.5-16.7-9.5c-3-1.5-5.8-2.8-8.6-4.1l-4.3-1.7c-1.4-0.6-2.8-0.9-4.3-1.4
	c-5.6-1.7-11.1-2.7-16-2.5s-9.3,1.5-14.1,3.9c-4.7,2.4-9.7,6-15.4,10.1l-4.4,3.1c-1.6,1.1-3.1,2.1-4.8,3.2
	c-3.3,2.1-6.9,4.1-10.7,5.9l-2.9,1.3c-1,0.4-2,0.8-3,1.2l-1.5,0.6c-0.5,0.2-1,0.3-1.6,0.5l-3.2,0.9c-4.3,1-8.6,1.8-13,2
	c-1.1,0.1-2.2,0.1-3.2,0.2l-3.2-0.1c-1.1,0-2.1,0-3.2-0.1l-3.1-0.3l-1.6-0.2l-0.8-0.1c-0.2,0-0.7-0.1-1-0.2
	c-1.4-0.3-2.7-0.5-4.1-0.9c-1.3-0.4-2.6-0.8-3.9-1.3s-2.4-1.1-3.6-1.6c-4.7-2.4-8.5-5.3-11.7-8.1c-3.2-2.9-5.9-5.7-8.3-8.3
	s-4.6-5.1-6.6-7.1l-1.5-1.5l-1.4-1.3c-0.2-0.2-0.5-0.4-0.7-0.6l-0.6-0.5c-0.4-0.3-1-0.7-1.6-1.1c-2.3-1.6-4.8-3.1-7.3-4.5
	c-2.6-1.4-5.3-2.7-8-3.8c-11-4.8-23.3-7.7-35.2-8.6c-12.1-0.8-24,0.3-35.3,4.2c-5.7,1.9-11.1,4.4-16.5,7.5
	c-5.4,3-10.6,6.6-15.6,10.5c-5.1,4-10,8.3-14.9,12.8s-9.6,9.3-14.4,14.2c-4.8,4.8-9.6,9.8-14.5,14.8c-4.9,4.9-9.9,9.9-15,14.7
	c-5.2,4.8-10.5,9.4-16.1,13.8l-1,0.8l-0.5,0.4c-0.2,0.1-0.3,0.3-0.6,0.4c-0.9,0.6-1.8,1.3-2.8,1.8c-1.9,1.1-4.1,2-6.3,2.4
	c-2.2,0.5-4.5,0.6-6.6,0.3c-2.1-0.2-4.1-0.7-5.9-1.3c-3.7-1.2-6.9-2.7-10.1-4.3c-3.1-1.6-6.1-3.2-9.2-4.7c-3-1.5-6.1-2.8-9.4-3.9
	C981,639.5,977.6,638.8,974.2,638.7z"/>
<path id="Tentacles5-Point3_1_" class="st0" d="M959.7,696.5c3.8,0.5,7.4-0.5,10.8-1.9s6.6-3.2,9.8-5.2c6.3-3.9,12.3-8.5,18.4-13
	s12.2-9.1,19.1-13.2c3.5-2,7.2-4,11.8-5.2c1.2-0.3,2.4-0.6,3.8-0.7c1.4-0.1,2.9-0.1,4.4,0.1c3.2,0.4,6.8,2.2,9.1,4.8l0.4,0.5
	l0.3,0.3l0.5,0.6l1,1.1l1.9,2.2c1.3,1.5,2.5,3,3.7,4.5c2.4,3,4.8,6.1,7.1,9.2c4.6,6.2,8.9,12.6,13.2,18.9l12.6,18.8
	c4.2,6.2,8.4,12.1,12.8,17.9c4.4,5.7,8.9,11.2,13.7,16.1c4.8,5,9.9,9.5,15.3,13.3c10.8,7.6,22.8,12.7,35.8,14.8
	c0.8,0.2,1.6,0.3,2.4,0.4l2.5,0.3c1.6,0.2,3.3,0.4,4.9,0.5c3.3,0.2,6.6,0.3,9.9,0.3c3.3-0.1,6.7-0.3,10-0.7c1.7-0.1,3.3-0.4,5-0.6
	c1.6-0.3,3.3-0.5,4.9-0.9c6.5-1.3,12.8-3.1,18.5-5.6l2.1-1c0.4-0.2,0.6-0.3,0.9-0.5l0.8-0.4c1.1-0.6,2.3-1.4,3.6-2.3
	c2.6-1.8,5.4-4,8.5-6.4s6.6-5,10.8-7.4c4.2-2.4,9.1-4.8,15-6c1.5-0.3,3-0.5,4.5-0.7c1.5-0.1,3.1-0.1,4.6-0.1c0.4,0,0.6,0,0.9,0
	l0.8,0.1l1.7,0.1c1.1,0.1,2.2,0.1,3.3,0.3c4.4,0.5,8.9,1.2,13.2,2.4c1.1,0.3,2.2,0.6,3.2,0.9l3.2,1c2.1,0.7,4.1,1.5,6.2,2.3
	c4,1.7,7.9,3.5,11.6,5.5c7.4,3.9,14,8.2,20.3,12.3c6.3,4,12.2,7.7,18.1,10.6c5.9,2.8,11.8,5,17.9,6.1s12.4,1.3,19,0.7
	c0.8-0.1,1.6-0.1,2.4-0.2l2.5-0.4l2.5-0.4l2.5-0.5c1.7-0.3,3.3-0.6,5-1.1l2.5-0.7c0.8-0.2,1.7-0.4,2.4-0.7c2.8-0.8,5.4-1.9,7.6-3.2
	c2.3-1.3,4.3-3,6.1-5.1c3.7-4.1,6.7-10.2,10-17c3.2-6.8,6.7-14.2,11.4-21.2c2.3-3.5,5-6.8,7.8-9.8c1.4-1.6,2.9-3,4.4-4.4
	c1.6-1.4,3.1-2.8,4.8-4c1.6-1.3,3.3-2.5,5-3.6c0.3-0.3,1.1-0.7,1.7-1c0.6-0.4,1.2-0.6,1.7-0.9c1.2-0.6,2.2-0.9,3.2-1.3
	c4.1-1.4,7.9-2.3,11.7-3.1c7.6-1.5,15.1-2.7,22.6-3.9c7.4-1.2,14.9-2.4,22.2-4.1c3.6-0.8,7.3-1.8,10.7-3c1.7-0.7,3.5-1.3,5-2.3
	c1.6-0.9,3.2-2,4.1-3.6c-0.6,1.8-2,3.3-3.4,4.6c-1.5,1.3-3.1,2.4-4.7,3.4c-3.3,2-6.8,3.6-10.4,5.2c-7.1,3-14.3,5.5-21.6,7.9
	c-7.2,2.4-14.5,4.6-21.4,7.1c-3.4,1.3-6.9,2.5-9.8,4c-0.7,0.4-1.4,0.7-1.9,1.1c-0.3,0.2-0.6,0.4-0.7,0.5c-0.2,0.2-0.3,0.2-0.7,0.6
	c-1.3,1.2-2.6,2.3-3.7,3.6c-1.2,1.2-2.3,2.5-3.5,3.7c-1.1,1.3-2.2,2.6-3.1,4c-2,2.7-3.8,5.6-5.3,8.6c-3.2,6-5.6,12.5-8.1,19.7
	c-1.3,3.6-2.6,7.3-4.4,11.2c-1.7,3.9-3.9,7.9-6.7,11.8c-2.8,3.9-6.4,7.5-10.4,10.4s-8.3,5.1-12.7,6.7c-1.1,0.5-2,0.7-3,1.1l-2.9,1
	c-1.9,0.7-4,1.2-6,1.8l-3,0.8l-3.1,0.7l-3.1,0.7c-1,0.2-2.1,0.3-3.2,0.5c-8.5,1.3-17.4,1.6-26.2,0.4c-8.9-1.1-17.5-3.8-25.3-7.2
	s-14.9-7.5-21.5-11.4s-12.7-7.7-18.8-10.7c-3-1.6-6-2.8-9-4c-1.5-0.5-3-1.1-4.5-1.5l-2.2-0.7l-2.2-0.5c-3-0.8-6-1.2-9.1-1.6
	c-0.8-0.1-1.5-0.1-2.3-0.2l-1.2-0.1h-0.6c-0.2,0-0.4,0-0.5,0c-0.4,0-0.7,0-1.1,0c-0.4,0.1-0.7,0.2-1.1,0.2c-1.6,0.3-3.6,1.2-5.9,2.6
	c-2.3,1.4-4.9,3.3-7.8,5.5s-6,4.6-9.7,7.2c-1.8,1.3-3.8,2.5-6,3.8l-1.7,0.9c-0.6,0.3-1.2,0.6-1.7,0.8l-3.1,1.4
	c-8.2,3.5-16.5,5.9-24.9,7.4c-2.1,0.4-4.2,0.7-6.3,1c-2.1,0.2-4.2,0.5-6.3,0.7c-4.2,0.4-8.4,0.5-12.6,0.5s-8.5-0.2-12.7-0.6
	c-2.1-0.2-4.3-0.5-6.3-0.9l-3.1-0.5c-1-0.2-2.1-0.3-3.1-0.6c-8.4-1.7-16.6-4.4-24.5-8.1c-7.9-3.6-15.2-8.3-21.9-13.6
	c-6.7-5.3-12.6-11.2-17.9-17.5s-10-12.8-14.4-19.4c-4.4-6.6-8.2-13.4-12-20c-3.8-6.7-7.4-13.4-10.9-20s-7.2-13.1-10.9-19.5
	c-1.8-3.2-3.7-6.3-5.7-9.5c-1-1.5-2-3.1-3-4.6l-1.5-2.3l-0.8-1.1l-0.4-0.6l-0.2-0.3v-0.1c-0.1-0.2-0.1-0.3-0.1-0.4
	c-0.1-0.1-0.1-0.2-0.4-0.3c-0.5-0.2-1.7-0.3-3-0.2c-2.7,0.3-6,1.4-9.3,2.8c-6.6,2.7-13.2,6.3-19.9,9.8c-6.7,3.5-13.6,7.1-20.7,9.9
	c-3.6,1.4-7.3,2.7-11.1,3.4c-1.9,0.4-3.9,0.6-5.8,0.6C963.4,697.5,961.5,697.2,959.7,696.5z"/>
<path id="Tentacles10-Point5_1_" class="st0" d="M989.2,685.6c2.8,2,5.9,3.5,9,4.6c3.2,1.1,6.4,1.9,9.7,2.5
	c3.3,0.6,6.7,1.1,10.1,1.7c3.5,0.6,7,1.4,10.7,3c1.8,0.8,3.7,1.9,5.4,3.2c1.7,1.3,3.2,3.1,4.4,5c1.2,1.9,2.1,3.9,2.7,6l0.2,0.8
	l0.2,0.7l0.3,1.3l0.7,2.5c1.8,6.8,3.2,13.7,4.4,20.6c2.4,13.8,4,27.5,5.8,40.9c0.9,6.7,1.9,13.3,3.1,19.8s2.6,12.8,4.3,18.9
	c1.7,6.1,3.8,12,6.3,17.6s5.4,10.8,8.8,15.6s7.3,9.3,11.6,13.3c4.3,4,9.1,7.6,14.1,10.9c10,6.3,21.5,11.2,33.1,13.9
	c2.9,0.7,5.8,1.2,8.7,1.7c2.9,0.4,5.7,0.7,8.5,0.8l2.6,0.1c1.2,0.1,2.4,0.1,3.5,0.2c1.1,0.1,2.3,0.3,3.4,0.4l3.3,0.6
	c4.3,0.9,8.3,2.1,12.1,3.6c7.6,3,14.5,6.7,21,11.1c3.3,2.2,6.4,4.6,9.5,7.1l1.1,1l1.1,1l2.1,1.9c1.4,1.3,2.8,2.6,4.1,4
	c2.7,2.7,5.3,5.7,7.8,8.7c2.4,3.1,4.8,6.2,6.9,9.5c4.3,6.5,7.7,13.6,10.5,19.1c1.4,2.8,2.7,5,3.9,6.6c1.2,1.6,2.3,2.7,3.9,3.7
	c1.5,1,3.6,2,6,2.7c0.3,0.1,0.6,0.2,0.9,0.3l1,0.3l2,0.5l2.1,0.4c0.7,0.2,1.4,0.3,2.2,0.4c11.9,2,25.2,2.1,39,2.5
	c3.4,0.1,6.9,0.2,10.3,0.3c3.4,0.1,6.9,0.3,10.4,0.5c7,0.4,14,0.8,20.9,1.6c7,0.8,14,1.7,20.9,2.9l2.6,0.5l2.6,0.5l5.2,1.1
	c3.5,0.7,6.9,1.6,10.3,2.5c13.6,3.6,26.8,8.4,39.5,14.1c12.7,5.8,24.8,12.5,36.3,20c-13.1-4.4-26-8.7-39.1-12.1
	c-13.1-3.3-26.3-5.9-39.5-7.5c-3.3-0.4-6.6-0.9-9.9-1.1l-5-0.4l-2.5-0.2l-2.5-0.1c-6.6-0.4-13.3-0.6-19.9-0.5c-3.3,0-6.7,0-10,0.1
	s-6.7,0.1-10,0.3c-3.4,0.1-6.7,0.3-10.1,0.5l-10.2,0.5l-10.3,0.5c-3.4,0.2-7,0.3-10.5,0.4c-7.2,0.1-14.4,0-22.1-0.8
	c-0.9-0.1-1.9-0.2-2.9-0.4l-2.9-0.4c-1-0.2-2-0.4-3-0.6l-1.5-0.3c-0.5-0.1-1-0.3-1.6-0.4c-4.1-1-8.5-2.7-12.8-5.1
	c-4.3-2.5-8.4-6-11.5-9.7s-5.3-7.4-7.1-10.7l-4.9-8.9c-1.5-2.7-3.1-5.2-4.8-7.6c-1.6-2.4-3.5-4.7-5.3-6.9c-1.9-2.2-3.9-4.4-6.1-6.4
	c-1.1-1-2.1-2.1-3.3-3.1l-1.7-1.5l-0.8-0.8l-0.8-0.7c-2.2-1.8-4.5-3.6-6.9-5.1c-4.8-3.2-10-5.9-15.2-7.9c-2.6-1-5.1-1.8-7.5-2.3
	l-1.8-0.3c-0.6-0.1-1.1-0.1-1.7-0.2c-0.6-0.1-1.1-0.1-1.6-0.1h-0.4h-0.2h-0.4l-1.5-0.1c-8.1-0.3-15.9-1.6-23.3-3.6
	c-7.5-2-14.6-4.6-21.6-7.7c-6.9-3.1-13.6-6.8-20-11.3c-6.3-4.4-12.2-9.4-17.7-14.9s-10.2-11.8-14.3-18.4c-4.1-6.6-7.4-13.6-10-20.7
	c-2.6-7.1-4.5-14.4-5.9-21.6c-1.4-7.2-2.2-14.4-2.9-21.4c-0.6-7.1-1-14.1-1.1-21c-0.2-6.9-0.3-13.8-0.4-20.6s-0.2-13.6-0.5-20.3
	c-0.2-6.7-0.7-13.4-1.3-20l-0.3-2.5l-0.1-1.2l-0.1-0.6l-0.1-0.5c-0.1-1.3-0.5-2.5-0.9-3.6c-0.9-2.2-2.5-4.1-4.9-5.7
	c-2.4-1.6-5.4-2.9-8.5-4.1c-3.1-1.2-6.4-2.3-9.7-3.7c-3.2-1.3-6.5-2.8-9.5-4.7C994.2,690.4,991.5,688.2,989.2,685.6z"/>
<path id="Tentacles7-Point4_1_" class="st0" d="M947.4,674.7c0.9,3.5,2.8,6.6,5.1,9.4c2.3,2.7,4.9,5.2,7.5,7.5
	c5.3,4.7,11.3,8.9,17.1,13.4c2.9,2.3,5.8,4.6,8.7,7.1c2.8,2.6,5.6,5.3,8.2,8.6c2.5,3.3,4.9,7.1,6.1,11.9l0.4,1.8
	c0.1,0.6,0.1,1.3,0.2,1.9c0.2,1.3,0.1,2.6,0.1,3.8l0,0.5l-0.1,0.4l-0.1,0.7l-0.1,1.4l-0.3,2.8c-0.9,7.7-2.6,15.3-4.6,22.7
	c-2.1,7.4-4.8,14.6-7.7,21.6c-2.9,7-6,13.7-9,20.4c-3,6.7-6,13.1-8.7,19.5c-5.3,12.8-8.8,25.4-9.6,38c-0.3,6.3,0.1,12.6,1,18.8
	l0.9,4.7l1.1,4.7c0.4,1.6,0.9,3.1,1.4,4.7c0.4,1.6,1,3,1.5,4.5c4.3,12,10.5,23.7,18.5,33.4c0.9,1.3,2,2.4,3.1,3.5
	c0.5,0.6,1.1,1.1,1.6,1.7c0.5,0.6,1.1,1.1,1.6,1.7l1.6,1.6l1.6,1.5c0.3,0.2,0.5,0.5,0.8,0.7l0.6,0.5l0.6,0.5l0.8,0.5
	c2.1,1.5,4.9,3.1,7.9,4.8c3,1.7,6.4,3.5,10.1,5.8c3.6,2.3,7.4,4.9,11.1,8.5c3.8,3.5,7.3,8.4,9.5,13.9l0.5,1l0.2,0.6l0.4,1.2l0.9,2.3
	c0.6,1.5,1.3,3.1,1.9,4.5c1.3,2.9,2.7,5.8,4.2,8.2c1.5,2.5,3,4.8,4.7,6.7c1.7,1.9,3.4,3.5,5.5,5c2.1,1.5,4.9,3.2,7.9,5
	c3,1.8,6.4,3.6,9.7,5.8c6.8,4.2,13.3,9,19.3,14.2c6,5.1,11.5,10.7,16.7,16.4l3.9,4.3l3.7,4.3c1.2,1.4,2.5,3,3.7,4.6l1.8,2.3
	c0.6,0.8,1.2,1.6,1.8,2.5c4.7,6.6,9,14,11.9,21.9c3,8,4.6,16.2,5.4,24.2c0.7,7.9,0.9,15.7,0.6,23.2c-0.3,7.5-0.8,14.9-1.3,22.3
	l-0.9,11l-0.5,5.5l-0.1,0.7l-0.1,0.6l-0.1,1.1c0,0.8-0.1,1.5-0.1,2.3c0,3.1,0.2,6.2,0.9,9.3c0.7,3.1,1.7,6.1,2.9,9.2
	c2.6,5.9,6.5,11.7,11.1,16.8c4.7,5.1,10,9.7,15.9,13.7c3,2,6,3.8,9.3,5.3c1.6,0.8,3.3,1.5,4.9,2.1c1.7,0.6,3.4,1.1,5.2,1.4
	c-3.6,0.3-7.4-0.4-11-1.2c-3.7-0.8-7.2-2.1-10.6-3.5c-6.9-2.9-13.4-6.7-19.5-11.4c-6.1-4.7-11.5-10.4-15.9-17.3
	c-2.2-3.4-4-7.1-5.3-11c-1.4-3.9-2.4-8-2.9-12.2c-0.2-1.1-0.2-2.1-0.3-3.1l-0.1-1.6l-0.1-0.8l0-0.7l-0.2-5.5l-0.3-10.9l-0.5-10.8
	c-0.2-3.6-0.4-7.2-0.6-10.7c-0.5-7.1-1.2-14-2.4-20.4c-1.2-6.6-3-12.5-5.5-18c-2.6-5.5-6-10.6-10.1-15.6c-0.5-0.6-0.9-1.3-1.6-1.9
	l-1.7-1.8c-1.2-1.2-2.1-2.5-3.3-3.7l-3.6-3.7l-3.7-3.6c-4.9-4.7-10-9.3-15.2-13.4c-5.2-4.1-10.5-7.7-16.3-10.9
	c-2.9-1.7-5.9-3.2-9.2-5c-3.3-1.8-6.9-3.8-10.6-6.4c-3.7-2.6-7.5-5.8-10.7-9.3c-3.2-3.6-5.9-7.3-8.2-11l-1.6-2.8
	c-0.6-0.9-1-1.9-1.5-2.8c-1.1-1.9-1.8-3.7-2.8-5.6c-0.9-1.9-1.6-3.6-2.5-5.5l-1.1-2.7l-0.5-1.3c-0.1-0.2-0.2-0.5-0.2-0.6l-0.2-0.2
	c-0.5-1.2-1.3-2.5-2.8-3.9c-1.5-1.5-3.7-3-6.2-4.6c-2.5-1.6-5.6-3.3-8.8-5.1c-3.3-1.8-6.8-3.9-10.6-6.6l-1.4-1l-1.5-1.1l-1.5-1.1
	c-0.5-0.4-0.8-0.7-1.3-1.1l-2.3-2.2l-2.2-2.3c-0.8-0.7-1.5-1.6-2.2-2.3c-0.7-0.8-1.4-1.5-2.1-2.4c-1.3-1.6-2.7-3.2-3.9-4.8
	c-5.1-6.5-9.4-13.4-13.1-20.7c-3.8-7.1-6.8-14.7-9.3-22.6c-0.6-1.9-1.2-4-1.6-5.9c-0.4-2-1-4-1.4-5.9l-1.2-6c-0.3-2-0.5-4.1-0.8-6.1
	c-0.9-8.2-0.9-16.6,0.1-24.8c0.9-8.2,2.8-16.4,5.4-23.9c2.6-7.7,5.8-14.9,9.2-21.7c3.5-6.8,7.2-13.4,10.8-19.6
	c3.6-6.4,7.2-12.5,10.5-18.8c6.6-12.4,12.3-25,15.6-38.4l0.6-2.5l0.3-1.3l0.2-0.6l0-0.3l0-0.2c0.1-0.5,0.2-1,0.2-1.6
	c0-0.3,0.1-0.5,0-0.8l-0.1-0.8c-0.2-2.4-1.3-5.1-2.7-7.8c-1.5-2.8-3.5-5.5-5.8-8.2c-2.2-2.7-4.5-5.4-7-8c-4.8-5.3-10-10.6-14.7-16.5
	c-2.3-2.9-4.5-6-6.2-9.4C948.8,682,947.5,678.3,947.4,674.7z"/>
<path id="Tentacles11-Point6_1_" class="st0" d="M958.9,683.9c-0.4,1.7-1.2,3.4-2.2,4.9c-1.1,1.5-2.3,2.8-3.7,4
	c-2.8,2.4-6,4.2-9.2,5.9c-6.4,3.3-13.1,5.8-18.9,8.9c-2.9,1.6-5.6,3.3-7.2,5.2c-0.8,0.9-1.3,1.9-1.6,2.7c0,0.2-0.1,0.4-0.2,0.6
	c0,0.2,0,0.4,0,0.7v0.2v0.3v0.6l-0.1,1.3c-0.1,1.7-0.3,3.4-0.3,5.1l-0.2,5v5c0,1.7,0.1,3.3,0.2,5c0.3,6.7,1,13.2,2.2,19.8
	s2.7,13.1,4.3,19.8c0.8,3.4,1.7,6.8,2.5,10.4c0.8,3.6,1.5,7.3,2,11.2s0.8,7.9,0.7,12.1v1.6l-0.1,1.6c-0.1,1-0.1,2.1-0.3,3.1
	c-0.3,2.1-0.5,4.2-1,6.2c-1.7,8.3-4.9,16-8.8,22.9c-3.9,7-8.4,13.2-13.2,19c-0.6,0.7-1.1,1.5-1.8,2.2l-2.1,2.3
	c-0.7,0.8-1.4,1.5-2,2.2l-2,2.1c-1.3,1.3-2.7,2.6-4,3.9l-4,3.7c-5.2,4.8-10.3,9.4-15.2,14.1c-4.8,4.7-9.4,9.3-13.6,14.1
	c-4.2,4.8-7.8,9.7-10.6,14.6c-0.8,1.2-1.3,2.5-1.9,3.7l-0.9,1.8l-1,2.3c-1.3,3.1-2.7,6.3-4,9.4c-2.5,6.2-5,12.5-7,18.6l-0.8,2.3
	l-0.7,2.3l-0.7,2.3l-0.7,2.4l-1.3,5l-0.8,2.8c-0.3,0.9-0.5,1.9-0.9,2.9l-1,3l-1.2,3l-0.6,1.5c-0.2,0.5-0.4,0.9-0.6,1.4l-1.3,2.8
	c-1.8,3.6-3.6,7-5.5,10.1c-3.8,6.4-7.7,12.4-11.6,18.3c-1.9,3-3.9,5.9-5.9,8.8l-3,4.4l-3.2,4.5c-1.1,1.5-2.1,3-3.3,4.5l-3.5,4.4
	l-1.7,2.2l-1.8,2.2l-3.7,4.3c-5.2,5.6-10.7,11.1-17,15.9s-13,9-20,12.4s-14,6-20.9,8.3c-6.9,2.4-13.7,4.2-20.5,6.2
	c-3.3,1-6.9,1.9-9.8,2.8c-3,1-6,2-8.9,3.2c-11.5,4.9-21.9,12.3-28.9,22.4c-7.2,10.1-10.6,22.9-10.7,36.3
	c-0.2,13.4,2.8,27.1,6.8,40.6c-7.1-12.1-12.8-25.4-15.2-39.9c-1.2-7.2-1.5-14.8-0.5-22.4l0.4-2.8c0.2-0.9,0.4-1.9,0.6-2.8
	c0.4-1.9,0.9-3.7,1.5-5.6c1.2-3.7,2.6-7.4,4.4-10.8c0.8-1.8,1.9-3.4,2.9-5.1l1.6-2.4l0.8-1.2l0.9-1.2c2.3-3.2,5-6.1,7.8-8.8
	c5.6-5.5,12-10,18.8-13.8c3.4-1.9,6.8-3.6,10.4-5.1c3.7-1.5,6.8-2.7,10.1-4c6.5-2.5,13-5,19.1-7.6c6.2-2.6,12.1-5.3,17.5-8.5
	c5.4-3.1,10.4-6.6,15-10.6l3.4-3.1c1.1-1.1,2.2-2.2,3.2-3.3c0.5-0.6,1.1-1.1,1.6-1.7l1.6-1.8c1-1.2,2.1-2.3,3.1-3.6l3-3.8l1.5-1.9
	l1.4-2l2.8-4c0.9-1.3,1.8-2.7,2.7-4.1l2.7-4.1l2.8-4.4c1.8-2.9,3.8-5.8,5.5-8.7c3.6-5.8,7.2-11.7,10.4-17.4c1.7-2.9,3.1-5.6,4.4-8.3
	l0.9-2c0.1-0.3,0.3-0.7,0.4-1l0.4-0.9l0.7-1.9l0.6-1.9c0.2-0.6,0.4-1.4,0.6-2.1l0.3-1.1l0.3-1.2l1.4-5.2l0.7-2.7l0.8-2.7l0.8-2.7
	l0.9-2.7c2.4-7.2,5.1-13.9,7.9-20.6c1.4-3.3,2.9-6.6,4.3-9.9l1.1-2.5c0.4-0.9,0.9-1.9,1.4-2.9l1.5-2.9c0.5-1,1.1-1.8,1.6-2.7
	c4.3-7.1,9.3-13.4,14.4-19c5.2-5.6,10.6-10.8,16-15.6s10.9-9.4,16.2-13.8l3.9-3.3l3.7-3.2l1.7-1.6c0.6-0.5,1.2-1.1,1.6-1.5l1.5-1.5
	c0.5-0.5,1.1-1.2,1.6-1.8c1.1-1.2,2.2-2.4,3.2-3.6l3-3.7l2.8-3.7l2.6-3.8c3.4-5,5.9-10.2,7.5-15.6c1.6-5.3,2.2-10.9,2-17.1
	c-0.2-6.2-1.2-12.8-2.1-19.8c-0.9-7-1.9-14.2-2.3-21.6c-0.4-7.3-0.3-14.8,0.3-22.1c0.7-7.3,1.8-14.5,3.5-21.6l0.3-1.3l0.2-0.7
	l0.1-0.3l0.1-0.5c0.2-0.6,0.4-1.3,0.6-1.9c0.3-0.6,0.5-1.2,0.8-1.8c1.2-2.3,2.9-4.1,4.7-5.6c3.5-2.8,7.2-4.2,10.7-5.4
	c7.1-2.3,13.9-3.5,20.5-5.4c3.3-0.9,6.5-2.1,9.5-3.6c1.5-0.8,2.9-1.7,4.1-2.9C957,686.8,958.1,685.5,958.9,683.9z"/>
<path id="Tentacles8-Point4_1_" class="st0" d="M897,629.8c-2.3,2.7-4.1,5.7-5.7,8.8c-1.5,3.1-2.9,6.3-4,9.6
	c-2.4,6.5-4.2,13.3-6.5,20.2c-1.1,3.4-2.4,6.9-4,10.3l-1.3,2.6c-0.5,0.9-1,1.7-1.5,2.6l-2.7,4.5c-3.5,5.9-6.7,11.9-9.3,18.1
	c-2.7,6.2-4.9,12.5-6.8,18.9c-1.9,6.5-3.4,13.1-5,20s-3.3,14.2-6.3,21.7c-0.7,1.9-1.6,3.7-2.4,5.6c-1,1.8-1.8,3.7-3,5.5
	c-2.1,3.7-4.7,7.1-7.5,10.2c-5.7,6.3-12.2,11.4-18.9,15.7c-1.7,1.1-3.4,2-5.1,3c-1.7,1-3.4,1.9-5.1,2.7l-2.6,1.3
	c-0.9,0.4-1.7,0.8-2.6,1.2l-2.6,1.2l-1.3,0.6c-0.2,0.1-0.5,0.2-0.8,0.3l-1,0.4c-1.3,0.5-2.6,0.8-3.9,1.2c-1.3,0.3-2.6,0.6-3.9,0.8
	c-2.6,0.4-5,0.5-7.3,0.5c-4.6,0-8.7-0.5-12.3-1c-3.7-0.5-6.9-0.9-9.9-1.2c-2.9-0.2-5.6-0.3-7.9,0c-2.3,0.3-4.4,0.8-6.3,1.6
	c-1.9,0.8-3.8,1.9-5.7,3.4l-0.7,0.6l-0.4,0.3l-0.4,0.4l-1.8,1.6c-1.2,1-2.4,2.1-3.5,3.2c-2.3,2.1-4.4,4.3-6.3,6.6
	c-3.8,4.5-7,9-9,13.8c-2.1,4.8-3.2,9.9-4.2,16.9c-0.6,3.5-1.2,7.3-2.2,11.5s-2.4,8.7-4.5,12.9s-4.6,8.2-7.4,11.7
	c-0.7,0.9-1.4,1.7-2.1,2.6c-0.7,0.8-1.5,1.7-2.2,2.4l-2.3,2.3l-1.1,1.1l-1.2,1c-6.3,5.6-12.8,10-19.3,14l-9.2,5.3
	c-2.6,1.5-5.1,3.2-7.6,5c-4.9,3.6-9.5,7.8-13.8,12.5c-4.4,4.7-8.6,9.8-13,15.2c-4.4,5.5-8.9,11.3-14.4,17.1
	c-2.8,2.9-5.9,5.7-9.4,8.4c-3.5,2.6-7.5,5-11.8,6.8s-9,3-13.5,3.3c-4.5,0.4-9,0.2-13.1-0.4l-1.6-0.2l-0.8-0.1l-0.7-0.1l-2.5-0.5
	l-5.1-0.9c-3.4-0.5-6.8-1.2-10.2-1.6c-3.4-0.5-6.8-1-10.2-1.3l-5.1-0.6l-5.1-0.5c-6.9-0.7-13.7-1.1-20.6-1.3
	c-13.8-0.5-27.6-0.1-41.4,1.7c-13.7,1.8-27.4,5-40.5,10.4c11.5-8.4,24.9-14.3,38.7-18.6l2.6-0.8l2.6-0.7l5.3-1.4
	c1.8-0.5,3.5-0.8,5.3-1.2l5.3-1.1c3.6-0.6,7.1-1.2,10.7-1.8c3.6-0.4,7.2-1,10.8-1.3l5.4-0.5l2.7-0.2l2.7-0.1
	c3.6-0.2,7.2-0.4,10.9-0.5l5.4-0.1h5.4c3.6,0,7.2,0.1,10.9,0.3c3.6,0.1,7.2,0.4,10.9,0.6l5.4,0.5l2.7,0.2l0.7,0.1h0.5l1.1,0.1
	c2.9,0.2,5.5,0,8-0.5c2.5-0.4,4.7-1.2,6.8-2.3c2.1-1.1,4.2-2.5,6.2-4.3s4-3.9,5.9-6.2c3.9-4.7,7.8-10.3,11.9-16.1
	c4.1-5.8,8.5-11.9,13.6-17.7c5-5.8,10.7-11.5,16.9-16.5c1.6-1.2,3.2-2.5,4.8-3.7c1.7-1.1,3.3-2.3,5-3.4l9-5.5
	c5.4-3.5,10.5-7.2,14.7-11.1l0.8-0.7l0.7-0.7l1.5-1.5c0.5-0.5,0.9-1,1.3-1.5c0.4-0.5,0.9-1,1.2-1.5c1.6-2,2.8-4.1,3.8-6.2
	c1-2.1,1.7-4.4,2.4-7.1c0.6-2.7,1.1-5.8,1.7-9.3c1.1-7,2.8-15.9,6.5-24c1.8-4.1,3.9-8,6.4-11.5c0.6-0.9,1.2-1.8,1.8-2.7l1.9-2.5
	c1.3-1.7,2.7-3.2,4-4.8c2.8-3,5.6-5.9,8.6-8.5c1.4-1.4,2.9-2.6,4.4-3.8l2.2-1.9l0.6-0.5l0.7-0.5l1.4-1c3.8-2.8,8.1-5.2,12.7-6.9
	c4.7-1.7,9.6-2.7,14.3-3s9.1,0,13.2,0.5c4,0.5,7.7,1.2,11.1,1.8c3.3,0.6,6.3,1,8.7,1.2c1.2,0.1,2.3,0.1,3.3,0c0.5,0,0.9-0.1,1.4-0.1
	c0.4-0.1,0.8-0.1,1.2-0.3l0.3-0.1c0.1,0,0.2,0,0.4-0.1l1.1-0.4l2.3-0.9c0.8-0.3,1.5-0.6,2.3-0.9l2.2-1c1.5-0.6,3-1.3,4.3-2
	c1.4-0.7,2.9-1.3,4.2-2.1c5.5-2.9,10.4-6.2,14.5-10.1c2-2,3.9-4.1,5.6-6.4c0.9-1.1,1.6-2.4,2.4-3.6c0.7-1.3,1.5-2.5,2.1-3.9
	c2.8-5.4,4.9-11.8,7.3-18.4c2.3-6.6,4.7-13.6,7.6-20.4c2.9-6.8,6.2-13.5,10.1-19.9c3.9-6.3,8.1-12.4,12.8-18l3.4-4.1
	c0.5-0.6,1-1.2,1.5-1.8l1.4-2c1.8-2.7,3.6-5.6,5.2-8.7c3.3-6.1,6.4-12.6,10.1-18.8c1.8-3.1,3.9-6.1,6.1-9
	C891.5,634.5,894.1,631.9,897,629.8z"/>
<path id="Tentacles6-Point3_1_" class="st0" d="M912.6,675.7c-3.3,1-6.9,1.3-10.4,1.4c-3.5,0-7-0.2-10.5-0.6
	c-7-0.7-13.8-1.9-20.6-2.9c-6.7-0.9-13.5-1.9-19.6-1.6c-3,0.1-5.9,0.6-8,1.5l-0.7,0.3c-0.1,0-0.3,0.2-0.5,0.2l-0.6,0.3l-2.2,1.1
	c-1.5,0.7-3,1.5-4.4,2.3c-5.8,3.2-11.4,6.6-16.5,10.4c-5.1,3.9-9.8,7.9-14.2,12.6c-2.2,2.3-4.4,4.8-6.7,7.4c-2.4,2.6-5,5.4-8.3,8.2
	c-3.2,2.8-7.2,5.3-11.5,7.1c-4.2,1.8-8.6,2.9-12.7,3.5c-8.3,1.2-15.9,1-23.3,0.5l-2.8-0.2l-2.7-0.3c-1.8-0.2-3.6-0.4-5.4-0.6
	l-2.7-0.3l-1.3-0.2l-0.7-0.1l-0.7-0.1c-2-0.3-4.1-0.7-5.9-1.1c-7.4-1.7-14.1-3.6-20.7-5.4c-6.6-1.9-13-3.6-19.3-5.1
	c-6.3-1.4-12.5-2.6-18.5-3.3c-1.5-0.1-3-0.4-4.5-0.4l-4.4-0.2l-4.2,0.1c-1.4,0.1-2.7,0.3-4,0.4c-0.3,0-0.6,0.1-1,0.1l-1.2,0.2
	l-2.5,0.4l-5,0.7c-3.3,0.5-6.5,1.1-9.8,1.6l-2.4,0.4l-2.4,0.5l-4.8,1c-3.1,0.7-6.2,1.4-9.2,2.3c-3,0.8-6.1,1.7-9.5,2.7l-2.8,0.8
	l-1.4,0.4l-1.5,0.4c-1,0.2-2,0.5-3.1,0.7l-3.1,0.5l-1.6,0.3l-1.5,0.2l-3,0.3c-1,0.1-2,0.2-2.9,0.2l-2.9,0.2
	c-1.9,0.1-3.7,0.1-5.6,0.2c-1.8,0-3.7,0.1-5.4,0.1c-7.2,0-14.1-0.2-21.1-0.5l-10.4-0.4c-3.6-0.2-7.2-0.5-10.8-0.7l-5.5-0.6
	c-1.8-0.2-3.6-0.4-5.5-0.7c-3.7-0.6-7.4-1.1-11.1-2l-2.8-0.6c-0.9-0.2-1.8-0.4-2.8-0.7c-1.9-0.5-3.7-1-5.5-1.6
	c-1.8-0.5-3.7-1.2-5.5-1.9l-2.7-1l-2.7-1.1l-2.7-1.1l-1.3-0.6l-1.3-0.6l-5.2-2.6l-5-2.9c-0.8-0.5-1.6-1-2.4-1.5l-2.4-1.6
	c-6.2-4.2-12-8.8-17.4-13.4c-5.4-4.6-10.5-9.3-15.6-13.9l-3.8-3.4c-1.2-1-2.3-2.1-3.5-3c-2.4-2-4.9-3.8-7.4-5.6
	c-5.1-3.4-10.5-6.3-16.2-8.3c-2.8-1.1-5.8-1.8-8.7-2.5c-3-0.5-6-0.9-9-1c-6.1-0.3-12.2,0.6-18.3,2.3c-6,1.8-11.9,4.5-17.6,7.9
	c-11.3,6.9-21.2,16.4-30.4,26.7c6.4-12.2,14.6-23.9,25.4-33.4c5.4-4.8,11.5-8.9,18.3-12.2c3.4-1.5,6.9-2.9,10.6-3.9
	c1.8-0.6,3.7-0.9,5.6-1.3c0.9-0.2,1.9-0.3,2.8-0.5c1-0.1,1.9-0.3,2.9-0.4l2.9-0.2c1-0.1,1.9-0.1,2.9-0.1c1.9-0.1,3.9,0.1,5.8,0.1
	c3.8,0.3,7.7,0.8,11.5,1.7l1.4,0.3l1.4,0.4l2.8,0.8c1.8,0.6,3.7,1.2,5.4,1.9c3.6,1.3,7,3,10.5,4.7c3.3,1.8,6.7,3.7,9.7,5.9
	c1.6,1,3.1,2.2,4.6,3.3l4.2,3.1c5.5,4.2,10.9,8.2,16.3,12.2s10.7,7.5,16.1,10.6l2,1.1c0.7,0.4,1.3,0.8,2,1.1l4.1,2l4.1,1.8l1,0.4
	l1.1,0.4l2.1,0.7c5.7,2,11.5,3.4,17.6,4.4c3,0.6,6.2,0.9,9.3,1.2c1.5,0.2,3.2,0.3,4.8,0.4l4.8,0.3l9.8,0.3l10.2,0.1
	c6.8,0.1,13.5,0.1,20.1-0.1c6.5-0.2,13-0.3,18.3-1.3l2-0.4c0.7-0.1,1.3-0.3,2-0.5l1-0.2l1.1-0.3l2.2-0.6c3.2-1,6.7-2.1,10.3-3
	c3.6-1,7.2-1.7,10.8-2.5l5.3-1l2.7-0.5l2.6-0.4c3.5-0.6,7.1-1.2,10.5-1.7l5.2-0.7l2.6-0.4l1.3-0.2c0.5-0.1,1-0.1,1.5-0.1
	c2.1-0.2,4.2-0.4,6.3-0.4h6.1l5.9,0.4c2,0.1,3.9,0.5,5.8,0.7c7.6,1.1,14.9,2.7,21.9,4.6c7,1.9,13.8,4.1,20.3,6.3
	c6.6,2.1,13,4.4,18.9,6.1c1.5,0.5,2.8,0.7,4.2,1.1l0.5,0.1l0.6,0.1l1.2,0.2l2.4,0.5c1.6,0.3,3.2,0.6,4.8,0.8
	c1.6,0.3,3.2,0.5,4.8,0.7c6.3,0.9,12.5,1.5,17.9,1.1c2.7-0.2,5.1-0.6,7.3-1.3s4.2-1.6,6.3-3.1c4.3-2.9,9.3-8.1,14.9-12.8
	c5.6-4.8,11.8-9.2,18.2-12.8s13-6.7,19.8-9.2c1.7-0.7,3.4-1.2,5-1.8l2.5-0.9l0.6-0.2c0.2-0.1,0.4-0.1,0.7-0.2l1.7-0.5
	c2.2-0.5,4.4-0.8,6.5-0.8c2.1-0.1,4,0.1,5.9,0.3c7.6,1,14.3,3,21,5.2c6.6,2.2,13.1,4.5,19.6,6.5c3.2,1,6.5,1.9,9.8,2.6
	C905.7,675.4,909.1,675.8,912.6,675.7z"/>
<path id="Tentacles12-Point6_1_" class="st0" d="M959.3,601.7c-7-3.8-14.7-5.3-22.4-5.7s-15.4,0.2-23.1,1.1
	c-7.7,1-15.4,2.2-23.3,3.4c-2,0.3-4,0.6-6,0.8l-1.5,0.2l-1.4,0.2l-2.8,0.4c-3.7,0.6-7.3,1.4-10.9,2.4c-14.4,3.8-27.8,10.6-41.8,17.7
	c-7,3.6-14.3,7.2-22.2,10.4c-1.9,0.8-4,1.5-6.1,2.3l-3.2,1l-1.6,0.5l-1.6,0.4l-3.3,0.8l-3.4,0.7l-1.7,0.3l-1.7,0.2
	c-1.2,0.1-2.3,0.3-3.5,0.4c-9.5,0.7-19.5-0.6-28.4-4s-16.8-8.3-23.7-13.7l-2.6-2.1l-1.3-1l-1.6-1.5c-2-1.9-3.7-3.8-5.2-5.6
	c-3-3.6-5.4-7-7.8-10.5c-4.7-6.8-8.9-13.5-13.2-19.8c-4.3-6.4-8.5-12.6-13-18.2c-4.4-5.6-9.2-10.7-13.9-14.2
	c-0.6-0.4-1.2-0.9-1.7-1.2c-0.6-0.4-1.1-0.8-1.7-1.1c-0.6-0.3-1.1-0.7-1.6-0.9l-0.8-0.4c-0.1-0.1-0.3-0.1-0.5-0.2l-0.6-0.2
	c-1.6-0.6-3.2-1.3-4.7-1.9l-4.8-1.6c-6.4-1.9-13-3.1-19.7-3.4c-6.8-0.4-13.7-0.1-21.1,0.7c-3.7,0.4-7.6,0.9-11.6,1.4
	s-8.3,0.9-12.9,1.1c-4.6,0.2-9.6,0-14.9-0.9l-2-0.4c-0.7-0.1-1.3-0.3-2-0.5c-1.3-0.4-2.7-0.8-4-1.2c-1.3-0.5-2.6-1-3.9-1.6
	c-1.3-0.5-2.5-1.3-3.8-1.9c-4.9-2.8-9.2-6.2-12.6-9.9c-1.9-1.8-3.3-3.8-4.8-5.7c-0.8-1-1.4-1.9-2.1-2.9l-2-2.9
	c-1.2-2-2.3-3.9-3.4-5.9l-3-5.9c-0.9-2-1.8-3.9-2.6-5.9l-0.6-1.5c-0.2-0.5-0.4-1-0.6-1.6l-1.2-3.1c-3.1-8.4-5.1-16.8-6.5-25.1
	c-1.4-8.3-2.4-16.4-3.2-24.3l-2.2-23.5c-0.8-7.7-1.6-15.3-2.8-22.8c-0.3-1.9-0.6-3.7-1-5.6l-0.5-2.8l-0.6-2.7l-1.2-5.5l-1.4-5.4
	c-0.4-1.8-1-3.5-1.5-5.3c-0.6-1.7-1.1-3.4-1.8-5.1c-1.2-3.4-2.8-6.6-4.4-9.7c-1.6-3.2-3.5-6.2-5.6-9c-1-1.4-2.2-2.8-3.3-4.1
	c-1.2-1.3-2.4-2.6-3.6-3.8c-5-4.9-10.9-8.8-17.5-11.6c-3.3-1.4-6.8-2.5-10.3-3.3l-1.3-0.3l-1.4-0.2l-2.7-0.5l-2.8-0.3l-1.4-0.2
	l-1.4-0.1c-7.5-0.4-15.2,0.1-22.8,1.4c-7.7,1.3-15.3,3.3-22.8,5.7c6.9-4,14.1-7.4,21.7-10.1s15.6-4.6,23.9-5.4l1.6-0.2l1.6-0.1
	l3.1-0.1l3.2,0.1h1.6l1.6,0.1c4.2,0.3,8.5,1.1,12.6,2.1c8.3,2.2,16.4,6.2,23.4,11.5c3.5,2.6,6.7,5.6,9.7,8.9c3,3.2,5.7,6.7,8.1,10.3
	c2.5,3.6,4.6,7.4,6.5,11.2c1,1.9,1.8,3.9,2.7,5.9c0.8,2,1.7,4,2.3,5.9l2.1,5.9c0.7,2,1.2,4,1.8,5.9l0.9,3l0.8,3c0.5,2,1.1,4,1.5,6
	c1.9,8,3.5,16,4.8,23.9l3.8,23.4c1.2,7.7,2.5,15.2,4.2,22.4c1.6,7.2,3.7,14,6.3,20.4l1,2.4c0.2,0.4,0.3,0.8,0.5,1.2l0.6,1.2
	c0.8,1.6,1.5,3.2,2.4,4.8l2.5,4.6l2.7,4.2c3.7,5.3,7.7,9.5,11.7,11.5c0.5,0.2,1,0.6,1.5,0.7c0.5,0.2,1.1,0.4,1.6,0.6
	c0.6,0.1,1.1,0.3,1.7,0.4c0.3,0.1,0.6,0.1,0.9,0.2l0.9,0.1c2.5,0.4,5.4,0.5,8.7,0.3c6.6-0.4,14.3-1.6,22.5-2.6s17.1-1.5,26.1-1
	s18.1,2.2,26.7,4.9c2.1,0.7,4.3,1.5,6.4,2.2c2.1,0.8,4.1,1.7,6.2,2.5l0.8,0.3c0.3,0.1,0.5,0.2,0.8,0.4l1.9,0.9
	c1.3,0.6,2.4,1.3,3.5,2c1.2,0.7,2.2,1.4,3.3,2.1c1.1,0.7,2,1.5,3,2.3c3.9,3.1,7.3,6.3,10.3,9.7c3.1,3.3,5.9,6.7,8.4,10.1
	c5.2,6.8,9.7,13.8,14,20.7c4.2,6.9,8.2,13.7,12.2,20.1c2,3.2,4,6.2,5.9,8.8c1,1.3,1.9,2.4,2.7,3.3l0.5,0.6l1,0.9l2,1.7
	c5.2,4.5,10.8,8.3,16.5,10.9c0.7,0.4,1.4,0.6,2.1,0.9l2.2,0.8l2.2,0.6l1.1,0.3l1.1,0.2l2.2,0.5c0.8,0.1,1.5,0.2,2.3,0.3l1.1,0.1
	c0.4,0,0.8,0,1.2,0l2.3,0.1c6.3-0.2,13-1.3,19.9-3.5s14.1-5,21.4-7.9c7.4-2.9,14.9-5.9,22.7-8.4s16-4.6,24.2-5.8
	c4.1-0.6,8.3-1,12.5-1.1l3.1-0.1h1.6h1.4h5.8c7.8-0.1,15.8-0.4,23.9-0.1c8,0.2,16.2,1,24.1,2.8c4,0.9,7.9,2.1,11.6,3.8
	C952.8,597,956.3,599.1,959.3,601.7z"/>
<path id="Tentacles9-Point5_1_" class="st0" d="M945.6,612.7c-2.1-3-3.8-6.3-5.2-9.8s-2.5-7.1-3.4-10.7c-0.9-3.6-1.7-7.2-2.8-10.4
	c-1.1-3.3-2.4-6.2-4.4-8.3s-4.5-3.6-7.4-4.7l-1.1-0.4L920,568l-2.5-0.8c-1.6-0.6-3.4-0.9-5-1.4c-6.7-1.7-13.6-2.8-20.6-3.4
	c-13.9-1.3-28.1-0.5-43.2-0.7c-7.6-0.1-15.4-0.5-23.5-2s-16.5-4.2-24.2-8.9c-7.7-4.6-14.3-11-19.4-17.9l-1.9-2.6l-1.7-2.7l-1.7-2.7
	c-0.5-0.9-1-1.8-1.5-2.7c-1-1.8-2-3.7-2.8-5.5l-1.3-2.8l-0.6-1.4l-0.3-0.7l-0.4-0.9l-0.7-1.9l-0.6-1.7c-0.4-1.2-0.6-2.2-0.9-3.3
	c-0.3-1.1-0.5-2.1-0.7-3.2l-0.6-3c-0.7-4-1.3-7.8-1.7-11.6c-0.9-7.5-1.7-14.7-2.6-21.8c-0.9-7-1.9-13.9-3.2-20.4
	c-0.7-3.3-1.5-6.4-2.4-9.4s-1.9-5.9-3.1-8.4c-1.2-2.5-2.4-4.8-3.8-6.5l-0.5-0.7l-0.9-1.1l-1.8-2.2c-1.2-1.5-2.4-3-3.6-4.5
	c-4.7-6.1-9.3-12.5-13.5-19.7c-0.5-0.9-1-1.8-1.5-2.7l-1.5-2.8c-0.9-2-1.9-3.9-2.7-6c-1.7-4.1-3.1-8.5-4.1-13s-1.5-9.2-1.6-13.7
	s0.2-8.8,0.7-12.8c1-8.1,2.4-15.4,3.7-22.5s2.4-14.1,3.5-21.1c1-7,1.9-14,2.5-21l0.2-2.6l0.1-1.3l0.1-0.7c0-0.2,0-0.3,0-0.5
	c0-0.6,0.1-1.2,0.1-1.8v-1.7c-0.1-2.2-0.5-4.2-1.3-6.1s-2.1-3.9-3.8-6c-1.8-2.1-4-4.3-6.6-6.6c-5-4.6-11.3-9.7-16.9-16.3
	c-2.8-3.3-5.5-7-7.6-11c-2.2-4-3.8-8.4-4.9-12.8c-0.6-2.2-0.9-4.4-1.3-6.6c-0.1-1.1-0.2-2.2-0.3-3.3c0-0.5-0.1-1.1-0.1-1.6v-1.6
	l-0.1-3.2l0.1-2.8l0.2-5.6c0.2-3.7,0.3-7.4,0.5-11.2c0.1-1.9,0.2-3.7,0.4-5.6l0.5-5.6c0.2-1.9,0.4-3.8,0.7-5.7l0.3-2.8
	c0.1-0.9,0.3-1.9,0.4-2.8c0.3-1.9,0.6-3.8,0.9-5.6l1.1-5.6c3.3-14.9,8.4-29.2,14.7-42.6c6.3-13.5,13.5-26.3,21.4-38.8
	c-4.8,13.9-9.6,27.7-13.6,41.7c-0.5,1.7-0.9,3.5-1.4,5.2c-0.4,1.8-1,3.5-1.4,5.2c-0.8,3.5-1.7,7-2.3,10.5c-1.4,7-2.4,14-3,21
	c-1.2,14-0.7,28.1,0.2,42.5l0.4,5.4l0.2,2.7l0.3,2.3l0.1,1.1c0.1,0.4,0.1,0.7,0.2,1.1l0.4,2.2c0.4,1.4,0.7,2.8,1.2,4.1
	c1.8,5.3,4.9,9.7,9.1,13.9c4.2,4.3,9.6,8.2,15.7,13c3,2.4,6.2,5.1,9.4,8.4c3.1,3.3,6.2,7.3,8.6,12c2.4,4.7,3.8,9.9,4.4,14.9
	c0.1,1.2,0.2,2.5,0.3,3.8v3.7c0,0.3,0,0.7,0,0.9v0.7l-0.1,1.4l-0.1,2.8c-0.4,7.5-1,15.1-1.8,22.6s-1.9,15-3,22.3s-2.3,14.4-2.9,20.8
	c-0.3,3.2-0.5,6.2-0.4,9.1c0.1,2.8,0.4,5.4,1,8s1.4,5.2,2.6,7.8c0.5,1.3,1.2,2.7,1.9,4c0.8,1.4,1.4,2.7,2.2,4.1
	c3.1,5.5,7,11,11.2,16.5c1,1.4,2.1,2.7,3.2,4.1l1.6,2.1l0.8,1.1l1.2,1.5c3,4.1,5.3,8.3,7.1,12.5s3.1,8.2,4.2,12.3
	c1.1,4,2,8,2.7,11.9c1.4,7.8,2.3,15.5,2.9,23c0.6,7.5,1.1,14.8,1.7,21.9c0.3,3.5,0.6,7,1,10.2l0.3,2.4l0.4,2.2
	c0.1,0.7,0.3,1.4,0.4,2l0.2,0.9l0.2,0.7c0,0.1,0.1,0.2,0.1,0.4l0.2,0.6l0.4,1.1l0.9,2.3c0.6,1.5,1.3,2.9,1.9,4.4
	c0.3,0.7,0.7,1.4,1,2.1l1.1,2l1.1,2l1.2,1.9c3.3,5.1,7.1,9.3,11.7,12.6c4.7,3.2,10.1,5.7,16.2,7.5c6.2,1.7,12.9,2.7,20,3.5
	c7,0.8,14.4,1.4,21.8,2.3c7.4,0.9,15,1.9,22.5,3.5c7.5,1.7,14.9,3.8,22,6.8c1.8,0.8,3.6,1.5,5.3,2.3l2.6,1.3l1.3,0.6l1.4,0.8
	c3.7,2,7.2,5,9.7,8.8s3.5,7.9,4.1,11.8c0.5,3.9,0.7,7.5,0.9,11.2c0.2,3.6,0.6,7.2,1.2,10.7C943.3,605.7,944.3,609.2,945.6,612.7z"/>
<g id="Fill">
	<path id="Bubbles-Fill" class="st1" d="M1031,147.2c17.2,0,48.6,7,65.4,54.6c36.5-13.7,90.3-14.2,114.5,43.7
		c86.1,20.6,80.2,95.2,55.6,128.8c6.4,4.2,8.6,5.3,12,8.7c1-13.1,63.8-56.8,92.7,12c11.5,28.5-1.4,48.5-4.4,53.5
		c10.6-1.9,54.5-2.2,82.9,60c22.1,47.8-2.9,80.3-5.4,86.3c14.1,10.7,37.3,17.9,37.3,67.5c0,49.5-42.9,68.5-59.1,71.2
		c-0.2,4.2-1.1,16.4-1.1,16.4s36,11.9,36,53.5c-6.8,43.9-43.4,47.4-50.2,46.9c0.8,7.5,1,73.7-60,104.8c8.4,22-1.6,81.9-50.2,81.9
		c-40.1-1.1-52.6-40.5-53.4-46.9c-3.1,14.1-11.1,52.6-56.7,55.7c17.3,114.1-109.5,136-140.7,107c-31.2-29-123.5,19.7-177.8,19.7
		c-54.3,0-82.8-34.9-75.3-73.2c-14.4,6.3-54.6,18.3-68.7-30.6c-19.3,14.4-43.9,34.7-91.6,7.6c-47.8-27.1-36.4-82.3-30.5-89.5
		c-29.3-11.1-53.9-30.9-32.7-85.2c-20.3-11.7-38.9-71.7-10.9-115.7c-16.2,9.9-37.4,18.4-63.3-2.2c-25.9-20.5-20-59.4-4.4-71
		c-19.1-4.6-38.1-76.3,12-112.4c-19.3-13.2-34.9-28-34.9-75.3c0-47.3,32.5-76.1,50.2-83c3.4-21.8,0.7-56.1,60-66.6
		c0.2-19.1-6.7-57.3,51.3-66.6c1.2-18.1,2.9-68.3,70.9-60c9.2-16.7,45.1-61.3,110.2-13.1c9-10.1,37.6-45.6,77.4,0
		c-28.6-49.1-17.5-90.6,36-90.6c34.2,0,41.8,21.5,45.8,29.5C977,165,998.1,147.2,1031,147.2z"/>
	
		<radialGradient id="Bubbles-Shadow20_1_" cx="959.866" cy="1259.189" r="842.415" gradientTransform="matrix(1 0 0 -1 0 1920)" gradientUnits="userSpaceOnUse">
		<stop  offset="0.399" style="stop-color:#000000"/>
		<stop  offset="0.503" style="stop-color:#000000;stop-opacity:0"/>
	</radialGradient>
	<path id="Bubbles-Shadow20" class="st2" d="M1031,147.2c17.2,0,48.6,7,65.4,54.6c36.5-13.7,90.3-14.2,114.5,43.7
		c86.1,20.6,80.2,95.2,55.6,128.8c6.4,4.2,8.6,5.3,12,8.7c1-13.1,63.8-56.8,92.7,12c11.5,28.5-1.4,48.5-4.4,53.5
		c10.6-1.9,54.5-2.2,82.9,60c22.1,47.8-2.9,80.3-5.4,86.3c14.1,10.7,37.3,17.9,37.3,67.5c0,49.5-42.9,68.5-59.1,71.2
		c-0.2,4.2-1.1,16.4-1.1,16.4s36,11.9,36,53.5c-6.8,43.9-43.4,47.4-50.2,46.9c0.8,7.5,1,73.7-60,104.8c8.4,22-1.6,81.9-50.2,81.9
		c-40.1-1.1-52.6-40.5-53.4-46.9c-3.1,14.1-11.1,52.6-56.7,55.7c17.3,114.1-109.5,136-140.7,107c-31.2-29-123.5,19.7-177.8,19.7
		c-54.3,0-82.8-34.9-75.3-73.2c-14.4,6.3-54.6,18.3-68.7-30.6c-19.3,14.4-43.9,34.7-91.6,7.6c-47.8-27.1-36.4-82.3-30.5-89.5
		c-29.3-11.1-53.9-30.9-32.7-85.2c-20.3-11.7-38.9-71.7-10.9-115.7c-16.2,9.9-37.4,18.4-63.3-2.2c-25.9-20.5-20-59.4-4.4-71
		c-19.1-4.6-38.1-76.3,12-112.4c-19.3-13.2-34.9-28-34.9-75.3c0-47.3,32.5-76.1,50.2-83c3.4-21.8,0.7-56.1,60-66.6
		c0.2-19.1-6.7-57.3,51.3-66.6c1.2-18.1,2.9-68.3,70.9-60c9.2-16.7,45.1-61.3,110.2-13.1c9-10.1,37.6-45.6,77.4,0
		c-28.6-49.1-17.5-90.6,36-90.6c34.2,0,41.8,21.5,45.8,29.5C977,165,998.1,147.2,1031,147.2z"/>
	
		<radialGradient id="Bubbles-Shadow27_1_" cx="614.193" cy="985.699" r="136.349" gradientTransform="matrix(1 0 0 -1 0 1920)" gradientUnits="userSpaceOnUse">
		<stop  offset="0.399" style="stop-color:#000000"/>
		<stop  offset="0.55" style="stop-color:#000000;stop-opacity:0"/>
	</radialGradient>
	<path id="Bubbles-Shadow27" class="st3" d="M669.7,928.8c9,11.1,49,48.9,66,55.4c-4.9,8.2-10.8,34.2,11.8,49.5
		c-6.6,14.5-27.8,55.4-73.1,55.4c-45.3,0-95.6-50.8-71.9-103.8C625.5,987.7,656.9,989.9,669.7,928.8z"/>
	
		<radialGradient id="Bubbles-Shadow26_1_" cx="784.602" cy="921.126" r="136.349" gradientTransform="matrix(1 0 0 -1 0 1920)" gradientUnits="userSpaceOnUse">
		<stop  offset="0.399" style="stop-color:#000000"/>
		<stop  offset="0.55" style="stop-color:#000000;stop-opacity:0"/>
	</radialGradient>
	<path id="Bubbles-Shadow26" class="st4" d="M669.7,928.8c9,11.1,49,48.9,66,55.4c-4.9,8.2-10.8,34.2,11.8,49.5
		c-6.6,14.5-27.8,55.4-73.1,55.4c-45.3,0-95.6-50.8-71.9-103.8C625.5,987.7,656.9,989.9,669.7,928.8z"/>
	
		<radialGradient id="Bubbles-Shadow30_1_" cx="678.238" cy="907.01" r="167.287" gradientTransform="matrix(1 0 0 -1 0 1920)" gradientUnits="userSpaceOnUse">
		<stop  offset="0.399" style="stop-color:#000000"/>
		<stop  offset="0.55" style="stop-color:#000000;stop-opacity:0"/>
	</radialGradient>
	<path id="Bubbles-Shadow30" class="st5" d="M799.3,1020.8c7,3,21.2,8.3,21.2,8.3v26c0,0-17,1.7-28.3,44.8
		c-22.7,7.2-55.2,11.7-68.4-31.8c13-14.8,21.5-29.4,23.6-35.4C753.5,1036.7,780.7,1046.1,799.3,1020.8z"/>
	
		<radialGradient id="Bubbles-Shadow29_1_" cx="758.758" cy="942.487" r="167.287" gradientTransform="matrix(1 0 0 -1 0 1920)" gradientUnits="userSpaceOnUse">
		<stop  offset="0.399" style="stop-color:#000000"/>
		<stop  offset="0.503" style="stop-color:#000000;stop-opacity:0"/>
	</radialGradient>
	<path id="Bubbles-Shadow29" class="st6" d="M799.3,1020.8c7,3,21.2,8.3,21.2,8.3v26c0,0-17,1.7-28.3,44.8
		c-22.7,7.2-55.2,11.7-68.4-31.8c13-14.8,21.5-29.4,23.6-35.4C753.5,1036.7,780.7,1046.1,799.3,1020.8z"/>
	
		<radialGradient id="Bubbles-Shadow28_1_" cx="856.427" cy="814.183" r="167.287" gradientTransform="matrix(1 0 0 -1 0 1920)" gradientUnits="userSpaceOnUse">
		<stop  offset="0.399" style="stop-color:#000000"/>
		<stop  offset="0.503" style="stop-color:#000000;stop-opacity:0"/>
	</radialGradient>
	<path id="Bubbles-Shadow28" class="st7" d="M799.3,1020.8c7,3,21.2,8.3,21.2,8.3v26c0,0-17,1.7-28.3,44.8
		c-22.7,7.2-55.2,11.7-68.4-31.8c13-14.8,21.5-29.4,23.6-35.4C753.5,1036.7,780.7,1046.1,799.3,1020.8z"/>
	
		<radialGradient id="Bubbles-Shadow25_1_" cx="625.868" cy="1084.88" r="214.438" gradientTransform="matrix(1 0 0 -1 0 1920)" gradientUnits="userSpaceOnUse">
		<stop  offset="0.399" style="stop-color:#000000"/>
		<stop  offset="0.503" style="stop-color:#000000;stop-opacity:0"/>
	</radialGradient>
	<path id="Bubbles-Shadow25" class="st8" d="M657.9,917c-18.8,4-53.7,12.9-89.6-15.3c-11.3,27.3-13.9,69.8,31.8,84.9
		c54.5,8.1,69.5-43.5,69.5-56.6C664.2,923.6,663.3,923.1,657.9,917z"/>
	
		<radialGradient id="Bubbles-Shadow24_1_" cx="542.082" cy="1273.147" r="208.579" gradientTransform="matrix(1 0 0 -1 0 1920)" gradientUnits="userSpaceOnUse">
		<stop  offset="0.399" style="stop-color:#000000"/>
		<stop  offset="0.503" style="stop-color:#000000;stop-opacity:0"/>
	</radialGradient>
	<path id="Bubbles-Shadow24" class="st9" d="M567.2,774.3c-10.8-3.9-34.3-12.7-31.8-41.3c-17.3-3.6-37.5-11.2-46-20
		c-7.8,13.2-25.3,43.8,10.6,74.3C539.7,811.8,562.8,780,567.2,774.3z"/>
	
		<radialGradient id="Bubbles-Shadow23_1_" cx="568.166" cy="1182.394" r="95.947" gradientTransform="matrix(1 0 0 -1 0 1920)" gradientUnits="userSpaceOnUse">
		<stop  offset="0.399" style="stop-color:#000000"/>
		<stop  offset="0.503" style="stop-color:#000000;stop-opacity:0"/>
	</radialGradient>
	<path id="Bubbles-Shadow23" class="st10" d="M567.2,774.3c-10.8-3.9-34.3-12.7-31.8-41.3c-17.3-3.6-37.5-11.2-46-20
		c-7.8,13.2-25.3,43.8,10.6,74.3C539.7,811.8,562.8,780,567.2,774.3z"/>
	
		<radialGradient id="Bubbles-Shadow22_1_" cx="579.758" cy="1175.385" r="119.954" gradientTransform="matrix(1 0 0 -1 0 1920)" gradientUnits="userSpaceOnUse">
		<stop  offset="0.399" style="stop-color:#000000"/>
		<stop  offset="0.503" style="stop-color:#000000;stop-opacity:0"/>
	</radialGradient>
	<path id="Bubbles-Shadow22" class="st11" d="M567.2,700c-1.4-14-5-56.9-1.2-82.6c-16.9-0.3-38.1-2.3-64.8-17.7
		c-15.5,12.9-30.6,29.5-30.6,70.8c0,41.3,39.7,59.2,66,62.5C541.4,717.6,545.1,705.8,567.2,700z"/>
	
		<radialGradient id="Bubbles-Shadow21_1_" cx="561.72" cy="1403.8721" r="266.564" gradientTransform="matrix(1 0 0 -1 0 1920)" gradientUnits="userSpaceOnUse">
		<stop  offset="0.399" style="stop-color:#000000"/>
		<stop  offset="0.453" style="stop-color:#000000;stop-opacity:0"/>
	</radialGradient>
	<path id="Bubbles-Shadow21" class="st12" d="M567.2,700c-1.4-14-5-56.9-1.2-82.6c-16.9-0.3-38.1-2.3-64.8-17.7
		c-15.5,12.9-30.6,29.5-30.6,70.8c0,41.3,39.7,59.2,66,62.5C541.4,717.6,545.1,705.8,567.2,700z"/>
	
		<radialGradient id="Bubbles-Shadow31_1_" cx="1191.121" cy="957.197" r="221.668" gradientTransform="matrix(1 0 0 -1 0 1920)" gradientUnits="userSpaceOnUse">
		<stop  offset="0.399" style="stop-color:#000000"/>
		<stop  offset="0.453" style="stop-color:#000000;stop-opacity:0"/>
	</radialGradient>
	<path id="Bubbles-Shadow31" class="st13" d="M1129.3,1015c6.2,7.6,29.4,31,57.7,30.7c19.4,105.7-97.6,137.4-140.2,105
		c17.9-35.3,41.2-83.8,41.2-83.8l-1.2-9.4h13v-27.1C1099.8,1030.3,1116.3,1021.3,1129.3,1015z"/>
	
		<radialGradient id="Bubbles-Shadow33_1_" cx="1325.3051" cy="1051.092" r="230.885" gradientTransform="matrix(1 0 0 -1 0 1920)" gradientUnits="userSpaceOnUse">
		<stop  offset="0.399" style="stop-color:#000000"/>
		<stop  offset="0.453" style="stop-color:#000000;stop-opacity:0"/>
	</radialGradient>
	<path id="Bubbles-Shadow33" class="st14" d="M1261.3,932.4c-17.5,9.1-37.6,87.8,25.9,102.6c70.8-0.5,67.5-62.2,60.1-80.2
		C1328.4,958.6,1297.1,962.8,1261.3,932.4z"/>
	
		<radialGradient id="Bubbles-Shadow32_1_" cx="1334.219" cy="943.713" r="230.885" gradientTransform="matrix(1 0 0 -1 0 1920)" gradientUnits="userSpaceOnUse">
		<stop  offset="0.399" style="stop-color:#000000"/>
		<stop  offset="0.453" style="stop-color:#000000;stop-opacity:0"/>
	</radialGradient>
	<path id="Bubbles-Shadow32" class="st15" d="M1229.5,943c0,0,12.3,6.7,14.1,22.4c-0.8,12.5-0.1,22.2,2.4,28.3
		c-5.1,12.3-20.2,51.6-58.9,51.9c-35-1.8-52.5-24.2-56.6-30.7c3.8-1.8,29.1-15.1,51.8-31.9C1207.1,964.8,1229.5,943,1229.5,943z"/>
	
		<radialGradient id="Bubbles-Shadow35_1_" cx="1410.921" cy="1126.584" r="164.469" gradientTransform="matrix(1 0 0 -1 0 1920)" gradientUnits="userSpaceOnUse">
		<stop  offset="0.399" style="stop-color:#000000"/>
		<stop  offset="0.453" style="stop-color:#000000;stop-opacity:0"/>
	</radialGradient>
	<path id="Bubbles-Shadow35" class="st16" d="M1406.2,851c5.1,6.9,1.6,77-57.7,103.8c-51.7,16.8-93.7-28.8-99-33
		c9.4-10.4,52.8-53.9,82.5-127.4c3.3-1.3,16.3,1.5,20,2.4C1352.8,806.7,1362.1,852.9,1406.2,851z"/>
	<path id="Bubbles-Shadow2" class="st17" d="M1353.2,713c2.4,4.8,36.4,29.2,68.3,20c2.2,9.6,2,16.8,1.2,17.7
		c-38.6-16-67.4,17.8-70.7,44.8c-12.1-1.5-21.2-1.2-21.2-1.2S1345.8,758,1353.2,713z"/>
	<path id="Bubbles-Shadow34" class="st17" d="M1250.7,923l9.4,11.8c0,0-5.5,6.1-9.4,13c-3.8,6.6-5.9,14.2-5.9,14.2l-14.1-18.9
		L1250.7,923z"/>
	
		<radialGradient id="Bubbles-Shadow18_1_" cx="655.579" cy="1471.283" r="138.133" gradientTransform="matrix(1 0 0 -1 0 1920)" gradientUnits="userSpaceOnUse">
		<stop  offset="0.399" style="stop-color:#000000"/>
		<stop  offset="0.5" style="stop-color:#000000;stop-opacity:0"/>
	</radialGradient>
	<path id="Bubbles-Shadow18" class="st18" d="M602.5,444.1c2.1-14.5,10.8-35.4,27.1-42.5c-7.3-11.3-28.3-40.4-80.1-18.9
		c-29.7,14.3-32.3,54-31.8,59C527.4,438.7,564.3,428.4,602.5,444.1z"/>
	
		<radialGradient id="Bubbles-Shadow17_1_" cx="558.45" cy="1421.432" r="172.666" gradientTransform="matrix(1 0 0 -1 0 1920)" gradientUnits="userSpaceOnUse">
		<stop  offset="0.399" style="stop-color:#000000"/>
		<stop  offset="0.5" style="stop-color:#000000;stop-opacity:0"/>
	</radialGradient>
	<path id="Bubbles-Shadow17" class="st19" d="M602.5,444.1c2.1-14.5,10.8-35.4,27.1-42.5c-7.3-11.3-28.3-40.4-80.1-18.9
		c-29.7,14.3-32.3,54-31.8,59C527.4,438.7,564.3,428.4,602.5,444.1z"/>
	
		<radialGradient id="Bubbles-Shadow19_1_" cx="763.944" cy="1494.6331" r="367.859" gradientTransform="matrix(1 0 0 -1 0 1920)" gradientUnits="userSpaceOnUse">
		<stop  offset="0.399" style="stop-color:#000000"/>
		<stop  offset="0.5" style="stop-color:#000000;stop-opacity:0"/>
	</radialGradient>
	<path id="Bubbles-Shadow19" class="st20" d="M602.5,444.1c-0.3,8.1,0.5,23.3,5.9,29.5c-22.3,36.9-39.9,117.9-42.4,145.1
		c-12-0.1-74.1-4.6-91.9-54.3c-17.8-49.7,6.3-113.3,50.7-125C569.1,427.6,595.6,441.5,602.5,444.1z"/>
	
		<radialGradient id="Bubbles-Shadow16_1_" cx="688.323" cy="1605.777" r="139.769" gradientTransform="matrix(1 0 0 -1 0 1920)" gradientUnits="userSpaceOnUse">
		<stop  offset="0.399" style="stop-color:#000000"/>
		<stop  offset="0.5" style="stop-color:#000000;stop-opacity:0"/>
	</radialGradient>
	<path id="Bubbles-Shadow16" class="st21" d="M629.7,308.4c4.2,16.5,27.1,69.2,77.8,37.8c-5.6,8.6-35.5,35.6-47.1,50.7
		c-11.4,0-21.9,0.4-30.6,4.7c-8.2-10.5-18.1-27.1-51.8-25.9C576.8,354.6,576.5,313.5,629.7,308.4z"/>
	
		<radialGradient id="Bubbles-Shadow15_1_" cx="585.242" cy="1493.79" r="139.769" gradientTransform="matrix(1 0 0 -1 0 1920)" gradientUnits="userSpaceOnUse">
		<stop  offset="0.399" style="stop-color:#000000"/>
		<stop  offset="0.5" style="stop-color:#000000;stop-opacity:0"/>
	</radialGradient>
	<path id="Bubbles-Shadow15" class="st22" d="M629.7,308.4c4.2,16.5,27.1,69.2,77.8,37.8c-5.6,8.6-35.5,35.6-47.1,50.7
		c-11.4,0-21.9,0.4-30.6,4.7c-8.2-10.5-18.1-27.1-51.8-25.9C576.8,354.6,576.5,313.5,629.7,308.4z"/>
	
		<radialGradient id="Bubbles-Shadow14_1_" cx="649.785" cy="1470.005" r="139.769" gradientTransform="matrix(1 0 0 -1 0 1920)" gradientUnits="userSpaceOnUse">
		<stop  offset="0.399" style="stop-color:#000000"/>
		<stop  offset="0.5" style="stop-color:#000000;stop-opacity:0"/>
	</radialGradient>
	<path id="Bubbles-Shadow14" class="st23" d="M629.7,308.4c4.2,16.5,27.1,69.2,77.8,37.8c-5.6,8.6-35.5,35.6-47.1,50.7
		c-11.4,0-21.9,0.4-30.6,4.7c-8.2-10.5-18.1-27.1-51.8-25.9C576.8,354.6,576.5,313.5,629.7,308.4z"/>
	
		<radialGradient id="Bubbles-Shadow13_1_" cx="668.935" cy="1599.724" r="183.266" gradientTransform="matrix(1 0 0 -1 0 1920)" gradientUnits="userSpaceOnUse">
		<stop  offset="0.399" style="stop-color:#000000"/>
		<stop  offset="0.5" style="stop-color:#000000;stop-opacity:0"/>
	</radialGradient>
	<path id="Bubbles-Shadow13" class="st24" d="M726.3,335.6c6.7-16.3,21.6-65.3-25.9-86.1c9.2-31.5,79.8-63.4,124.9,2.4
		c-2.1,0.1-4.7,1.2-4.7,1.2v34.2C820.6,287.2,793.3,292.6,726.3,335.6z"/>
	
		<radialGradient id="Bubbles-Shadow12_1_" cx="794.119" cy="1659.155" r="85.057" gradientTransform="matrix(1 0 0 -1 0 1920)" gradientUnits="userSpaceOnUse">
		<stop  offset="0.399" style="stop-color:#000000"/>
		<stop  offset="0.553" style="stop-color:#000000;stop-opacity:0"/>
	</radialGradient>
	<path id="Bubbles-Shadow12" class="st25" d="M811.1,234.1c5.5-6.8,19.2-23.7,41.2-22.4c22,1.3,40.2,23.9,38.9,42.5
		c-10.7-0.5-67.2-1.2-67.2-1.2S821.4,243.8,811.1,234.1z"/>
	
		<radialGradient id="Bubbles-Shadow10_1_" cx="922.518" cy="1657.259" r="128.54" gradientTransform="matrix(1 0 0 -1 0 1920)" gradientUnits="userSpaceOnUse">
		<stop  offset="0.399" style="stop-color:#000000"/>
		<stop  offset="0.553" style="stop-color:#000000;stop-opacity:0"/>
	</radialGradient>
	<path id="Bubbles-Shadow10" class="st26" d="M957.3,229.4c8.6-10.7,18.1-41.6,10.6-60.2s-29.5-28.5-54.2-24.8
		c-24.8,3.7-45.1,20.6-40.1,53.1c7.7,26.5,14.1,30.2,16.5,31.9C895.3,223.9,923.8,198,957.3,229.4z"/>
	
		<radialGradient id="Bubbles-Shadow11_1_" cx="874.134" cy="1668.863" r="59.014" gradientTransform="matrix(1 0 0 -1 0 1920)" gradientUnits="userSpaceOnUse">
		<stop  offset="0.399" style="stop-color:#000000"/>
		<stop  offset="0.553" style="stop-color:#000000;stop-opacity:0"/>
	</radialGradient>
	<path id="Bubbles-Shadow11" class="st27" d="M885.4,232.9c10.8-14.9,32.3-23.9,52.6-15.1c11.7,5.1,26.1,16,29.8,35.1
		c-30.7,1.7-75.4,0-75.4,0S893.8,240.9,885.4,232.9z"/>
	
		<radialGradient id="Bubbles-Shadow9_1_" cx="904.695" cy="1728.7681" r="164.991" gradientTransform="matrix(1 0 0 -1 0 1920)" gradientUnits="userSpaceOnUse">
		<stop  offset="0.399" style="stop-color:#000000"/>
		<stop  offset="0.553" style="stop-color:#000000;stop-opacity:0"/>
	</radialGradient>
	<path id="Bubbles-Shadow9" class="st28" d="M1088.1,255.4l-120.2-1.2c0,0-0.6-16.4-10.6-24.8c6.4-8.8,15.2-25.3,11.8-56.6
		c21-18,61.6-46.3,103.7-9.4c20.7,18.1,27.2,40.7,25.9,59C1097.4,241.2,1088.1,255.4,1088.1,255.4z"/>
	
		<radialGradient id="Bubbles-Shadow8_1_" cx="911.288" cy="1647.635" r="164.991" gradientTransform="matrix(1 0 0 -1 0 1920)" gradientUnits="userSpaceOnUse">
		<stop  offset="0.399" style="stop-color:#000000"/>
		<stop  offset="0.553" style="stop-color:#000000;stop-opacity:0"/>
	</radialGradient>
	<path id="Bubbles-Shadow8" class="st29" d="M1088.1,255.4l-120.2-1.2c0,0-0.6-16.4-10.6-24.8c6.4-8.8,15.2-25.3,11.8-56.6
		c21-18,61.6-46.3,103.7-9.4c20.7,18.1,27.2,40.7,25.9,59C1097.4,241.2,1088.1,255.4,1088.1,255.4z"/>
	
		<radialGradient id="Bubbles-Shadow7_1_" cx="1005.128" cy="1703.088" r="225.58" gradientTransform="matrix(1 0 0 -1 0 1920)" gradientUnits="userSpaceOnUse">
		<stop  offset="0.399" style="stop-color:#000000"/>
		<stop  offset="0.553" style="stop-color:#000000;stop-opacity:0"/>
	</radialGradient>
	<path id="Bubbles-Shadow7" class="st30" d="M1098.7,256.5h-10.6c0,0,16.7-21,9.4-55.4c23.6-7.5,85.9-21.1,114.3,44.8
		c21.1,63.9-5.7,93.3-10.6,99.1c-8.4-6-61.5-46.3-102.5-57.8C1098.4,268.5,1098.7,256.5,1098.7,256.5z"/>
	
		<radialGradient id="Bubbles-Shadow6_1_" cx="1140.1281" cy="1629.835" r="192.846" gradientTransform="matrix(1 0 0 -1 0 1920)" gradientUnits="userSpaceOnUse">
		<stop  offset="0.399" style="stop-color:#000000"/>
		<stop  offset="0.553" style="stop-color:#000000;stop-opacity:0"/>
	</radialGradient>
	<path id="Bubbles-Shadow6" class="st31" d="M1211.8,244.7c5.2,13.9,18.9,67.6-10.6,100.3c16.1,13.3,25.9,20,25.9,20
		s15.9-7.2,38.9,8.3c13.1-23.3,24.5-46.9,13-76.7C1267.5,266.8,1231.7,246.2,1211.8,244.7z"/>
	
		<radialGradient id="Bubbles-Shadow5_1_" cx="1232.2791" cy="1482.5601" r="192.846" gradientTransform="matrix(1 0 0 -1 0 1920)" gradientUnits="userSpaceOnUse">
		<stop  offset="0.399" style="stop-color:#000000"/>
		<stop  offset="0.553" style="stop-color:#000000;stop-opacity:0"/>
	</radialGradient>
	<path id="Bubbles-Shadow5" class="st32" d="M1211.8,244.7c5.2,13.9,18.9,67.6-10.6,100.3c16.1,13.3,25.9,20,25.9,20
		s15.9-7.2,38.9,8.3c13.1-23.3,24.5-46.9,13-76.7C1267.5,266.8,1231.7,246.2,1211.8,244.7z"/>
	
		<radialGradient id="Bubbles-Shadow4_1_" cx="1226.145" cy="1496.59" r="168.32" gradientTransform="matrix(1 0 0 -1 0 1920)" gradientUnits="userSpaceOnUse">
		<stop  offset="0.399" style="stop-color:#000000"/>
		<stop  offset="0.553" style="stop-color:#000000;stop-opacity:0"/>
	</radialGradient>
	<path id="Bubbles-Shadow4" class="st33" d="M1279,382.7c-0.2-9.3,40-44.2,77.8-11.8c34.2,44.8,14.5,80.3-4.7,90.8
		c-19.2,10.5-43.1,7.7-46,7.1c-6-8.7-11.5-22.3-14.1-27.1C1292.6,431.9,1297.2,405,1279,382.7z"/>
	
		<radialGradient id="Bubbles-Shadow3_1_" cx="1399.068" cy="1235.088" r="226.462" gradientTransform="matrix(1 0 0 -1 0 1920)" gradientUnits="userSpaceOnUse">
		<stop  offset="0.399" style="stop-color:#000000"/>
		<stop  offset="0.553" style="stop-color:#000000;stop-opacity:0"/>
	</radialGradient>
	<path id="Bubbles-Shadow3" class="st34" d="M1445.1,595c30.5-38,6.8-149.1-77.8-147.4c-12.4,11-30.6,28.7-60.1,20.1
		c8.9,20.3,29.5,57.1,43.6,130.9C1362.4,589.8,1409.9,577.7,1445.1,595z"/>
	<path id="Body-Gun-Fill" class="st35" d="M1098.6,255.3c0,0-0.2,13.3,0,30.6C1345.2,386.9,1356,620.8,1356,658.1
		c0,120.6-56.1,214.4-116.7,275.1c-42.2,42.3-86.1,69-113.4,83.3c1.2,10.5,1.1,47.5,1.1,47.5h-21l-11,348l-14-13l-5,148l34,16
		l-29,343h-76l-13-87l-9,91l-51,1l-10-94l-13,89l-78,1l-29-343l35-16c0,0-4.8-146.7-5-147s-14,10-14,10l-11-343l-17-2
		c0,0,0.5-43.3,0.6-50.7c-191-88.6-226.5-275.2-226.5-359.3c0-88.6,39.3-284.5,258.5-370.1c0-14.5,0-33.8,0-33.8s2.3,0,6.6,0.1
		C829.6,252.1,854,60,854,60l206,1l26,194L1098.6,255.3z"/>
	<path id="Gun-Shadow90" class="st36" d="M836,1549l243-2l30,16l-129,1l38,342l-13,1l-45-343l-7,16l-44,326h-12l35-344l-128,2
		L836,1549z"/>
	<path id="Gun-Shadow92" class="st37" d="M932,1911l-11-96l33-243l8,3l31,244l-10,91L932,1911z"/>
	
		<linearGradient id="Gun-Shadow91_1_" gradientUnits="userSpaceOnUse" x1="957" y1="9" x2="957" y2="348" gradientTransform="matrix(1 0 0 -1 0 1920)">
		<stop  offset="0" style="stop-color:#000000;stop-opacity:0"/>
		<stop  offset="1" style="stop-color:#000000"/>
	</linearGradient>
	<path id="Gun-Shadow91" class="st38" d="M932,1911l-11-96l33-243l8,3l31,244l-10,91L932,1911z"/>
	<path id="Gun-Shadow2" class="st39" d="M832.5,1409.5l100-83.4l1-233.1l-112-77.4"/>
	<path id="Gun-Shadow80" class="st39" d="M1080,1409l-99.1-86.4l1-230.1l110-80.4"/>
	<path id="Paint" class="st40" d="M1041,894l-1-202l-38-1l4,16l-1,58h-94v-59l4-15h-35v203H1041z M817,1411l109-89v-225l-120-85
		L817,1411z M1095,1411c0,0,11.7-399.7,12-399s-118,85-118,85l-1,224L1095,1411z M896,1907l36-345l-131,3l30,342H896z M1019,1905
		l61,1l30-343H980L1019,1905z M1007,765l-32-56h-30c0,0-34.7,55.6-34,56s-1-58-1-58l33-120h36l28,121V765z"/>
	<path id="Paint-Dark" class="st41" d="M820,659l1-110h-23v-12l-196,51c0,0-21,28.2-21,73s20.5,64,22,66c7.4,1.8,188,47,188,47V659
		H820z M1099,659l-1-110h21v-12l198,51c0,0,21,28.2,21,73s-20.5,64-22,66c-7.4,1.8-188,47-188,47V659H1099z"/>
	
		<radialGradient id="Body-Shadow_1_" cx="960.096" cy="1259.995" r="407.99" gradientTransform="matrix(1 0 0 -1 0 1920)" gradientUnits="userSpaceOnUse">
		<stop  offset="0.101" style="stop-color:#000004;stop-opacity:0"/>
		<stop  offset="1" style="stop-color:#000000"/>
	</radialGradient>
	<path id="Body-Shadow" class="st42" d="M1107,1013c-0.3,10.7-1,51-1,51h20c0,0,1.8-38.3,2-48c32.1-15.9,72.9-44.7,113.9-85.7
		C1302.1,867,1357,779.1,1356,656c0-91.5-38.2-189.4-88.3-248.9c-73.5-87.3-168-122.3-168-122.3v-30.6L821.6,252
		c0,0-0.5,19.2-1.1,33.8C749.2,308.4,567.1,414.8,564.2,657c0,59.7,21.3,265,226.5,357.9c-0.1,10.1,0.2,34.4,0.4,51
		c7.3,1.2,16,2,16,2l-2-56c0,0,9.3,6.8,17,11c-0.5-11.5,1-130,1-130l269,3l1,125C1093,1021,1102.7,1014.7,1107,1013z"/>
	<path id="Body-Shadow50" class="st43" d="M978.1,437.6c33.1,0.2,61.9,0.4,61.9,0.4l-1,108l78,1l-1-67l-56-419l-205-1l-24,170
		l-32,261l-1,57h82V437c0,0,29.4,0.2,63,0.4c0.1-11.3,1-336.4,1-336.4h34C978,101,978.1,433.8,978.1,437.6z"/>
	<path id="Body-Shadow80" class="st44" d="M977,586l-34-1l1-484h33V586z"/>
	<path id="Body-Light" class="st35" d="M1161.3,568.1c10.4,0,18.9,8.4,18.9,18.8c0,10.4-8.5,18.9-18.9,18.9
		c-10.4,0-18.9-8.4-18.9-18.9C1142.4,576.6,1150.9,568.1,1161.3,568.1z M1161.3,632.9c7.2,0,13,5.8,13,13c0,7.2-5.8,13-13,13
		c-7.2,0-13-5.8-13-13C1148.3,638.7,1154.2,632.9,1161.3,632.9z"/>
	
		<linearGradient id="Body-Shadow2_1_" gradientUnits="userSpaceOnUse" x1="957.835" y1="821.454" x2="957.835" y2="1064.2639" gradientTransform="matrix(1 0 0 -1 0 1920)">
		<stop  offset="0" style="stop-color:#000004"/>
		<stop  offset="1" style="stop-color:#000000;stop-opacity:0"/>
	</linearGradient>
	<path id="Body-Shadow2" class="st45" d="M1105,1065c8.1-0.1,20.7-0.3,20.7-0.3l0-238.8c0,0-24.1,0.3-31.7,0.1
		c0,10.5-1.9,157.3-1,194c6-3.3,15-8,15-8S1106,1046.3,1105,1065z M822,832c-5.2-0.1-32-4.6-32-4.6l0.6,239.3c0,0-2.2,2,16.5,2
		c0.1-7.8-1-55.7-1-55.7l16,10C822,1023,822.1,840.3,822,832z"/>
</g>
<g id="Line">
	<path id="Line-Bubbles" class="st46" d="M1097.5,199.6c129.1-34.9,140.6,111.2,103.6,144.1 M1211,244.4
		c25.1,1.7,105.8,47.2,56.7,127.7 M1226.2,363.4c15-3.3,78.3,8.2,64.3,79.7 M1278.6,381.9c3.9-21.9,75.3-48.7,93.8,17.5
		c15.7,56.1-36.3,76.8-65.3,68.7 M1366.9,448.5c50.8-11.5,123.7,81.1,76.4,146.3 M1350.6,598.1c24.3-18.3,136.7-26.5,130.9,66.6
		c-2.7,43.7-34.2,63.3-60.2,68.2c-30,5.6-62.6-7-68.5-20.2 M1421.5,734.6c0.9,3.9,2.3,11.7-1.1,16.4 M1248.1,922.3
		c122.5,107.4,172.8-57.9,157.1-71 M1353.4,798c-6.6-2.7-14-4.3-22.5-4.5 M1347.3,955.1c16.1,59.6-33.3,90.1-68.7,77.5
		c-32.3-11.5-52-61.8-18.5-99.3 M1229.5,943.1c7.5,5.4,12.3,13.2,14.5,22.1 M1244,992.9c-9.2,42-56.9,82.1-116,22.3 M1187,1046.8
		c11.7,70.7-38.5,109.5-84.5,116.3 M1086.6,255.3c21.8-27.6,12.3-67.9-12.8-91.2 M809.6,235.6c8.3-11,16.8-17.6,25.1-20.9
		 M823.8,252c-8.8-26-87.5-71.6-124.3-2.2c-18.8-6.2-70.7-6.1-69.8,57.9c-11,1.6-58.9,9.2-52.4,67.7c-21.6,3.8-54.2,6.8-61.1,67.7
		c-52.2,15.3-94.3,168.2,50.2,175.8 M608.9,474.7c-12.7-14.2-12.2-81.8,51.3-78.6 M629.6,307.7c1,6.8,6.1,26.4,18.9,37.3
		c16.5,14.1,43.9,17.1,70.5-5.6c12-10.3,14-19.3,15.3-33.8c0.8-9-3.2-27.7-7.6-34.9c-7.5-12.3-21.3-19.4-27.3-20.7 M629.6,401.6
		c-9.6-15.1-27.2-29.7-52.4-26.2 M602.3,445.3c-15-7.1-51.6-17.4-86.2-2.2 M500.9,601.4c-26.4,9.6-67.9,114.8,36,132.1 M569.6,775
		c-62.4-18.3-26.5-74.4-3.3-74.2 M660.1,916.9c-144.3,34.3-132.8-136-78.5-149.6 M557.6,784.8c-40,37.5-107.3-22-67.6-72.1
		 M568.5,902.7c-40.7,88.2,89.3,123.5,100.3,26.2 M602.3,985.7c-36.4,80.2,97.8,161.1,145.1,45.9 M735.4,983.5
		c-22,41.9,26.9,69.3,55,45.9 M806.9,1066.1c-15.8,21.2-24.4,64,2.7,88.3 M793.2,1099.2c-19.4,9.8-57.6,11.6-68.7-31.7"/>
	<path id="Line-Bubbles2" class="st46" d="M1404.6,746.6c28.6,0,51.8,23.2,51.8,51.9c0,28.7-23.2,51.9-51.8,51.9
		s-51.8-23.2-51.8-51.9C1352.8,769.8,1375.9,746.6,1404.6,746.6z"/>
	<path id="L-Gun3" class="st46" d="M834,1399l92-77l1-226l-121-84l12,399l15-11l5,147l-36,15l30,344h78c0,0,43.8-327.8,47.7-356.9
		c0.5,0,1.3-0.1,1.3-0.1l46,357l77-1l29-344l-34-15l5-147l13,12l13-400l-14,9l-1-126l-271-1v130"/>
	<path id="L-Gun" class="st46" d="M836,1548l242-1 M962,1548l18,14h130 M980,1562l38,344 M954,1549l-21,12l-37,344 M803,1564l129-3"
		/>
	<path id="L-Gun4" class="st46" d="M922,1813l9,97h52l9-94"/>
	<path id="L-Gun5" class="st46" d="M957,1909v-349"/>
	<path id="L-Gun2" class="st46" d="M1094,1020l-105,76l-1,224l93,80"/>
	<path id="L-Body2" class="st46" d="M808,1068l-17.5-2.7v-406c0,0,61.6,0.1,132.1,0.3 M995.1,659.7c70.4,0.1,131.9,0.3,131.9,0.3
		v404h-21"/>
	<path id="L-Body" class="st46" d="M879.1,895V691.5c0,0,10.9,0.1,34.7,0.2 M1003,692c24.9,0.1,36.9,0.2,36.9,0.2v201.6"/>
	<path id="Line-Body7" class="st46" d="M1161.3,567.8c10.5,0,19.1,8.6,19.1,19.1s-8.5,19.1-19.1,19.1c-10.5,0-19.1-8.6-19.1-19.1
		S1150.8,567.8,1161.3,567.8z M1161.9,632.9c7.5,0,13.6,6.1,13.6,13.6s-6.1,13.6-13.6,13.6s-13.6-6.1-13.6-13.6
		S1154.4,632.9,1161.9,632.9z"/>
	<path id="L-Body3" class="st46" d="M1039,660V437c0,0-28.3,0-61.1,0 M943.4,437c-33.7,0-63.4,0-63.4,0v223 M689.2,566
		c0-13,0.4-200.5,0.4-200.5 M688.9,748.3c-0.1,36.7-0.1,71.5-0.2,101.8 M688.7,865.7c-0.1,37.8-0.1,67-0.1,81.5 M689.6,766.2
		c0,0-4.7,0,71.5,0 M1163.9,766.2c73,0,62.3,0,62.3,0 M1227.3,367.7c0,0,0,88.7,0,196.5 M1227.3,750.3c0,37.1,0,71.9,0,101.5
		 M1227.3,865.4c0,48.3,0,79.9,0,79.9"/>
	<path id="L-Body4" class="st46" d="M820,548v112"/>
	<path id="L-Body7" class="st46" d="M1098,548v112"/>
	<path id="L-Body6" class="st46" d="M879,548h-81c0,0,0-41.3,0-54s56-434,56-434h206l56,422v64h-77"/>
	<path id="L-Body8" class="st46" d="M884,61l12.9,40h118.4l13.6-39.2"/>
	<path id="L-Body80" class="st46" d="M942,118h35"/>
	<path id="Line-Body4" class="st46" d="M574,573l38.3,11.9 M603,726.9c-9.9,1.8-25.2,4.5-30.4,5.8"/>
	<path id="Line-Body11" class="st46" d="M1344,573l-32.3,12.9 M1318.9,726.9c13.4,2.4,29.5,6.5,29.5,6.5"/>
	<path id="Line-Body2" class="st46" d="M769.8,810.8c2.6,0,4.7,2.1,4.7,4.7c0,2.6-2.1,4.7-4.7,4.7c-2.6,0-4.7-2.1-4.7-4.7
		C765.1,812.9,767.2,810.8,769.8,810.8z M769.8,853.4c2.6,0,4.7,2.1,4.7,4.7s-2.1,4.7-4.7,4.7c-2.6,0-4.7-2.1-4.7-4.7
		S767.2,853.4,769.8,853.4z M1150.3,810.7c2.6,0,4.8,2.1,4.8,4.7c0,2.6-2.1,4.7-4.8,4.7s-4.8-2.1-4.8-4.7
		C1145.5,812.8,1147.6,810.7,1150.3,810.7z M1150.3,853.4c2.6,0,4.8,2.1,4.8,4.8c0,2.6-2.1,4.8-4.8,4.8s-4.8-2.1-4.8-4.8
		C1145.5,855.6,1147.6,853.4,1150.3,853.4z"/>
	<path id="Line-Body3" class="st46" d="M671,851.4H706v14.2l-34.9-1.1V851.4z"/>
	<path id="Line-Body8" class="st46" d="M1209.9,851.2h34.9v14.2l-34.9-1.1V851.2z"/>
	<path id="Line-Body-Gun" class="st46" d="M790.5,1015.3C599.6,926.7,564.2,740.1,564.2,656c0-88.6,37.1-284.5,256.3-370.1
		c0-14.5,0-33.8,0-33.8s3.1,0,8.6,0.1 M1085.7,255.1c8.2,0.1,12.9,0.2,12.9,0.2s-0.2,13.3,0,30.6
		C1345.2,386.9,1356,620.8,1356,658.1c0,120.6-56.1,214.4-116.7,275.1c-42.6,42.7-86.1,69.5-112.7,83.7"/>
	<path id="L-Body3_1_" class="st46" d="M1005.2,765.2l-27.9-54.7V99.9 M977.3,708.8h-33.6"/>
	<path id="L-Body2_1_" class="st46" d="M949,720.3h23l19.5,36.2h-61.9L949,720.3z"/>
	<path id="L-Body_1_" class="st46" d="M934,747.7h52.2"/>
	<path id="L-Body5" class="st46" d="M911,765.3v-56.5l31-123.7h36.3l29.2,123.7v56.5H911z"/>
	<path id="L-Body4_1_" class="st46" d="M911.9,766.2l30.9-55.7V101"/>
	<path id="L-Body7_1_" class="st46" d="M798.6,537.9C740,553,601.5,588.7,601.5,588.7s-45.7,66.8,0,138.7
		c74,18.4,147.7,37.3,188.8,47.9"/>
	<path id="L-Body6_1_" class="st46" d="M1116.8,536.4c54.8,14.1,202.7,52.2,202.7,52.2s45.7,66.8,0,138.7
		c-76.3,19-152.3,38.5-192.5,48.9"/>
</g>
</svg>
