<?xml version="1.0" encoding="utf-8"?>
<!-- Generator: Adobe Illustrator 22.0.0, SVG Export Plug-In . SVG Version: 6.00 Build 0)  -->
<svg version="1.1" id="Слой_1" xmlns="http://www.w3.org/2000/svg" xmlns:xlink="http://www.w3.org/1999/xlink" x="0px" y="0px"
	 viewBox="0 0 1920 1920" style="enable-background:new 0 0 1920 1920;" xml:space="preserve">
<style type="text/css">
	.st0{fill:#E6E6E6;}
	.st1{opacity:0.102;enable-background:new    ;}
	.st2{fill:url(#Gun-Shadow6_1_);}
	.st3{fill:url(#Gun-Shadow7_1_);}
	.st4{fill:#CCCCCC;}
	.st5{fill:#F2F2F2;}
	.st6{opacity:0.302;fill:none;stroke:#000000;stroke-width:10;enable-background:new    ;}
	.st7{fill:url(#Gun-Shadow5_1_);}
	.st8{fill:#999999;}
	.st9{opacity:5.900000e-02;enable-background:new    ;}
	.st10{fill:#6E1370;}
	.st11{fill:#A800A8;}
	.st12{opacity:0.302;fill:url(#Body-Shadow40_1_);enable-background:new    ;}
	.st13{opacity:0.302;fill:url(#Body-Shadow41_1_);enable-background:new    ;}
	.st14{opacity:5.100000e-02;enable-background:new    ;}
	.st15{opacity:0.302;enable-background:new    ;}
	.st16{fill:none;stroke:#1A1A1A;stroke-width:10;}
	.st17{opacity:0.2;fill:url(#GunS-3_1_);enable-background:new    ;}
	.st18{fill:none;stroke:#191919;stroke-width:10;}
	.st19{opacity:0.502;fill:url(#GunS-Shadow2_1_);enable-background:new    ;}
	.st20{fill:#8C8C8C;}
	.st21{fill:#00FF00;}
</style>
<path id="Body-Fill" class="st0" d="M945.5,1883.4c-194.8-16.6-235-367.8-249.5-451.4c-18.4,41.2-28,175.1-30,202
	s-11.3,136.1-20,174s-27,37-27,37s-99.1,1-119,1s-29.3-1.2-37-7c-16.3-104.7-21-1146.3-21-1229s55.3-423.4,91-492
	c30.8-9.6,237.4-67,254-67s329.4,0,346,0s223.2,57.4,254,67c35.7,68.6,91,409.3,91,492s-4.7,1124.3-21,1229c-7.7,5.8-17.1,7-37,7
	s-119-1-119-1s-18.3,0.9-27-37s-18-147.1-20-174s-11.6-160.8-30-202c-14.6,83.6-54.7,434.8-249.5,451.4
	C969.7,1883.8,950.3,1883.8,945.5,1883.4z M852,1072c-66.3,37.6-97,102.4-97,180s75.6,158.4,98,167c-3-50.8-11-264-11-264l13,6
	C855,1161,853.7,1097.7,852,1072z M1066,1162l12-8c0,0-7.6,181.5-10,264c42.7-28.8,98-96.8,98-178s-52.3-142.2-98-169
	C1067.2,1086.8,1066,1162,1066,1162z"/>
<path id="Body-Shadow77" class="st1" d="M841,256c0,0-16.2,7-35,7s-33-5-33-5l-27-2l-6-88l68-50l65,50l-7,89L841,256z M840,227l3-49
	l-36-23l-40,25l6,44L840,227z"/>
<linearGradient id="Gun-Shadow6_1_" gradientUnits="userSpaceOnUse" x1="1225" y1="629.435" x2="699" y2="629.435" gradientTransform="matrix(1 0 0 -1 0 1920)">
	<stop  offset="0" style="stop-color:#E6E6E6"/>
	<stop  offset="0.198" style="stop-color:#E6E6E6"/>
	<stop  offset="0.49" style="stop-color:#000000"/>
	<stop  offset="0.805" style="stop-color:#E6E6E6"/>
</linearGradient>
<path id="Gun-Shadow6" class="st2" d="M1084,999l-18,35l1,37c0,0,69,39.8,87,104s9.8,106.7-1,137s-45.5,80.8-85,108
	c0.2,17.8-1,34-1,34l-8-5l-5,82h6l19,48v235l-236,2l-2-237l18-47l8-2l-4-80l-11,7v-39c0,0-61.9-41.4-86-109s-3.2-141.2,11-162
	s45.2-64.7,77-77c-1.2-19,0-34,0-34l-16-35l-1-13l-17-1l-74-222c0,0-10,134.1-18,252s-24.8,386.6-29,416c4.5,36.8,21.3,151.8,45,227
	c19.9,63.1,55.8,129.5,88.6,165.1c13.8-19.2,35.8-9.1,128.4-9.1c31.8,0,118-4.5,128.9,7.2c9.8-10.6,19.3-22.9,28.1-37.2
	c49.2-79.3,76.2-191.9,85-237s20.3-108.1,22-123c-10.4-26.8-46.7-636.8-49-670c-9.2,17.4-66.3,208.5-73,236
	C1096.9,993.3,1084,999,1084,999z"/>
<linearGradient id="Gun-Shadow7_1_" gradientUnits="userSpaceOnUse" x1="961" y1="101" x2="961" y2="35" gradientTransform="matrix(1 0 0 -1 0 1920)">
	<stop  offset="0" style="stop-color:#B5B5B5"/>
	<stop  offset="1" style="stop-color:#FFFFFF"/>
</linearGradient>
<path id="Gun-Shadow7" class="st3" d="M836,1822c0.9-1.4,2-3,2-3h244l4,4c0,0-44,62-125,62C935.8,1885,851.3,1864.6,836,1822z"/>
<path id="Radar-Shadow" class="st4" d="M781,311c-28.5-8.6-86.8-34.2-90-111s66.9-108.3,81-112c-47.4,9.2-107.7,30.8-100,131
	c10.9,73.5,84.7,101.8,91,103C770.8,317.4,775.9,317.1,781,311z"/>
<path id="GunXL" class="st5" d="M1083,999l-1-247l-242,2l-2,246l17,35l-1,126l-12-10l11,306l9-7l5,80l-7,2l-18,47v237h237l-1-236
	l-18-48l-5-2l4-81l8,6l10-302l-11,9l1-127L1083,999z"/>
<path id="Gun-Shadow2" class="st6" d="M864,1460c0.7-0.4,80-65,80-65v-173l-88-72"/>
<path id="Gun-Shadow" class="st6" d="M1056.9,1459.8c-0.7-0.4-79.9-65-79.9-65v-172.9l87.9-72"/>
<linearGradient id="Gun-Shadow5_1_" gradientUnits="userSpaceOnUse" x1="961" y1="926.558" x2="961" y2="1191.558" gradientTransform="matrix(1 0 0 -1 0 1920)">
	<stop  offset="0" style="stop-color:#797979"/>
	<stop  offset="1" style="stop-color:#F1F1F1"/>
</linearGradient>
<path id="Gun-Shadow5" class="st7" d="M1083,994h18l-7-265H828l-7,259h17l1-234l242-2L1083,994z"/>
<path id="Gun-Shadow3" class="st8" d="M902,1638l115,1l-1,30H901L902,1638z M901,1718c0,0,113.4,0.2,114,0s1,30,1,30l-114,1
	L901,1718z"/>
<path id="Gun-Shadow4" class="st9" d="M1080,1003l-14,33c0,0-213.6-1.2-212-1s-15-32-15-32H1080z"/>
<path id="Paint-Dark" class="st10" d="M1203.6,1173.2c8.9,131.5,17.3,244.8,20.4,253.8c0.5,37.1-38.3,201.4-49,235
	c-5.3-3.3-13.3-6.6-22.3-9.7c-2-0.7,18-43.9,20.3-65.3c-5-4.2-13.8-7.7-15-8c-3.3-1-21.6,68.2-24.9,67.3
	c-12.8-3.6-25.8-6.7-36.1-9.1c1.9-8.9,14-44.7,15-64.2c-8.1-3.6-16.9-3.7-18-4c0.1-3.6-14.8,55.5-14.9,50.1
	c-0.2-17.8-1.1-41.1-1.1-41.1l-18-47h-6l5-81l9,6c0,0-0.3-4.7,0-17c30.3-17.9,115-91.9,115-209s-117-176-117-176
	S1152,1085.1,1203.6,1173.2z M716.4,1177.5c-9.1,131.3-17.2,247.5-18.4,265.5c6.7,49.1,28.5,171.3,46,216c19.9-7.1,25-8,25-8
	s-18.7-55.2-19-65c6.3-2.8,14-4,14-4s16.7,54,23,63c7.7-1.6,22.9-4.7,35.2-7.2c-2.8-18.4-12.2-66.8-12.2-66.8s9.1-3.1,16-2
	c6.3,19.3,15.5,55.8,15.8,51.4c0.9-15.7,2.2-39.4,2.2-39.4l15-48l7-1l-4-81l-9,5l1-17c0,0-116-68.6-116-204c0-123.6,115-179,115-179
	S754.5,1090.5,716.4,1177.5z M589,1814l-35-59l-32,58L589,1814z M1334,1813l34-57l31,57H1334z M449,1409l39-1c0,0-11-560.3-11-614
	s1.8-221.6,20-324c18.2-102.4,37-246.9,74-364c-21.1,7.8-38,12-38,12s-24,42.6-60,249s-31,275.9-31,339S449,1409,449,1409z
	 M1468.8,1409l-38.9-1c0,0,11-560.3,11-614s-1.8-221.6-20-324c-18.1-102.4-37-246.9-73.9-364c21.1,7.8,37.9,12,37.9,12
	s23.9,42.6,59.9,249c36,206.4,30.9,275.9,30.9,339S1468.8,1409,1468.8,1409z M672,1390c0-11.9-8.8-30-30-30s-28,17.3-28,32
	s16.7,25,29,25C659.6,1417,672,1401.9,672,1390z M1279,1359c14.6,0,29,14.4,29,32s-22.4,28-31,28s-27-10.9-27-33
	S1264.4,1359,1279,1359z M669,407l64-10v14l-64,10V407z M669,447v14l63-11v-15L669,447z M669,487l-1,15l61-12v-14L669,487z
	 M1188,397l64,9l1,17l-63-12L1188,397z M1192,437l59,10l2,17l-61-11V437z M1194,476l59,10v16l-60-10L1194,476z"/>
<path id="Paint" class="st11" d="M1068,1457l-81-67v-163l89-73L1068,1457z M934,1390l-81,66l-10-302l91,73V1390z M1082,1002l-14,33
	l-215-1l-15-34L1082,1002z M608,493c0,0-7.9,224.4-9,288s-25.2,123.4-33,123s-36.5-50.4-43-120s8.5-264.2,15-293
	C555,492.2,608,493,608,493z M1379.3,491c6.5,28.8,21.6,223.4,15.1,293c-6.6,69.6-35.4,119.6-43.2,120c-7.8,0.4-32-59.4-33.2-123
	s-9-288-9-288S1362.2,492.2,1379.3,491z M860,1532l197-1l23,50v235l-238-1v-236L860,1532z M902,1670l114-2l-1-28l-115-1L902,1670z
	 M902,1719l-2,30l115,1c0,0,0.5-30.4,1-31S902,1719,902,1719z"/>
<linearGradient id="Body-Shadow40_1_" gradientUnits="userSpaceOnUse" x1="521.4961" y1="1237.2693" x2="607.0271" y2="1234.2833" gradientTransform="matrix(1 0 0 -1 0 1920)">
	<stop  offset="0" style="stop-color:#000000"/>
	<stop  offset="0.496" style="stop-color:#000000;stop-opacity:0"/>
	<stop  offset="1" style="stop-color:#000000"/>
</linearGradient>
<path id="Body-Shadow40" class="st12" d="M539,466c-6.5,28.8-22.5,248.4-16,318s35.2,119.6,43,120s31.9-59.4,33-123s8-315,8-315
	S556,467.2,539,466z"/>
<linearGradient id="Body-Shadow41_1_" gradientUnits="userSpaceOnUse" x1="1396.9584" y1="1237.8191" x2="1310.9084" y2="1234.1069" gradientTransform="matrix(1 0 0 -1 0 1920)">
	<stop  offset="0" style="stop-color:#000000"/>
	<stop  offset="0.496" style="stop-color:#000000;stop-opacity:0"/>
	<stop  offset="1" style="stop-color:#000000"/>
</linearGradient>
<path id="Body-Shadow41" class="st13" d="M1379.4,466c6.5,28.8,22.7,248.4,16.1,318c-6.6,69.6-35.4,119.6-43.2,120
	s-37.1-59.4-38.2-123c-1.1-63.6-3-315-3-315S1362.2,467.2,1379.4,466z"/>
<path id="Gun-Shadow4_copy" class="st9" d="M1060,1532l18,47c0,0-237.6-1.2-236-1s19-46,19-46H1060z"/>
<path id="Paint-Shadow" class="st14" d="M841,310l-7,195l36,95l183,1l36-95l-19-382l-177-1c0,0-28.9-36.5-81-39
	c-10.7,0-25.3,0.8-29,2c0.6-7.9,4-34,4-34s323.1,1.1,343,1c9.7,23.5,33.7,428.9,36,477c-7.9,23.7-71,197-71,197l-269,2l-71-192
	l9-216c0,0,14.4-9.9,24-9S841,310,841,310z"/>
<path id="Black-Hole" class="st15" d="M853,1070c-30.6,20.4-100,73.3-100,171s82.6,169.8,97,177c-1.3-34.4-6-263-6-263l10,6
	C854,1161,854,1098.8,853,1070z M1068,1071c59.2,37.3,98,90.8,98,185c-3.6,93.3-89.3,160-96,163c0.2-28.6,7-264,7-264l-11,7
	C1066,1162,1067,1097.6,1068,1071z"/>
<g id="Line">
	<path id="Line-All" class="st16" d="M974.5,1883.4c194.8-16.6,235-367.8,249.5-451.4c18.4,41.2,28,175.1,30,202s11.3,136.1,20,174
		s27,37,27,37s99.1,1,119,1s29.3-1.2,37-7c16.3-104.7,21-1146.3,21-1229s-55.3-423.4-91-492c-30.8-9.6-237.4-67-254-67
		s-329.4,0-346,0s-223.2,57.4-254,67c-35.7,68.6-91,409.3-91,492s4.7,1124.3,21,1229c7.7,5.8,17.1,7,37,7s119-1,119-1
		s18.3,0.9,27-37s18-147.1,20-174s11.6-160.8,30-202c14.6,83.6,54.7,434.8,249.5,451.4C950.3,1883.8,969.7,1883.8,974.5,1883.4z"/>
	<path id="Line-Body" class="st16" d="M554.9,1754c15.5,26.8,33.1,58,33.1,58h-66C522,1812,541.1,1778,554.9,1754z M1367.6,1754
		c-15.5,26.8-33,58-33,58h65.9C1400.4,1812,1381.4,1778,1367.6,1754z"/>
	<path id="Line-Body-L6" class="st16" d="M694,1438H449"/>
	<path id="Line-Body-L5" class="st16" d="M642.5,1359.1c16.2,0,29.4,13.1,29.4,29.4s-13.1,29.4-29.4,29.4s-29.4-13.1-29.4-29.4
		S626.3,1359.1,642.5,1359.1z"/>
	<path id="Line-Body-L4" class="st16" d="M642.5,1378.8c5.4,0,9.7,4.3,9.7,9.7s-4.3,9.7-9.7,9.7s-9.7-4.3-9.7-9.7
		S637.1,1378.8,642.5,1378.8z"/>
	<path id="Line-BodyR6" class="st16" d="M1467,1438h-245"/>
	<path id="Line-BodyR5" class="st16" d="M1469,1408h-39"/>
	<path id="Line-BodyR4" class="st16" d="M1433.8,1436c0-97.6,20.2-685.4,6.3-845.3c-13.8-158.9-52.9-365.2-90.3-482.2"/>
	<path id="Line-BodyR3" class="st16" d="M1277.5,1378.7c5.4,0,9.8,4.4,9.8,9.8s-4.4,9.8-9.8,9.8s-9.8-4.4-9.8-9.8
		S1272.1,1378.7,1277.5,1378.7z"/>
	<path id="Line-BodyR2" class="st16" d="M1278.5,1359c16.3,0,29.5,13.2,29.5,29.5s-13.2,29.5-29.5,29.5s-29.5-13.2-29.5-29.5
		S1262.2,1359,1278.5,1359z"/>
	<path id="Line-Body-L3" class="st16" d="M488,1436c0-97.6-20.3-685.2-6.3-845c13.9-158.8,52.9-365.1,90.4-482.1"/>
	<path id="L-Body30" class="st16" d="M523,783c-1.3-84.3,1.9-199.7,10.8-272.6c2.1-17.1,3.6-31.3,5.2-43.4c22.2,0.2,68,0,68,0
		s-8.6,304.2-8.6,316c0,11.8-12.3,120-33.4,120C546.3,903.1,523,796.2,523,783z"/>
	<path id="L-Body32" class="st16" d="M538,492h67"/>
	<path id="L-Body31" class="st16" d="M524,783h74"/>
	<path id="L-Body33" class="st16" d="M1396.7,783c1.3-84.3-1.9-199.6-10.8-272.6c-2.1-17.1-3.6-31.3-5.2-43.4
		c-22.1,0.2-67.8,0-67.8,0s0,304.1,0,316c-0.1,11.8,20.8,120,41.8,120C1373.5,903,1396.7,796.2,1396.7,783z"/>
	<path id="L-Body35" class="st16" d="M1381.8,492H1315"/>
	<path id="L-Body34" class="st16" d="M1395.7,783H1313"/>
	<path id="Line-Body-L2" class="st16" d="M450,1408h39"/>
	<path id="Line-Body2" class="st16" d="M746.4,1659.8c27.9-14.1,61.2-20.3,94.8-27 M1079.7,1633c46.9,10,79.1,20.6,95.5,27.7"/>
	<path id="Line-Body3" class="st16" d="M769,1648c-10.8-27.9-17.4-53.9-19-63c10.6-3.8,15-5,15-5s10.6,43.2,22,64 M825,1637
		c-7.3-22.6-12.7-54.5-15-66c12.9-2.1,18-3,18-3s10.7,56.6,13,65"/>
	<path id="Line-Body3_copy" class="st16" d="M1153,1648c10.8-27.9,17.4-53.9,19-63c-10.6-3.8-15-5-15-5s-10.6,43.2-22,64 M1097,1637
		c7.3-22.6,12.7-54.5,15-66c-12.9-2.1-18-3-18-3s-10.7,56.6-13,65"/>
	<path id="Line-BlackHole4" class="st16" d="M851,1419c-34-28.6-97-86.3-97-179s62.2-150,99-170"/>
	<path id="Line-BlackHole3" class="st16" d="M1069.4,1419.2c33.9-28.6,96.7-86.2,96.7-178.9c0-92.7-62-149.9-98.7-169.9"/>
	<path id="Line-BlackHole2" class="st16" d="M851,1438c-62.5-45.4-112-112.3-112-205s70.7-158.1,112-178"/>
	<path id="Shape_1" class="st16" d="M852,1056c-58,23.3-121.1,73.5-135.5,127"/>
	<path id="Shape_1_copy" class="st16" d="M1069,1056c57.8,23.3,120.7,73.5,135,127"/>
	<path id="Line-BlackHole" class="st16" d="M1070,1438c62.6-45.4,112-112.3,112-205s-70.7-158.1-112-178"/>
	<path id="Line-Body-L" class="st16" d="M648,86c-18.5,796.1,41.8,1271.8,48,1353c0.6,0.1,1.2,0.6,1.2-0.1
		c8.9-80.5,44.8-657.3,46.8-690.9"/>
	<path id="Line-Body12" class="st16" d="M669,406l64.7-10l-1,15L669,421V406z M669,446l62.7-10l-1,15L669,461V446z M669,486l60.7-10
		l-1,15L669,501V486z M1253,406l-64.6-10l1,15l63.7,10V406z M1253,446l-62.7-10l1,15l61.7,10V446z M1253,486l-60.7-10l1,15l59.7,10
		V486z"/>
	<path id="Line-BodyR" class="st16" d="M1272.5,86.1c18.6,795.9-42,1271.5-48.2,1352.6c-0.6,0.1-1.2,0.6-1.2-0.1
		c-9-80.5-45-657.1-47-690.7"/>
	<path id="Line-Radar9" class="st16" d="M805.5,84C868.7,84,920,135.3,920,198.5S868.7,313,805.5,313S691,261.7,691,198.5
		S742.3,84,805.5,84z"/>
	<path id="Line-Radar8" class="st16" d="M805.5,107c50.5,0,91.5,41,91.5,91.5S856,290,805.5,290S714,249,714,198.5
		S755,107,805.5,107z"/>
	<path id="Line-Radar4" class="st16" d="M740,169l29,9l38-25l37,25l28-11"/>
	<path id="Line-Radar7" class="st16" d="M778,259c-5.4-2.1-26-18,30-18s31.2,17.1,28,18"/>
	<path id="Line-Radar6" class="st16" d="M866,257l8-90l-68-51l-69,52l9,89c0,0,19.9,0,26,0c14.5,6.8,56.8,6.1,68,0
		C855.8,257,866,257,866,257z"/>
	<path id="Line-Radar5" class="st16" d="M807,154l-1-36"/>
	<path id="Line-Radar" class="st16" d="M843,180l-3,46h-67l-3-46"/>
	<path id="Line-Radar2" class="st16" d="M841,227l25,29"/>
	<path id="Line-Radar3" class="st16" d="M771,228l-23,27"/>
	<path id="Line-Gun6" class="st16" d="M901,1638h115v31H901V1638z M901,1718h115v31H901V1718z"/>
	<path id="Line-Gun5" class="st16" d="M1079,1816v-237l-19-47l-6-1l4-82l9,8l10-305l-12,10l2-128l16-33l-1-249H838l-1,249l16,33
		l2,128l-12-10l10,305l9-8l4,82l-6,1l-19,47v237H1079z"/>
	<path id="Line-Gun4" class="st16" d="M842,1579h237"/>
	<path id="Line-Gun3" class="st16" d="M868,1531h186"/>
	<path id="Line-Body4" class="st16" d="M837,988l-16-1l4-258h270l5,265h-16"/>
	<path id="Line-Body10" class="st16" d="M819,988l-74-230l20-437"/>
	<path id="Line-Body6" class="st16" d="M841,308c0.2,2.7-9,196-9,196l38,96h183l36-96l-19-382H890"/>
	<path id="Line-Body14" class="st16" d="M810.8,82.5C802,70.4,790,54,790,54"/>
	<path id="Line-Body15" class="st16" d="M782,86l4-34"/>
	<path id="Line-Body13" class="st16" d="M1069,124l58-71"/>
	<path id="Line-Body11" class="st16" d="M1131,52c9,29.6,47.1,601.2,45,694c-21.6,71.8-75,251-75,251"/>
	<path id="Line-Body5" class="st16" d="M756,534l69,196l45-133"/>
	<path id="Line-Body8" class="st16" d="M1164.3,533.7l-68.7,196l-44.8-133"/>
	<path id="Line-Body7" class="st16" d="M832,507l-76,30"/>
	<path id="Line-Body9" class="st16" d="M1090.8,506.6l76.3,29.8"/>
	<path id="Line-Radar10" class="st16" d="M788,312c-14,2.3-26,9-26,9s-90-25.5-90-121S744.1,84,814,84"/>
	<path id="Line-Gun2" class="st16" d="M838,1001l245,1"/>
	<path id="Line-Gun" class="st16" d="M854,1034h213"/>
	<path id="Line-Gun7" class="st16" d="M855,1162l79,65v163l-74,60"/>
	<path id="Line-Gun8" class="st16" d="M1066,1162l-79,65v163l74,60"/>
</g>
<g id="Animation">
	<path id="GunS-2" class="st5" d="M961,375h70l-5,316l-30,21l-31-21L961,375z"/>
	<path id="Paint-Gun" class="st11" d="M965,689l60,1l4-234c0,0-67.7-1.1-67-1S965,689,965,689z M1041,396c0,0,20.4-17.9,24-24
		c-3.8-9.5-6-14-6-14s6.2-45.4,0-62c6.6-10.4,8-12,8-12s-18.4-40-71-40s-70,41-70,41l11,12c0,0-7.7,34.1-1,59c-4.8,10.2-7,20-7,20
		l23,20l9-6l1-14l69-2v18L1041,396z"/>
	
		<radialGradient id="GunS-3_1_" cx="996.5" cy="1593.5" r="82.5" gradientTransform="matrix(1 0 0 -1 0 1920)" gradientUnits="userSpaceOnUse">
		<stop  offset="0.251" style="stop-color:#000000;stop-opacity:0"/>
		<stop  offset="1" style="stop-color:#000000"/>
	</radialGradient>
	<path id="GunS-3" class="st17" d="M996.5,244c45.6,0,82.5,36.9,82.5,82.5s-36.9,82.5-82.5,82.5c-45.6,0-82.5-36.9-82.5-82.5
		S950.9,244,996.5,244z"/>
	<path id="Line-S-Gun6" class="st18" d="M996.5,244c45.6,0,82.5,36.9,82.5,82.5s-36.9,82.5-82.5,82.5c-45.6,0-82.5-36.9-82.5-82.5
		S950.9,244,996.5,244z"/>
	<path id="Line-S-Gun5" class="st16" d="M927,282l8,14c0,0-7.5,19.6,0,60c-3.4,10-7,18-7,18"/>
	<path id="Line-S-Gun4" class="st16" d="M1066.6,282.5l-8.1,14.1c0,0,7.6,19.7,0,60.3c3.5,10.1,7.1,18.1,7.1,18.1"/>
	<path id="GunS-Shadow3" class="st8" d="M962,431l70,1v11l-70-1V431z M962,417h69l-1-12l-67-1L962,417z"/>
	
		<linearGradient id="GunS-Shadow2_1_" gradientUnits="userSpaceOnUse" x1="996" y1="1528" x2="996" y2="1546" gradientTransform="matrix(1 0 0 -1 0 1920)">
		<stop  offset="0" style="stop-color:#000000"/>
		<stop  offset="1" style="stop-color:#FFFFFF"/>
	</linearGradient>
	<path id="GunS-Shadow2" class="st19" d="M963,392l66-1l-1-16l-65-1V392z"/>
	<path id="GunS-Shadow" class="st20" d="M966,689l58,2l-29,23L966,689z"/>
	<path id="Line-S-Gun3" class="st18" d="M961,375h70l-5,316l-30,21l-31-21L961,375z"/>
	<path id="Line-S-Gun2" class="st18" d="M964,689h61"/>
	<path id="GunS" class="st5" d="M952,392h88v12h-88V392z M952,417h88v12h-88V417z M952,442h88v12h-88V442z"/>
	<path id="Line-S-Gun" class="st18" d="M952,392h88v12h-88V392z M952,417h88v12h-88V417z M952,442h88v12h-88V442z"/>
	<circle id="Animation-Coordinates" class="st21" cx="996.5" cy="326.5" r="0.5"/>
</g>
</svg>
