<?xml version="1.0" encoding="utf-8"?>
<!-- Generator: Adobe Illustrator 22.0.0, SVG Export Plug-In . SVG Version: 6.00 Build 0)  -->
<svg version="1.1" id="Слой_1" xmlns="http://www.w3.org/2000/svg" xmlns:xlink="http://www.w3.org/1999/xlink" x="0px" y="0px"
	 viewBox="0 0 1920 1920" style="enable-background:new 0 0 1920 1920;" xml:space="preserve">
<style type="text/css">
	.st0{fill:#F2F2F2;}
	.st1{fill:#A800A8;}
	.st2{fill:#6E1370;}
	.st3{opacity:0.302;fill:url(#Engine-Shadow-L_1_);enable-background:new    ;}
	.st4{opacity:0.302;fill:url(#Engine-Shadow-R_1_);enable-background:new    ;}
	.st5{fill:url(#Body-Fill_1_);}
	.st6{fill:url(#Body-Light_1_);}
	.st7{fill:#DADADA;}
	.st8{fill:#CCCCCC;}
	.st9{fill:url(#Wing-Shadow-R_1_);}
	.st10{fill:url(#Wing-Shadow-L_1_);}
	.st11{fill:url(#Glass_1_);}
	.st12{opacity:0.102;enable-background:new    ;}
	.st13{opacity:0.2;enable-background:new    ;}
	.st14{fill:none;stroke:#1A1A1A;stroke-width:10;}
</style>
<title>Flying fortress TOP</title>
<g id="Fill">
	<path id="Fill-All" class="st0" d="M24.2,1872c36.1,0,307.8-404.3,355.9-421.1c16.3,32.4,31,62.1,31,62.1l147.7-1.5l-5.9-62
		c0,0,194.5,12.9,305.7,184.7c23,119.9,49.8,192.1,101.9,192.1c64.6,0,87.3-119.5,101.9-196.5c24.6-41.6,118.6-160.1,304.2-178.8
		c-1.3,27.7-3,60.6-3,60.6h149.2l29.5-62c0,0,55.2,57.8,116.7,135.6c96.3,121.8,217.2,284,234.8,284c16.7,3.7,16.7-108.3,16.2-225
		c-0.6-132.3-15.7-221.3-34-267s-59.6-143.5-111-246c-99.1-219.9-206.4-417.4-206.4-417.4s-1.3-165.4-1.6-177.6c-17.4-0.7-57-2-57-2
		s-39.5,32.9-47,42c0.6,6-2.3,10.9-3.1,19.5c-49.9-57.5-182.2-211.4-182.2-211.4l-42.8-180.3L1107,204l-13.6,54.5
		c0,0-46.2-12.3-78.3-25.1c-5.8-27-31-206.9-31-206.9h-48.7l-28.1,206.9L832,258.5L815,201l-114.4,2.8l-44.3,177.3L473.2,589.4
		c0,0-0.3-6-0.7-15.6c-15.1-13.6-39.7-32.7-46.5-37.5c-21.4-0.3-52.6-0.5-64.4,0.6c-0.3,53.6-0.6,118.1-0.6,176.7
		C297.7,814,129.1,1182,129.1,1182S10.9,1392.2,10.9,1535.1C10.9,1678-0.1,1872,24.2,1872z"/>
	<path id="Paint" class="st1" d="M497.4,1283.2c-7.4-50.7-13.9-104.4-16.4-147.2c61.3-46.5,192.4-147.7,311-188
		c0.1,43.4,7.9,177.8,15.4,274.7C773.1,1224,661.3,1225.6,497.4,1283.2z M500.9,1306.7c10.6,68.7,21.8,127.4,25.1,138.3
		c216.1,19.9,306,153.2,331,182c-1.3-11.5-33.2-247.9-42-322c-1.6-13.7-3.4-32.4-5.3-54.3c-18.8,0.2-139.6,11.4-173.7,21.3
		S526.7,1297.6,500.9,1306.7z M1422.6,1283.2c7.4-50.7,13.9-104.4,16.4-147.2c-61.3-46.5-192.4-147.7-311-188
		c-0.1,43.4-7.9,177.8-15.4,274.7C1146.9,1224,1258.7,1225.6,1422.6,1283.2z M1419.1,1306.7c-10.5,68.7-21.8,127.4-25.1,138.3
		c-216.1,19.9-306,153.2-331,182c1.3-11.5,33.2-247.9,42-322c1.6-13.7,3.4-32.4,5.3-54.3c18.8,0.2,139.6,11.4,173.7,21.3
		S1393.3,1297.6,1419.1,1306.7z"/>
	<path id="Paint-Dark" class="st2" d="M810.5,691.4c12.9-56.8,32-92.3,50.5-129.4c11.2-22.5,29.4-35.4,47.3-42.9
		c-8.8-106.5-21.8-180.2-31.4-225.2C841.6,308,774.9,353.1,665,461S484.1,678.3,445.1,722.3c2.1,89,18.2,250.6,28.1,343.3
		c23.4-18.2,46-34.6,67.6-49.6c2.1-20.9,19.7-142.2,39.2-191C619.1,792,673,742.1,810.5,691.4z M773,734
		c-59.5,28.4-135.4,80.2-164,107c-12.7,21.9-30.7,124-34.1,152.1c112.7-73.2,192.5-101.5,217.6-110.7c0.6-38.2,2.6-87.7,8.4-135.4
		c1-8.6,2.2-16.9,3.5-24.7C795,726.6,784.5,730.4,773,734z M1042.6,291.7c-14.1,71.5-28.1,203-29.9,232.4
		c60.6,35.9,85,126.2,92.8,165.7c94,27.9,207.2,108.4,237.5,134.2c20.1,62.8,33.6,161.9,38,194c10.1,7,41.6,33.2,64.4,47.4
		c10.7-107.8,26.6-296,26.6-327.4c0-6.3,0.1-12.8,0.2-19.6C1428.2,663,1360.6,569.9,1324,531S1152.8,343.4,1042.6,291.7z M1111,720
		c19.1,5.2,161.2,77.8,201,121c16.6,57.7,29.7,128.9,31,151c-24.1-17.7-161.2-93.4-215-110C1124.7,834.3,1119.1,756.2,1111,720z"/>
	
		<linearGradient id="Engine-Shadow-L_1_" gradientUnits="userSpaceOnUse" x1="656.2714" y1="1627.9081" x2="829.2513" y2="1630.9271" gradientTransform="matrix(1 0 0 -1 0 1920)">
		<stop  offset="0" style="stop-color:#000004"/>
		<stop  offset="0.5" style="stop-color:#000000;stop-opacity:0"/>
		<stop  offset="1" style="stop-color:#000004"/>
	</linearGradient>
	<path id="Engine-Shadow-L" class="st3" d="M700.6,200.8L816,201c0,0,3.9,22.5,13.3,59.7c-95.8,49.7-173,121.8-173,121.8
		L700.6,200.8z"/>
	
		<linearGradient id="Engine-Shadow-R_1_" gradientUnits="userSpaceOnUse" x1="1091.0023" y1="1626.5762" x2="1263.2373" y2="1629.5822" gradientTransform="matrix(1 0 0 -1 0 1920)">
		<stop  offset="0" style="stop-color:#000004"/>
		<stop  offset="0.5" style="stop-color:#000000;stop-opacity:0"/>
		<stop  offset="1" style="stop-color:#000004"/>
	</linearGradient>
	<path id="Engine-Shadow-R" class="st4" d="M1106,201l114.4,1.3l42.8,180.3c0,0-43.8-39.7-88.2-71.6c-41.7-29.9-84-52-84-52
		L1106,201z"/>
	
		<linearGradient id="Body-Fill_1_" gradientUnits="userSpaceOnUse" x1="792.1521" y1="749.1425" x2="1127.426" y2="754.9955" gradientTransform="matrix(1 0 0 -1 0 1920)">
		<stop  offset="0" style="stop-color:#8495B0"/>
		<stop  offset="0.399" style="stop-color:#DAE3F2"/>
		<stop  offset="0.604" style="stop-color:#DAE3F2"/>
		<stop  offset="1" style="stop-color:#8495B0"/>
	</linearGradient>
	<path id="Body-Fill" class="st5" d="M960.5,509.6c-32.8,0-96.2,26-121.1,88.7c-24.9,62.6-47.3,215.2-47.3,277.8
		s9.7,247.7,16.3,344.3c6.5,96.6,32.3,325.1,50.2,407.8c17.9,82.7,39.2,198,101.9,198s94.7-128.9,104.8-196.5
		c7.6-50.9,44.1-336.5,48.7-401.9c4.6-65.4,13.3-269.1,13.3-350.2c0-81.1-27.1-252.2-56.1-295.5
		C1034.7,531.2,993.4,509.6,960.5,509.6z"/>
	
		<linearGradient id="Body-Light_1_" gradientUnits="userSpaceOnUse" x1="792.1521" y1="749.1425" x2="1127.426" y2="754.9955" gradientTransform="matrix(1 0 0 -1 0 1920)">
		<stop  offset="0" style="stop-color:#8495B0"/>
		<stop  offset="0.399" style="stop-color:#DAE3F2"/>
		<stop  offset="0.604" style="stop-color:#DAE3F2"/>
		<stop  offset="1" style="stop-color:#8495B0"/>
	</linearGradient>
	<path id="Body-Light" class="st6" d="M960.5,509.6c-32.8,0-96.2,26-121.1,88.7c-24.9,62.6-47.3,215.2-47.3,277.8
		s9.7,247.7,16.3,344.3c6.5,96.6,32.3,325.1,50.2,407.8c17.9,82.7,39.2,198,101.9,198s94.7-128.9,104.8-196.5
		c7.6-50.9,44.1-336.5,48.7-401.9c4.6-65.4,13.3-269.1,13.3-350.2c0-81.1-27.1-252.2-56.1-295.5
		C1034.7,531.2,993.4,509.6,960.5,509.6z"/>
	<path id="Tail-Shadow2" class="st7" d="M935.4,316.1h45.8l-3,161.1h-35.4L935.4,316.1z"/>
	<path id="Tail-Shadow" class="st8" d="M984.1,457.9l25.1-226.1L985.6,47.2l-14.8,268.9L984.1,457.9z M935.4,457.9l-23.6-230.5
		l22.1-178.8l13.3,263L935.4,457.9z"/>
	
		<linearGradient id="Wing-Shadow-R_1_" gradientUnits="userSpaceOnUse" x1="1353.4934" y1="462.0081" x2="1392.5654" y2="434.953" gradientTransform="matrix(1 0 0 -1 0 1920)">
		<stop  offset="0" style="stop-color:#000000"/>
		<stop  offset="1" style="stop-color:#FFFFFF;stop-opacity:0"/>
	</linearGradient>
	<path id="Wing-Shadow-R" class="st9" d="M1399,1442c0,0,0.2,14.8,0,22c-0.3,12.9-39,46-39,46l5-62L1399,1442z"/>
	
		<linearGradient id="Wing-Shadow-L_1_" gradientUnits="userSpaceOnUse" x1="562.3961" y1="479.0171" x2="526.946" y2="441.201" gradientTransform="matrix(1 0 0 -1 0 1920)">
		<stop  offset="0" style="stop-color:#000000"/>
		<stop  offset="1" style="stop-color:#FFFFFF;stop-opacity:0"/>
	</linearGradient>
	<path id="Wing-Shadow-L" class="st10" d="M522.7,1448.9c0,0-3,11.8,3,20.7c7.4,10.8,24.1,19.2,24.1,19.2l7.5-39.9H522.7z"/>
	
		<linearGradient id="Glass_1_" gradientUnits="userSpaceOnUse" x1="873.4521" y1="469.3735" x2="1050.4449" y2="472.4625" gradientTransform="matrix(1 0 0 -1 0 1920)">
		<stop  offset="9.200000e-02" style="stop-color:#333333"/>
		<stop  offset="0.174" style="stop-color:#676767"/>
		<stop  offset="0.286" style="stop-color:#B3B3B3"/>
		<stop  offset="0.355" style="stop-color:#E5E5E5"/>
		<stop  offset="0.428" style="stop-color:#B3B3B3"/>
		<stop  offset="0.497" style="stop-color:#B3B3B3"/>
		<stop  offset="0.731" style="stop-color:#666666"/>
		<stop  offset="0.866" style="stop-color:#333333"/>
	</linearGradient>
	<path id="Glass" class="st11" d="M948.6,1644.1v-389.3c0,0-21.2-6.2-58.9,26.2c-0.8,1.9-7,44.7-16.2,121.7
		c15.1,90.1,30.2,184.2,43.5,233.4c2.2,2.7,3.9,4.6,6.7,6.8C940.4,1643.1,948.6,1644.1,948.6,1644.1z M975.7,1643.9v-388.6
		c0,0,21.1-6.2,58.7,26.1c0.8,1.9,6.9,44.6,16.2,121.5c-15.1,89.9-30.1,183.9-43.4,233c-2.2,2.7-3.8,4.6-6.7,6.8
		C982.6,1642.8,975.7,1643.9,975.7,1643.9z"/>
	<path id="Shape-Cabin-L" class="st8" d="M802.5,1093.3c7.2-15.1,31-82.7,31-82.7s0-181.5,0-233.5c-12.6-11.5-14.7-22-25.1-41.4
		c-10.2-19-17.6,194.6-8.9,357.6C801.4,1093.2,801.3,1093.7,802.5,1093.3z"/>
	<path id="Shape-Cabin-R" class="st8" d="M1118.9,1093.1c-7.3-15.1-31.3-82.7-31.3-82.7s0-181.5,0-233.5
		c12.7-11.5,14.8-22,25.4-41.4c10.3-19,17.8,194.7,9,357.6C1120,1093,1120.1,1093.4,1118.9,1093.1z"/>
	<path id="Line-Wing" class="st12" d="M455,616.5c-38.1,111.4,58.7,792.7,72,829.5c15.4,3.2,26,4,26,4l6,61l-149,2l-55-126h96
		c0,0-18.9-594.8-26-851c14.2,11.2,36.6,32,45,40c0.4,8.1,2,16,2,16C471.8,592.1,453.4,607.8,455,616.5z M1566,1386l-56,126l-149-2
		l5-59c0,0,13.6-4.8,29-8c11-30.3,79.1-525.9,76-755c-0.7-48.6,1-72.3-19-89c0.3-8.8-1.8-20.4,3-24c5.3-4,26.2-36,44-36
		c-2.8,36.2-27,848-27,848L1566,1386z"/>
	<path id="Body-Shadow99" class="st13" d="M1509,1515l55-126l-93-1l-108,125L1509,1515z M558,1510l-109-122l-92,1l55,126L558,1510z"
		/>
</g>
<g id="Line">
	<path id="L-Body20" class="st14" d="M10.4,1658c55.6-61.2,184.7-258.6,346.6-411.6"/>
	<path id="L-Body19" class="st14" d="M102,1540c0-41-11.2-183,11.3-322.6"/>
	<path id="L-Body18" class="st14" d="M1818.3,1535.1c0.7-46.5,10.3-183-11.3-317.3"/>
	<path id="L-Body17" class="st14" d="M136,1170c0,0-2.6,16.8-2.7,17.4C110.8,1327,122,1469,122,1510c0,4.4,0,6,0,6"/>
	<path id="L-Body16" class="st14" d="M1782,1170c0,0,2.6,16.8,2.7,17.4c22,135.2,12.1,272.7,11.5,318.5"/>
	<path id="Line-Tail2" class="st14" d="M982.7,26.5l-11.8,289.6h-23.6L935.4,26.5"/>
	<path id="Line-Tail" class="st14" d="M970.8,311.6l5.9,170.5h-34l4.4-170.5"/>
	<path id="L-Body15" class="st14" d="M866,247c0,0,15.3,57.6,25,124c10.3,69.8,17,150,17,150"/>
	<path id="L-Body14" class="st14" d="M877,293c-74,29.5-251.1,179.3-431,433"/>
	<path id="L-Body13" class="st14" d="M1043.8,292.7c73.5,29.4,248.9,177.6,427.7,428.7"/>
	<path id="L-Body12" class="st14" d="M1055.1,247.3c0,0-15.3,57.7-25.1,124.1c-10.3,69.9-17.1,150.2-17.1,150.2"/>
	<path id="Shape_1" class="st14" d="M942.8,487.5l-36.9-255.6"/>
	<path id="Shape_1_copy" class="st14" d="M976.8,487.5l36.9-255.6"/>
	<path id="Line-Cabin" class="st14" d="M861.6,1651.8c-35.7-261.9-180.1-1142.2,96-1142.2c292.1,0,123.3,982.8,102.9,1128.9"/>
	<path id="L-Body11" class="st14" d="M812.1,692c-55.4,13.3-172.5,77.4-232.1,132c-34.5,105.8-38,194-38,194"/>
	<path id="L-Body10" class="st14" d="M1109.2,691.9c55.4,13.3,172.4,77.4,231.9,132c34.5,105.8,38,194,38,194"/>
	<path id="L-Body9" class="st14" d="M805.9,720.7C745.4,745,655.8,795.2,607,840c-20.2,61.8-28.4,118.6-33.5,154.3"/>
	<path id="L-Body8" class="st14" d="M1112.9,720.7c60.4,24.3,150,74.5,198.8,119.3c20.2,61.8,28.4,118.6,33.4,154.4"/>
	<path id="Line-Glass" class="st14" d="M948.6,1644.1v-389.3c0,0-21.2-6.2-58.9,26.2c-0.8,1.9-7,44.7-16.2,121.7
		c15.1,90.1,30.2,184.2,43.5,233.4c2.2,2.7,3.9,4.6,6.7,6.8C940.4,1643.1,948.6,1644.1,948.6,1644.1z M975.7,1643.9v-388.6
		c0,0,21.1-6.2,58.7,26.1c0.8,1.9,6.9,44.6,16.2,121.5c-15.1,89.9-30.1,183.9-43.4,233c-2.2,2.7-3.8,4.6-6.7,6.8
		C982.6,1642.8,975.7,1643.9,975.7,1643.9z"/>
	<path id="Line-Wing-R2" class="st14" d="M1567.5,1387.3h-95.8l26.5-815.4l0.8-34.9"/>
	<path id="L-Engine4" class="st14" d="M1471.5,1387.3L1366.6,1507"/>
	<path id="Line-Wing-L3" class="st14" d="M409.7,1511.5L355,1388.8l5.9-852.6h70.9"/>
	<path id="Line-Wing-L3_copy" class="st14" d="M1511.2,1511l54.8-122.6l-5.9-852.4H1495"/>
	<path id="Line-Wing-L2" class="st14" d="M424.4,533.3l26.6,854.1h-96"/>
	<path id="Line-Wing-L2_copy" class="st14" d="M469.7,593.8c0-9.4-1-19.1-1-19.1l-42.8-39.9"/>
	<path id="Line-Wing-L2_copy_2" class="st14" d="M1451,594c0-9.4,1-19.2,1-19.2l45.7-40.1"/>
	<path id="Line-Wing-L" class="st14" d="M448.1,1385.9l109.3,119.7"/>
	<path id="Line-Body13" class="st14" d="M1077.2,256c72.3,29,167.3,102.1,200.8,141.3"/>
	<path id="Line-Body12" class="st14" d="M845.5,253.5C773,282.5,677.8,357.7,644.2,397"/>
	<path id="L-Body7" class="st14" d="M484.1,1134.5c98.3-79.5,203.6-148,308.9-186.2"/>
	<path id="L-Body6" class="st14" d="M474.1,1066.5c98.3-79.5,213.6-148,318.9-186.2"/>
	<path id="L-Body5" class="st14" d="M1444.8,1067.1c-98.3-79.6-213.8-148.2-319.1-186.4"/>
	<path id="L-Body4" class="st14" d="M1909.2,1654.1c-57-64.5-184.4-257.8-343.5-408.3"/>
	<path id="L-Body3" class="st14" d="M1438.6,1134.1c-98.2-79.5-203.4-147.9-308.7-186.1"/>
	<path id="Line-Body9" class="st14" d="M557.3,1450.9c-10.7-1.5-31-5.9-31-5.9s-0.1-0.9-0.4-2.6c-14.9-10.3-106.7-774.7-70.5-826.4"
		/>
	<path id="L-Body2" class="st14" d="M499,1283c36.4-14,165.8-59.8,308-60 M811,1249.9c-122.6,5.6-218.3,29.2-309,57"/>
	<path id="L-Body" class="st14" d="M1422.2,1283.2c-36.4-14.1-165.8-60-308-60.2 M1110.2,1250c122.6,5.7,218.3,29.3,309,57.2"/>
	<path id="Line-Body8" class="st14" d="M1363.2,1451c10.7-1.5,30.9-5.9,30.9-5.9s0.1-0.9,0.4-2.6c14.8-10.3,104.6-779.9,68.5-831.6"
		/>
	<path id="Line-All_copy" class="st14" d="M359.2,716.4c-65.4,104.4-293.6,607.4-293.6,607.4s-53.2,103.8-53.2,246.8
		c0,142.9-12.5,301.4,11.8,301.4c36.1,0,307.8-404.3,355.9-421.1c16.3,32.4,31,62.1,31,62.1l147.7-1.5l-5.9-62
		c0,0,194.5,12.9,305.7,184.7c21.5,112.3,46.5,182.8,92.4,191.2c3.1,0.6,15,0.6,18,0c45.9-8.4,70.8-78.9,92.4-191.2
		c111.2-171.8,305.8-184.7,305.8-184.7l-5.9,62l147.7,1.5c0,0,14.8-29.6,31-62.1c48.2,16.8,319.9,421.1,356,421.1
		c24.4,0,11.8-158.5,11.8-301.4c0-142.9-53.2-246.8-53.2-246.8S1626.4,820.8,1561,716.4 M451,624.9c1.8-6.3,7.4-16.3,7.4-16.3
		l197.9-227.6l44.3-180.3h114.8l15.1,59.1l75.3-26.6L935.4,25h49.2l29.5,208.3l75.3,26.6l15.1-59.1h114.9l44.3,180.3l197.9,227.6
		c0,0,5.6,10,7.4,16.3"/>
	<path id="L-Engine5" class="st14" d="M690.2,245.2h134.5"/>
	<path id="L-Engine30" class="st14" d="M1093.2,245.2h137.5"/>
	<path id="L-Engine3" class="st14" d="M400.8,1483.4l134-1.5"/>
	<path id="L-Engine2" class="st14" d="M386,1453.8l119.6-1.5"/>
	<path id="L-Engine" class="st14" d="M371.3,1424.3l109.3-1.5"/>
	<path id="L-Engine303" class="st14" d="M1521.6,1483.4l-129.8-1.5"/>
	<path id="L-Engine32" class="st14" d="M1536.4,1453.8l-119.5-1.5"/>
	<path id="L-Engine31" class="st14" d="M1551.1,1424.3l-109.2-1.5"/>
</g>
<path id="Shape-Cabin-R_copy" class="st14" d="M1121.9,1098.1c-1.6-1.7-2.8-4.5-3-5c-7.3-15.1-31.3-82.7-31.3-82.7s0-181.5,0-233.5
	c12.7-11.5,14.8-22,25.4-41.4"/>
<path id="Shape-Cabin-L_copy" class="st14" d="M799.5,1097.3c1.3-1.5,1.8-3.6,3-4c7.2-15.1,31-82.7,31-82.7s0-181.5,0-233.5
	c-12.6-11.5-18.1-24.8-28.5-44.1"/>
</svg>
