<?xml version="1.0" encoding="utf-8"?>
<!-- Generator: Adobe Illustrator 22.0.0, SVG Export Plug-In . SVG Version: 6.00 Build 0)  -->
<svg version="1.1" id="Слой_1" xmlns="http://www.w3.org/2000/svg" xmlns:xlink="http://www.w3.org/1999/xlink" x="0px" y="0px"
	 viewBox="0 0 1920 1920" style="enable-background:new 0 0 1920 1920;" xml:space="preserve">
<style type="text/css">
	.st0{fill:#F1F1F1;}
	.st1{fill:url(#Ellipse_3_copy_5_1_);}
	.st2{fill:url(#Body-Shadow3_1_);}
	.st3{fill:url(#Body-Shadow2_1_);}
	.st4{fill:url(#Body-Shadow_1_);}
	.st5{fill:#D9D9D9;}
	.st6{fill:#A800A8;}
	.st7{fill:#6E1370;}
	.st8{fill:url(#Motor-Shadow-L_1_);}
	.st9{fill:url(#Motor-Shadow-R_1_);}
	.st10{fill:url(#Body-Fill_1_);}
	.st11{fill:url(#Cabin-Fill_1_);}
	.st12{fill:none;stroke:#1A1A1A;stroke-width:5;}
	.st13{fill:#D9D9D9;stroke:#1A1A1A;stroke-width:5;}
	.st14{fill:#F1F1F1;stroke:#1A1A1A;stroke-width:5;}
	.st15{fill:#949494;}
	.st16{fill:#20FF00;}
	.st17{fill:#00FF18;}
	.st18{fill:#00FF00;}
</style>
<title>Carrier TOP</title>
<path id="Ellipse_3" class="st0" d="M1558.6,1589.2c94.1-19.3,184.6-35.5,184.6,7.8c0,61-160.5,308.1-293.8,308.1
	c-113,0-120.1-111.8-218.4-111.8c-98.3,0-213.2,27.3-270.4,27.3c-57.2,0-221.1-28.6-284.7-28.6c-63.6,0-114.4,113.1-210.6,113.1
	c-102.9,0-292.5-232.7-292.5-304.2c0.8-48.9,145.6-16.2,197.6-7.8c284.1,26.8,376.4-165.8,367.9-397.8
	c0-223.4-128.3-400.1-401.7-383.5c-71.2,0-130.3,22.1-165.1,22.1c-34.8,0-56.2-53-46.8-118.3c52.5-387.8,251.9-551.9,431.6-621.4
	c1.3-0.3-1.3-62,0-62.4c27.6-13.6,87.4-31.4,144.3-3.9c1.4-0.2,1.2,22.3,2.6,22.1C760.3,34,899,26.6,960.6,26.6
	c49.9,0,189.6,9,257.4,23.4c0.1-3.7,0.9-15,1.3-20.8c89.8-36.7,144.3,3.9,144.3,3.9s2,42.5,1.3,58.5c47.5,23.5,102.8,41,179.4,106.6
	c181.1,155.1,249.6,398.4,249.6,564.2c0,54-35.9,71.5-58.5,71.5c-22.6,0-127.5-22.1-157.3-22.1c-87.4-4-414.9-10.5-400.4,439.4
	C1177.5,1254.3,1159.8,1653.2,1558.6,1589.2z M1177.7,1251.2C1177.7,1251.2,1177.7,1251.2,1177.7,1251.2L1177.7,1251.2z
	 M753.9,341.2c0,112.7,91.4,204.1,204.1,204.1s204.1-91.4,204.1-204.1c0-112.7-91.4-204.1-204.1-204.1S753.9,228.5,753.9,341.2z"/>
<linearGradient id="Ellipse_3_copy_5_1_" gradientUnits="userSpaceOnUse" x1="464.0312" y1="939.9983" x2="1453.3313" y2="957.2663" gradientTransform="matrix(1 0 0 -1 0 1920)">
	<stop  offset="6.700000e-02" style="stop-color:#F2F2F2"/>
	<stop  offset="0.351" style="stop-color:#D9D9D9"/>
	<stop  offset="0.445" style="stop-color:#F2F2F2"/>
	<stop  offset="0.551" style="stop-color:#F2F2F2"/>
	<stop  offset="0.65" style="stop-color:#D9D9D9"/>
	<stop  offset="0.969" style="stop-color:#F2F2F2"/>
</linearGradient>
<path id="Ellipse_3_copy_5" class="st1" d="M1405.2,111.1v716c-43.8,33.2-242,64.6-228.8,446.9c1.1,132.8,65.1,295.9,276.9,326.9
	c0,157.3,0,245,0,305.5c-102.2,3.4-131.5-106.8-200.2-110.5c-117.4-6.2-187.5,24.3-292.3,25.5c-92.3,0-252.6-38-301.8-25.5
	c-51.8,14.3-112.8,110.5-193.7,110.5c0-80.1-1.3-306.8-1.3-306.8c249.1-15.7,277.4-261.7,276.9-326.3c0-270-81.9-391.9-226.3-445.3
	c0.2-71.5,0.2-110.2,0.3-184.8c4.3-14.3,7.1-30.8,7.6-49.8c0.4-22.9-7.8-34.6-7.8-40.3c0-5.7,0-440.7,0-440.7s141.2-84.5,445.9-84.5
	C1261.1,27.9,1405.2,111.1,1405.2,111.1z M750,341.2c0,114.1,92.5,206.7,206.7,206.7c114.1,0,206.7-92.5,206.7-206.7
	c0-114.1-92.5-206.7-206.7-206.7C842.5,134.6,750,227.1,750,341.2z"/>
<linearGradient id="Body-Shadow3_1_" gradientUnits="userSpaceOnUse" x1="525.1422" y1="1716.2932" x2="1415.6422" y2="1731.8373" gradientTransform="matrix(1 0 0 -1 0 1920)">
	<stop  offset="0" style="stop-color:#F2F2F2;stop-opacity:0"/>
	<stop  offset="0.499" style="stop-color:#F2F2F2"/>
	<stop  offset="1" style="stop-color:#F2F2F2;stop-opacity:0"/>
</linearGradient>
<path id="Body-Shadow3" class="st2" d="M514.7,355.1c0-5.7,0-242.7,0-242.7s141.2-84.5,445.9-84.5c300.5,0,444.6,83.2,444.6,83.2
	s0,43.5,0,245.7c-305.7,0-198.3-226-445.5-239.2C734.9,118,779.3,355.1,514.7,355.1z"/>
<linearGradient id="Body-Shadow2_1_" gradientUnits="userSpaceOnUse" x1="1145.4188" y1="209.5579" x2="850.3408" y2="288.6238" gradientTransform="matrix(1 0 0 -1 0 1920)">
	<stop  offset="9.900000e-02" style="stop-color:#D9D9D9;stop-opacity:0.412"/>
	<stop  offset="0.826" style="stop-color:#FFFFFF"/>
</linearGradient>
<path id="Body-Shadow2" class="st3" d="M960.6,1711.4v109.2c0,0-35.4,0,0.5,0c109.6-11,202.8-26,279.1-26
	c0-29.9-217.1-280.8-217.1-280.8L960.6,1711.4z"/>
<linearGradient id="Body-Shadow_1_" gradientUnits="userSpaceOnUse" x1="769.9902" y1="223.3372" x2="1065.1101" y2="275.3752" gradientTransform="matrix(1 0 0 -1 0 1920)">
	<stop  offset="9.900000e-02" style="stop-color:#DAD9D9;stop-opacity:0.349"/>
	<stop  offset="0.826" style="stop-color:#FFFFFF"/>
</linearGradient>
<path id="Body-Shadow" class="st4" d="M960.6,1711.4v109.2c0,0,35.4,0-0.5,0c-109.6-11-202.9-26-279.1-26
	c0-29.9,217.1-280.8,217.1-280.8L960.6,1711.4z"/>
<path id="Hungar-Shadow" class="st5" d="M1215.4,459.5c64.5,13.3,210.5,95.4,267.8,150.8c17.1,90.8,28.6,157.3,28.6,157.3
	S1440.1,548.4,1215.4,459.5z M1572.9,484.2l146.9,9.1c0,0-267.6-284.3-525.2-214.5C1372.3,315.5,1572.9,484.2,1572.9,484.2z
	 M404.2,775.4c23.7-62.9,103.9-247.2,323.7-325C557,502,472.5,583.9,434.1,611.6C426.2,646.8,409.2,731.4,404.2,775.4z M198.8,493.3
	c198.6-203.2,398-247.4,526.5-214.5c-82,22.4-182.3,47.9-378.3,205.4C309.6,486.5,252.3,490.6,198.8,493.3z"/>
<path id="Paint" class="st6" d="M863.1,830c-21.8-0.5-168,10-244.4,60.7c37.9,36.5,125,125.8,120.9,359.2
	c24.9-13.8,84.1-37.7,110.5-37.7C846,1134.5,832,897.2,863.1,830z M1049.6,826c72,3.5,170,14,246.4,64.7
	c-37.9,36.5-125,125.8-120.9,359.2c-24.9-13.8-84.1-37.7-110.5-37.7C1068.6,1134.5,1080.6,893.2,1049.6,826z"/>
<path id="Paint-Dark" class="st7" d="M1192,280.1c103.6,10.7,320.4,142.2,379.6,205.4c-41.9,58.6-67.4,95.2-88.4,122.2
	c-59.2-43.8-182.5-134.5-306.8-162.5C1194.3,403.2,1205,352.5,1192,280.1z M743.5,446.5c-124.3,28-247.7,118.7-306.8,162.5
	c-21-27-47.9-66.2-89.7-124.8c61-62.1,277.3-192.1,380.9-202.8C714.8,353.8,725.5,404.5,743.5,446.5z M1057.2,139.9
	c111.2,55.5,156.3,190.7,100.8,301.8S967.3,598,856.1,542.5C745,487,699.8,351.9,755.3,240.7C810.9,129.5,946,84.4,1057.2,139.9z
	 M770.7,247.8c-51.2,102.6-9.6,227.3,93,278.5c102.6,51.2,227.3,9.6,278.5-93c51.2-102.6,9.6-227.3-93-278.5
	C946.6,103.6,821.9,145.2,770.7,247.8z"/>
<linearGradient id="Motor-Shadow-L_1_" gradientUnits="userSpaceOnUse" x1="555.9586" y1="1865.1136" x2="702.8586" y2="1867.6776" gradientTransform="matrix(1 0 0 -1 0 1920)">
	<stop  offset="0" style="stop-color:#BFBFBF"/>
	<stop  offset="0.5" style="stop-color:#F1F1F1"/>
	<stop  offset="1" style="stop-color:#BFBFBF"/>
</linearGradient>
<path id="Motor-Shadow-L" class="st8" d="M703.2,51.3V27.9c0,0-79.8-33-146.9,3.9c0,36.9,0,62.4,0,62.4S644.6,58,703.2,51.3z"/>
<linearGradient id="Motor-Shadow-R_1_" gradientUnits="userSpaceOnUse" x1="1216.3816" y1="1863.5172" x2="1363.2816" y2="1866.0812" gradientTransform="matrix(1 0 0 -1 0 1920)">
	<stop  offset="0" style="stop-color:#BFBFBF"/>
	<stop  offset="0.5" style="stop-color:#F1F1F1"/>
	<stop  offset="1" style="stop-color:#BFBFBF"/>
</linearGradient>
<path id="Motor-Shadow-R" class="st9" d="M1216.7,51.6V28.4c0,0,79.8-32.8,146.9,3.9c0,36.6,0,61.9,0,61.9S1275.2,58.3,1216.7,51.6z
	"/>
<linearGradient id="Body-Fill_1_" gradientUnits="userSpaceOnUse" x1="843.6466" y1="681.7421" x2="1069.0966" y2="685.6771" gradientTransform="matrix(1 0 0 -1 0 1920)">
	<stop  offset="0" style="stop-color:#8F9BB0"/>
	<stop  offset="0.399" style="stop-color:#DAE3F2"/>
	<stop  offset="0.604" style="stop-color:#DAE3F2"/>
	<stop  offset="1" style="stop-color:#8F9BB0"/>
</linearGradient>
<path id="Body-Fill" class="st10" d="M846.2,915.8c-11.8,178.9,20.9,523.4,37.5,618.8c14.5,82.8,43.4,176.8,75.5,176.8
	c35.5,0,61.6-111.2,72.9-170.3c22.4-116.3,43.7-527.9,35.1-629.2c-10.6-115.2-53.4-150.8-108-150.8
	C893.8,761.1,853.6,814.1,846.2,915.8z"/>
<linearGradient id="Cabin-Fill_1_" gradientUnits="userSpaceOnUse" x1="886.4736" y1="452.3653" x2="1035.9792" y2="454.9749" gradientTransform="matrix(1 0 0 -1 0 1920)">
	<stop  offset="0.132" style="stop-color:#676767"/>
	<stop  offset="0.438" style="stop-color:#E6E6E6"/>
	<stop  offset="0.712" style="stop-color:#666666"/>
	<stop  offset="0.757" style="stop-color:#666666"/>
	<stop  offset="1" style="stop-color:#4D4D4D"/>
</linearGradient>
<path id="Cabin-Fill" class="st11" d="M968.3,1346.1c0,0,58.8-1.1,66.2,40.3c8.2,45.6-20.8,200.2-67.5,200.2
	C967,1537.1,968.3,1346.1,968.3,1346.1z M955.3,1586.6c-46.7,0-75.7-154.6-67.5-200.2c7.4-41.4,66.2-40.3,66.2-40.3
	S955.3,1537.1,955.3,1586.6z"/>
<path id="Hungar-Shadow-R" class="st5" d="M1483.2,610.3l88.4-126.1l146.9,10.4l-202.8,284.7L1483.2,610.3z"/>
<path id="Hungar-Shadow-L" class="st5" d="M434.1,610.3l-88.4-126.1l-146.9,10.4l202.8,284.7L434.1,610.3z"/>
<path id="Line-All" class="st12" d="M370.4,1590.5c28.2,8.3-197.6-50.1-197.6,10.4c0,71.5,189.6,304.2,292.5,304.2
	c96.2,0,147-113.1,210.6-113.1c63.6,0,227.5,28.6,284.7,28.6c57.2,0,172.1-27.3,270.4-27.3c98.3,0,105.4,111.8,218.4,111.8
	c133.3,0,293.8-247.1,293.8-308.1c0-43.3-90.5-27.1-184.6-7.8c-313.7,46.2-376.4-205.1-380.9-310.7
	c-8.1-150.3,19.9-261.3,72.8-335.4c78.6-110,212.1-142.3,327.6-131.3c29.8,0,134.7,22.1,157.3,22.1c22.6,0,58.5-17.5,58.5-71.5
	c0-165.8-68.5-409.1-249.6-564.2C1363.2,43.1,1107.6,26.6,960.6,26.6c-419.1,0-763.5,153.7-835.9,689c-9.4,65.3,12,118.3,46.8,118.3
	c34.8,0,93.9-22.1,165.1-22.1c316.3-19.6,418.3,204.8,400.4,468C728.7,1439.3,616.5,1632.2,370.4,1590.5z"/>
<path id="Line-Body4" class="st12" d="M738.3,1251c31.2-17.9,69.7-31.8,112-40.9"/>
<path id="Line-Body3" class="st12" d="M1179,1248.4c-18.1-12.3-90.6-38.8-115.7-38.8"/>
<path id="Line-Body2" class="st12" d="M616.1,891.1c46.1-32.8,142.6-54.2,249.8-62.6"/>
<path id="Line-Body" class="st12" d="M1298.6,890.7c-39.3-33.6-158.8-64.6-249.6-64.6"/>
<path id="Line-Hungar-R4" class="st12" d="M1189.4,280.1c35.9,0,193.6,48.3,383.5,204.1"/>
<path id="Line-Hungar-R3" class="st12" d="M1177.7,446.5c30.3,0,189.3,61.8,305.5,163.8"/>
<path id="Line-Hungar-R2" class="st12" d="M1719.8,493.3c-101.7-103.8-271.5-226.2-445.9-226.2c-59.1,7-85.8,10.4-85.8,10.4
	s27.6,71.8-13,167.7c67.7,23.1,253.9,94.2,339.3,334.1"/>
<path id="Line-Hungar-R" class="st12" d="M1515.7,779.3l202.8-283.4l-145.6-11.7l-89.7,126.1L1515.7,779.3z"/>
<path id="Line-Hungar-L4" class="st12" d="M729.2,280.1c-35.9,0-193.6,48.3-383.5,204.1"/>
<path id="Line-Hungar-L3" class="st12" d="M740.9,446.5c-30.3,0-189.3,61.8-305.5,163.8"/>
<path id="Line-Hungar-L2" class="st12" d="M402.9,780.6c85.4-239.9,272.9-312.3,340.6-335.4c-40.6-95.9-13-167.7-13-167.7
	s-26.7-3.4-85.8-10.4c-174.4,0-344.2,122.4-445.9,226.2c-0.4,0.4-0.8,1.7-0.8,1.7"/>
<path id="Line-Hungar-L" class="st12" d="M402.9,779.3L200.1,495.9l145.6-11.7l89.7,126.1L402.9,779.3z"/>
<path id="Line-Hungar-L_copy" class="st12" d="M397.9,757.7L216.9,504.3l124.9-10.1l83.9,118.3L397.9,757.7z"/>
<path id="Line-Hungar-L_copy_2" class="st12" d="M1521.5,755.8l180.9-253.2l-124.8-10l-83.9,118.2L1521.5,755.8z"/>
<path id="L-Body22" class="st12" d="M241,519l99-10c0,0,0.9,1.1,0.6,1.2C334.4,513.7,272,562,272,562L241,519z M412,608l-24,114
	l-41-58c0,0,56-47.9,63-56C410.7,607.7,412,608,412,608z M1679.4,516.6l-99.3-10c0,0-0.9,1.1-0.6,1.2c6.2,3.5,68.8,51.8,68.8,51.8
	L1679.4,516.6z M1508,605.7l24.1,114.1l41.1-58.1c0,0-56.2-47.9-63.2-56.1C1509.3,605.5,1508,605.7,1508,605.7z"/>
<path id="Line-Motor-R" class="st12" d="M1218,51.3c0-7.2,0-23.4,0-23.4s78.9-33.7,145.6,3.9c0,37.3,0,62.4,0,62.4"/>
<path id="Line-Motor-R_1_" class="st12" d="M1363.6,46.1c-20.2-10.8-79.4-26.9-144.3-5.2"/>
<path id="Line-Motor-L" class="st12" d="M702.5,51.4c0-7.2,0-23.3,0-23.3S623.6-5.5,556.9,32c0,37.2,0,62.2,0,62.2"/>
<path id="Line-Motor-L_1_" class="st12" d="M556.3,50c18.9-16.8,106.5-26.5,145.6-5.2"/>
<path id="Line-Cabin" class="st12" d="M960.6,761.1c127.5,0,113.8,192.9,105.3,404.3c-10.4,258.9-43.9,546-105.3,546
	c-61.2,0-99.9-275.9-111.8-546C839.4,953.5,827.3,761.1,960.6,761.1z M964.5,1586.6c46.7,0,75.8-154.6,67.6-200.2
	c-7.4-41.4-66.3-40.3-66.3-40.3S964.5,1537.1,964.5,1586.6z M951.5,1346.1c0,0-58.8-1.1-66.3,40.3c-8.2,45.6,20.8,200.2,67.6,200.2
	C952.8,1537.1,951.5,1346.1,951.5,1346.1z"/>
<path id="Body-Shape2" class="st13" d="M851.4,884.6c7.5,13.5,19.5,20.8,19.5,20.8s-5.1,105.8-1.3,189.8
	c-17.1,13.1-23.4,24.7-23.4,24.7S834.8,970.7,851.4,884.6z"/>
<path id="Body-Shape" class="st13" d="M1061.4,884.8c-7.6,13.5-19.5,20.8-19.5,20.8s5.1,105.9,1.3,189.9
	c17.1,13.1,23.4,24.7,23.4,24.7S1078,971,1061.4,884.8z"/>
<g id="Engine-L">
	<path id="Blade" class="st14" d="M409.6,1262.8c-6.9-6.1-156.8-137-166.1-146.3c-6.3,2.8-15.8,16-15.8,16l134.3,159l22.8-25.9
		l9.8,9.8C394.5,1275.4,400.3,1268.9,409.6,1262.8z M471.5,1268.2c4.4-8.1,97.1-184.6,104-195.8c-4.2-5.5-19.3-11.6-19.3-11.6
		l-123.8,167.7l30.6,16.2l-7.3,11.8C455.6,1256.5,463.3,1260.7,471.5,1268.2z M481.8,1326c9,1.9,204.3,40.4,217.1,43.9
		c4.1-5.6,5.6-21.8,5.6-21.8l-195.9-70.8l-6.7,33.9l-13.4-3.7C488.5,1307.5,486.6,1316,481.8,1326z M390.7,1319.9
		c-7.8,4.9-175.3,113.5-186.8,119.9c1,6.9,11.2,19.6,11.2,19.6l190.3-85.6l-18.8-29.2l12.2-6.7
		C398.7,1337.9,394.1,1330.5,390.7,1319.9z M435.5,1352.8c1.9,9,45.9,203.5,48,216.6c6.8,1.4,22.4-3.7,22.4-3.7l-14.4-208l-34.1,7.5
		l-2.1-13.7C455.4,1351.4,446.7,1353.2,435.5,1352.8z"/>
	<path id="Engine-Fill" class="st0" d="M437.3,1009.4c162.6,0,294.5,131.8,294.5,294.4s-131.8,294.5-294.5,294.5
		s-294.5-131.8-294.5-294.5S274.7,1009.4,437.3,1009.4z M165,1303.2c0,150.1,121.6,271.7,271.7,271.7
		c150.1,0,271.7-121.6,271.7-271.7c0-150-121.6-271.7-271.7-271.7C286.6,1031.5,165,1153.2,165,1303.2z"/>
	<path id="Line-Engine-L2" class="st12" d="M437.3,1009.4c162.6,0,294.5,131.8,294.5,294.4s-131.8,294.5-294.5,294.5
		s-294.5-131.8-294.5-294.5S274.7,1009.4,437.3,1009.4z"/>
	<path id="Line-Engine-L" class="st12" d="M437.3,1033.4c149.4,0,270.4,121.1,270.4,270.4s-121.1,270.5-270.4,270.5
		s-270.4-121.1-270.4-270.5S288,1033.4,437.3,1033.4z"/>
	<path id="Shape-Engine-L2" class="st14" d="M436.7,1254.4c27.6,0,50,22.4,50,50.1c0,27.7-22.4,50.1-50,50.1
		c-27.6,0-50.1-22.4-50.1-50.1C386.6,1276.9,409,1254.4,436.7,1254.4z"/>
	<path id="Shape-Engine-L" class="st15" d="M436.7,1284.3c11.1,0,20.1,9,20.1,20.2c0,11.1-9,20.2-20.1,20.2s-20.1-9-20.1-20.2
		C416.5,1293.4,425.5,1284.3,436.7,1284.3z"/>
	<path id="Shape-Engine-L_copy" class="st12" d="M436.7,1284.3c11.1,0,20.1,9,20.1,20.2c0,11.1-9,20.2-20.1,20.2s-20.1-9-20.1-20.2
		C416.5,1293.4,425.5,1284.3,436.7,1284.3z"/>
	<circle id="Animation-Coordinates-Left" class="st16" cx="437" cy="1304.8" r="0.5"/>
</g>
<g id="Engine-R">
	<path id="Blade-R" class="st14" d="M1439.7,1276.5c-8.6-3.2-196.1-69.9-208.3-75.1c-4.8,4.9-8.8,20.7-8.8,20.7l183.2,98.6
		l11.7-32.5l12.7,5.6C1430.3,1293.8,1433.3,1285.6,1439.7,1276.5z M1499.2,1258.8c1.1-9.1,22.6-207.3,24.9-220.3
		c-6-3.5-22.2-3.7-22.2-3.7l-53.6,201.5l34.4,3.8l-2.5,13.6C1480.2,1253.7,1488.9,1254.8,1499.2,1258.8z M1530,1308.8
		c9-1.6,204.9-37.4,218.1-38.9c1.7-6.7-2.8-22.3-2.8-22.3l-208.2,6l6.2,34l-13.8,1.5C1529.5,1289.1,1530.9,1297.7,1530,1308.8z
		 M1443.1,1336.5c-5.4,7.4-121.4,169.9-129.8,180.1c3.4,6,17.6,14.2,17.6,14.2l145.6-149.5l-28.2-20.2l8.9-10.7
		C1457.2,1350.4,1450.2,1345.1,1443.1,1336.5z M1496.8,1350.7c5.1,7.7,117.4,172.4,124.1,183.8c6.9-1.2,19.5-11.7,19.5-11.7
		l-89.8-188.2l-28.9,19.5l-7-12C1514.8,1342.1,1507.4,1346.9,1496.8,1350.7z"/>
	<path id="Engine-Fill-R" class="st0" d="M1372.5,1030.6c151.3-59.7,322.3,14.6,382,165.8c59.7,151.3-14.6,322.3-165.8,382
		c-151.3,59.7-322.3-14.6-382-165.8C1147,1261.3,1221.2,1090.3,1372.5,1030.6z M1227,1403.9c55.1,139.6,212.9,208.1,352.5,153
		c139.6-55.1,208.1-212.9,153-352.5c-55.1-139.6-212.9-208.1-352.5-153C1240.4,1106.5,1171.9,1264.3,1227,1403.9z"/>
	<path id="Line-Engine-R4" class="st12" d="M1372.5,1030.6c151.3-59.7,322.3,14.6,382,165.8c59.7,151.3-14.6,322.3-165.8,382
		c-151.3,59.7-322.3-14.6-382-165.8C1147,1261.3,1221.2,1090.3,1372.5,1030.6z"/>
	<path id="Line-Engine-R3" class="st12" d="M1381.3,1052.9c138.9-54.8,296,13.4,350.8,152.3c54.8,138.9-13.4,296-152.3,350.8
		c-138.9,54.8-296-13.4-350.8-152.3C1174.2,1264.8,1242.4,1107.8,1381.3,1052.9z"/>
	<path id="Shape-Engine-R2" class="st14" d="M1461.8,1258.8c25.7-10.1,54.8,2.5,64.9,28.2c10.1,25.7-2.5,54.8-28.2,64.9
		c-25.7,10.2-54.8-2.5-64.9-28.2C1423.5,1298,1436.1,1268.9,1461.8,1258.8z"/>
	<path id="Shape-Engine-R" class="st15" d="M1472.8,1286.6c10.3-4.1,22,1,26.1,11.3c4.1,10.4-1,22.1-11.3,26.1
		c-10.3,4.1-22.1-1-26.1-11.3C1457.4,1302.4,1462.4,1290.7,1472.8,1286.6z"/>
	<path id="Shape-Engine-R_copy" class="st12" d="M1472.8,1286.6c10.3-4.1,22,1,26.1,11.3c4.1,10.4-1,22.1-11.3,26.1
		c-10.3,4.1-22.1-1-26.1-11.3C1457.4,1302.4,1462.4,1290.7,1472.8,1286.6z"/>
	<circle id="Animation-Coordinates-Right" class="st17" cx="1480.5" cy="1305.7" r="0.5"/>
</g>
<g id="Engine-Middle">
	<path id="Blade-M" class="st14" d="M951.7,303.6c-2.6-6.5-60.4-147.2-63.6-156.8c-5.3-0.2-16.3,5.6-16.3,5.6L909.3,307l24.4-9.9
		l3.3,10C937.1,307.1,943.3,304.7,951.7,303.6z M992.2,328.5c5.7-4.1,129.4-93,138-98.4c-1-5.2-9.3-14.5-9.3-14.5L979,288l15.4,21.5
		l-9,5.5C985.4,315,989.2,320.5,992.2,328.5z M979.5,371.5c5.5,4.3,125.9,97.4,133.5,104.1c4.7-2.5,11.3-13,11.3-13l-109.7-115.3
		l-16.2,20.9l-7.9-7.1C990.4,361.1,986.2,366.4,979.5,371.5z M919.3,336.2c-7,0.7-158.6,17.8-168.7,18.2c-1.7,5.1,0.9,17.3,0.9,17.3
		l159.4,6.4l-2.9-26.4l10.6-0.4C918.7,351.3,918,344.7,919.3,336.2z M938.7,374c-1.7,6.8-38.1,154.8-41.1,164.4
		c4.2,3.3,16.6,5.1,16.6,5.1l61.2-147.1l-25.9-6.5l3.3-10.1C952.8,379.9,946.3,378.2,938.7,374z"/>
	<path id="Line-Engine-M2" class="st12" d="M1057.2,139.9c111.2,55.5,156.3,190.7,100.8,301.8S967.3,598,856.1,542.5
		C745,487,699.8,351.9,755.3,240.7C810.9,129.5,946,84.4,1057.2,139.9z"/>
	<path id="Line-Engine-M" class="st12" d="M1049,156.3c102.1,51,143.6,175.1,92.6,277.2c-51,102.1-175.1,143.6-277.2,92.6
		c-102.1-51-143.6-175.1-92.6-277.2C822.8,146.8,946.9,105.3,1049,156.3z"/>
	<path id="Shape-Engine-M2" class="st14" d="M973.1,307.2c18.9,9.4,26.6,32.4,17.1,51.3c-9.4,18.9-32.4,26.6-51.3,17.1
		c-18.9-9.4-26.6-32.4-17.1-51.3C931.2,305.4,954.2,297.8,973.1,307.2z"/>
	<path id="Shape-Engine-M" class="st15" d="M962.9,327.6c7.6,3.8,10.7,13.1,6.9,20.7c-3.8,7.6-13.1,10.7-20.7,6.9
		c-7.6-3.8-10.7-13-6.9-20.7C946,326.9,955.3,323.9,962.9,327.6z"/>
	<path id="Shape-Engine-M_copy" class="st12" d="M962.9,327.6c7.6,3.8,10.7,13.1,6.9,20.7c-3.8,7.6-13.1,10.7-20.7,6.9
		c-7.6-3.8-10.7-13-6.9-20.7C946,326.9,955.3,323.9,962.9,327.6z"/>
	<circle id="Animation-Coordinates-Middle" class="st18" cx="956.2" cy="341.6" r="0.5"/>
</g>
</svg>
