<?xml version="1.0" encoding="utf-8"?>
<!-- Generator: Adobe Illustrator 23.0.2, SVG Export Plug-In . SVG Version: 6.00 Build 0)  -->
<svg version="1.1" id="Слой_1" xmlns="http://www.w3.org/2000/svg" xmlns:xlink="http://www.w3.org/1999/xlink" x="0px" y="0px"
	 viewBox="0 0 1920 1920" style="enable-background:new 0 0 1920 1920;" xml:space="preserve">
<style type="text/css">
	.st0{fill-rule:evenodd;clip-rule:evenodd;fill:#F1F1F1;}
	.st1{fill-rule:evenodd;clip-rule:evenodd;fill:url(#Body-Shadow4_1_);}
	.st2{opacity:0.5;fill:url(#Body-Shadow3_1_);}
	.st3{fill:url(#Body-Shadow2_1_);}
	.st4{fill:url(#Body-Shadow_1_);}
	.st5{fill:#A800A8;}
	.st6{fill:#6E1370;}
	.st7{fill:url(#Motor-Shadow-L_1_);}
	.st8{fill:url(#Motor-Shadow-R_1_);}
	.st9{fill:url(#Body-Fill_1_);}
	.st10{fill-rule:evenodd;clip-rule:evenodd;fill:url(#Cabin-Fill_1_);}
	.st11{fill:none;stroke:#1A1A1A;stroke-width:5;}
	.st12{fill:#F1F1F1;stroke:#1A1A1A;stroke-width:5;}
	.st13{fill:#949494;stroke:#1A1A1A;stroke-width:5;}
	.st14{fill:#F2F2F2;}
	.st15{fill:#E6E6E6;}
	.st16{opacity:0.102;fill-rule:evenodd;clip-rule:evenodd;fill:url(#Gun-Shadow2_1_);enable-background:new    ;}
	.st17{opacity:0.102;fill-rule:evenodd;clip-rule:evenodd;fill:url(#GunL-Shadow2_1_);enable-background:new    ;}
</style>
<path id="Fill-All" class="st0" d="M1558.9,1590.1c94.2-19.3,184.8-35.6,184.8,7.8c0,61.1-160.7,308.6-294.1,308.6
	c-113.1,0-120.2-112-218.6-112c-98.4,0-213.4,27.3-270.6,27.3c-57.2,0-221.3-28.6-284.9-28.6c-63.7,0-114.5,113.3-210.8,113.3
	c-103,0-292.8-233-292.8-304.6c0-60.6,226,0.5,197.8-7.8c269,38.3,377.1-182.9,368.5-400.1c-8.1-207-118.4-380.8-402.4-382.3
	c-71.2,0-130.4,22.1-165.2,22.1s-56.2-53.1-46.8-118.5c52.5-388.4,252.1-552.7,432-622.3c1.3-0.3-1.3-62.1,0-62.5
	c27.7-13.7,87.5-31.4,144.4-3.9c1.4-0.2,1.2,22.3,2.6,22.1c57.1-16,196.1-23.4,257.6-23.4c49.9,0,189.8,9,257.6,23.4
	c0-3.7-0.1-15,0.3-20.8c89.9-36.8,145.4,3.9,145.4,3.9s2,42.5,1.3,58.6c47.5,23.5,102.9,41,179.6,106.8
	c181.2,155.3,249.8,399,249.8,565c0,54-36,71.6-58.6,71.6c-22.6,0-108.1-20.8-157.4-20.8c-39,2.3-124.2-9.6-206.6,28
	c-70,34.9-137,98.9-173.3,233.5c-20.1,66.5-19.4,113.6-22.1,187.7C1176.4,1419.3,1264.2,1654,1558.9,1590.1z M756,339.5
	C756,452.4,847.3,544,960,544s204-91.6,204-204.5S1072.7,135,960,135S756,226.6,756,339.5z"/>
<linearGradient id="Body-Shadow4_1_" gradientUnits="userSpaceOnUse" x1="463.4472" y1="940.0322" x2="1453.6023" y2="957.3151" gradientTransform="matrix(1 0 0 -1 0 1920)">
	<stop  offset="6.700000e-02" style="stop-color:#F2F2F2"/>
	<stop  offset="0.339" style="stop-color:#D1D1D1"/>
	<stop  offset="0.445" style="stop-color:#F2F2F2"/>
	<stop  offset="0.559" style="stop-color:#F2F2F2"/>
	<stop  offset="0.646" style="stop-color:#D1D1D1"/>
	<stop  offset="0.969" style="stop-color:#F2F2F2"/>
</linearGradient>
<path id="Body-Shadow4" class="st1" d="M1405.4,109.8v717c-0.2-0.1-240.1,61.5-229,447.6c1.1,133,76.1,305.4,277.1,327.3
	c0,157.5,0,245.3,0,305.9c-102.3,3.4-131.6-107-200.4-110.7c-85-4.5-145.2,7.3-211.7,16.2c-25.5,3.4-51.8,9-80.8,9.3
	c-92.4,0-252.8-38.1-302.1-25.5c-51.8,14.3-112.9,110.7-193.9,110.7c0-80.2-1.3-309.8-1.3-309.8c243.6-24.8,277.6-259.5,277.1-324.2
	c0-253.4-82-392.5-226.5-445.9c0.2-71.6,0.2-110.4,0.3-185.1c4.3-14.3,7.1-30.8,7.6-49.9c0.4-22.9-7.8-34.6-7.8-40.3
	c0-5.8,0-441.3,0-441.3s141.3-84.6,446.3-84.6C1261.2,26.5,1405.4,109.8,1405.4,109.8z M769.2,413.3c40.7,105.3,159,157.7,264.2,117
	c105.2-40.7,157.6-159.1,116.9-264.4c-40.7-105.3-159-157.7-264.2-117C780.8,189.6,728.5,308,769.2,413.3z"/>
<linearGradient id="Body-Shadow3_1_" gradientUnits="userSpaceOnUse" x1="524.6105" y1="1717.4587" x2="1415.8805" y2="1733.0157" gradientTransform="matrix(1 0 0 -1 0 1920)">
	<stop  offset="0" style="stop-color:#F2F2F2;stop-opacity:0"/>
	<stop  offset="0.499" style="stop-color:#F2F2F2"/>
	<stop  offset="1" style="stop-color:#F2F2F2;stop-opacity:0"/>
</linearGradient>
<path id="Body-Shadow3" class="st2" d="M514.1,354.1c0-5.7,0-243,0-243s141.3-84.6,446.3-84.6c300.8,0,445,83.3,445,83.3
	s0,43.5,0,246c-306,0-198.5-226.3-445.9-239.5C734.6,116.8,779,354.1,514.1,354.1z"/>
<linearGradient id="Body-Shadow2_1_" gradientUnits="userSpaceOnUse" x1="1145.4209" y1="208.5503" x2="850.0998" y2="287.6815" gradientTransform="matrix(1 0 0 -1 0 1920)">
	<stop  offset="9.900000e-02" style="stop-color:#D9D9D9;stop-opacity:0.412"/>
	<stop  offset="0.826" style="stop-color:#FFFFFF"/>
</linearGradient>
<path id="Body-Shadow2" class="st3" d="M960.4,1712.4v109.4c0,0-35.4-0.1,0.5-0.1c109.7-11.1,203-26,279.3-26
	c0-29.9-217.3-281.2-217.3-281.2L960.4,1712.4z"/>
<linearGradient id="Body-Shadow_1_" gradientUnits="userSpaceOnUse" x1="769.6794" y1="222.3427" x2="1065.0414" y2="274.4226" gradientTransform="matrix(1 0 0 -1 0 1920)">
	<stop  offset="9.900000e-02" style="stop-color:#DAD9D9;stop-opacity:0.349"/>
	<stop  offset="0.826" style="stop-color:#FFFFFF"/>
</linearGradient>
<path id="Body-Shadow" class="st4" d="M960.4,1712.4v109.4c0,0,35.4-0.1-0.5-0.1c-109.7-11.1-203-26-279.3-26
	c0-29.9,217.3-281.2,217.3-281.2L960.4,1712.4z"/>
<path id="Paint" class="st5" d="M1699.4,1571.8c32.5,0,45.5,12.9,45.5,24.7c0,74.8-173.4,311.2-294,311.2
	c-109.1,0-126.5-113.3-218.6-113.3c-73.1,0-221.8,27.3-271.9,27.3c-50.2,0-246.2-28.6-287.6-28.6c-49.8,0-120,114.6-205.6,114.6
	c-94,0-294.1-218-294.1-305.9c0-15,5.1-31.5,74.2-26c-10.3,42.9,149,252.6,219.9,252.6c61.2,0,107.7-113.3,204.3-113.3
	c86.8,0,188.4,28.6,288.9,28.6s157.4-26,287.5-26s124,110.7,203,110.7c79,0,210.7-184.7,219.9-253.9
	C1679.8,1572.2,1666.9,1571.8,1699.4,1571.8z"/>
<path id="Paint-Dark" class="st6" d="M407.7,816.1c-25.6-2.1-62.4-3.3-86.1-3.3c-47.1,0-120.6,22.1-149.6,22.1
	c-28.6,0-45.9-28.1-49.4-72c-3.3-40.3,24.7-486.8,391.6-650.5c-335.5,206.3-370.8,583.1-330.5,621c33,31,81.9,24.8,210.2,24.8
	c6.8,12,13.3,27,13.3,27S408,801.1,407.7,816.1z M540.4,850.9c122.4,60.4,214.5,197.1,306.8,305.6
	C837.8,989,948.1,869.8,960.4,782.9c-90.6,0-268.3-11.2-409.9-18.4C545.5,773.8,539,787,539,787S540.5,824.1,540.4,850.9z
	 M1524.1,758.6c3.6,0,7,0,10.4,0c126.8,0.5,157.7,8.5,197.5-8.5c39.6-16.9,59.5-389-327.9-642.8C1760,272.4,1795.1,677,1796.3,763
	c-3.5,43.9-29.7,70.7-61.7,70.7c-29,0-87-18.5-134.9-19.5c-26.4-0.6-61.2-1.3-88.3-1.7c-0.7-12.6-0.4-25.5-0.4-25.5
	S1521.9,762.7,1524.1,758.6z M1372,840.6c-114.6,60.6-214.6,207.5-303.6,312.1c0.6-69.4-97.4-300.8-108.6-371
	c145.8-0.1,287.8-9.2,402.5-16c4.5,8.7,9.7,21.3,9.7,21.3S1372.2,806.2,1372,840.6z"/>
<linearGradient id="Motor-Shadow-L_1_" gradientUnits="userSpaceOnUse" x1="555.4545" y1="1866.4851" x2="702.4815" y2="1869.0511" gradientTransform="matrix(1 0 0 -1 0 1920)">
	<stop  offset="0" style="stop-color:#BFBFBF"/>
	<stop  offset="0.5" style="stop-color:#F1F1F1"/>
	<stop  offset="1" style="stop-color:#BFBFBF"/>
</linearGradient>
<path id="Motor-Shadow-L" class="st7" d="M702.8,49.9V26.5c0,0-79.9-33.1-147,3.9c0,37,0,62.5,0,62.5S644.2,56.7,702.8,49.9z"/>
<linearGradient id="Motor-Shadow-R_1_" gradientUnits="userSpaceOnUse" x1="1216.4486" y1="1864.886" x2="1363.4756" y2="1867.453" gradientTransform="matrix(1 0 0 -1 0 1920)">
	<stop  offset="0" style="stop-color:#BFBFBF"/>
	<stop  offset="0.5" style="stop-color:#F1F1F1"/>
	<stop  offset="1" style="stop-color:#BFBFBF"/>
</linearGradient>
<path id="Motor-Shadow-R" class="st8" d="M1216.7,50.3V27c0,0,79.9-32.8,147,3.9c0,36.7,0,62,0,62S1275.3,56.9,1216.7,50.3z"/>
<linearGradient id="Body-Fill_1_" gradientUnits="userSpaceOnUse" x1="843.3867" y1="681.3906" x2="1069.0337" y2="685.3286" gradientTransform="matrix(1 0 0 -1 0 1920)">
	<stop  offset="0" style="stop-color:#8F9BB0"/>
	<stop  offset="0.399" style="stop-color:#DAE3F2"/>
	<stop  offset="0.604" style="stop-color:#DAE3F2"/>
	<stop  offset="1" style="stop-color:#8F9BB0"/>
</linearGradient>
<path id="Body-Fill" class="st9" d="M845.9,915.7c-11.8,179.2,20.9,524.2,37.5,619.7c14.5,82.9,43.4,177.1,75.5,177.1
	c35.6,0,61.6-111.4,73-170.5c22.4-116.5,43.8-528.7,35.1-630.1c-10.6-115.4-53.4-151-108.1-151C893.6,760.8,853.4,813.8,845.9,915.7
	z"/>
<linearGradient id="Cabin-Fill_1_" gradientUnits="userSpaceOnUse" x1="883.6137" y1="451.6778" x2="1033.365" y2="454.2924" gradientTransform="matrix(1 0 0 -1 0 1920)">
	<stop  offset="0.102" style="stop-color:#676767"/>
	<stop  offset="0.261" style="stop-color:#CCCCCC"/>
	<stop  offset="0.297" style="stop-color:#CCCCCC"/>
	<stop  offset="0.342" style="stop-color:#F2F2F2"/>
	<stop  offset="0.408" style="stop-color:#CCCCCC"/>
	<stop  offset="0.596" style="stop-color:#B3B3B3"/>
	<stop  offset="0.799" style="stop-color:#666666"/>
	<stop  offset="0.894" style="stop-color:#666666"/>
	<stop  offset="1" style="stop-color:#4D4D4D"/>
</linearGradient>
<path id="Cabin-Fill" class="st10" d="M965.6,1346.6c0,0,58.9-1.1,66.3,40.4c8.2,45.7-20.9,200.5-67.6,200.5
	C964.3,1537.9,965.6,1346.6,965.6,1346.6z M952.6,1587.5c-46.8,0-75.8-154.8-67.6-200.5c7.4-41.5,66.3-40.4,66.3-40.4
	S952.6,1537.9,952.6,1587.5z"/>
<path id="Line-All" class="st11" d="M1558.9,1590.1c94.2-19.3,184.8-35.6,184.8,7.8c0,61.1-160.7,308.6-294.1,308.6
	c-113.1,0-120.2-112-218.6-112c-98.4,0-213.4,27.3-270.6,27.3c-57.2,0-221.3-28.6-284.9-28.6c-63.7,0-114.5,113.3-210.8,113.3
	c-103,0-292.8-233-292.8-304.6c0-56.3,150.7-11.4,197.8-9.1c12.5,2,368.2,64.1,368.2-378.9c0-162.1-67.1-402.3-402-402.3
	c-71.2,0-130.4,22.1-165.2,22.1s-56.2-53.1-46.8-118.5c72.5-536.1,417.1-690,836.6-690c147.2,0,403,16.5,584.2,171.8
	c181.2,155.3,249.8,399,249.8,565c0,54-36,71.6-58.6,71.6c-22.6,0-113.3-20.8-143.1-20.8c-22.7,0-58.6,0.4-108.3,0.4
	c-129.3,0-308,109.2-308,442.3C1176.4,1468.3,1322.8,1646.2,1558.9,1590.1z"/>
<path id="Line-Motor-R" class="st11" d="M1218,49.9c0-7.2,0-23.4,0-23.4s79-33.7,145.7,3.9c0,37.4,0,62.5,0,62.5"/>
<path id="Line-Engine-Back2" class="st11" d="M1363.8,44.7c-20.2-10.9-79.4-26.9-144.4-5.2"/>
<path id="Line-Motor-L" class="st11" d="M702.1,50c0-7.2,0-23.4,0-23.4s-79-33.6-145.7,3.9c0,37.3,0,62.3,0,62.3"/>
<path id="Line-Engine-Back" class="st11" d="M555.8,48.6c18.9-16.8,106.6-26.5,145.7-5.2"/>
<path id="Line-Cabin" class="st11" d="M960.4,760.8c127.6,0,113.9,193.1,105.4,404.9c-10.4,259.3-44,546.8-105.4,546.8
	c-61.3,0-100-276.3-111.9-546.8C839.2,953.4,827,760.8,960.4,760.8z M964.3,1587.5c46.8,0,75.9-154.8,67.6-200.5
	c-7.4-41.5-66.3-40.4-66.3-40.4S964.3,1537.9,964.3,1587.5z M951.3,1346.6c0,0-58.9-1.1-66.3,40.4c-8.2,45.7,20.9,200.5,67.6,200.5
	C952.6,1537.9,951.3,1346.6,951.3,1346.6z"/>
<g id="Engine-L">
	<path id="Propeller-L" class="st12" d="M407,1266.4c-6.9-6.1-156.9-137.2-166.3-146.6c-6.3,2.8-15.8,16.1-15.8,16.1l134.4,159.2
		l22.8-26l9.8,9.9C391.9,1279.1,397.7,1272.6,407,1266.4z M468.9,1271.8c4.4-8.1,97.2-184.8,104.1-196.1
		c-4.2-5.5-19.4-11.6-19.4-11.6l-123.9,168l30.6,16.2l-7.3,11.8C453.1,1260.1,460.8,1264.3,468.9,1271.8z M479.2,1329.7
		c9,1.9,204.5,40.5,217.3,43.9c4.1-5.6,5.6-21.8,5.6-21.8l-196-70.9l-6.8,34l-13.4-3.7C486,1311.2,484.1,1319.7,479.2,1329.7z
		 M388.1,1323.6c-7.8,4.9-175.4,113.6-187,120.1c1,6.9,11.2,19.7,11.2,19.7l190.5-85.8l-18.8-29.2l12.2-6.7
		C396.1,1341.7,391.5,1334.2,388.1,1323.6z M433,1356.5c1.9,9,46,203.8,48,216.9c6.9,1.4,22.5-3.7,22.5-3.7L489,1361.4l-34.1,7.5
		l-2.1-13.7C452.8,1355.2,444.2,1357,433,1356.5z"/>
	<path id="Engine-Fill" class="st0" d="M434.8,1012.7c162.8,0,294.7,132,294.7,294.9c0,162.9-131.9,294.9-294.7,294.9
		c-162.8,0-294.7-132-294.7-294.9C140.1,1144.7,272,1012.7,434.8,1012.7z M162.2,1306.9c0,150.3,121.7,272.1,271.9,272.1
		c150.2,0,271.9-121.8,271.9-272.1c0-150.3-121.8-272.1-271.9-272.1C283.9,1034.8,162.2,1156.6,162.2,1306.9z"/>
	<path id="Line-Engine-L2" class="st11" d="M434.8,1012.7c162.8,0,294.7,132,294.7,294.9c0,162.9-131.9,294.9-294.7,294.9
		c-162.8,0-294.7-132-294.7-294.9C140.1,1144.7,272,1012.7,434.8,1012.7z"/>
	<path id="Line-Engine-L" class="st11" d="M434.8,1036.7c149.5,0,270.7,121.3,270.7,270.8c0,149.6-121.2,270.8-270.7,270.8
		c-149.5,0-270.7-121.3-270.7-270.8C164.1,1158,285.3,1036.7,434.8,1036.7z"/>
	<path id="Shape-Engine-L2" class="st12" d="M434.1,1258.1c27.7,0,50.1,22.5,50.1,50.1c0,27.7-22.4,50.1-50.1,50.1
		s-50.1-22.4-50.1-50.1C384,1280.5,406.4,1258.1,434.1,1258.1z"/>
	<path id="Shape-Engine-L" class="st13" d="M434.1,1288c11.1,0,20.2,9,20.2,20.2c0,11.1-9,20.2-20.2,20.2c-11.1,0-20.2-9-20.2-20.2
		C413.9,1297.1,423,1288,434.1,1288z"/>
</g>
<g id="Engine-R">
	<path id="Propeller-R" class="st12" d="M1437.5,1279.2c-8.6-3.2-195.8-71.4-207.9-76.7c-4.9,4.9-8.9,20.7-8.9,20.7l182.7,100
		l11.9-32.4l12.7,5.7C1428,1296.4,1431.1,1288.3,1437.5,1279.2z M1497.3,1261.9c1.1-9.1,24-207.5,26.4-220.5
		c-5.9-3.6-22.2-3.8-22.2-3.8l-55,201.4l34.4,4l-2.6,13.7C1478.2,1256.7,1486.9,1257.8,1497.3,1261.9z M1527.7,1312.2
		c9.1-1.5,205.4-36,218.5-37.4c1.8-6.7-2.7-22.4-2.7-22.4l-208.4,4.6l5.9,34.1l-13.8,1.4C1527.3,1292.4,1528.7,1301.1,1527.7,1312.2
		z M1440.5,1339.4c-5.5,7.4-122.7,169.3-131.2,179.5c3.4,6.1,17.5,14.3,17.5,14.3l146.8-148.7l-28.1-20.5l9-10.6
		C1454.5,1353.3,1447.5,1348,1440.5,1339.4z M1494.2,1353.9c5.1,7.7,116.3,173.5,122.9,185c6.9-1.1,19.6-11.6,19.6-11.6l-88.5-189.1
		l-29.1,19.3l-6.9-12.1C1512.3,1345.5,1504.8,1350.2,1494.2,1353.9z"/>
	<path id="EngineR-Fill" class="st0" d="M1372,1032.5c151.8-58.7,322.4,16.8,381.1,168.7c58.7,151.9-16.8,322.6-168.6,381.4
		c-151.8,58.7-322.4-16.8-381.1-168.7C1144.7,1262,1220.2,1091.2,1372,1032.5z M1223.8,1405.3c54.2,140.2,211.6,209.9,351.7,155.7
		c140.1-54.2,209.7-211.7,155.6-351.9c-54.2-140.2-211.6-209.9-351.7-155.7C1239.3,1107.6,1169.6,1265.1,1223.8,1405.3z"/>
	<path id="Line-EngineR2" class="st11" d="M1372,1032.5c151.8-58.7,322.4,16.8,381.1,168.7c58.7,151.9-16.8,322.6-168.6,381.4
		c-151.8,58.7-322.4-16.8-381.1-168.7C1144.7,1262,1220.2,1091.2,1372,1032.5z"/>
	<path id="Line-EngineR" class="st11" d="M1380.7,1054.9c139.4-53.9,296.2,15.4,350.1,155c53.9,139.5-15.4,296.3-154.9,350.3
		c-139.4,53.9-296.2-15.5-350.1-155C1171.9,1265.7,1241.2,1108.9,1380.7,1054.9z"/>
	<path id="Engine-Right_1_" class="st12" d="M1459.8,1261.6c25.8-10,54.8,2.9,64.8,28.7c10,25.8-2.9,54.8-28.7,64.8
		c-25.8,10-54.8-2.9-64.8-28.7C1421.2,1300.7,1434,1271.6,1459.8,1261.6z"/>
	<path id="Engine-Right" class="st13" d="M1470.6,1289.6c10.4-4,22.1,1.2,26.1,11.6c4,10.4-1.1,22.1-11.5,26.1
		c-10.4,4-22.1-1.2-26.1-11.5C1455.1,1305.3,1460.2,1293.6,1470.6,1289.6z"/>
</g>
<g id="Engine-Middle">
	<path id="Propeller-M" class="st12" d="M929,318.2c-6.5-2.4-147.8-53.9-156.9-57.9c-3.7,3.7-6.7,15.6-6.7,15.6l137.9,75.5l9-24.5
		l9.5,4.3C921.8,331.2,924.2,325.1,929,318.2z M974.1,305.1c0.9-6.9,18.1-156.6,20-166.4c-4.5-2.7-16.8-2.9-16.8-2.9l-41.6,152l26,3
		l-2,10.3C959.8,301.2,966.3,302.1,974.1,305.1z M997.1,343.1c6.8-1.1,155-27.2,164.9-28.3c1.3-5.1-2-16.9-2-16.9l-157.3,3.5
		l4.5,25.7l-10.4,1.1C996.8,328.2,997.8,334.7,997.1,343.1z M931.3,363.6c-4.1,5.6-92.6,127.8-99,135.5c2.6,4.6,13.2,10.8,13.2,10.8
		l110.8-112.3l-21.2-15.4l6.8-8C941.9,374.1,936.6,370.1,931.3,363.6z M971.8,374.6c3.8,5.8,87.8,130.9,92.8,139.6
		c5.2-0.8,14.8-8.7,14.8-8.7l-66.8-142.7l-22,14.6l-5.2-9.1C985.4,368.2,979.8,371.8,971.8,374.6z"/>
	<path id="EngineM-Fill" class="st0" d="M879.5,132c114.6-44.3,243.4,12.7,287.7,127.3c44.3,114.6-12.7,243.5-127.3,287.8
		c-114.6,44.3-243.4-12.7-287.7-127.4C708,305.2,765,176.3,879.5,132z M767.7,413.4c40.9,105.8,159.7,158.4,265.4,117.5
		c105.7-40.9,158.3-159.8,117.4-265.6c-40.9-105.8-159.7-158.4-265.5-117.5C779.4,188.7,726.8,307.6,767.7,413.4z"/>
	<path id="Line-Engine-M3" class="st11" d="M879.5,132c114.6-44.3,243.4,12.7,287.7,127.3c44.3,114.6-12.7,243.5-127.3,287.8
		c-114.6,44.3-243.4-12.7-287.7-127.4C708,305.2,765,176.3,879.5,132z"/>
	<path id="Line-Engine-M2" class="st11" d="M886.1,148.9c105.2-40.7,223.5,11.7,264.2,117c40.7,105.3-11.7,223.7-116.9,264.4
		c-105.2,40.7-223.5-11.7-264.2-117S780.8,189.6,886.1,148.9z"/>
	<path id="Line-EngineMiddle" class="st11" d="M886.1,148.9c105.2-40.7,223.5,11.7,264.2,117c40.7,105.3-11.7,223.7-116.9,264.4
		c-105.2,40.7-223.5-11.7-264.2-117S780.8,189.6,886.1,148.9z"/>
	<path id="Shape-Engine-M2" class="st12" d="M945.8,305c19.5-7.5,41.4,2.1,48.9,21.6c7.5,19.5-2.2,41.4-21.6,48.9
		c-19.5,7.5-41.4-2.2-48.9-21.6C916.7,334.4,926.4,312.5,945.8,305z"/>
	<path id="Shape-Engine-M" class="st13" d="M954,326c7.8-3,16.7,0.9,19.7,8.7c3,7.9-0.9,16.7-8.7,19.7c-7.8,3-16.7-0.9-19.7-8.7
		C942.2,337.9,946.1,329.1,954,326z"/>
</g>
<g id="Gun-Right">
	<path id="Gun-Fill" class="st14" d="M1372,786v130h-10l-9,129h19v131h-9l-10,129h19v194h138v-194h19l-10-129h-8v-131h18l-8-129h-10
		V786c0,0,25.4-53.5,26.7-56.2c66.6-36.1,112.1-108,112.1-190.8c0-119-93.9-215.5-209.7-215.5S1230.3,420,1230.3,539
		c0,84,46.8,156.8,115,192.4C1353.9,748.8,1372,786,1372,786z"/>
	<path id="Gun-Shadow" class="st15" d="M1542,718l-31,70l-138-1l-32-68L1542,718z"/>
	
		<radialGradient id="Gun-Shadow2_1_" cx="1436.05" cy="1380.5029" r="204.824" gradientTransform="matrix(1 0 0 -1 0 1920)" gradientUnits="userSpaceOnUse">
		<stop  offset="0.404" style="stop-color:#000000;stop-opacity:0"/>
		<stop  offset="1" style="stop-color:#000004"/>
	</radialGradient>
	<path id="Gun-Shadow2" class="st16" d="M1434.5,323.5c121.8,0,215,96.7,215,216c0,81.7-44.8,152.7-111.4,189.5
		c0.6-1.4,2.1-6,4.8-12c0.6-14.8,1.2-34.1,1-44c-54.2,37.2-85.4,38-109,38c-20.3,0-52-3.5-94-30c-0.5,11.2-0.4,28.9,1,40
		c0.9,7.5,3.1,10.7,3.7,12.1c-66.9-35.3-115.2-108.8-115.2-193.6C1230.5,420.2,1329.4,323.5,1434.5,323.5z M1351,540.5
		c0,46.1,37.4,83.5,83.5,83.5s83.5-37.4,83.5-83.5s-37.4-83.5-83.5-83.5S1351,494.4,1351,540.5z"/>
	<path id="Line-Gun-All" class="st11" d="M1372,786v130h-10l-9,129h19v131h-9l-10,129h19v194h138v-194h19l-10-129h-8v-131h18l-8-129
		h-10V786c0,0,25.4-53.5,26.7-56.2c66.6-36.1,112.1-108,112.1-190.8c0-119-93.9-215.5-209.7-215.5S1230.3,420,1230.3,539
		c0,84,46.8,156.8,115,192.4C1353.9,748.8,1372,786,1372,786z"/>
	<path id="Line-Gun" class="st11" d="M1371,1305h142 M1513,1176h-142 M1516,1045h-146 M1371,916h142 M1511,786h-139 M1349,738l-9-18
		v-42c0,0,33.8,33,95,33s100.6-32.5,108-40c0,24.8,0,45,0,45l-14,31 M1542,718l-200,1"/>
	<path id="Line-Gun2" class="st11" d="M1434.5,456c46.1,0,83.5,37.4,83.5,83.5s-37.4,83.5-83.5,83.5s-83.5-37.4-83.5-83.5
		S1388.4,456,1434.5,456z"/>
	<path id="Line-Gun3" class="st11" d="M1304.5,405c-34.2,34.6-55.3,82.1-55.3,134.5c0,40,12.3,77.1,33.2,107.8
		c4.2-2.5,26.3-14.3,35.7-21c-17.4-24.5-27.6-54.4-27.6-86.8c0-42.5,17.7-80.9,46.1-108.2C1324.3,421.2,1317.4,415.8,1304.5,405z
		 M1592.6,647.3c21-30.7,33.2-67.8,33.2-107.8c0-52.3-21-99.7-55-134.3c-12.8,10.2-18.5,14-32.6,25.9
		c28.5,27.3,46.3,65.8,46.3,108.4c0,32.3-10.2,62.3-27.6,86.8L1592.6,647.3z"/>
</g>
<g id="Gun-Left">
	<path id="GunL-Fill" class="st14" d="M545.9,786.2v130.1h10l9,129h-19v131.1h9l10,129.1h-19v194.1H408.1v-194.1h-19l10-129.1h8
		v-131.1h-18l8-129h10V786.2c0,0-25.4-53.5-26.6-56.2c-66.6-36.1-112-108-112-190.9c0-119.1,93.8-215.6,209.5-215.6
		S687.5,420,687.5,539.1c0,84-46.7,156.8-114.9,192.4C564,749,545.9,786.2,545.9,786.2z"/>
	<path id="GunL-Shadow" class="st15" d="M376.1,718.2l31,70l137.9-1l32-68L376.1,718.2z"/>
	
		<radialGradient id="GunL-Shadow2_1_" cx="474.055" cy="1380.385" r="204.905" gradientTransform="matrix(1 0 0 -1 0 1920)" gradientUnits="userSpaceOnUse">
		<stop  offset="0.404" style="stop-color:#000000;stop-opacity:0"/>
		<stop  offset="1" style="stop-color:#000004"/>
	</radialGradient>
	<path id="GunL-Shadow2" class="st17" d="M687.3,539.6c0,84.9-48.2,158.3-115.1,193.7c0.6-1.5,2.7-4.7,3.7-12.1
		c1.4-11.1,1.5-28.8,1-40c-41.9,26.5-73.6,30-93.9,30c-23.6,0-54.7-0.8-108.9-38c-0.2,9.9,0.4,29.3,1,44c2.8,5.9,4.3,10.6,4.8,12
		c-66.5-36.8-111.3-107.8-111.3-189.5c0-119.4,93.1-216.1,214.8-216.1C588.5,323.5,687.3,420.3,687.3,539.6z M400.1,540.6
		c0,46.1,37.4,83.5,83.4,83.5c46.1,0,83.4-37.4,83.4-83.5c0-46.1-37.3-83.5-83.4-83.5C437.4,457.1,400.1,494.5,400.1,540.6z"/>
	<path id="Line-GunL-All" class="st11" d="M545.9,786.2v130.1h10l9,129h-19v131.1h9l10,129.1h-19v194.1H408.1v-194.1h-19l10-129.1h8
		v-131.1h-18l8-129h10V786.2c0,0-25.4-53.5-26.6-56.2c-66.6-36.1-112-108-112-190.9c0-119.1,93.8-215.6,209.5-215.6
		S687.5,420,687.5,539.1c0,84-46.7,156.8-114.9,192.4C564,749,545.9,786.2,545.9,786.2z"/>
	<path id="Line-GunL" class="st11" d="M546.9,1305.4H405.1 M405.1,1176.4h141.9 M402.1,1045.3h145.9 M546.9,916.3H405.1
		 M407.1,786.2h138.9 M568.9,738.2l9-18v-42c0,0-33.7,33-94.9,33c-61.2,0-100.5-32.5-107.9-40c0,24.8,0,45,0,45l14,31 M376.1,718.2
		l199.8,1"/>
	<path id="Line-GunL2" class="st11" d="M483.5,456.1c46.1,0,83.4,37.4,83.4,83.5c0,46.1-37.3,83.5-83.4,83.5
		c-46.1,0-83.4-37.4-83.4-83.5C400.1,493.5,437.4,456.1,483.5,456.1z"/>
	<path id="Line-GunL3" class="st11" d="M613.4,405c34.1,34.6,55.2,82.1,55.2,134.6c0,40-12.3,77.1-33.2,107.8
		c-4.2-2.5-26.3-14.3-35.7-21c17.4-24.5,27.6-54.5,27.6-86.8c0-42.5-17.7-80.9-46.1-108.3C593.6,421.2,600.5,415.9,613.4,405z
		 M325.6,647.4c-20.9-30.7-33.2-67.8-33.2-107.8c0-52.3,21-99.8,55-134.3c12.8,10.2,18.4,14,32.6,25.9
		c-28.5,27.3-46.3,65.8-46.3,108.4c0,32.3,10.2,62.3,27.6,86.8L325.6,647.4z"/>
</g>
</svg>
