<?xml version="1.0" encoding="utf-8"?>
<!-- Generator: Adobe Illustrator 22.0.0, SVG Export Plug-In . SVG Version: 6.00 Build 0)  -->
<svg version="1.1" id="Слой_1" xmlns="http://www.w3.org/2000/svg" xmlns:xlink="http://www.w3.org/1999/xlink" x="0px" y="0px"
	 viewBox="0 0 1920 1920" style="enable-background:new 0 0 1920 1920;" xml:space="preserve">
<style type="text/css">
	.st0{fill:#F2F2F2;}
	.st1{opacity:0.302;fill:url(#Body-Shadow11_1_);enable-background:new    ;}
	.st2{opacity:0.2;fill:url(#Body-Shadow8_1_);enable-background:new    ;}
	.st3{opacity:0.2;fill:url(#Body-Shadow5_1_);enable-background:new    ;}
	.st4{opacity:0.302;fill:url(#Body-Shadow9_1_);enable-background:new    ;}
	.st5{opacity:0.502;fill:url(#Body-Shadow6_1_);enable-background:new    ;}
	.st6{opacity:0.502;fill:url(#Body-Shadow3_1_);enable-background:new    ;}
	.st7{opacity:0.2;fill:url(#Engine-Left2-Shadow_1_);enable-background:new    ;}
	.st8{opacity:0.2;fill:url(#Engine-Left-Shadow_1_);enable-background:new    ;}
	.st9{opacity:0.2;fill:url(#Engine-Right-Shadow_1_);enable-background:new    ;}
	.st10{opacity:0.2;fill:url(#Engine-Right2-Shadow_1_);enable-background:new    ;}
	.st11{fill:url(#Engine-Left2-Shadow3_1_);}
	.st12{fill:url(#Engine-Left-Shadow2_1_);}
	.st13{fill:url(#Engine-Right-Shadow3_1_);}
	.st14{fill:url(#Engine-Right2-Shadow3_1_);}
	.st15{opacity:0.502;fill:url(#Engine-Left2-Shadow4_1_);enable-background:new    ;}
	.st16{opacity:0.502;fill:url(#Engine-Left-Shadow3_1_);enable-background:new    ;}
	.st17{opacity:0.502;fill:url(#Engine-Right-Shadow4_1_);enable-background:new    ;}
	.st18{fill:#B3B3B3;}
	.st19{opacity:0.502;fill:url(#Engine-Right2-Shadow4_1_);enable-background:new    ;}
	.st20{fill:#CCCCCC;}
	.st21{fill:url(#Gradient_1_);}
	.st22{opacity:0.302;fill:url(#Body-Shadow_1_);enable-background:new    ;}
	.st23{fill:#FE0000;}
	.st24{opacity:0.4;fill:url(#Eye-Shadow3_1_);enable-background:new    ;}
	.st25{opacity:0.502;fill:url(#Eye-Shadow_1_);enable-background:new    ;}
	.st26{opacity:0.4;fill:url(#Eye-Shadow2_1_);enable-background:new    ;}
	.st27{opacity:0.502;fill:url(#Shadow-LegL_1_);enable-background:new    ;}
	.st28{opacity:0.502;fill:url(#Engine-Right-Shadow2_1_);enable-background:new    ;}
	.st29{opacity:0.502;fill:url(#Engine-Right2-Shadow2_1_);enable-background:new    ;}
	.st30{opacity:0.502;fill:url(#Engine-Left2-Shadow2_1_);enable-background:new    ;}
	.st31{fill:#D539B5;}
	.st32{fill:#9FAEE5;}
	.st33{opacity:0.302;fill:url(#Body-Shadow10_1_);enable-background:new    ;}
	.st34{opacity:0.302;fill:url(#Body-Shadow7_1_);enable-background:new    ;}
	.st35{opacity:0.302;fill:url(#Body-Shadow4_1_);enable-background:new    ;}
	.st36{fill:none;stroke:#1A1A1A;stroke-width:10;}
</style>
<path id="Fill-All" class="st0" d="M717,454c25.5-16.7,76-29.9,76-29.9s38.7-11.7,90-19.1c0.2-204.1-18.2-280.3,77-294
	c93.3,12.4,73.7,74.4,75.9,294c50,7.4,88.1,19,88.1,19s40.4,12.4,74.8,26.7c17.5-22.8,47.7-29,58.2-28.7c57.3,1.2,70,51,70,51
	s-12.5,13.4,37-37c-8.7-65,6.3-112.2,49-162s66.8-55.5,86-63c3.3-14.3,22-38,22-38s31-32.1,58-59s63-34,63-34s45.3-4.7,83-5
	s58,11,58,11l25-5c0,0,32.8,17,37,36c-3.7,14.6-5,22-5,22s10.5,24.5,10,41s-5,89-5,89s-1.8,32.8-19,54s-69,73-69,73
	s-26.9,24.8-50,29c-10.5,21.5-19.1,47.6-69,85s-66.2,45.2-138,47c-24,24.3-85,83-85,83s30.6,37,42,67c21.4-0.4,54,0,54,0
	s53.4,90.4,63,186s-6.2,219.8-49,292c-27,0.5-54,1-54,1s-13.7,42.4-54,97c38.3,37.4,78,81,78,81s113.7-32,212,134
	c31.9,11.2,34.6,19.6,49,31s65,75,65,75s21,20.2,20,71s1,79,1,79s-5.3,24.8-9,32c2,11.7,4,24,4,24s-6.7,22.6-35,37
	c-12.6-1.8-25-6-25-6s-22.2,8.1-38,10s-71.9-1.8-91-4s-50.9-14.9-73-36s-58-59-58-59s-20.2-19.4-24-44c-20.4-8.5-37.2-16.9-64-46
	s-79.3-81.3-64-172c-24.6-22.9-78-74-78-74s-65.1,51-168,84c0.3,29.3,0,38,0,38h-11v65l-299,0.4v-65h-11c0,0-0.3-8.7,0-38
	c-18-5.8-34.9-12.1-50.5-18.6c-67.8,0.5-114.5,1.3-114.5,1.3s-0.2-16.7,0-33c-1.7-0.2-4,0-6,0c0.2-16.3,1-31.7,0.1-30.9
	c-11.4,10.9-53.9,51.6-75.1,71.3c15.3,90.7-37.2,143-64,172.1c-26.8,29.1-43.6,37.5-64,46c-3.8,24.6-24,44-24,44s-36,37.9-58,59
	c-22,21.1-53.9,33.8-73,36c-19.1,2.2-75.2,5.9-91,4c-15.8-1.9-38-10-38-10s-12.4,4.2-25,6c-28.3-14.4-35-37-35-37s2-12.3,4-24
	c-3.7-7.2-9-32-9-32s2-28.2,1-79c-1-50.8,20-71,20-71s50.6-63.6,65-75c14.4-11.4,17.1-19.8,49-31c98.3-166,212-134,212-134
	s39.8-43.6,78-81c-40.3-54.6-54-97-54-97s-27-0.5-54-1c-42.8-72.2-58.6-196.5-49-292.1s63-186,63-186s32.6-0.4,54,0
	c11.4-30,42-67,42-67s-61-58.7-85-83c-71.8-1.8-88.1-9.6-138-47c-49.9-37.4-58.5-63.5-69-85c-1.2-3.2-2.6-3.5-3-7.1
	c-14-0.1-47-21.9-47-21.9s-51.8-51.9-69-73c-17.2-21.2-19-54-19-54s-4.5-72.5-5-89s10-41,10-41s-1.3-7.4-5-22c4.2-19,37-36,37-36
	l25,5c0,0,20.3-11.3,58-11s83,5,83,5s36,7.1,63,34c27,26.9,58,59,58,59s18.7,23.7,22,38c19.3,7.5,43.3,13.2,86,63
	c42.7,49.9,57.7,97.1,49,162.1c13,13.2,24.2,24.6,33.5,34.1C613.5,420.4,656,422,656,422S694.9,421.5,717,454z"/>
<radialGradient id="Body-Shadow11_1_" cx="961.946" cy="1803.885" r="111.315" gradientTransform="matrix(1 0 0 -1 0 1920)" gradientUnits="userSpaceOnUse">
	<stop  offset="0" style="stop-color:#F2F2F2"/>
	<stop  offset="1" style="stop-color:#000000"/>
</radialGradient>
<path id="Body-Shadow11" class="st1" d="M960,111c-18.7,0-77,14.8-77,87c60.6,46.9,151,14.5,151-3S1025.5,111,960,111z"/>
<radialGradient id="Body-Shadow8_1_" cx="649.019" cy="1482.093" r="144.868" gradientTransform="matrix(1 0 0 -1 0 1920)" gradientUnits="userSpaceOnUse">
	<stop  offset="0" style="stop-color:#F2F2F2"/>
	<stop  offset="1" style="stop-color:#000000"/>
</radialGradient>
<path id="Body-Shadow8" class="st2" d="M655,423c-18.7,0-73,17.8-73,90c10.8,24.3,22.6,51.4,42,54c48.4,6.5,88.7-24.4,106-60
	c2.7-5.6,3.6-22.5-1-36C711.9,445.6,697.2,423,655,423z"/>
<radialGradient id="Body-Shadow5_1_" cx="1251.6281" cy="1477.7729" r="144.993" gradientTransform="matrix(1 0 0 -1 0 1920)" gradientUnits="userSpaceOnUse">
	<stop  offset="0" style="stop-color:#F2F2F2"/>
	<stop  offset="1" style="stop-color:#000000"/>
</radialGradient>
<path id="Body-Shadow5" class="st3" d="M1260.1,423c18.6,0,72.9,17.8,72.9,90.1c-10.8,24.3-22.5,51.4-41.9,54
	c-48.3,6.6-88.5-24.4-105.8-60c-2.7-5.6-3.6-22.6,1-36C1203.4,445.6,1218,423,1260.1,423z"/>
<linearGradient id="Body-Shadow9_1_" gradientUnits="userSpaceOnUse" x1="891.918" y1="1436.4032" x2="1028.9479" y2="1433.8202" gradientTransform="matrix(1 0 0 -1 0 1920)">
	<stop  offset="0" style="stop-color:#000000"/>
	<stop  offset="0.5" style="stop-color:#F2F2F2"/>
	<stop  offset="1" style="stop-color:#000000"/>
</linearGradient>
<path id="Body-Shadow9" class="st4" d="M890,416c-0.2,1.3,1,112,1,112s21.1,26,69,26s65.5-22.6,66-32c0.6-11.7,1-105,1-105
	s-24.3,21-69,21C913.6,438,890.1,415.4,890,416z"/>
<linearGradient id="Body-Shadow6_1_" gradientUnits="userSpaceOnUse" x1="696.3252" y1="1175.6511" x2="845.2592" y2="1302.9421" gradientTransform="matrix(1 0 0 -1 0 1920)">
	<stop  offset="0" style="stop-color:#000000"/>
	<stop  offset="0.5" style="stop-color:#F2F2F2"/>
	<stop  offset="1" style="stop-color:#000000"/>
</linearGradient>
<path id="Body-Shadow6" class="st5" d="M685,676l31,48c0,0,33.7,29.3,63,16s48.6-24,51-40s8.5-27-2-47s-24-41-24-41s1,29.1-43,58
	C723.8,694.5,685,676,685,676z"/>
<linearGradient id="Body-Shadow3_1_" gradientUnits="userSpaceOnUse" x1="1211.4824" y1="1173.9167" x2="1080.4734" y2="1304.9266" gradientTransform="matrix(1 0 0 -1 0 1920)">
	<stop  offset="0" style="stop-color:#000000"/>
	<stop  offset="0.5" style="stop-color:#F2F2F2"/>
	<stop  offset="1" style="stop-color:#000000"/>
</linearGradient>
<path id="Body-Shadow3" class="st6" d="M1229,675.8l-31,47.8c0,0-33.7,29.3-63,15.9c-29.3-13.3-48.6-23.9-51-39.8
	c-2.4-15.9-8.5-26.9,2-46.8c10.5-20,24-40.8,24-40.8s-1,29,43,57.8C1190.2,694.2,1229,675.8,1229,675.8z"/>
<radialGradient id="Engine-Left2-Shadow_1_" cx="407.443" cy="1526.881" r="150.751" gradientTransform="matrix(1 0 0 -1 0 1920)" gradientUnits="userSpaceOnUse">
	<stop  offset="0.1" style="stop-color:#F2F2F2"/>
	<stop  offset="1" style="stop-color:#000000"/>
</radialGradient>
<path id="Engine-Left2-Shadow" class="st7" d="M501,275c24.2,19.4,74.5,86.4,45,184s-141.1,99-145,99s-83,2.3-141-67
	c-40.2-74.9,6-198.8,121-228C418.3,251.2,476.8,255.6,501,275z"/>
<radialGradient id="Engine-Left-Shadow_1_" cx="399.339" cy="427.39" r="151.001" gradientTransform="matrix(1 0 0 -1 0 1920)" gradientUnits="userSpaceOnUse">
	<stop  offset="0.1" style="stop-color:#F2F2F2"/>
	<stop  offset="1" style="stop-color:#000000"/>
</radialGradient>
<path id="Engine-Left-Shadow" class="st8" d="M501,1647.5c24.2-19.5,74.5-86.5,45-184.3c-29.5-97.8-141-99.2-144.9-99.2
	c-3.9,0-82.9-2.3-140.9,67.1c-40.2,75.1,6,199.1,120.9,228.4C418.4,1671.3,476.9,1666.9,501,1647.5z"/>
<radialGradient id="Engine-Right-Shadow_1_" cx="1520.644" cy="425.187" r="151.001" gradientTransform="matrix(1 0 0 -1 0 1920)" gradientUnits="userSpaceOnUse">
	<stop  offset="0.1" style="stop-color:#F2F2F2"/>
	<stop  offset="1" style="stop-color:#000000"/>
</radialGradient>
<path id="Engine-Right-Shadow" class="st9" d="M1418,1647.5c-24.2-19.5-74.5-86.5-45-184.3c29.5-97.8,141-99.2,144.9-99.2
	c3.9,0,82.9-2.3,140.8,67.1c40.2,75.1-6,199.1-120.9,228.4C1500.6,1671.3,1442.1,1666.9,1418,1647.5z"/>
<radialGradient id="Engine-Right2-Shadow_1_" cx="1494.7791" cy="1521.928" r="150.986" gradientTransform="matrix(1 0 0 -1 0 1920)" gradientUnits="userSpaceOnUse">
	<stop  offset="0.1" style="stop-color:#F2F2F2"/>
	<stop  offset="1" style="stop-color:#000000"/>
</radialGradient>
<path id="Engine-Right2-Shadow" class="st10" d="M1417,274.6c-24.2,19.5-74.5,86.5-45,184.3c29.5,97.8,141,99.1,144.9,99.1
	c3.9,0,82.9,2.3,140.8-67.1c40.2-75.1-6-199.1-120.9-228.4C1499.6,250.8,1441.1,255.1,1417,274.6z"/>
<linearGradient id="Engine-Left2-Shadow3_1_" gradientUnits="userSpaceOnUse" x1="162.1584" y1="1553.9197" x2="341.5014" y2="1776.4207" gradientTransform="matrix(1 0 0 -1 0 1920)">
	<stop  offset="0" style="stop-color:#808080"/>
	<stop  offset="0.5" style="stop-color:#E6E6E6"/>
	<stop  offset="1" style="stop-color:#939393"/>
</linearGradient>
<path id="Engine-Left2-Shadow3" class="st11" d="M389,208c-29.8-26.7-69.2-70.4-149-38s-113.4,152.9-39,211
	C209.8,331.5,230.2,209.7,389,208z"/>
<linearGradient id="Engine-Left-Shadow2_1_" gradientUnits="userSpaceOnUse" x1="335.7355" y1="145.0979" x2="174.2645" y2="367.0979" gradientTransform="matrix(1 0 0 -1 0 1920)">
	<stop  offset="0" style="stop-color:#808080"/>
	<stop  offset="0.5" style="stop-color:#E6E6E6"/>
	<stop  offset="1" style="stop-color:#939393"/>
</linearGradient>
<path id="Engine-Left-Shadow2" class="st12" d="M389,1711.6c-29.8,26.6-69,70.3-148.7,37.9c-79.6-32.4-113.2-152.6-38.9-210.5
	C210.1,1588.4,230.5,1709.9,389,1711.6z"/>
<linearGradient id="Engine-Right-Shadow3_1_" gradientUnits="userSpaceOnUse" x1="1554.8448" y1="139.3928" x2="1783.8278" y2="351.4338" gradientTransform="matrix(1 0 0 -1 0 1920)">
	<stop  offset="0" style="stop-color:#808080"/>
	<stop  offset="0.5" style="stop-color:#E6E6E6"/>
	<stop  offset="1" style="stop-color:#939393"/>
</linearGradient>
<path id="Engine-Right-Shadow3" class="st13" d="M1529,1711.6c29.8,26.6,69.1,70.3,148.7,37.9c79.6-32.4,113.2-152.6,38.9-210.5
	C1707.9,1588.4,1687.5,1709.9,1529,1711.6z"/>
<linearGradient id="Engine-Right2-Shadow3_1_" gradientUnits="userSpaceOnUse" x1="1771.7588" y1="1585.4794" x2="1542.7748" y2="1768.6674" gradientTransform="matrix(1 0 0 -1 0 1920)">
	<stop  offset="0" style="stop-color:#808080"/>
	<stop  offset="0.5" style="stop-color:#E6E6E6"/>
	<stop  offset="1" style="stop-color:#939393"/>
</linearGradient>
<path id="Engine-Right2-Shadow3" class="st14" d="M1527,208.6c29.8-26.7,69.1-70.6,148.7-38.1c79.6,32.5,113.2,153.3,38.9,211.5
	C1705.9,332.4,1685.5,210.3,1527,208.6z"/>
<linearGradient id="Engine-Left2-Shadow4_1_" gradientUnits="userSpaceOnUse" x1="44.891" y1="1566.7844" x2="294.277" y2="1876.1825" gradientTransform="matrix(1 0 0 -1 0 1920)">
	<stop  offset="0" style="stop-color:#0D0D0D"/>
	<stop  offset="0.5" style="stop-color:#E6E6E6"/>
	<stop  offset="1" style="stop-color:#171717"/>
</linearGradient>
<path id="Engine-Left2-Shadow4" class="st15" d="M360,138c-9.5-11.9-37.6-42.6-59-50s-99.9-17-135-12s-93.9,44.2-100,97
	c2,40.6,8,119,8,119s5.2,26.9,75,92c-20.5-44.7-47.7-105.4,16-189S331.5,125.8,360,138z"/>
<linearGradient id="Engine-Left-Shadow3_1_" gradientUnits="userSpaceOnUse" x1="343.7479" y1="30.466" x2="49.7479" y2="324.4659" gradientTransform="matrix(1 0 0 -1 0 1920)">
	<stop  offset="0" style="stop-color:#0D0D0D"/>
	<stop  offset="0.5" style="stop-color:#E6E6E6"/>
	<stop  offset="1" style="stop-color:#171717"/>
</linearGradient>
<path id="Engine-Left-Shadow3" class="st16" d="M367,1786.7c-9.5,11.9-37.6,42.5-59,49.9c-21.4,7.4-99.9,17-135,12
	c-35.1-5-93.9-44.1-100-96.9c2-40.5,8-118.8,8-118.8s5.2-26.9,75-91.9c-20.5,44.6-47.7,105.3,16,188.8
	C235.7,1813.3,338.5,1798.8,367,1786.7z"/>
<linearGradient id="Engine-Right-Shadow4_1_" gradientUnits="userSpaceOnUse" x1="1591.9242" y1="66.4042" x2="1874.1503" y2="314.7823" gradientTransform="matrix(1 0 0 -1 0 1920)">
	<stop  offset="0" style="stop-color:#0D0D0D"/>
	<stop  offset="0.5" style="stop-color:#E6E6E6"/>
	<stop  offset="1" style="stop-color:#171717"/>
</linearGradient>
<path id="Engine-Right-Shadow4" class="st17" d="M1559,1786.7c9.5,11.9,37.6,42.5,59,49.9c21.4,7.4,99.9,17,135,12
	c35.1-5,81.9-41.8,88-94.6c0.9-38-1-103-1-103s5.5-30.1-70-110c20.5,44.6,47.7,105.3-16,188.8
	C1690.3,1813.3,1587.5,1798.8,1559,1786.7z"/>
<path id="Engine-Shadow" class="st18" d="M132,87l-24-6c0,0-36.3,26.2-37,37c2.9,11.8,8,19,8,19s11-14.7,24-27
	C116.5,97.3,132,87,132,87z M1784,87c0.8,0.1,22.6-7.5,23-7s35.2,24.3,38,35c-1.4,11.5-6,24-6,24s-10.9-16.7-24-29
	C1800.4,96.3,1783.6,86.9,1784,87z M1833,1790c0,0.4,5,24,5,24s-22.8,29.6-36,33c-14.3-2.6-21-8-21-8s14.3-8,27-20
	C1821.3,1806.4,1833,1789.8,1833,1790z M85,1788c0,0,26.6,42.4,53,51c-12.8,5-24,8-24,8s-30.2-19.5-34-34
	C81.6,1795.2,85,1788,85,1788z"/>
<linearGradient id="Engine-Right2-Shadow4_1_" gradientUnits="userSpaceOnUse" x1="1880.5715" y1="1597.7124" x2="1586.5715" y2="1849.7004" gradientTransform="matrix(1 0 0 -1 0 1920)">
	<stop  offset="0" style="stop-color:#0D0D0D"/>
	<stop  offset="0.5" style="stop-color:#E6E6E6"/>
	<stop  offset="1" style="stop-color:#171717"/>
</linearGradient>
<path id="Engine-Right2-Shadow4" class="st19" d="M1558,138.3c9.5-11.9,37.6-42.5,59-49.9s99.9-17,135-12c35.1,5,93.9,44.1,100,96.9
	c-2,40.5-8,118.8-8,118.8s-5.2,26.9-75,91.9c20.5-44.6,47.7-105.3-16-188.8C1689.3,111.7,1586.5,126.2,1558,138.3z"/>
<path id="Body-Shadow2" class="st20" d="M446,1187h33c0,0,36,75.3,59,100c-3.8,4.8-4,6-4,6l73,73c0,0,4.4-7.3,5-7s14,14,14,14l1,40
	c0,0-60.4-43.1-110-105C477.2,1258.3,446,1187,446,1187z M593,541c-20.2,12.6-104.2,101.2-131,167c20.6-0.5,31,1,31,1
	s49.5-92.8,115-145C602,552.8,599.2,550.9,593,541z M884,404c-24.3,2-134.6,28.5-167,50c9.1,10.7,23,31,23,31s59.2-41.1,151-48
	C888.3,422.1,888.3,415.4,884,404z M1034,404c20,3.2,116,21.4,164,48c-6.9,6.6-17,25-17,25s-95.3-35.4-155-39
	C1026.7,423,1029.9,416.9,1034,404z M1305,562c14.1,9.3,71.3,61.8,122,147c13.3-0.3,30-2,30-2s-11.3-28.2-40-67s-86.2-100.5-96-106
	C1313.4,548.5,1312.4,552.5,1305,562z M1470,1188c0,0-85.2,225.4-350,314c0.3-11.1,0-20,0-20l57-21l1-20l127-80l6,5l70-73l-4-7
	c0,0,41.9-52.1,60-100C1457.2,1185.5,1470,1188,1470,1188z M746,1464l52,22v17l-53-22L746,1464z"/>
<radialGradient id="Gradient_1_" cx="958.0004" cy="962.855" r="523.8578" gradientTransform="matrix(1 0 0 -1 0 1920)" gradientUnits="userSpaceOnUse">
	<stop  offset="0" style="stop-color:#9FAEE5"/>
	<stop  offset="1" style="stop-color:#D539B5"/>
</radialGradient>
<path id="Gradient" class="st21" d="M1367,622c26.7,26.2,68.8,100.8,79,131c23.4,68.9,39.9,142.6,40,201c0.1,62.3-17.9,171.5-48,229
	c-34.9,66.7-62,104-62,104l7,5l-71,73c0,0-3.6-3.3-7-7c-31.6,32.1-76.8,54.7-126,82c-4.5,2.5,1.4,19.9-3.3,22.2
	c-15.1,7.4-31.6,13.8-49.7,18.8c-25.6-82.1-65-197.7-68-209c-91.4,20.8-102.5,18.6-199,0c-11.4,34.1-66.5,199.6-67,209
	c-17.2-3.9-30.7-10.8-47-17c-3.7-1.4-2.6-21.5-6.3-23c-47.2-19.4-89.9-46.3-123.7-82c-8.8,5.5-9,7-9,7s-52.5-52.8-69-72
	c-3.7-4.2,1-7,1-7s-3.6-7.4-6-14c-9.3-10.3-102-133.8-102-311c0-243.5,164-388,164-388s4.4-4.6,12.8-12
	c25.9,39.2,59.2,104.2,81.2,117c6.9,21.5,40.5,69.5,72,65c12.7,18.8,28.8,16.2,45,7c12.3-5.9,22.3-13.1,21-40c7-12.5,9.1-25.7,6-42
	c-5.1-27-22.5-49.1-35.6-78C770.3,533.4,738,483,738,483s66.7-29.1,72-32c23.5-6.5,50-11.6,79.6-15.3c0.7,33.4,2.9,74.3,4.4,93.3
	c11.9,18.6,45.1,26.6,66.4,27.3c12.9-0.6,50.2-4.5,64.6-30.3c4.1-22.6,2.7-63.5,2.6-92.7c50.7,6.8,152.4,42.7,152.4,42.7
	s-35.8,62.3-46,79c-12.8,31.4-31.6,68.4-49,99c-17.7,31.2,4,55,4,55s-8,26.4,17,42c23.6,11.2,38.5,6,47.7-7.5
	c47.2,2.9,73.3-65.5,73.3-65.5s14-0.1,78.5-116.4C1305.5,562.9,1349.2,601.8,1367,622z M651,1208c0,11.6,9.6,21,21.5,21
	s21.5-9.4,21.5-21s-9.6-21-21.5-21S651,1196.4,651,1208z M568,1206.5c0,12.4,10.1,22.5,22.5,22.5s22.5-10.1,22.5-22.5
	s-10.1-22.5-22.5-22.5S568,1194.1,568,1206.5z M838,957c0,108.7,93.4,125,121,125s121-19.9,121-120s-91-125-119-125
	C933,837,838,863.7,838,957z"/>
<radialGradient id="Body-Shadow_1_" cx="958.0004" cy="962.496" r="524.4943" gradientTransform="matrix(1 0 0 -1 0 1920)" gradientUnits="userSpaceOnUse">
	<stop  offset="0.3" style="stop-color:#000000;stop-opacity:0"/>
	<stop  offset="1" style="stop-color:#000000"/>
</radialGradient>
<path id="Body-Shadow" class="st22" d="M1367,622c26.7,26.2,68.8,100.8,79,131c23.4,68.9,39.9,142.6,40,201
	c0.1,62.3-17.9,171.5-48,229c-34.9,66.7-62,104-62,104l7,5l-71,73c0,0-3.6-3.3-7-7c-31.6,32.1-76.8,54.7-126,82
	c-4.5,2.5,1.4,19.9-3.3,22.2c-15.1,7.4-31.6,13.8-49.7,18.8c-4.9-13.1-10-28.7-13-40c-53.8,18.6-103.4,24-153,24
	c-63.8,0-103.8-13.6-156-24c-3.2-0.6-8.5,31.6-9,41c-17.2-3.9-33.7-11.8-50-18c-3.7-1.4-2.6-21.5-6.3-23
	c-47.2-19.4-89.9-46.3-123.7-82c-8.8,5.5-9,7-9,7s-52.5-52.8-69-72c-3.7-4.2,1-7,1-7s-3.6-7.4-6-14c-9.3-10.3-102-133.8-102-311
	c0-243.5,164-388,164-388s7-2.9,13.7-12.8c38.5,64.9,60.9,102.3,82.3,119.8c47.3,83,59.1,49.1,71,64c11.2,14,28.2,16.9,42,9
	c13.2-6.3,26.8-20.9,23-43c2.9-12.1,9-19,7-33c-4.1-28.4-22.3-56.4-36-87c-26.1-58.5-61-109-61-109s68.7-28.1,74-31
	c23.6-6.5,50.2-11.6,79.9-15.3c0.7,28.6,1.2,65.5,4.1,94.3c14.1,22.4,53.7,25.5,66,25.8c10.3,0.3,42.9-4,57-17.8
	c13.1-12.8,8.7-65.3,8.5-105c0.6-0.2,43,9.1,83.5,21c36.3,10.6,71,24,71,24s-61.8,90.6-71,133c-11.8,23-27,54-27,54s-2.6,10-1,24
	c0.7,6.4,5,13.9,6,21c2.3,15.8,1,32.8,18,39c24.2,12.2,27.7,12.9,50-4c11.5-3.9,25.2-4.6,36-15c20-19.3,34-52,34-52
	s17.5,2.9,81.4-115.5C1330.3,586,1349.4,602.1,1367,622z M651,1208c0,11.6,9.6,21,21.5,21s21.5-9.4,21.5-21s-9.6-21-21.5-21
	S651,1196.4,651,1208z M566,1207.5c0,12.4,10.1,22.5,22.5,22.5s22.5-10.1,22.5-22.5s-10.1-22.5-22.5-22.5S566,1195.1,566,1207.5z"/>
<path id="Red-Eye" class="st23" d="M812,1575h295v23H812V1575z M638,1470h105v8H638V1470z"/>
<linearGradient id="Eye-Shadow3_1_" gradientUnits="userSpaceOnUse" x1="1103.0044" y1="361.018" x2="813.9501" y2="361.018" gradientTransform="matrix(1 0 0 -1 0 1920)">
	<stop  offset="0" style="stop-color:#000004"/>
	<stop  offset="0.5" style="stop-color:#000000;stop-opacity:0"/>
	<stop  offset="1" style="stop-color:#000004"/>
</linearGradient>
<path id="Eye-Shadow3" class="st24" d="M814,1543c15,0,75.9-0.1,146,0c49.7,0,101.9,0,143,0c0,15.6,0,32,0,32s-53.4,0-143,0
	c-41.5-0.3-92.1-0.1-146,0C814,1566.8,813.9,1553.1,814,1543z"/>
<linearGradient id="Eye-Shadow_1_" gradientUnits="userSpaceOnUse" x1="742.0045" y1="497" x2="630.9501" y2="497" gradientTransform="matrix(1 0 0 -1 0 1920)">
	<stop  offset="0" style="stop-color:#000004"/>
	<stop  offset="0.5" style="stop-color:#000000;stop-opacity:0"/>
	<stop  offset="1" style="stop-color:#000004"/>
</linearGradient>
<path id="Eye-Shadow" class="st25" d="M631,1376c41,27.6,79.3,54.6,111,66c0,15.6,0,28,0,28s-84.9-0.2-111,0
	C631,1461.8,630.9,1386.1,631,1376z"/>
<linearGradient id="Eye-Shadow2_1_" gradientUnits="userSpaceOnUse" x1="1117.0056" y1="433" x2="800.9501" y2="433" gradientTransform="matrix(1 0 0 -1 0 1920)">
	<stop  offset="0" style="stop-color:#000004"/>
	<stop  offset="0.5" style="stop-color:#000000;stop-opacity:0"/>
	<stop  offset="1" style="stop-color:#000004"/>
</linearGradient>
<path id="Eye-Shadow2" class="st26" d="M801,1466c-0.3-8.8,0.9-24,5-24c26.7,4.7,93.4,23.9,154,24c45,0,115.7-9.3,151-26
	c4.3,0,6.1,21.1,6,26c0,15.6,0,68,0,68s-67.4,0-157,0c-41.5-0.3-105.1-0.1-159,0C801,1525.8,800.9,1476.1,801,1466z"/>
<linearGradient id="Shadow-LegL_1_" gradientUnits="userSpaceOnUse" x1="630.616" y1="434.3291" x2="426.6161" y2="632.9191" gradientTransform="matrix(1 0 0 -1 0 1920)">
	<stop  offset="9.800000e-02" style="stop-color:#000004"/>
	<stop  offset="0.5" style="stop-color:#000000;stop-opacity:0.2"/>
	<stop  offset="0.901" style="stop-color:#000004"/>
</linearGradient>
<path id="Shadow-LegL" class="st27" d="M628,1415c0,0-65.9,71.1-71,77c-28.9-94.1-65.4-102.2-133-128c28.1-27.6,78-83,78-83
	s26.6,38.7,57,71C591.5,1386.6,628,1415,628,1415z"/>
<linearGradient id="Engine-Right-Shadow2_1_" gradientUnits="userSpaceOnUse" x1="1295.6641" y1="446.263" x2="1499.6641" y2="633.9171" gradientTransform="matrix(1 0 0 -1 0 1920)">
	<stop  offset="9.800000e-02" style="stop-color:#000004"/>
	<stop  offset="0.5" style="stop-color:#000000;stop-opacity:0.2"/>
	<stop  offset="0.901" style="stop-color:#000004"/>
</linearGradient>
<path id="Engine-Right-Shadow2" class="st28" d="M1292,1415c0,0,65.9,71.1,71,77c28.9-94.1,65.4-102.2,133-128
	c-28.1-27.6-78-83-78-83s-26.6,38.7-57,71C1328.5,1386.6,1292,1415,1292,1415z"/>
<linearGradient id="Engine-Right2-Shadow2_1_" gradientUnits="userSpaceOnUse" x1="1487.1959" y1="1278.6521" x2="1327.261" y2="1478.5691" gradientTransform="matrix(1 0 0 -1 0 1920)">
	<stop  offset="9.800000e-02" style="stop-color:#000004"/>
	<stop  offset="0.5" style="stop-color:#000000;stop-opacity:0.2"/>
	<stop  offset="0.901" style="stop-color:#000004"/>
</linearGradient>
<path id="Engine-Right2-Shadow2" class="st29" d="M1415.9,637.8c0,0,78.3-75.6,84.1-80.8c-94.7-26.7-112.5-55-136.2-119.1
	c-10.6,11.6-24.1,25.1-36.4,37.2c5,7.4,4.6,29.9,4.6,29.9c0,0-5,22-10.5,29.6c10.1,9.3,22.1,20.3,34.5,31.4
	C1386.7,600.5,1415.9,637.8,1415.9,637.8z"/>
<linearGradient id="Engine-Left2-Shadow2_1_" gradientUnits="userSpaceOnUse" x1="427.0203" y1="1285.7328" x2="601.7183" y2="1478.8029" gradientTransform="matrix(1 0 0 -1 0 1920)">
	<stop  offset="9.800000e-02" style="stop-color:#000004"/>
	<stop  offset="0.5" style="stop-color:#000000;stop-opacity:0.2"/>
	<stop  offset="0.901" style="stop-color:#000004"/>
</linearGradient>
<path id="Engine-Left2-Shadow2" class="st30" d="M502.1,638c0,0-78.3-75.6-84.1-80.8c94.7-26.7,112.5-55,136.2-119.1
	c9.4,10.2,20.9,22,32,32.9c-5,27-5.3,40.7,6.6,67.4c-9.3,8.5-19.8,18.2-30.7,27.9C531.3,600.7,502.1,638,502.1,638z"/>
<path id="Pink" class="st31" d="M379.6,1711.4c-2.7-0.7-6.1-1.4-9.8-1.7c-49-4.2-87.6-28.4-87.8-26.7c-0.9,0.6-82.3-62.1-78.5-143.1
	c-61.5,47.5-48.8,109.5-27.5,148.1c21.6,39.1,83,85.3,135,74c42.2-9.2,64.7-35.8,71.6-45.4c1.6-2.2,38-4.3,37.9-3.3
	c-0.5,9-6.8,30.1-45.5,65.7c-109.6,44.3-178.5-16.8-199-34c-63.7-53.3-56.4-148.2-30-194s65-51,65-51s6-29.1,37-51
	c-2.5,13.5-25.4,93.3,50,169c13.9,13.9,102.5,69.5,201,33c-20.9,27.5-44.4,43.3-68,51.6c-11.9,4.2-11,5.4-11,5.4
	S382.9,1712.2,379.6,1711.4z M1713.9,1540.4c-0.9,49.3-28.5,94.5-33.9,100.6c2.8,10.7-60.4,70.4-147.4,72.2c4.7,7.9,28.1,33.8,74,49
	c52,11.3,113.4-34.9,135-74c21.1-38.2,33.8-99.4-25.6-146.7c-0.4-0.3-7.3-41-6.8-40.9c9.1,2.1,40.1,11.8,62.4,50.5
	c26.4,45.8,33.7,140.8-30,194.1c-20.5,17.2-89.4,78.4-199.1,34c-54-49.8-45-71.1-45-71.1s-41.1-7.5-74.6-56.2
	c43,15.8,87.7,13.2,93,14c2.5,0.4,169.9-19.9,154-216c19.6,14.7,31.4,32,37.7,50C1707.9,1500.3,1713.8,1539.8,1713.9,1540.4z
	 M500,274c-95.8-40.8-175.3-0.5-217,49c-31.7,37.6-36.8,80.8-38,97c-2.5,34.1,9.1,64.1,9,65c-2.9,10.2-48-67-48-67
	s-33.3,3.8-59.7-42c-26.4-45.8-33.7-140.7,30-194c20.5-17.2,83.1-82.3,192.7-38c34.9,32.1,46.1,57.6,48,66
	c-9.9-2.4-29.9-2.5-30.6-3.2c-0.8-0.9-2.1-2.1-3.4-3.8c-9.7-11.8-39.4-37-76-45c-52-11.3-112.4,37.9-134,77
	c-17.6,31.8-25.8,78.6,5,121c7.1,9.8,16.3,24.1,28.3,33c0.4,4-26.4-59.7,50.7-134c39.8-38.3,85.3-49.3,126.1-46.4
	c1.5,0.1,2.6,0.1,3.3,0.1c0.2,0,29.3,0,54.6,12.3C472.3,236.3,501,265.1,500,274z M1495.8,214.7c-16.3,6.6-56,25.6-75.8,59.3
	c22.2-8.9,108.1-52.2,206,40c64.3,75.6,44.1,141.8,40,174c25.1-31.1,36-53,36-53l4.7-8c0,0,38.6-5.2,65-51
	c26.4-45.8,33.7-140.8-30-194.1c-20.5-17.2-89.4-78.3-199-34c-32.8,32.3-38.4,55-39.4,62c-0.2,1.5,19.3,0.4,26.8-0.3
	c5.1-7.4,30-40.5,76-50.5c52-11.3,117.4,39.8,139,79s26,92.1-29,143c-0.5,5.1-5.4-30-8-46c-5.9-36.3-26-56.4-61.2-89.6
	c-28-26.4-100.4-33.1-115.1-34.2C1529.9,211.1,1500.3,212.9,1495.8,214.7z"/>
<path id="Paint-Blue" class="st32" d="M432,946c-2.7,120.2,48.2,240,47,240c-2.5,0.1-58.2-0.1-87,0c-17-24.3-53-115.8-53-246
	s68-232,68-232l84-1C491,707,434.7,826.7,432,946z M1426,707l84,1c0,0,68,101.8,68,232c0,130.2-36,221.6-53,246
	c-28.8,0-84.5,0.1-87,0c-1.2,0,49.7-119.8,47-240C1482.3,826.7,1426,707,1426,707z M959,838c23.5,0,117,15.1,117,124
	s-103.8,121-117,121s-123-19.3-123-119S935.5,838,959,838z M889,961c0,57,59.7,68,70,68s67-7.9,67-66c0-65.6-50.7-72-66-72
	S889,904,889,961z M663,655c0,0-29.2-50.5-52.6-90.9c20.9,3.1,43.3,10.3,82.6-13.1c51.3-32.4,29.4-64,47-66
	c23,36.5,55.1,91.3,58,101c5.8,19.1,7.7,49.5-22,76s-45,24-68,21S663,655,663,655z M1179.9,480.5c5.4,29,9.8,49.1,43.1,70.5
	c30.9,19.9,63.2,21.6,85.5,7c-14.2,24.8-35.8,61.9-57.9,95.9c-24.6,38-73.8,27-80.6,25.1s-37-13.2-53-41s8-66,8-66
	S1179.4,481.4,1179.9,480.5z M884,406l-2-202c0,0,29.2,18,78,18s66-15.5,73-20c0.6,29.1,1,203,1,203s-12.5,33-74,33S884,406,884,406
	z M743,1461l102-228c0,0,112.5,50.9,230,2c26.9,65.6,99,227,99,227l-48,21l-71-212c0,0-81.1,38-195,2c-17.2,52.3-71,209-71,209
	S741.5,1460.6,743,1461z"/>
<linearGradient id="Body-Shadow10_1_" gradientUnits="userSpaceOnUse" x1="877.8395" y1="1599.2336" x2="1030.8396" y2="1601.9047" gradientTransform="matrix(1 0 0 -1 0 1920)">
	<stop  offset="0" style="stop-color:#000000"/>
	<stop  offset="0.501" style="stop-color:#000000;stop-opacity:0"/>
	<stop  offset="1" style="stop-color:#000000"/>
</linearGradient>
<path id="Body-Shadow10" class="st33" d="M882,202v204c0,0,20.1,32,78,32s74.1-29.3,75-36c0-24.7-1-199-1-199s-22.2,19-77,19
	C912.7,222,882,202,882,202z"/>
<linearGradient id="Body-Shadow7_1_" gradientUnits="userSpaceOnUse" x1="622.9713" y1="1269.2583" x2="814.9463" y2="1379.7384" gradientTransform="matrix(1 0 0 -1 0 1920)">
	<stop  offset="0" style="stop-color:#000000"/>
	<stop  offset="0.504" style="stop-color:#000000;stop-opacity:0"/>
	<stop  offset="1" style="stop-color:#000000"/>
</linearGradient>
<path id="Body-Shadow7" class="st34" d="M610,563l65,104c0,0,34.7,35.6,85,7s42.5-74.7,40-81c-12.7-26.3-63-110-63-110s-2,37-46,68
	C642.4,578.9,610,563,610,563z"/>
<linearGradient id="Body-Shadow4_1_" gradientUnits="userSpaceOnUse" x1="1295.9318" y1="1264.8026" x2="1103.9248" y2="1377.7676" gradientTransform="matrix(1 0 0 -1 0 1920)">
	<stop  offset="0" style="stop-color:#000000"/>
	<stop  offset="0.504" style="stop-color:#000000;stop-opacity:0"/>
	<stop  offset="1" style="stop-color:#000000"/>
</linearGradient>
<path id="Body-Shadow4" class="st35" d="M1304,563l-65,103.9c0,0-34.7,35.6-85,7c-50.3-28.6-42.5-74.7-40-81
	c12.7-26.3,63-109.9,63-109.9s2,37,46,68C1271.6,578.8,1304,563,1304,563z"/>
<path id="Line-All" class="st36" d="M883.7,404.9c-51.6,7.4-90.7,19.2-90.7,19.2s-47.6,14.4-78,29.9 M586.8,470.5
	c-9.4-9.6-20.7-21-33.8-34.4c8.7-65-6.3-112.2-49-162.1c-42.7-49.8-66.8-55.5-86-63c-3.3-14.3-22-38-22-38s-31-32.1-58-59
	c-27-26.9-63-34-63-34s-45.3-4.7-83-5s-58,11-58,11l-25-5c0,0-32.8,17-37,36c3.7,14.6,5,22,5,22s-10.5,24.5-10,41s5,89,5,89
	s1.8,32.8,19,54c17.2,21.2,69,73,69,73s33,21.8,47,21.9c0.4,3.6,1.8,3.9,3,7.1c10.5,21.6,19.1,47.6,69,85
	c49.9,37.4,66.2,45.2,138,47c24,24.3,85,83,85,83s-30.6,37-42,67c-21.4-0.4-54,0-54,0s-53.4,90.4-63,186s6.2,219.9,49,292.1
	c27,0.5,54,1,54,1s13.7,42.4,54,97c-38.3,37.4-78,81-78,81s-113.7-32-212,134c-31.9,11.2-34.6,19.6-49,31c-14.4,11.4-65,75-65,75
	s-21,20.2-20,71c1,50.8-1,79-1,79s5.3,24.8,9,32c-2,11.7-4,24-4,24s6.7,22.6,35,37c12.6-1.8,25-6,25-6s22.2,8.1,38,10
	c15.8,1.9,71.9-1.8,91-4c19.1-2.2,51-14.9,73-36c22-21.1,58-59,58-59s20.2-19.4,24-44c20.4-8.5,37.2-16.9,64-46
	c26.8-29.1,79.3-81.4,64-172.1c21.2-19.7,63.7-60.3,75.1-71.3c0.8-0.8,0.1,14.6-0.1,30.9c2,0,4.3-0.2,6,0c-0.2,16.3,0,33,0,33
	s46.7-0.8,114.5-1.3c15.6,6.5,32.4,12.8,50.5,18.6c-0.3,29.3,0,38,0,38h11v65l299-0.4v-65h11c0,0,0.3-8.7,0-38
	c102.9-33,168-84,168-84s53.4,51.1,78,74c-15.3,90.7,37.2,142.9,64,172s43.6,37.5,64,46c3.8,24.6,24,44,24,44s35.9,37.9,58,59
	s53.9,33.8,73,36s75.2,5.9,91,4s38-10,38-10s12.4,4.2,25,6c28.3-14.4,35-37,35-37s-2-12.3-4-24c3.7-7.2,9-32,9-32s-2-28.2-1-79
	s-20-71-20-71s-50.6-63.6-65-75s-17.1-19.8-49-31c-98.3-166-212-134-212-134s-39.8-43.6-78-81c40.3-54.6,54-97,54-97s27-0.5,54-1
	c42.8-72.2,58.6-196.4,49-292s-63-186-63-186s-32.6-0.4-54,0c-11.4-30-42-67-42-67s61-58.7,85-83c71.8-1.8,88.1-9.6,138-47
	s58.5-63.5,69-85c23.1-4.2,50-29,50-29s51.8-51.8,69-73s19-54,19-54s4.5-72.5,5-89s-10-41-10-41s1.3-7.4,5-22c-4.2-19-37-36-37-36
	l-25,5c0,0-20.3-11.3-58-11s-83,5-83,5s-36,7.1-63,34s-58,59-58,59s-18.7,26.7-22,41c-19.3,7.5-52.4,20.1-86,60
	c-42.7,49.8-57.7,97-49,162c-14.3,14.5-26.3,26.7-36.1,36.7 M1033.7,404.7c51.1,7.4,90.3,19.3,90.3,19.3s33.7,8.8,75.9,27.3"/>
<path id="L-Engine24" class="st36" d="M366,143c-22.2-13.2-106-37.8-185,36c-75.5,70.6-68.2,176.1-13.7,221"/>
<path id="L-Engine22" class="st36" d="M211,428c-3.9-11.1-30.3-88.1,41-167c41.4-45.9,113.3-59.6,170-48"/>
<path id="L-Engine23" class="st36" d="M202,383l-27-33c0,0-48.9-68.1,21-146c35-39,83.6-54,123-44c39.3,10,70.5,48.8,71,49"/>
<path id="L-Engine20" class="st36" d="M554,429c-1.4,18-20.9,113.6-143,128"/>
<path id="L-Body16" class="st36" d="M595.3,540.1c-12.1,11-30.5,27.1-43.5,41.2c-20,21.7-38.2,42.8-50.5,60.4"/>
<path id="L-Engine25" class="st36" d="M136,84c-15.5,7.4-43.8,25.9-62,62"/>
<path id="L-Engine18" class="st36" d="M1750.2,401.3c47.2-53.1,61.8-150.3-13.7-220.8c-79-73.8-162.8-49.2-185-36
	c-10.7,6.6-16.6,13.5-16.6,13.5"/>
<path id="L-Engine16" class="st36" d="M1706.6,429.3c3.9-11.1,30.3-88-41-166.9c-41.4-45.8-113.3-59.6-170-48"/>
<path id="L-Engine17" class="st36" d="M1715.6,384.3l27-33c0,0,48.9-68-21-145.9c-35-39-83.6-53.9-123-44c-39.3,9.9-70.5,48.8-71,49
	"/>
<path id="L-Engine14" class="st36" d="M1363.6,430.3c1.4,18,20.9,113.6,143,127.9"/>
<path id="L-Body29" class="st36" d="M1321.5,534c13.1,11.7,27.9,26,42.2,41.5c22.5,24.3,44,52.9,56.8,71.7"/>
<path id="L-Engine19" class="st36" d="M1781.5,85.5c15.5,7.4,43.8,25.9,62,62"/>
<path id="L-Engine12" class="st36" d="M1541.6,1777.5c22.2,13.2,119,44.8,198-29c75.5-70.6,60.9-167.8,13.7-220.9"/>
<path id="L-Engine10" class="st36" d="M1702.6,1490.7c3.9,11.1,35.3,88-36,166.9c-41.4,45.8-115.3,62.6-172,51"/>
<path id="L-Engine11" class="st36" d="M1712.6,1534.7l31,34c0,0,48.9,68-21,145.9c-35,39-83.6,54-123,44
	c-35.3-8.9-64-41.1-69.9-47.8"/>
<path id="L-Engine8" class="st36" d="M1364.6,1489.7c1.4-18,20.9-113.6,143-127.9"/>
<path id="L-Engine7" class="st36" d="M1288.6,1415.7c15.2-9.3,45.6-37.2,75.2-69.2c22.5-24.3,45-51.9,57.8-70.7"/>
<path id="L-Engine13" class="st36" d="M1773.5,1843.5c15.5-7.4,43.8-25.9,62-62"/>
<path id="L-Body12" class="st36" d="M589.5,1184c13,0,23.5,10.5,23.5,23.5s-10.5,23.5-23.5,23.5s-23.5-10.5-23.5-23.5
	S576.5,1184,589.5,1184z M672,1186c12.2,0,22,9.8,22,22s-9.8,22-22,22s-22-9.8-22-22S659.8,1186,672,1186z"/>
<path id="L-Engine5" class="st36" d="M376.4,1777.5c-22.2,13.2-119,44.8-198-29c-75.5-70.6-60.9-167.8-13.7-220.9"/>
<path id="L-Engine3" class="st36" d="M215.4,1490.7c-3.9,11.1-35.3,88,36,166.9c41.4,45.8,115.3,62.6,172,51"/>
<path id="L-Engine" class="st36" d="M263,1427c-36.1,32.6-24,144.2,38,193c72.9,57.5,164.4,62.2,216,8"/>
<path id="L-Engine9" class="st36" d="M1652.8,1426.7c36.1,32.6,24,144.3-38,193.2c-73,57.5-164.5,62.3-216.1,8"/>
<path id="L-Engine15" class="st36" d="M1652.8,498.3c36.1-32.6,24-146.3-38-195.2c-73-57.6-164.5-64.3-216.1-10"/>
<path id="L-Engine21" class="st36" d="M265.2,498c-36.1-32.5-23.9-146.1,38-194.9c72.9-57.5,164.2-64.2,215.9-10"/>
<path id="L-Engine4" class="st36" d="M205.4,1534.7l-31,34c0,0-48.9,68,21,145.9c35,39,89.1,54.4,128.6,44.4
	c35.3-8.9,58.4-41.5,64.3-48.2"/>
<path id="L-Engine2" class="st36" d="M552.4,1495.7c-1.4-18-19.9-118.6-142-132.9"/>
<path id="L-Body10" class="st36" d="M629,1413c-15.3-9.1-47-35.7-77-67.4c-22.8-24.1-44.6-52.5-57.6-71.1"/>
<path id="L-Body9" class="st36" d="M627,1375v46 M630,1450h111 M745,1456v27"/>
<path id="L-Body7" class="st36" d="M798,1504v-46"/>
<path id="L-Body6" class="st36" d="M1119,1504v-46"/>
<path id="L-Engine6" class="st36" d="M144.5,1843.5c-15.5-7.4-43.8-25.9-62-62"/>
<path id="L-Body" class="st36" d="M889.3,435c-33.5,4.5-68.6,12.2-89.3,20c-17.2,6.5-38.7,16.1-62.4,28 M1027.5,434.9
	c33.6,4.5,106.2,21.4,151.5,42.1 M608,562.4c-38.3,33.8-83.3,83-116,146.6c-56.2,109.2-98,279.4-11,477c32.2,73.1,59,101,59,101
	l-6,5l73,73l5-6c0,0,54.8,49.4,128,82c0.2,10.2,1,21,1,21l49,20l69-209c0,0,48.6,16,87,16c9.9,0-13.4,0,25,0s87-16,87-16l69,209
	l49-20c0,0,0.8-10.8,1-21c73.2-32.6,128-82,128-82l5,6l73-73l-6-5c0,0,26.8-27.9,59-101c87-197.6,45.2-367.8-11-477
	c-33.5-65.1-79.9-115.1-118.7-148.9"/>
<path id="L-Body2" class="st36" d="M744,1460l101-227c0,0,44.5,24,116,24s113-23,113-23l99,223"/>
<path id="L-Body5" class="st36" d="M805,1441c22.9,7.9,167.8,47.7,307,1"/>
<path id="L-Body8" class="st36" d="M811,1538h296"/>
<path id="L-Body15" class="st36" d="M459,707h33"/>
<path id="L-Body11" class="st36" d="M444,1186h38"/>
<path id="L-Body28" class="st36" d="M1458,707h-32"/>
<path id="L-Body30" class="st36" d="M1475,1186h-39"/>
<path id="L-Body13" class="st36" d="M958.5,838c67.1,0,121.5,54.4,121.5,121.5S1025.6,1081,958.5,1081S837,1026.6,837,959.5
	S891.4,838,958.5,838z"/>
<path id="L-Body14" class="st36" d="M958.5,889.9c38.5,0,69.6,31.2,69.6,69.6s-31.2,69.6-69.6,69.6s-69.6-31.2-69.6-69.6
	S920,889.9,958.5,889.9z"/>
<path id="L-Body3" class="st36" d="M846,1312c18.3,6.3,114.5,31.8,222-2"/>
<path id="L-Body4" class="st36" d="M824,1374c65.5,24.7,202.6,26.9,269,0"/>
<path id="L-Body21" class="st36" d="M892,524l-3-110c0,0-6-2.7-6-15s0-204,0-204s2.3-83,77-83s74,81.2,74,83s0,206,0,206
	s0.2,8.4-6,13c-1,18.1-2,109-2,109s-6,32-66,32S892,524,892,524z"/>
<path id="L-Body22" class="st36" d="M887,412c10.8,12,33.5,26,73,26c41.7,0,63.3-14.5,72-29"/>
<path id="L-Body23" class="st36" d="M883,196c0,0,5.1,26,77,26c69,0,74-24,74-24"/>
<path id="L-Body17" class="st36" d="M621,432c-22,11.4-54.3,50.2-31,100c29.4,50,73,122,73,122s11.7,15.4,21,20
	c9.7,16.2,28,44,28,44s28.6,45,84,15s35.8-73.5,28-86s-23-41-23-41s0.5-14.7-14-39s-50.9-90-63-105S673.5,399.4,621,432z"/>
<path id="L-Body19" class="st36" d="M730,471c8.2,10.2,2,52.1-29,74s-76.4,34.4-97,9"/>
<path id="L-Body18" class="st36" d="M801,604c1.4,14.9,3.4,39.2-39,66s-80.8,2.8-86-2"/>
<path id="L-Body20" class="st36" d="M760,745c0,0,17.5,21.4,43,7c25.5-14.4,24.9-33.5,23-43"/>
<path id="L-Body25" class="st36" d="M1292.9,432.1c22,11.4,54.4,50.2,31,99.9c-29.4,50-73,122-73,122s-11.7,15.4-21,20
	c-9.7,16.2-28,44-28,44s-28.6,45-84,15c-55.4-30-35.8-73.5-28-86s23-41,23-41s-0.5-14.7,14-39c14.5-24.3,50.9-90,63-105
	C1201.9,447.2,1240.4,399.6,1292.9,432.1z"/>
<path id="L-Body24" class="st36" d="M1183.8,471.1c-8.2,10.2-2,52.1,29,74c31,21.9,76.5,34.4,97,9"/>
<path id="L-Body26" class="st36" d="M1112.8,604.1c-1.4,14.9-3.4,39.1,39,66c42.4,26.8,80.9,2.8,86-2"/>
<path id="L-Body27" class="st36" d="M1153.8,745c0,0-17.6,21.4-43,7c-25.5-14.4-24.9-33.4-23-43"/>
<g id="Animation-Antena">
	<path id="Antena-Fill" class="st0" d="M925,816l157-59l121,1l145,59l-8,23l-142-44c0,0-122.6-0.3-120,0s-143,43-143,43L925,816z"/>
	<path id="L-Antena3" class="st36" d="M925,816l157-59l121,1l145,59l-8,23l-142-44c0,0-122.6-0.3-120,0s-143,43-143,43L925,816z"/>
	<path id="L-Antena2" class="st36" d="M1079,796c0,0,2.2-40.5,2-39"/>
	<path id="L-Antena" class="st36" d="M1201,759l-2,36"/>
</g>
</svg>
